0.0 2.002074478 0.209668821371 0.0
0.0 2.00368257 0.209791352093 0.0
0.0 2.005290662 0.209913082684 0.0
0.0 2.006898754 0.2100340143 0.0
0.0 2.008506846 0.210154148099 0.0
0.0 2.010114938 0.21027348524 0.0
0.0 2.01172303 0.210392026878 0.0
0.0 2.013331122 0.210509774171 0.0
0.0 2.014939214 0.210626728278 0.0
0.0 2.016547306 0.210742890355 0.0
0.0 2.018155398 0.210858261561 0.0
0.0 2.01976349 0.210972843053 0.0
0.0 2.021371582 0.211086635988 0.0
0.0 2.022979674 0.211199641526 0.0
0.0 2.024587766 0.211311860823 0.0
0.0 2.026195858 0.211423295037 0.0
0.0 2.027803949 0.211533945258 0.0
0.0 2.029412041 0.211643812782 0.0
0.0 2.031020133 0.211752898696 0.0
0.0 2.032628225 0.211861204161 0.0
0.0 2.034236317 0.211968730333 0.0
0.0 2.035844409 0.212075478371 0.0
0.0 2.037452501 0.212181449432 0.0
0.0 2.039060593 0.212286644676 0.0
0.0 2.040668685 0.21239106526 0.0
0.0 2.042276777 0.212494712343 0.0
0.0 2.043884869 0.212597587083 0.0
0.0 2.045492961 0.212699690638 0.0
0.0 2.047101053 0.212801024167 0.0
0.0 2.048709145 0.212901588828 0.0
0.0 2.050317237 0.213001385779 0.0
0.0 2.051925329 0.21310041618 0.0
0.0 2.053533421 0.213198681188 0.0
0.0 2.055141513 0.213296181962 0.0
0.0 2.056749605 0.21339291966 0.0
0.0 2.058357697 0.213488895441 0.0
0.0 2.059965788 0.213584110405 0.0
0.0 2.06157388 0.213678565829 0.0
0.0 2.063181972 0.213772262811 0.0
0.0 2.064790064 0.21386520251 0.0
0.0 2.066398156 0.213957386086 0.0
0.0 2.068006248 0.214048814696 0.0
0.0 2.06961434 0.214139489499 0.0
0.0 2.071222432 0.214229411654 0.0
0.0 2.072830524 0.214318582319 0.0
0.0 2.074438616 0.214407002653 0.0
0.0 2.076046708 0.214494673816 0.0
0.0 2.0776548 0.214581596964 0.0
0.0 2.079262892 0.214667773258 0.0
0.0 2.080870984 0.214753203856 0.0
0.0 2.082479076 0.214837889916 0.0
0.0 2.084087168 0.214921832597 0.0
0.0 2.08569526 0.215005033058 0.0
0.0 2.087303352 0.215087492458 0.0
0.0 2.088911444 0.215169211954 0.0
0.0 2.090519536 0.215250192707 0.0
0.0 2.092127627 0.215330435824 0.0
0.0 2.093735719 0.215409942565 0.0
0.0 2.095343811 0.215488714037 0.0
0.0 2.096951903 0.2155667514 0.0
0.0 2.098559995 0.215644055812 0.0
0.0 2.100168087 0.215720628432 0.0
0.0 2.101776179 0.215796470418 0.0
0.0 2.103384271 0.215871582929 0.0
0.0 2.104992363 0.215945967123 0.0
0.0 2.106600455 0.21601962416 0.0
0.0 2.108208547 0.216092555197 0.0
0.0 2.109816639 0.216164761393 0.0
0.0 2.111424731 0.216236243907 0.0
0.0 2.113032823 0.216307003896 0.0
0.0 2.114640915 0.216377042521 0.0
0.0 2.116249007 0.216446360938 0.0
0.0 2.117857099 0.216514960307 0.0
0.0 2.119465191 0.216582841786 0.0
0.0 2.121073283 0.216650006532 0.0
0.0 2.122681375 0.216716455706 0.0
0.0 2.124289466 0.216782190424 0.0
0.0 2.125897558 0.216847211926 0.0
0.0 2.12750565 0.216911521329 0.0
0.0 2.129113742 0.216975119792 0.0
0.0 2.130721834 0.217038008473 0.0
0.0 2.132329926 0.21710018853 0.0
0.0 2.133938018 0.217161661121 0.0
0.0 2.13554611 0.217222427405 0.0
0.0 2.137154202 0.217282488539 0.0
0.0 2.138762294 0.217341845682 0.0
0.0 2.140370386 0.217400499991 0.0
0.0 2.141978478 0.217458452624 0.0
0.0 2.14358657 0.21751570474 0.0
0.0 2.145194662 0.217572257495 0.0
0.0 2.146802754 0.217628112049 0.0
0.0 2.148410846 0.217683269559 0.0
0.0 2.150018938 0.217737731182 0.0
0.0 2.15162703 0.217791498077 0.0
0.0 2.153235122 0.217844571401 0.0
0.0 2.154843214 0.217896952311 0.0
0.0 2.156451305 0.217948641934 0.0
0.0 2.158059397 0.217999641491 0.0
0.0 2.159667489 0.218049952107 0.0
0.0 2.161275581 0.218099574939 0.0
0.0 2.162883673 0.218148511146 0.0
0.0 2.164491765 0.218196761884 0.0
0.0 2.166099857 0.218244328311 0.0
0.0 2.167707949 0.218291211584 0.0
0.0 2.169316041 0.21833741286 0.0
0.0 2.170924133 0.218382933296 0.0
0.0 2.172532225 0.218427774049 0.0
0.0 2.174140317 0.218471936277 0.0
0.0 2.175748409 0.218515421136 0.0
0.0 2.177356501 0.218558229784 0.0
0.0 2.178964593 0.218600363376 0.0
0.0 2.180572685 0.21864182307 0.0
0.0 2.182180777 0.218682610023 0.0
0.0 2.183788869 0.218722725391 0.0
0.0 2.185396961 0.218762170331 0.0
0.0 2.187005053 0.218800945999 0.0
0.0 2.188613145 0.218839053552 0.0
0.0 2.190221236 0.218876494124 0.0
0.0 2.191829328 0.218913268916 0.0
0.0 2.19343742 0.218949379062 0.0
0.0 2.195045512 0.218984825719 0.0
0.0 2.196653604 0.219019610042 0.0
0.0 2.198261696 0.219053733187 0.0
0.0 2.199869788 0.219087196311 0.0
0.0 2.20147788 0.219120000569 0.0
0.0 2.203085972 0.219152147117 0.0
0.0 2.204694064 0.219183637111 0.0
0.0 2.206302156 0.219214471707 0.0
0.0 2.207910248 0.219244652061 0.0
0.0 2.20951834 0.219274179327 0.0
0.0 2.211126432 0.219303054662 0.0
0.0 2.212734524 0.219331279221 0.0
0.0 2.214342616 0.21935885416 0.0
0.0 2.215950708 0.219385780633 0.0
0.0 2.2175588 0.219412059796 0.0
0.0 2.219166892 0.219437692804 0.0
0.0 2.220774984 0.219462680812 0.0
0.0 2.222383075 0.21948702496 0.0
0.0 2.223991167 0.219510726434 0.0
0.0 2.225599259 0.219533786373 0.0
0.0 2.227207351 0.219556205931 0.0
0.0 2.228815443 0.219577986263 0.0
0.0 2.230423535 0.219599128524 0.0
0.0 2.232031627 0.219619633868 0.0
0.0 2.233639719 0.21963950345 0.0
0.0 2.235247811 0.219658738424 0.0
0.0 2.236855903 0.219677339945 0.0
0.0 2.238463995 0.219695309166 0.0
0.0 2.240072087 0.219712647241 0.0
0.0 2.241680179 0.219729355325 0.0
0.0 2.243288271 0.219745434572 0.0
0.0 2.244896363 0.219760886135 0.0
0.0 2.246504455 0.219775711167 0.0
0.0 2.248112547 0.219789910824 0.0
0.0 2.249720639 0.219803486258 0.0
0.0 2.251328731 0.219816438622 0.0
0.0 2.252936823 0.21982876907 0.0
0.0 2.254544914 0.219840478749 0.0
0.0 2.256153006 0.219851568826 0.0
0.0 2.257761098 0.219862040446 0.0
0.0 2.25936919 0.219871894763 0.0
0.0 2.260977282 0.219881132929 0.0
0.0 2.262585374 0.219889756098 0.0
0.0 2.264193466 0.219897765422 0.0
0.0 2.265801558 0.219905162054 0.0
0.0 2.26740965 0.219911947146 0.0
0.0 2.269017742 0.21991812185 0.0
0.0 2.270625834 0.219923687319 0.0
0.0 2.272233926 0.219928644706 0.0
0.0 2.273842018 0.219932995164 0.0
0.0 2.27545011 0.21993673984 0.0
0.0 2.277058202 0.219939879892 0.0
0.0 2.278666294 0.219942416468 0.0
0.0 2.280274386 0.219944350722 0.0
0.0 2.281882478 0.219945683804 0.0
0.0 2.28349057 0.219946416867 0.0
0.0 2.285098662 0.219946551061 0.0
0.0 2.286706753 0.219946087539 0.0
0.0 2.288314845 0.219945027452 0.0
0.0 2.289922937 0.21994337195 0.0
0.0 2.291531029 0.219941122185 0.0
0.0 2.293139121 0.219938279307 0.0
0.0 2.294747213 0.219934844466 0.0
0.0 2.296355305 0.219930818815 0.0
0.0 2.297963397 0.219926203504 0.0
0.0 2.299571489 0.219920999683 0.0
0.0 2.301179581 0.219915208503 0.0
0.0 2.302787673 0.219908831113 0.0
0.0 2.304395765 0.219901868665 0.0
0.0 2.306003857 0.219894322308 0.0
0.0 2.307611949 0.219886193192 0.0
0.0 2.309220041 0.219877482468 0.0
0.0 2.310828133 0.219868191285 0.0
0.0 2.312436225 0.219858320793 0.0
0.0 2.314044317 0.219847872146 0.0
0.0 2.315652409 0.21983684648 0.0
0.0 2.317260501 0.219825244953 0.0
0.0 2.318868592 0.219813068726 0.0
0.0 2.320476684 0.21980031893 0.0
0.0 2.322084776 0.219786996746 0.0
0.0 2.323692868 0.219773103272 0.0
0.0 2.32530096 0.219758639656 0.0
0.0 2.326909052 0.219743607096 0.0
0.0 2.328517144 0.219728006719 0.0
0.0 2.330125236 0.219711839678 0.0
0.0 2.331733328 0.219695107142 0.0
0.0 2.33334142 0.219677810264 0.0
0.0 2.334949512 0.219659950429 0.0
0.0 2.336557604 0.219641527857 0.0
0.0 2.338165696 0.219622544576 0.0
0.0 2.339773788 0.219603001612 0.0
0.0 2.34138188 0.219582900045 0.0
0.0 2.342989972 0.219562241402 0.0
0.0 2.344598064 0.219541026081 0.0
0.0 2.346206156 0.219519254957 0.0
0.0 2.347814248 0.219496930272 0.0
0.0 2.34942234 0.219474052737 0.0
0.0 2.351030431 0.219450623681 0.0
0.0 2.352638523 0.219426644919 0.0
0.0 2.354246615 0.219402114285 0.0
0.0 2.355854707 0.219377036516 0.0
0.0 2.357462799 0.219351411683 0.0
0.0 2.359070891 0.219325240902 0.0
0.0 2.360678983 0.219298526019 0.0
0.0 2.362287075 0.219271266759 0.0
0.0 2.363895167 0.219243464866 0.0
0.0 2.365503259 0.219215122113 0.0
0.0 2.367111351 0.219186236672 0.0
0.0 2.368719443 0.219156813591 0.0
0.0 2.370327535 0.219126852734 0.0
0.0 2.371935627 0.219096355868 0.0
0.0 2.373543719 0.219065337877 0.0
0.0 2.375151811 0.219033757632 0.0
0.0 2.376759903 0.21900165247 0.0
0.0 2.378367995 0.218969018494 0.0
0.0 2.379976087 0.218935854288 0.0
0.0 2.381584179 0.218902168889 0.0
0.0 2.383192271 0.218867959429 0.0
0.0 2.384800362 0.218833186226 0.0
0.0 2.386408454 0.218797906356 0.0
0.0 2.388016546 0.218762103391 0.0
0.0 2.389624638 0.218725782326 0.0
0.0 2.39123273 0.218689024148 0.0
0.0 2.392840822 0.218651619815 0.0
0.0 2.394448914 0.218613743603 0.0
0.0 2.396057006 0.218575340942 0.0
0.0 2.397665098 0.218536323439 0.0
0.0 2.39927319 0.218496866107 0.0
0.0 2.400881282 0.218456900904 0.0
0.0 2.402489374 0.218416437993 0.0
0.0 2.404097466 0.218375713862 0.0
0.0 2.405705558 0.218334090329 0.0
0.0 2.40731365 0.21829191348 0.0
0.0 2.408921742 0.218249370752 0.0
0.0 2.410529834 0.218206339214 0.0
0.0 2.412137926 0.218162925288 0.0
0.0 2.413746018 0.218120546516 0.0
0.0 2.41535411 0.218074300008 0.0
0.0 2.416962201 0.218029114361 0.0
0.0 2.418570293 0.217983538548 0.0
0.0 2.420178385 0.217937495784 0.0
0.0 2.421786477 0.217891333559 0.0
0.0 2.423394569 0.217844454497 0.0
0.0 2.425002661 0.217796298213 0.0
0.0 2.426610753 0.217748182456 0.0
0.0 2.428218845 0.217699613188 0.0
0.0 2.429826937 0.217650550884 0.0
0.0 2.431435029 0.217600994041 0.0
0.0 2.433043121 0.21755096023 0.0
0.0 2.434651213 0.217500649988 0.0
0.0 2.436259305 0.217452703543 0.0
0.0 2.437867397 0.217398188765 0.0
0.0 2.439475489 0.217345856745 0.0
0.0 2.441083581 0.217293332143 0.0
0.0 2.442691673 0.21724040321 0.0
0.0 2.444299765 0.217187750004 0.0
0.0 2.445907857 0.217136630746 0.0
0.0 2.447515949 0.217078743891 0.0
0.0 2.44912404 0.217023570688 0.0
0.0 2.450732132 0.216968156068 0.0
0.0 2.452340224 0.216912360436 0.0
0.0 2.453948316 0.216857115807 0.0
0.0 2.455556408 0.216801285033 0.0
0.0 2.4571645 0.216742661533 0.0
0.0 2.458772592 0.216684533107 0.0
0.0 2.460380684 0.216625833124 0.0
0.0 2.461988776 0.21656699749 0.0
0.0 2.463596868 0.216507907045 0.0
0.0 2.46520496 0.216448477291 0.0
0.0 2.466813052 0.216388692678 0.0
0.0 2.468421144 0.216329976516 0.0
0.0 2.470029236 0.216266899307 0.0
0.0 2.471637328 0.216204732606 0.0
0.0 2.47324542 0.216142663385 0.0
0.0 2.474853512 0.216080209717 0.0
0.0 2.476461604 0.216017622827 0.0
0.0 2.478069696 0.215958681434 0.0
0.0 2.479677788 0.215890696352 0.0
0.0 2.481285879 0.21582570662 0.0
0.0 2.482893971 0.215760871515 0.0
0.0 2.484502063 0.215695668209 0.0
0.0 2.486110155 0.215630412684 0.0
0.0 2.487718247 0.215569765498 0.0
0.0 2.489326339 0.215498472364 0.0
0.0 2.490934431 0.215430710775 0.0
0.0 2.492542523 0.215362989808 0.0
0.0 2.494150615 0.21529517656 0.0
0.0 2.495758707 0.215227181995 0.0
0.0 2.497366799 0.215161047485 0.0
0.0 2.498974891 0.215091216705 0.0
0.0 2.499778162 0.215055535847 0.0
0.0 2.501129393 0.214995585984 0.0
0.0 2.502480624 0.214936709339 0.0
0.0 2.503831856 0.214877737891 0.0
0.0 2.505183087 0.214817117887 0.0
0.0 2.506534319 0.214757311605 0.0
0.0 2.50788555 0.214697122802 0.0
0.0 2.509236782 0.214635990144 0.0
0.0 2.510588013 0.214574581458 0.0
0.0 2.511939244 0.214514093575 0.0
0.0 2.513290476 0.214452939842 0.0
0.0 2.514641707 0.214391196807 0.0
0.0 2.515992939 0.214329018974 0.0
0.0 2.51734417 0.214265734397 0.0
0.0 2.518695402 0.214203317677 0.0
0.0 2.520046633 0.214140722861 0.0
0.0 2.521397865 0.214076351425 0.0
0.0 2.522749096 0.214012809367 0.0
0.0 2.524100327 0.21395019487 0.0
0.0 2.525451559 0.213885099589 0.0
0.0 2.52680279 0.213820207164 0.0
0.0 2.528154022 0.213755023893 0.0
0.0 2.529505253 0.213689238208 0.0
0.0 2.530856485 0.213624502856 0.0
0.0 2.532207716 0.213558328846 0.0
0.0 2.533558948 0.21349415269 0.0
0.0 2.534910179 0.213426828739 0.0
0.0 2.53626141 0.213359758904 0.0
0.0 2.537612642 0.213292855959 0.0
0.0 2.538963873 0.213225563197 0.0
0.0 2.540315105 0.213158201416 0.0
0.0 2.541666336 0.213092442543 0.0
0.0 2.543017568 0.213023493267 0.0
0.0 2.544368799 0.212954383596 0.0
0.0 2.54572003 0.212885159406 0.0
0.0 2.547071262 0.21281496218 0.0
0.0 2.548422493 0.212746047779 0.0
0.0 2.549773725 0.212676657762 0.0
0.0 2.551124956 0.212607049421 0.0
0.0 2.552476188 0.212535503684 0.0
0.0 2.553827419 0.212466304433 0.0
0.0 2.555178651 0.212396282737 0.0
0.0 2.556529882 0.212325173472 0.0
0.0 2.557881113 0.212253709659 0.0
0.0 2.559232345 0.212183390407 0.0
0.0 2.560583576 0.212108458765 0.0
0.0 2.561934808 0.212036334966 0.0
0.0 2.563286039 0.211964902542 0.0
0.0 2.564637271 0.211892288454 0.0
0.0 2.565988502 0.211820433693 0.0
0.0 2.567339733 0.211748088691 0.0
0.0 2.568690965 0.211671901611 0.0
0.0 2.570042196 0.21159831867 0.0
0.0 2.571393428 0.211524114999 0.0
0.0 2.572744659 0.211449514697 0.0
0.0 2.574095891 0.211374508998 0.0
0.0 2.575447122 0.211300112485 0.0
0.0 2.576798354 0.211224543396 0.0
0.0 2.578149585 0.21114919749 0.0
0.0 2.579500816 0.21107486757 0.0
0.0 2.580852048 0.210999115671 0.0
0.0 2.582203279 0.210921528018 0.0
0.0 2.583554511 0.210844840513 0.0
0.0 2.584905742 0.210768585159 0.0
0.0 2.586256974 0.210692329238 0.0
0.0 2.587608205 0.210612568715 0.0
0.0 2.588959437 0.210535196433 0.0
0.0 2.590310668 0.210457956578 0.0
0.0 2.591661899 0.210379700341 0.0
0.0 2.593013131 0.210300753235 0.0
0.0 2.594364362 0.210221384448 0.0
0.0 2.595715594 0.210144224222 0.0
0.0 2.597066825 0.210064148302 0.0
0.0 2.598418057 0.209983449531 0.0
0.0 2.599769288 0.209903729942 0.0
0.0 2.601120519 0.209823223372 0.0
0.0 2.602471751 0.209742278811 0.0
0.0 2.603822982 0.20966165543 0.0
0.0 2.605174214 0.209583708338 0.0
0.0 2.606525445 0.209500103621 0.0
0.0 2.607876677 0.20941917333 0.0
0.0 2.609227908 0.209337402977 0.0
0.0 2.61057914 0.20925772127 0.0
0.0 2.611930371 0.209173009748 0.0
0.0 2.613281602 0.209090056226 0.0
0.0 2.614632834 0.209006363583 0.0
0.0 2.615984065 0.208922742463 0.0
0.0 2.617335297 0.208840481103 0.0
0.0 2.618686528 0.208758214781 0.0
0.0 2.62003776 0.208672166486 0.0
0.0 2.621388991 0.208588799832 0.0
0.0 2.622740222 0.208503803674 0.0
0.0 2.624091454 0.208419822465 0.0
0.0 2.625442685 0.208336753488 0.0
0.0 2.626793917 0.208250689544 0.0
0.0 2.628145148 0.208165130137 0.0
0.0 2.62949638 0.208079406149 0.0
0.0 2.630847611 0.207993313163 0.0
0.0 2.632198843 0.20790849173 0.0
0.0 2.633550074 0.207820880906 0.0
0.0 2.634901305 0.207735494032 0.0
0.0 2.636252537 0.207648388009 0.0
0.0 2.637603768 0.207560239797 0.0
0.0 2.638955 0.20747425988 0.0
0.0 2.640306231 0.20738596549 0.0
0.0 2.641657463 0.207298236288 0.0
0.0 2.643008694 0.207211074072 0.0
0.0 2.644359925 0.207124293451 0.0
0.0 2.645711157 0.207035922779 0.0
0.0 2.647062388 0.206944942677 0.0
0.0 2.64841362 0.206856592371 0.0
0.0 2.649764851 0.206767162118 0.0
0.0 2.651116083 0.206677871867 0.0
0.0 2.652467314 0.206588532096 0.0
0.0 2.653818546 0.206500086327 0.0
0.0 2.655169777 0.20640993518 0.0
0.0 2.656521008 0.206317376485 0.0
0.0 2.65787224 0.206228554115 0.0
0.0 2.659223471 0.206134930414 0.0
0.0 2.660574703 0.206043918489 0.0
0.0 2.661925934 0.205955973354 0.0
0.0 2.663277166 0.205863716931 0.0
0.0 2.664628397 0.205770346251 0.0
0.0 2.665979629 0.205676881796 0.0
0.0 2.66733086 0.205585123916 0.0
0.0 2.668682091 0.205493224664 0.0
0.0 2.670033323 0.205399664609 0.0
0.0 2.671384554 0.205307260839 0.0
0.0 2.672735786 0.205213833599 0.0
0.0 2.674087017 0.205119848471 0.0
0.0 2.675438249 0.2050277606 0.0
0.0 2.67678948 0.20493438464 0.0
0.0 2.678140711 0.204839452009 0.0
0.0 2.679491943 0.204744533814 0.0
0.0 2.680843174 0.20465018047 0.0
0.0 2.682194406 0.204555360489 0.0
0.0 2.683545637 0.20446081884 0.0
0.0 2.684896869 0.204365839971 0.0
0.0 2.6862481 0.204271543951 0.0
0.0 2.687599332 0.204174706566 0.0
0.0 2.688950563 0.204078086804 0.0
0.0 2.690301794 0.203981093086 0.0
0.0 2.691653026 0.203885899811 0.0
0.0 2.693004257 0.203789745158 0.0
0.0 2.694355489 0.203693458591 0.0
0.0 2.69570672 0.20359439888 0.0
0.0 2.697057952 0.203498443959 0.0
0.0 2.698409183 0.203401374162 0.0
0.0 2.699760414 0.203303507418 0.0
0.0 2.701111646 0.20320524429 0.0
0.0 2.702462877 0.203106726386 0.0
0.0 2.703814109 0.203007833323 0.0
0.0 2.70516534 0.202910136971 0.0
0.0 2.706516572 0.202810351457 0.0
0.0 2.707867803 0.202712703939 0.0
0.0 2.709219035 0.202613113363 0.0
0.0 2.710570266 0.202513733069 0.0
0.0 2.711921497 0.2024147062 0.0
0.0 2.713272729 0.20231526891 0.0
0.0 2.71462396 0.202215057237 0.0
0.0 2.715975192 0.202114592818 0.0
0.0 2.717326423 0.202013742029 0.0
0.0 2.718677655 0.201913712908 0.0
0.0 2.720028886 0.201811587586 0.0
0.0 2.721380117 0.201710847731 0.0
0.0 2.722731349 0.201609883473 0.0
0.0 2.72408258 0.201509233505 0.0
0.0 2.725433812 0.201407040351 0.0
0.0 2.726785043 0.20130661766 0.0
0.0 2.728136275 0.201203740523 0.0
0.0 2.729487506 0.201100938719 0.0
0.0 2.730838738 0.200999610047 0.0
0.0 2.732189969 0.20089727394 0.0
0.0 2.7335412 0.200795034331 0.0
0.0 2.734892432 0.200692094596 0.0
0.0 2.736243663 0.200587840271 0.0
0.0 2.737594895 0.200483229931 0.0
0.0 2.738946126 0.200379348544 0.0
0.0 2.740297358 0.200275645783 0.0
0.0 2.741648589 0.200173733349 0.0
0.0 2.742999821 0.20006993142 0.0
0.0 2.744351052 0.199964614742 0.0
0.0 2.745702283 0.199859382972 0.0
0.0 2.747053515 0.199753468111 0.0
0.0 2.748404746 0.199648353205 0.0
0.0 2.749755978 0.199543195599 0.0
0.0 2.751107209 0.19943813213 0.0
0.0 2.752458441 0.199332311355 0.0
0.0 2.753809672 0.199227498878 0.0
0.0 2.755160903 0.199121944401 0.0
0.0 2.756512135 0.19901515092 0.0
0.0 2.757863366 0.198908793859 0.0
0.0 2.759214598 0.198802181104 0.0
0.0 2.760565829 0.19869562526 0.0
0.0 2.761917061 0.198588498702 0.0
0.0 2.763268292 0.198482493138 0.0
0.0 2.764619524 0.198376007293 0.0
0.0 2.765970755 0.198267675539 0.0
0.0 2.767321986 0.198159073486 0.0
0.0 2.768673218 0.198051609456 0.0
0.0 2.770024449 0.197944814026 0.0
0.0 2.771375681 0.197837285026 0.0
0.0 2.772726912 0.197729148974 0.0
0.0 2.774078144 0.197621061521 0.0
0.0 2.775429375 0.197511356351 0.0
0.0 2.776780606 0.197401772792 0.0
0.0 2.778131838 0.197295515297 0.0
0.0 2.779483069 0.197186604392 0.0
0.0 2.780834301 0.197075882755 0.0
0.0 2.782185532 0.196966912878 0.0
0.0 2.783536764 0.196857948275 0.0
0.0 2.784887995 0.196748315105 0.0
0.0 2.786239227 0.196638132154 0.0
0.0 2.787590458 0.196527668562 0.0
0.0 2.788941689 0.196416683798 0.0
0.0 2.790292921 0.196306571409 0.0
0.0 2.791644152 0.19619387529 0.0
0.0 2.792995384 0.196083410035 0.0
0.0 2.794346615 0.195971605456 0.0
0.0 2.795697847 0.195860700236 0.0
0.0 2.797049078 0.195749145712 0.0
0.0 2.798400309 0.195638051002 0.0
0.0 2.799751541 0.195525742903 0.0
0.0 2.801102772 0.195413868407 0.0
0.0 2.802454004 0.195301902512 0.0
0.0 2.803805235 0.195187971117 0.0
0.0 2.805156467 0.195075993342 0.0
0.0 2.806507698 0.194964476738 0.0
0.0 2.80785893 0.194851150248 0.0
0.0 2.809210161 0.194739025776 0.0
0.0 2.810561392 0.194626149413 0.0
0.0 2.811912624 0.194511614396 0.0
0.0 2.813263855 0.19439840727 0.0
0.0 2.814615087 0.194284630068 0.0
0.0 2.815966318 0.194170446357 0.0
0.0 2.81731755 0.19405721797 0.0
0.0 2.818668781 0.193943398139 0.0
0.0 2.820020013 0.193828872589 0.0
0.0 2.821371244 0.193714146567 0.0
0.0 2.822722475 0.193600605587 0.0
0.0 2.824073707 0.193486556034 0.0
0.0 2.825424938 0.193370992381 0.0
0.0 2.82677617 0.193255254332 0.0
0.0 2.828127401 0.193140559386 0.0
0.0 2.829478633 0.193027716138 0.0
0.0 2.830829864 0.192912213325 0.0
0.0 2.832181095 0.192795563937 0.0
0.0 2.833532327 0.192679086332 0.0
0.0 2.834883558 0.192563543846 0.0
0.0 2.83623479 0.192449726637 0.0
0.0 2.837586021 0.19233234643 0.0
0.0 2.838937253 0.192215482323 0.0
0.0 2.840288484 0.192098518468 0.0
0.0 2.841639716 0.191982186879 0.0
0.0 2.842990947 0.191867442747 0.0
0.0 2.844342178 0.19174993905 0.0
0.0 2.84569341 0.191632323197 0.0
0.0 2.847044641 0.191517252427 0.0
0.0 2.848395873 0.191399596077 0.0
0.0 2.849747104 0.191280803471 0.0
0.0 2.851098336 0.191162905149 0.0
0.0 2.852449567 0.191046459967 0.0
0.0 2.853800798 0.190927996579 0.0
0.0 2.85515203 0.190809202675 0.0
0.0 2.856503261 0.190693808749 0.0
0.0 2.857854493 0.190576397182 0.0
0.0 2.859205724 0.19045693908 0.0
0.0 2.860556956 0.190340080556 0.0
0.0 2.861908187 0.190220833454 0.0
0.0 2.863259419 0.190102558851 0.0
0.0 2.86461065 0.189982080902 0.0
0.0 2.865961881 0.189861874601 0.0
0.0 2.867313113 0.18974334084 0.0
0.0 2.868664344 0.189624425729 0.0
0.0 2.870015576 0.189505686407 0.0
0.0 2.871366807 0.189384509866 0.0
0.0 2.872718039 0.189263135212 0.0
0.0 2.87406927 0.189143339454 0.0
0.0 2.875420501 0.189025762835 0.0
0.0 2.876771733 0.188905507563 0.0
0.0 2.878122964 0.188786251795 0.0
0.0 2.879474196 0.188666133146 0.0
0.0 2.880825427 0.18854244085 0.0
0.0 2.882176659 0.188422989094 0.0
0.0 2.88352789 0.188302285881 0.0
0.0 2.884879122 0.188180657425 0.0
0.0 2.886230353 0.188059956635 0.0
0.0 2.887581584 0.187936710087 0.0
0.0 2.888932816 0.187816977031 0.0
0.0 2.890284047 0.187695775126 0.0
0.0 2.891635279 0.187573874298 0.0
0.0 2.89298651 0.187452298686 0.0
0.0 2.894337742 0.187329369391 0.0
0.0 2.895688973 0.187207718815 0.0
0.0 2.897040205 0.187085845973 0.0
0.0 2.898391436 0.186964206664 0.0
0.0 2.899742667 0.186842541208 0.0
0.0 2.901093899 0.18671910432 0.0
0.0 2.90244513 0.186598259412 0.0
0.0 2.903796362 0.186477353335 0.0
0.0 2.905147593 0.186353796829 0.0
0.0 2.906498825 0.186231218212 0.0
0.0 2.907850056 0.186107543045 0.0
0.0 2.909201287 0.185987036768 0.0
0.0 2.910552519 0.185863440504 0.0
0.0 2.91190375 0.185738484362 0.0
0.0 2.913254982 0.185614481544 0.0
0.0 2.914606213 0.185496087438 0.0
0.0 2.915957445 0.185373015097 0.0
0.0 2.917308676 0.185248610839 0.0
0.0 2.918659908 0.185123412734 0.0
0.0 2.920011139 0.185000244589 0.0
0.0 2.92136237 0.184879275026 0.0
0.0 2.922713602 0.184752069318 0.0
0.0 2.924064833 0.184625713764 0.0
0.0 2.925416065 0.184502911104 0.0
0.0 2.926767296 0.184381116152 0.0
0.0 2.928118528 0.184258330012 0.0
0.0 2.929469759 0.184134164438 0.0
0.0 2.93082099 0.184009533119 0.0
0.0 2.932172222 0.183882014242 0.0
0.0 2.933523453 0.183756524755 0.0
0.0 2.934874685 0.183631025141 0.0
0.0 2.936225916 0.1835047247 0.0
0.0 2.937577148 0.183380375267 0.0
0.0 2.938928379 0.183256120719 0.0
0.0 2.940279611 0.183132186579 0.0
0.0 2.941630842 0.183002957759 0.0
0.0 2.942982073 0.182878560487 0.0
0.0 2.944333305 0.182752671864 0.0
0.0 2.945684536 0.18262517216 0.0
0.0 2.947035768 0.182500430606 0.0
0.0 2.948386999 0.182375101462 0.0
0.0 2.949738231 0.182248796578 0.0
0.0 2.951089462 0.182120594168 0.0
0.0 2.952440694 0.181997390327 0.0
0.0 2.953791925 0.18186895183 0.0
0.0 2.955143156 0.181741569222 0.0
0.0 2.956494388 0.181613521356 0.0
0.0 2.957845619 0.181485748655 0.0
0.0 2.959196851 0.181359653617 0.0
0.0 2.960548082 0.181233535635 0.0
0.0 2.961899314 0.181106625247 0.0
0.0 2.963250545 0.180978935889 0.0
0.0 2.964601776 0.180852484763 0.0
0.0 2.965953008 0.180725189707 0.0
0.0 2.967304239 0.180598428755 0.0
0.0 2.968655471 0.180470301629 0.0
0.0 2.970006702 0.180341750538 0.0
0.0 2.971357934 0.180214607762 0.0
0.0 2.972709165 0.180087541918 0.0
0.0 2.974060397 0.179960745996 0.0
0.0 2.975411628 0.179832835956 0.0
0.0 2.976762859 0.179704333274 0.0
0.0 2.978114091 0.179576999942 0.0
0.0 2.979465322 0.179451652971 0.0
0.0 2.980816554 0.179322240134 0.0
0.0 2.982167785 0.179193978882 0.0
0.0 2.983519017 0.179066828788 0.0
0.0 2.984870248 0.178940628151 0.0
0.0 2.986221479 0.178809799088 0.0
0.0 2.987572711 0.178680047353 0.0
0.0 2.988923942 0.178551715902 0.0
0.0 2.990275174 0.178423963331 0.0
0.0 2.991626405 0.178296208336 0.0
0.0 2.992977637 0.178166695036 0.0
0.0 2.994328868 0.178037016126 0.0
0.0 2.9956801 0.177907561785 0.0
0.0 2.997031331 0.177779000464 0.0
0.0 2.998382562 0.177649203221 0.0
0.0 2.999733794 0.177520716441 0.0
0.0 3.001085025 0.177393236109 0.0
0.0 3.002436257 0.177264053699 0.0
0.0 3.003787488 0.177133992985 0.0
0.0 3.00513872 0.177004456521 0.0
0.0 3.006489951 0.176875032046 0.0
0.0 3.007841182 0.176745894227 0.0
0.0 3.009192414 0.176618654838 0.0
0.0 3.010543645 0.176489047967 0.0
0.0 3.011894877 0.176361290454 0.0
0.0 3.013246108 0.176232396112 0.0
0.0 3.01459734 0.176103246818 0.0
0.0 3.015948571 0.175971951892 0.0
0.0 3.017299803 0.175843096711 0.0
0.0 3.018651034 0.175712959701 0.0
0.0 3.020002265 0.175582342201 0.0
0.0 3.021353497 0.175452636262 0.0
0.0 3.022704728 0.175322639314 0.0
0.0 3.02405596 0.175194954062 0.0
0.0 3.025407191 0.175064782852 0.0
0.0 3.026758423 0.174934272041 0.0
0.0 3.028109654 0.17480299346 0.0
0.0 3.029460886 0.174676360721 0.0
0.0 3.030812117 0.174548715114 0.0
0.0 3.032163348 0.174417659892 0.0
0.0 3.03351458 0.174286749035 0.0
0.0 3.034865811 0.174157889013 0.0
0.0 3.036217043 0.174025233383 0.0
0.0 3.037568274 0.173893408283 0.0
0.0 3.038919506 0.173763596631 0.0
0.0 3.040270737 0.173629967929 0.0
0.0 3.041621968 0.173496671664 0.0
0.0 3.0429732 0.173364550072 0.0
0.0 3.044324431 0.173233625504 0.0
0.0 3.045675663 0.17310256637 0.0
0.0 3.047026894 0.172973258745 0.0
0.0 3.048378126 0.172840542958 0.0
0.0 3.049729357 0.172709301226 0.0
0.0 3.051080589 0.172577730258 0.0
0.0 3.05243182 0.172447484809 0.0
0.0 3.053783051 0.172316812005 0.0
0.0 3.055134283 0.172186935029 0.0
0.0 3.056485514 0.172054618535 0.0
0.0 3.057836746 0.17192717304 0.0
0.0 3.059187977 0.171794229203 0.0
0.0 3.060539209 0.171664041834 0.0
0.0 3.06189044 0.171532743358 0.0
0.0 3.063241671 0.171402269676 0.0
0.0 3.064592903 0.171270613385 0.0
0.0 3.065944134 0.171140624245 0.0
0.0 3.067295366 0.171007467995 0.0
0.0 3.068646597 0.170875838056 0.0
0.0 3.069997829 0.17074187786 0.0
0.0 3.07134906 0.170610003204 0.0
0.0 3.072700292 0.170478990069 0.0
0.0 3.074051523 0.170349958999 0.0
0.0 3.075402754 0.170218847479 0.0
0.0 3.076753986 0.170085895223 0.0
0.0 3.078105217 0.169953383515 0.0
0.0 3.079456449 0.169821037376 0.0
0.0 3.08080768 0.169689589079 0.0
0.0 3.082158912 0.169556504776 0.0
0.0 3.083510143 0.169426143013 0.0
0.0 3.084861374 0.16929405878 0.0
0.0 3.086212606 0.169162463971 0.0
0.0 3.087563837 0.169029151068 0.0
0.0 3.088915069 0.168898628984 0.0
0.0 3.0902663 0.16876520437 0.0
0.0 3.091617532 0.168634495622 0.0
0.0 3.092968763 0.168503068033 0.0
0.0 3.094319995 0.168370854391 0.0
0.0 3.095671226 0.168236518266 0.0
0.0 3.097022457 0.168104688336 0.0
0.0 3.098373689 0.167972040397 0.0
0.0 3.09972492 0.167841103231 0.0
0.0 3.101076152 0.167707603348 0.0
0.0 3.102427383 0.167575313961 0.0
0.0 3.103778615 0.167442977253 0.0
0.0 3.105129846 0.167311937397 0.0
0.0 3.106481078 0.16717904092 0.0
0.0 3.107832309 0.167046581802 0.0
0.0 3.10918354 0.166915233441 0.0
0.0 3.110534772 0.166783949982 0.0
0.0 3.111886003 0.166650706117 0.0
0.0 3.113237235 0.166518843921 0.0
0.0 3.114588466 0.166388004359 0.0
0.0 3.115939698 0.1662569533 0.0
0.0 3.117290929 0.166127710017 0.0
0.0 3.11864216 0.165999688353 0.0
0.0 3.119993392 0.165869174431 0.0
0.0 3.121344623 0.165734932466 0.0
0.0 3.122695855 0.165599449659 0.0
0.0 3.124047086 0.165464594923 0.0
0.0 3.125398318 0.165328379259 0.0
0.0 3.126749549 0.165195908791 0.0
0.0 3.128100781 0.165063447361 0.0
0.0 3.129452012 0.164931947412 0.0
0.0 3.130803243 0.164799221197 0.0
0.0 3.132154475 0.164671917173 0.0
0.0 3.133505706 0.164541507224 0.0
0.0 3.134856938 0.164414742502 0.0
0.0 3.136208169 0.164285338894 0.0
0.0 3.137559401 0.164161386718 0.0
0.0 3.138910632 0.164032962958 0.0
0.0 3.140261863 0.16390736119 0.0
0.0 3.141613095 0.163769548156 0.0
0.0 3.142964326 0.163634484349 0.0
0.0 3.144315558 0.163491799453 0.0
0.0 3.145666789 0.163356298208 0.0
0.0 3.147018021 0.163218342593 0.0
0.0 3.148369252 0.163085908949 0.0
0.0 3.149720484 0.162952551269 0.0
0.0 3.151071715 0.162821266728 0.0
0.0 3.152422946 0.162688893057 0.0
0.0 3.153774178 0.162558563754 0.0
0.0 3.155125409 0.1624265699 0.0
0.0 3.156476641 0.162295305273 0.0
0.0 3.157827872 0.162165007892 0.0
0.0 3.159179104 0.162033979299 0.0
0.0 3.160530335 0.161901267423 0.0
0.0 3.161881566 0.161768587212 0.0
0.0 3.163232798 0.161638623847 0.0
0.0 3.164584029 0.161509844432 0.0
0.0 3.165935261 0.161383159209 0.0
0.0 3.167286492 0.161253798831 0.0
0.0 3.168637724 0.161131001541 0.0
0.0 3.169988955 0.161005676995 0.0
0.0 3.171340187 0.160884172886 0.0
0.0 3.172691418 0.160754739709 0.0
0.0 3.174042649 0.160629063039 0.0
0.0 3.175393881 0.160495702924 0.0
0.0 3.176745112 0.160371417228 0.0
0.0 3.178096344 0.160234297581 0.0
0.0 3.179447575 0.160110069541 0.0
0.0 3.180798807 0.159971923153 0.0
0.0 3.182150038 0.159848241696 0.0
0.0 3.18350127 0.159716710193 0.0
0.0 3.184852501 0.159604688301 0.0
0.0 3.186203732 0.159488008684 0.0
0.0 3.187554964 0.159394079144 0.0
0.0 3.188906195 0.159295166562 0.0
0.0 3.190257427 0.159211626253 0.0
0.0 3.191608658 0.159119735943 0.0
0.0 3.19295989 0.1590451493 0.0
0.0 3.194311121 0.158980439032 0.0
0.0 3.195662352 0.158945141922 0.0
0.0 3.197013584 0.158941113858 0.0
0.0 3.198364815 0.15898350503 0.0
0.0 3.199716047 0.159099757006 0.0
0.0 3.201067278 0.159303071067 0.0
0.0 3.20241851 0.159662084682 0.0
0.0 3.203769741 0.16022376208 0.0
0.0 3.205120973 0.161141661324 0.0
0.0 3.206472204 0.162584975147 0.0
0.0 3.207823435 0.164973892028 0.0
0.0 3.209174667 0.168875830684 0.0
0.0 3.210525898 0.175595242506 0.0
0.0 3.21187713 0.187147647942 0.0
0.0 3.213228361 0.206960995732 0.0
0.0 3.214579593 0.239209730833 0.0
0.0 3.215930824 0.28613218817 0.0
0.0 3.217282055 0.342530352453 0.0
0.0 3.218633287 0.390741166074 0.0
0.0 3.219984518 0.42126892397 0.0
0.0 3.22133575 0.431954083275 0.0
0.0 3.222686981 0.431219422219 0.0
0.0 3.224038213 0.428251718566 0.0
0.0 3.225389444 0.427878321692 0.0
0.0 3.226740676 0.431688803321 0.0
0.0 3.228091907 0.439088863289 0.0
0.0 3.229443138 0.448807525415 0.0
0.0 3.23079437 0.458670202886 0.0
0.0 3.232145601 0.466838986971 0.0
0.0 3.233496833 0.471732458858 0.0
0.0 3.234848064 0.473188497439 0.0
0.0 3.236199296 0.471883414715 0.0
0.0 3.237550527 0.468746250659 0.0
0.0 3.238901759 0.465251895329 0.0
0.0 3.24025299 0.462592608538 0.0
0.0 3.241604221 0.461657430221 0.0
0.0 3.242955453 0.462647586165 0.0
0.0 3.244306684 0.465006425414 0.0
0.0 3.245657916 0.46732580948 0.0
0.0 3.247009147 0.466441669888 0.0
0.0 3.248360379 0.460035673507 0.0
0.0 3.24971161 0.444485360336 0.0
0.0 3.251062841 0.419862600119 0.0
0.0 3.252414073 0.388307977736 0.0
0.0 3.253765304 0.351921624937 0.0
0.0 3.255116536 0.315301660104 0.0
0.0 3.256467767 0.281826822221 0.0
0.0 3.257818999 0.253056135884 0.0
0.0 3.25917023 0.229570094282 0.0
0.0 3.260521462 0.211140715316 0.0
0.0 3.261872693 0.196907190173 0.0
0.0 3.263223924 0.186068217529 0.0
0.0 3.264575156 0.177849202446 0.0
0.0 3.265926387 0.171602622806 0.0
0.0 3.267277619 0.166886618831 0.0
0.0 3.26862885 0.163266546582 0.0
0.0 3.269980082 0.160497333318 0.0
0.0 3.271331313 0.158335892512 0.0
0.0 3.272682544 0.156670910871 0.0
0.0 3.274033776 0.15534804882 0.0
0.0 3.275385007 0.154313021109 0.0
0.0 3.276736239 0.153479094253 0.0
0.0 3.27808747 0.152798638819 0.0
0.0 3.279438702 0.152243957091 0.0
0.0 3.280789933 0.151767136939 0.0
0.0 3.282141165 0.151375841664 0.0
0.0 3.283492396 0.15102051202 0.0
0.0 3.284843627 0.150725292265 0.0
0.0 3.286194859 0.150451105648 0.0
0.0 3.28754609 0.15021615564 0.0
0.0 3.288897322 0.14999319476 0.0
0.0 3.290248553 0.149791835758 0.0
0.0 3.291599785 0.149604572582 0.0
0.0 3.292951016 0.149421539173 0.0
0.0 3.294302247 0.149259038247 0.0
0.0 3.295653479 0.149094443643 0.0
0.0 3.29700471 0.148949818653 0.0
0.0 3.298355942 0.148792730068 0.0
0.0 3.299707173 0.148650773637 0.0
0.0 3.301058405 0.148503539423 0.0
0.0 3.302409636 0.14836483992 0.0
0.0 3.303760868 0.148230763284 0.0
0.0 3.305112099 0.148092179823 0.0
0.0 3.30646333 0.147962035493 0.0
0.0 3.307814562 0.147820913823 0.0
0.0 3.309165793 0.14769181391 0.0
0.0 3.310517025 0.147555362922 0.0
0.0 3.311868256 0.147430536972 0.0
0.0 3.313219488 0.147297741994 0.0
0.0 3.314570719 0.147166011005 0.0
0.0 3.315921951 0.147036831553 0.0
0.0 3.317273182 0.146904790306 0.0
0.0 3.318624413 0.146778892043 0.0
0.0 3.319975645 0.146645994907 0.0
0.0 3.321326876 0.146523297094 0.0
0.0 3.322678108 0.146389576614 0.0
0.0 3.324029339 0.146261619955 0.0
0.0 3.325380571 0.146132753144 0.0
0.0 3.326731802 0.14600781524 0.0
0.0 3.328083033 0.145881663676 0.0
0.0 3.329434265 0.145751960898 0.0
0.0 3.330785496 0.145630133373 0.0
0.0 3.332136728 0.145499195144 0.0
0.0 3.333487959 0.145378600046 0.0
0.0 3.334839191 0.145251935757 0.0
0.0 3.336190422 0.145129642472 0.0
0.0 3.337541654 0.145005608674 0.0
0.0 3.338892885 0.144880346348 0.0
0.0 3.340244116 0.144762347876 0.0
0.0 3.341595348 0.144638132352 0.0
0.0 3.342946579 0.144519951629 0.0
0.0 3.344297811 0.144391112751 0.0
0.0 3.345649042 0.144266306274 0.0
0.0 3.347000274 0.144141050522 0.0
0.0 3.348351505 0.144018477894 0.0
0.0 3.349702736 0.143896763205 0.0
0.0 3.351053968 0.143769802371 0.0
0.0 3.352405199 0.143647227042 0.0
0.0 3.353756431 0.143518005436 0.0
0.0 3.355107662 0.143396193606 0.0
0.0 3.356458894 0.14327054468 0.0
0.0 3.357810125 0.143146148315 0.0
0.0 3.359161357 0.14302273063 0.0
0.0 3.360512588 0.142899824407 0.0
0.0 3.361863819 0.142781875752 0.0
0.0 3.363215051 0.142656226596 0.0
0.0 3.364566282 0.142535322897 0.0
0.0 3.365917514 0.14241173352 0.0
0.0 3.367268745 0.142290530292 0.0
0.0 3.368619977 0.142171345556 0.0
0.0 3.369971208 0.142049356029 0.0
0.0 3.371322439 0.141928593935 0.0
0.0 3.372673671 0.141807525853 0.0
0.0 3.374024902 0.141687901685 0.0
0.0 3.375376134 0.141567560692 0.0
0.0 3.376727365 0.141448144961 0.0
0.0 3.378078597 0.141329824277 0.0
0.0 3.379429828 0.141209395435 0.0
0.0 3.38078106 0.141092437056 0.0
0.0 3.382132291 0.140970400982 0.0
0.0 3.383483522 0.140851542028 0.0
0.0 3.384834754 0.140730432577 0.0
0.0 3.386185985 0.140611255973 0.0
0.0 3.387537217 0.140492199772 0.0
0.0 3.388888448 0.140371192754 0.0
0.0 3.39023968 0.140253614055 0.0
0.0 3.391590911 0.140131969349 0.0
0.0 3.392942143 0.140014206311 0.0
0.0 3.394293374 0.139897077715 0.0
0.0 3.395644605 0.139778475972 0.0
0.0 3.396995837 0.139659906511 0.0
0.0 3.398347068 0.139540246137 0.0
0.0 3.3996983 0.139421664954 0.0
0.0 3.401049531 0.139301657063 0.0
0.0 3.402400763 0.139183447935 0.0
0.0 3.403751994 0.139065380002 0.0
0.0 3.405103225 0.138947052355 0.0
0.0 3.406454457 0.138830880462 0.0
0.0 3.407805688 0.138713649802 0.0
0.0 3.40915692 0.138598589083 0.0
0.0 3.410508151 0.138481605056 0.0
0.0 3.411859383 0.138363641311 0.0
0.0 3.413210614 0.138247276195 0.0
0.0 3.414561846 0.13813117883 0.0
0.0 3.415913077 0.138018860883 0.0
0.0 3.417264308 0.137905844317 0.0
0.0 3.41861554 0.137791454446 0.0
0.0 3.419966771 0.137675352338 0.0
0.0 3.421318003 0.137559177999 0.0
0.0 3.422669234 0.137443371603 0.0
0.0 3.424020466 0.137326174755 0.0
0.0 3.425371697 0.13721037933 0.0
0.0 3.426722928 0.137092254692 0.0
0.0 3.42807416 0.136975671408 0.0
0.0 3.429425391 0.136859841127 0.0
0.0 3.430776623 0.136742799611 0.0
0.0 3.432127854 0.136629807708 0.0
0.0 3.433479086 0.136515473071 0.0
0.0 3.434830317 0.136399259532 0.0
0.0 3.436181549 0.136285085457 0.0
0.0 3.43753278 0.136171736492 0.0
0.0 3.438884011 0.136060564527 0.0
0.0 3.440235243 0.135948002714 0.0
0.0 3.441586474 0.135837516652 0.0
0.0 3.442937706 0.135723809463 0.0
0.0 3.444288937 0.135608978938 0.0
0.0 3.445640169 0.13549747954 0.0
0.0 3.4469914 0.135385034251 0.0
0.0 3.448342631 0.135272358373 0.0
0.0 3.449693863 0.135156072854 0.0
0.0 3.451045094 0.135041214963 0.0
0.0 3.452396326 0.134929064249 0.0
0.0 3.453747557 0.134815253376 0.0
0.0 3.455098789 0.1347041174 0.0
0.0 3.45645002 0.134590638974 0.0
0.0 3.457801252 0.134479579933 0.0
0.0 3.459152483 0.134368831367 0.0
0.0 3.460503714 0.134257991593 0.0
0.0 3.461854946 0.13415039901 0.0
0.0 3.463206177 0.13403933317 0.0
0.0 3.464557409 0.133929386993 0.0
0.0 3.46590864 0.133819744635 0.0
0.0 3.467259872 0.133709397207 0.0
0.0 3.468611103 0.133601929923 0.0
0.0 3.469962335 0.133490683046 0.0
0.0 3.471313566 0.133384927084 0.0
0.0 3.472664797 0.133279894846 0.0
0.0 3.474016029 0.133169741057 0.0
0.0 3.47536726 0.133062475455 0.0
0.0 3.476718492 0.132952939547 0.0
0.0 3.478069723 0.132845404125 0.0
0.0 3.479420955 0.13273594546 0.0
0.0 3.480772186 0.132625457044 0.0
0.0 3.482123417 0.132521615266 0.0
0.0 3.483474649 0.132414323462 0.0
0.0 3.48482588 0.132307343711 0.0
0.0 3.486177112 0.132198009116 0.0
0.0 3.487528343 0.132088914693 0.0
0.0 3.488879575 0.131982186768 0.0
0.0 3.490230806 0.131871861581 0.0
0.0 3.491582038 0.131766687401 0.0
0.0 3.492933269 0.131662267246 0.0
0.0 3.4942845 0.131555539308 0.0
0.0 3.495635732 0.131449994004 0.0
0.0 3.496986963 0.131343642258 0.0
0.0 3.498338195 0.131241341788 0.0
0.0 3.499689426 0.131140036745 0.0
0.0 3.501040658 0.131036123609 0.0
0.0 3.502391889 0.130935307357 0.0
0.0 3.50374312 0.13083051565 0.0
0.0 3.505094352 0.130726819157 0.0
0.0 3.506445583 0.130624311617 0.0
0.0 3.507796815 0.130521168665 0.0
0.0 3.509148046 0.130420059628 0.0
0.0 3.510499278 0.130314677427 0.0
0.0 3.511850509 0.130211306561 0.0
0.0 3.513201741 0.130108847296 0.0
0.0 3.514552972 0.13000461579 0.0
0.0 3.515904203 0.129902244505 0.0
0.0 3.517255435 0.129796540913 0.0
0.0 3.518606666 0.12969358491 0.0
0.0 3.519957898 0.129590521972 0.0
0.0 3.521309129 0.129483513198 0.0
0.0 3.522660361 0.129381069246 0.0
0.0 3.524011592 0.129279627521 0.0
0.0 3.525362824 0.129178645692 0.0
0.0 3.526714055 0.129078138337 0.0
0.0 3.528065286 0.128974528379 0.0
0.0 3.529416518 0.128873711028 0.0
0.0 3.530767749 0.128771325064 0.0
0.0 3.532118981 0.128669767579 0.0
0.0 3.533470212 0.12856963081 0.0
0.0 3.534821444 0.128467830181 0.0
0.0 3.536172675 0.128369504333 0.0
0.0 3.537523906 0.128269944748 0.0
0.0 3.538875138 0.128169911641 0.0
0.0 3.540226369 0.12807076763 0.0
0.0 3.541577601 0.127967498647 0.0
0.0 3.542928832 0.127867019143 0.0
0.0 3.544280064 0.12776898816 0.0
0.0 3.545631295 0.127671395837 0.0
0.0 3.546982527 0.127574815745 0.0
0.0 3.548333758 0.127474911216 0.0
0.0 3.549684989 0.127376690234 0.0
0.0 3.551036221 0.127279651862 0.0
0.0 3.552387452 0.127181140366 0.0
0.0 3.553738684 0.127084895896 0.0
0.0 3.555089915 0.126986636975 0.0
0.0 3.556441147 0.126887521271 0.0
0.0 3.557792378 0.126790035447 0.0
0.0 3.559143609 0.12669343972 0.0
0.0 3.560494841 0.126599263192 0.0
0.0 3.561846072 0.126502810003 0.0
0.0 3.563197304 0.126405443028 0.0
0.0 3.564548535 0.126311881341 0.0
0.0 3.565899767 0.126216698527 0.0
0.0 3.567250998 0.126120678347 0.0
0.0 3.56860223 0.126027597968 0.0
0.0 3.569953461 0.125932825046 0.0
0.0 3.571304692 0.125838072785 0.0
0.0 3.572655924 0.12574304583 0.0
0.0 3.574007155 0.125649521258 0.0
0.0 3.575358387 0.125557781093 0.0
0.0 3.576709618 0.125463729027 0.0
0.0 3.57806085 0.125371195393 0.0
0.0 3.579412081 0.12527854364 0.0
0.0 3.580763312 0.125184740749 0.0
0.0 3.582114544 0.125092708531 0.0
0.0 3.583465775 0.125000274067 0.0
0.0 3.584817007 0.124909405918 0.0
0.0 3.586168238 0.124818374655 0.0
0.0 3.58751947 0.124727033451 0.0
0.0 3.588870701 0.124636083543 0.0
0.0 3.590221933 0.124545369605 0.0
0.0 3.591573164 0.12445554741 0.0
0.0 3.592924395 0.124365930819 0.0
0.0 3.594275627 0.124276047659 0.0
0.0 3.595626858 0.124187249708 0.0
0.0 3.59697809 0.124097817951 0.0
0.0 3.598329321 0.124009044566 0.0
0.0 3.599680553 0.123920598201 0.0
0.0 3.601031784 0.123832408925 0.0
0.0 3.602383016 0.12374447484 0.0
0.0 3.603734247 0.123656886605 0.0
0.0 3.605085478 0.123569756519 0.0
0.0 3.60643671 0.123483085065 0.0
0.0 3.607787941 0.123396262394 0.0
0.0 3.609139173 0.123308899557 0.0
0.0 3.610490404 0.123222694016 0.0
0.0 3.611841636 0.12313725098 0.0
0.0 3.613192867 0.123051861396 0.0
0.0 3.614544098 0.122966901841 0.0
0.0 3.61589533 0.122881099413 0.0
0.0 3.617246561 0.122795812185 0.0
0.0 3.618597793 0.122711153057 0.0
0.0 3.619949024 0.12262664429 0.0
0.0 3.621300256 0.122543315908 0.0
0.0 3.622651487 0.122459719841 0.0
0.0 3.624002719 0.122375114179 0.0
0.0 3.62535395 0.122292074009 0.0
0.0 3.626705181 0.122208599421 0.0
0.0 3.628056413 0.122125001869 0.0
0.0 3.629407644 0.122042706461 0.0
0.0 3.630758876 0.12196005209 0.0
0.0 3.632110107 0.121878106614 0.0
0.0 3.633461339 0.121796442796 0.0
0.0 3.63481257 0.121715061616 0.0
0.0 3.636163801 0.121633975857 0.0
0.0 3.637515033 0.121553209596 0.0
0.0 3.638866264 0.121472622059 0.0
0.0 3.640217496 0.121392434321 0.0
0.0 3.641568727 0.121313538337 0.0
0.0 3.642919959 0.121233815628 0.0
0.0 3.64427119 0.121154108336 0.0
0.0 3.645622422 0.121074293717 0.0
0.0 3.646973653 0.120995704483 0.0
0.0 3.648324884 0.120918170865 0.0
0.0 3.649676116 0.120839043066 0.0
0.0 3.651027347 0.120761692936 0.0
0.0 3.652378579 0.120684344533 0.0
0.0 3.65372981 0.120606857211 0.0
0.0 3.655081042 0.120531976054 0.0
0.0 3.656432273 0.120454649031 0.0
0.0 3.657783504 0.120376689496 0.0
0.0 3.659134736 0.120300863289 0.0
0.0 3.660485967 0.12022424757 0.0
0.0 3.661837199 0.120149786108 0.0
0.0 3.66318843 0.120074642909 0.0
0.0 3.664539662 0.119999499817 0.0
0.0 3.665890893 0.119925066317 0.0
0.0 3.667242125 0.119850800975 0.0
0.0 3.668593356 0.119775948989 0.0
0.0 3.669944587 0.119701601624 0.0
0.0 3.671295819 0.119628389883 0.0
0.0 3.67264705 0.119555730627 0.0
0.0 3.673998282 0.119483216796 0.0
0.0 3.675349513 0.11941048686 0.0
0.0 3.676700745 0.119337343874 0.0
0.0 3.678051976 0.119265231132 0.0
0.0 3.679403208 0.119193659199 0.0
0.0 3.680754439 0.119122521208 0.0
0.0 3.68210567 0.119051929494 0.0
0.0 3.683456902 0.118981574887 0.0
0.0 3.684808133 0.118911941646 0.0
0.0 3.686159365 0.118841743845 0.0
0.0 3.687510596 0.118771122569 0.0
0.0 3.688861828 0.118701454653 0.0
0.0 3.690213059 0.118632406822 0.0
0.0 3.69156429 0.118563788844 0.0
0.0 3.692915522 0.118496253121 0.0
0.0 3.694266753 0.11842758582 0.0
0.0 3.695617985 0.118360043421 0.0
0.0 3.696969216 0.118292090869 0.0
0.0 3.698320448 0.118224849484 0.0
0.0 3.699671679 0.118158058395 0.0
0.0 3.701022911 0.118091966924 0.0
0.0 3.702374142 0.118026572961 0.0
0.0 3.703725373 0.11796169001 0.0
0.0 3.705076605 0.117894466741 0.0
0.0 3.706427836 0.117829064204 0.0
0.0 3.707779068 0.117764383823 0.0
0.0 3.709130299 0.117700805544 0.0
0.0 3.710481531 0.117636445388 0.0
0.0 3.711832762 0.117572528796 0.0
0.0 3.713183993 0.117509184321 0.0
0.0 3.714535225 0.117446147398 0.0
0.0 3.715886456 0.117383668486 0.0
0.0 3.717237688 0.117320724857 0.0
0.0 3.718588919 0.117257940409 0.0
0.0 3.719940151 0.117196599632 0.0
0.0 3.721291382 0.11713588176 0.0
0.0 3.722642614 0.117075101555 0.0
0.0 3.723993845 0.117014468656 0.0
0.0 3.725345076 0.116952371118 0.0
0.0 3.726696308 0.116893022649 0.0
0.0 3.728047539 0.116832288062 0.0
0.0 3.729398771 0.116772763758 0.0
0.0 3.730750002 0.116713953214 0.0
0.0 3.732101234 0.116657295736 0.0
0.0 3.733452465 0.116598891747 0.0
0.0 3.734803696 0.11654046941 0.0
0.0 3.736154928 0.116482874978 0.0
0.0 3.737506159 0.116424832674 0.0
0.0 3.738857391 0.116367406969 0.0
0.0 3.740208622 0.116310148338 0.0
0.0 3.741559854 0.116253757926 0.0
0.0 3.742911085 0.116197994106 0.0
0.0 3.744262317 0.11614351293 0.0
0.0 3.745613548 0.116089887887 0.0
0.0 3.746964779 0.116036779378 0.0
0.0 3.748316011 0.115981346285 0.0
0.0 3.749667242 0.115925526154 0.0
0.0 3.751018474 0.115870863654 0.0
0.0 3.752369705 0.115817033117 0.0
0.0 3.753720937 0.115764473804 0.0
0.0 3.755072168 0.11571167513 0.0
0.0 3.7564234 0.115659819914 0.0
0.0 3.757774631 0.115609366763 0.0
0.0 3.759125862 0.115558423184 0.0
0.0 3.760477094 0.115506291016 0.0
0.0 3.761828325 0.11545407527 0.0
0.0 3.763179557 0.11540177919 0.0
0.0 3.764530788 0.11535270256 0.0
0.0 3.76588202 0.115304225561 0.0
0.0 3.767233251 0.115255319829 0.0
0.0 3.768584482 0.115204906294 0.0
0.0 3.769935714 0.115155850366 0.0
0.0 3.771286945 0.115107193137 0.0
0.0 3.772638177 0.115060421582 0.0
0.0 3.773989408 0.115014349569 0.0
0.0 3.77534064 0.114967369757 0.0
0.0 3.776691871 0.114920362864 0.0
0.0 3.778043103 0.114874708524 0.0
0.0 3.779394334 0.114828558745 0.0
0.0 3.780745565 0.114783419506 0.0
0.0 3.782096797 0.114739998477 0.0
0.0 3.783448028 0.114694428341 0.0
0.0 3.78479926 0.114649413662 0.0
0.0 3.786150491 0.114605463816 0.0
0.0 3.787501723 0.114561226762 0.0
0.0 3.788852954 0.114517987651 0.0
0.0 3.790204185 0.114474214883 0.0
0.0 3.791555417 0.114430250039 0.0
0.0 3.792906648 0.114388369522 0.0
0.0 3.79425788 0.114347451016 0.0
0.0 3.795609111 0.114305900639 0.0
0.0 3.796960343 0.114265755937 0.0
0.0 3.798311574 0.114225489404 0.0
0.0 3.799662806 0.114184703944 0.0
0.0 3.801014037 0.114145299831 0.0
0.0 3.802365268 0.11410420747 0.0
0.0 3.8037165 0.114062961002 0.0
0.0 3.805067731 0.114025654219 0.0
0.0 3.806418963 0.113990818926 0.0
0.0 3.807770194 0.113954229607 0.0
0.0 3.809121426 0.113916256017 0.0
0.0 3.810472657 0.113876678349 0.0
0.0 3.811823889 0.11383718028 0.0
0.0 3.81317512 0.113800842351 0.0
0.0 3.814526351 0.113765146317 0.0
0.0 3.815877583 0.113730589409 0.0
0.0 3.817228814 0.113696343532 0.0
0.0 3.818580046 0.113661001987 0.0
0.0 3.819931277 0.113625458242 0.0
0.0 3.821282509 0.11359157928 0.0
0.0 3.82263374 0.113558480437 0.0
0.0 3.823984971 0.113525962074 0.0
0.0 3.825336203 0.113493922374 0.0
0.0 3.826687434 0.113462024038 0.0
0.0 3.828038666 0.113430178952 0.0
0.0 3.829389897 0.11339930489 0.0
0.0 3.830741129 0.113367968287 0.0
0.0 3.83209236 0.113336084917 0.0
0.0 3.833443592 0.113306863683 0.0
0.0 3.834794823 0.113278922444 0.0
0.0 3.836146054 0.113250071573 0.0
0.0 3.837497286 0.113223355017 0.0
0.0 3.838848517 0.113194166619 0.0
0.0 3.840199749 0.113162648986 0.0
0.0 3.84155098 0.113134565179 0.0
0.0 3.842902212 0.113107368083 0.0
0.0 3.844253443 0.113081690682 0.0
0.0 3.845604674 0.113055942102 0.0
0.0 3.846955906 0.113030663196 0.0
0.0 3.848307137 0.11300484332 0.0
0.0 3.849658369 0.112978704283 0.0
0.0 3.8510096 0.112952853082 0.0
0.0 3.852360832 0.112928119135 0.0
0.0 3.853712063 0.112904840859 0.0
0.0 3.855063295 0.112882271993 0.0
0.0 3.856414526 0.112858600684 0.0
0.0 3.857765757 0.112835766503 0.0
0.0 3.859116989 0.112814025309 0.0
0.0 3.86046822 0.11279209929 0.0
0.0 3.861819452 0.112771240671 0.0
0.0 3.863170683 0.112751811008 0.0
0.0 3.864521915 0.112731105965 0.0
0.0 3.865873146 0.112710316484 0.0
0.0 3.867224377 0.112691168652 0.0
0.0 3.868575609 0.11267338032 0.0
0.0 3.86992684 0.112656738481 0.0
0.0 3.871278072 0.112637733146 0.0
0.0 3.872629303 0.112619274344 0.0
0.0 3.873980535 0.112602478517 0.0
0.0 3.875331766 0.112586587043 0.0
0.0 3.876682998 0.11257131183 0.0
0.0 3.878034229 0.112553863838 0.0
0.0 3.87938546 0.11253831355 0.0
0.0 3.880736692 0.112523433825 0.0
0.0 3.882087923 0.112510021768 0.0
0.0 3.883439155 0.112499365567 0.0
0.0 3.884790386 0.112485492423 0.0
0.0 3.886141618 0.112470516913 0.0
0.0 3.887492849 0.112457349237 0.0
0.0 3.888844081 0.11244481815 0.0
0.0 3.890195312 0.112432929579 0.0
0.0 3.891546543 0.112422846818 0.0
0.0 3.892897775 0.11241361436 0.0
0.0 3.894249006 0.112403322687 0.0
0.0 3.895600238 0.112393879687 0.0
0.0 3.896951469 0.112385430528 0.0
0.0 3.898302701 0.112376647046 0.0
0.0 3.899653932 0.112369055583 0.0
0.0 3.901005163 0.112361485821 0.0
0.0 3.902356395 0.11235344355 0.0
0.0 3.903707626 0.112347090519 0.0
0.0 3.905058858 0.112341300941 0.0
0.0 3.906410089 0.112334037578 0.0
0.0 3.907761321 0.112326182354 0.0
0.0 3.909112552 0.1123218385 0.0
0.0 3.910463784 0.112317199131 0.0
0.0 3.911815015 0.112312565372 0.0
0.0 3.913166246 0.112309787329 0.0
0.0 3.914517478 0.112307547189 0.0
0.0 3.915868709 0.11230537503 0.0
0.0 3.917219941 0.112304148641 0.0
0.0 3.918571172 0.112301254551 0.0
0.0 3.919922404 0.112299933889 0.0
0.0 3.921273635 0.112300449275 0.0
0.0 3.922624866 0.112300876183 0.0
0.0 3.923976098 0.112299690816 0.0
0.0 3.925327329 0.112299153006 0.0
0.0 3.926678561 0.112299188974 0.0
0.0 3.928029792 0.112300355535 0.0
0.0 3.929381024 0.112304669627 0.0
0.0 3.930732255 0.112309570124 0.0
0.0 3.932083487 0.1123107511 0.0
0.0 3.933434718 0.112313299365 0.0
0.0 3.934785949 0.112317730555 0.0
0.0 3.936137181 0.112320972747 0.0
0.0 3.937488412 0.112324926949 0.0
0.0 3.938839644 0.112330025906 0.0
0.0 3.940190875 0.112336034288 0.0
0.0 3.941542107 0.112342524756 0.0
0.0 3.942893338 0.112350813231 0.0
0.0 3.944244569 0.112358869598 0.0
0.0 3.945595801 0.112365009027 0.0
0.0 3.946947032 0.112372128468 0.0
0.0 3.948298264 0.112380785743 0.0
0.0 3.949649495 0.112390826268 0.0
0.0 3.951000727 0.112400108967 0.0
0.0 3.952351958 0.112411579313 0.0
0.0 3.95370319 0.112423778901 0.0
0.0 3.955054421 0.112435492097 0.0
0.0 3.956405652 0.112447307295 0.0
0.0 3.957756884 0.112458886096 0.0
0.0 3.959108115 0.112471707406 0.0
0.0 3.960459347 0.112487171605 0.0
0.0 3.961810578 0.112502949439 0.0
0.0 3.96316181 0.112517389547 0.0
0.0 3.964513041 0.11253194766 0.0
0.0 3.965864273 0.112546871767 0.0
0.0 3.967215504 0.112561706175 0.0
0.0 3.968566735 0.112577386573 0.0
0.0 3.969917967 0.112594663576 0.0
0.0 3.971269198 0.112612659105 0.0
0.0 3.97262043 0.112632228051 0.0
0.0 3.973971661 0.112651539357 0.0
0.0 3.975322893 0.112670753367 0.0
0.0 3.976674124 0.112691905687 0.0
0.0 3.978025355 0.112713227669 0.0
0.0 3.979376587 0.112733167526 0.0
0.0 3.980727818 0.112753329331 0.0
0.0 3.98207905 0.112775173342 0.0
0.0 3.983430281 0.112798604056 0.0
0.0 3.984781513 0.112821640793 0.0
0.0 3.986132744 0.112844097008 0.0
0.0 3.987483976 0.112867600792 0.0
0.0 3.988835207 0.112892196322 0.0
0.0 3.990186438 0.112918785786 0.0
0.0 3.99153767 0.11294638479 0.0
0.0 3.992888901 0.112972327446 0.0
0.0 3.994240133 0.112997398155 0.0
0.0 3.995591364 0.113023586604 0.0
0.0 3.996942596 0.113052015308 0.0
0.0 3.998293827 0.113081958857 0.0
0.0 3.999645058 0.113112048082 0.0
0.0 4.00099629 0.113141730556 0.0
0.0 4.002347521 0.113171390918 0.0
0.0 4.003698753 0.113202043861 0.0
0.0 4.005049984 0.113232949588 0.0
0.0 4.006401216 0.113263329644 0.0
0.0 4.007752447 0.113295651499 0.0
0.0 4.009103679 0.113329168471 0.0
0.0 4.01045491 0.113363094243 0.0
0.0 4.011806141 0.113397644095 0.0
0.0 4.013157373 0.113432859263 0.0
0.0 4.014508604 0.113467747323 0.0
0.0 4.015859836 0.113502297003 0.0
0.0 4.017211067 0.113537880987 0.0
0.0 4.018562299 0.113574302011 0.0
0.0 4.01991353 0.113612140869 0.0
0.0 4.021264761 0.113650580041 0.0
0.0 4.022615993 0.11368846481 0.0
0.0 4.023967224 0.113726771531 0.0
0.0 4.025318456 0.113765922541 0.0
0.0 4.026669687 0.113806594242 0.0
0.0 4.028020919 0.113847611383 0.0
0.0 4.02937215 0.113888883708 0.0
0.0 4.030723382 0.113930963175 0.0
0.0 4.032074613 0.113973889507 0.0
0.0 4.033425844 0.114017210915 0.0
0.0 4.034777076 0.114060868313 0.0
0.0 4.036128307 0.114105240304 0.0
0.0 4.037479539 0.114149803141 0.0
0.0 4.03883077 0.114194940707 0.0
0.0 4.040182002 0.114241211334 0.0
0.0 4.041533233 0.114287790072 0.0
0.0 4.042884465 0.114334902422 0.0
0.0 4.044235696 0.114382694786 0.0
0.0 4.045586927 0.114431043249 0.0
0.0 4.046938159 0.114479572289 0.0
0.0 4.04828939 0.114529012549 0.0
0.0 4.049640622 0.114579089026 0.0
0.0 4.050991853 0.114629674578 0.0
0.0 4.052343085 0.114680756451 0.0
0.0 4.053694316 0.11473246266 0.0
0.0 4.055045547 0.11478492229 0.0
0.0 4.056396779 0.114837835259 0.0
0.0 4.05774801 0.114891567416 0.0
0.0 4.059099242 0.114945913189 0.0
0.0 4.060450473 0.115000652147 0.0
0.0 4.061801705 0.115055910034 0.0
0.0 4.063152936 0.115111938685 0.0
0.0 4.064504168 0.115168457303 0.0
0.0 4.065855399 0.115225605797 0.0
0.0 4.06720663 0.115283524155 0.0
0.0 4.068557862 0.115342031536 0.0
0.0 4.069909093 0.115401082656 0.0
0.0 4.071260325 0.115460730403 0.0
0.0 4.072611556 0.115521020753 0.0
0.0 4.073962788 0.115581777593 0.0
0.0 4.075314019 0.115643177055 0.0
0.0 4.07666525 0.115705244875 0.0
0.0 4.078016482 0.115768060224 0.0
0.0 4.079367713 0.115831365773 0.0
0.0 4.080718945 0.115895283404 0.0
0.0 4.082070176 0.115959789812 0.0
0.0 4.083421408 0.116024833425 0.0
0.0 4.084772639 0.116090560398 0.0
0.0 4.086123871 0.116156935359 0.0
0.0 4.087475102 0.116224010226 0.0
0.0 4.088826333 0.116291670768 0.0
0.0 4.090177565 0.116359937593 0.0
0.0 4.091528796 0.116428866337 0.0
0.0 4.092880028 0.11649846354 0.0
0.0 4.094231259 0.116568698454 0.0
0.0 4.095582491 0.116639510495 0.0
0.0 4.096933722 0.116710894161 0.0
0.0 4.098284953 0.116782925121 0.0
0.0 4.099636185 0.116855626071 0.0
0.0 4.100987416 0.11692893496 0.0
0.0 4.102338648 0.117002877875 0.0
0.0 4.103689879 0.11707746814 0.0
0.0 4.105041111 0.117152712041 0.0
0.0 4.106392342 0.117228548829 0.0
0.0 4.107743574 0.117305040816 0.0
0.0 4.109094805 0.117382209246 0.0
0.0 4.110446036 0.117460019007 0.0
0.0 4.111797268 0.117538459829 0.0
0.0 4.113148499 0.117617546998 0.0
0.0 4.114499731 0.117697294848 0.0
0.0 4.115850962 0.117777678876 0.0
0.0 4.117202194 0.117858720734 0.0
0.0 4.118553425 0.117940406563 0.0
0.0 4.119904657 0.118022733861 0.0
0.0 4.121255888 0.118105708892 0.0
0.0 4.122607119 0.118189355683 0.0
0.0 4.123958351 0.118273671708 0.0
0.0 4.125309582 0.118358639068 0.0
0.0 4.126660814 0.118444246011 0.0
0.0 4.128012045 0.118530511357 0.0
0.0 4.129363277 0.118617450484 0.0
0.0 4.130714508 0.11870504724 0.0
0.0 4.132065739 0.118793310517 0.0
0.0 4.133416971 0.118882249082 0.0
0.0 4.134768202 0.118971830835 0.0
0.0 4.136119434 0.119062072072 0.0
0.0 4.137470665 0.119152994502 0.0
0.0 4.138821897 0.119244594097 0.0
0.0 4.140173128 0.119336854489 0.0
0.0 4.14152436 0.119429791531 0.0
0.0 4.142875591 0.119523399169 0.0
0.0 4.144226822 0.119617672951 0.0
0.0 4.145578054 0.119712623382 0.0
0.0 4.146929285 0.119808253621 0.0
0.0 4.148280517 0.119904568377 0.0
0.0 4.149631748 0.120001566771 0.0
0.0 4.15098298 0.120099241615 0.0
0.0 4.152334211 0.120197592691 0.0
0.0 4.153685442 0.120296622256 0.0
0.0 4.155036674 0.120396337851 0.0
0.0 4.156387905 0.120496742674 0.0
0.0 4.157739137 0.120597834816 0.0
0.0 4.159090368 0.120699610157 0.0
0.0 4.1604416 0.120802075751 0.0
0.0 4.161792831 0.120905235698 0.0
0.0 4.163144063 0.121009087206 0.0
0.0 4.164495294 0.121113631667 0.0
0.0 4.165846525 0.121218870583 0.0
0.0 4.167197757 0.121324805105 0.0
0.0 4.168548988 0.121431437473 0.0
0.0 4.16990022 0.121538769794 0.0
0.0 4.171251451 0.121646801365 0.0
0.0 4.172602683 0.121755534558 0.0
0.0 4.173953914 0.121864969071 0.0
0.0 4.175305146 0.121975107523 0.0
0.0 4.176656377 0.122085951224 0.0
0.0 4.178007608 0.122197500546 0.0
0.0 4.17935884 0.122309757244 0.0
0.0 4.180710071 0.122422723584 0.0
0.0 4.182061303 0.122536397744 0.0
0.0 4.183412534 0.122650782855 0.0
0.0 4.184763766 0.122765882115 0.0
0.0 4.186114997 0.122881696569 0.0
0.0 4.187466228 0.122998224695 0.0
0.0 4.18881746 0.123115470286 0.0
0.0 4.190168691 0.123233435135 0.0
0.0 4.191519923 0.123352120007 0.0
0.0 4.192871154 0.123471523675 0.0
0.0 4.194222386 0.123591650355 0.0
0.0 4.195573617 0.123712501294 0.0
0.0 4.196924849 0.123834076226 0.0
0.0 4.19827608 0.123956376338 0.0
0.0 4.199627311 0.124079404854 0.0
0.0 4.200978543 0.124203162633 0.0
0.0 4.202329774 0.124327648318 0.0
0.0 4.203681006 0.124452865091 0.0
0.0 4.205032237 0.124578815809 0.0
0.0 4.206383469 0.124705501457 0.0
0.0 4.2077347 0.124832921589 0.0
0.0 4.209085931 0.124961079296 0.0
0.0 4.210437163 0.125089975273 0.0
0.0 4.211788394 0.125219610064 0.0
0.0 4.213139626 0.125349984745 0.0
0.0 4.214490857 0.125481102843 0.0
0.0 4.215842089 0.125612964442 0.0
0.0 4.21719332 0.125745570098 0.0
0.0 4.218544552 0.125878922013 0.0
0.0 4.219895783 0.126013022218 0.0
0.0 4.221247014 0.126147870643 0.0
0.0 4.222598246 0.126283469572 0.0
0.0 4.223949477 0.126419820272 0.0
0.0 4.225300709 0.126556924624 0.0
0.0 4.22665194 0.12669478296 0.0
0.0 4.228003172 0.126833397049 0.0
0.0 4.229354403 0.126972768349 0.0
0.0 4.230705634 0.127112898297 0.0
0.0 4.232056866 0.127253787288 0.0
0.0 4.233408097 0.127395437679 0.0
0.0 4.234759329 0.127537851039 0.0
0.0 4.23611056 0.12768102855 0.0
0.0 4.237461792 0.127824971098 0.0
0.0 4.238813023 0.127969680599 0.0
0.0 4.240164255 0.128115158427 0.0
0.0 4.241515486 0.12826140519 0.0
0.0 4.242866717 0.128408422443 0.0
0.0 4.244217949 0.128556212462 0.0
0.0 4.24556918 0.128704776158 0.0
0.0 4.246920412 0.128854115001 0.0
0.0 4.248271643 0.129004230242 0.0
0.0 4.249622875 0.129155123467 0.0
0.0 4.250974106 0.129306795857 0.0
0.0 4.252325338 0.129459249094 0.0
0.0 4.253676569 0.129612484134 0.0
0.0 4.2550278 0.129766502696 0.0
0.0 4.256379032 0.129921306166 0.0
0.0 4.257730263 0.130076895599 0.0
0.0 4.259081495 0.130233272826 0.0
0.0 4.260432726 0.130390438961 0.0
0.0 4.261783958 0.1305483957 0.0
0.0 4.263135189 0.130707144242 0.0
0.0 4.26448642 0.130866686157 0.0
0.0 4.265837652 0.131027022973 0.0
0.0 4.267188883 0.13118815555 0.0
0.0 4.268540115 0.131350085741 0.0
0.0 4.269891346 0.1315128149 0.0
0.0 4.271242578 0.131676344497 0.0
0.0 4.272593809 0.131840675694 0.0
0.0 4.273945041 0.132005810321 0.0
0.0 4.275296272 0.132171749513 0.0
0.0 4.276647503 0.132338494861 0.0
0.0 4.277998735 0.132506047758 0.0
0.0 4.279349966 0.132674409455 0.0
0.0 4.280701198 0.132843581728 0.0
0.0 4.282052429 0.1330135657 0.0
0.0 4.283403661 0.133184363025 0.0
0.0 4.284754892 0.133355974959 0.0
0.0 4.286106123 0.133528402889 0.0
0.0 4.287457355 0.133701648335 0.0
0.0 4.288808586 0.133875712784 0.0
0.0 4.290159818 0.134050597893 0.0
0.0 4.291511049 0.13422630486 0.0
0.0 4.292862281 0.134402835313 0.0
0.0 4.294213512 0.134580190478 0.0
0.0 4.295564744 0.134758372111 0.0
0.0 4.296915975 0.134937381137 0.0
0.0 4.298267206 0.135117219115 0.0
0.0 4.299618438 0.135297888083 0.0
0.0 4.300969669 0.135479389047 0.0
0.0 4.302320901 0.135661723671 0.0
0.0 4.303672132 0.135844893192 0.0
0.0 4.305023364 0.136028899372 0.0
0.0 4.306374595 0.136213743432 0.0
0.0 4.307725826 0.136399426863 0.0
0.0 4.309077058 0.136585951287 0.0
0.0 4.310428289 0.136773317982 0.0
0.0 4.311779521 0.136961528703 0.0
0.0 4.313130752 0.137150584419 0.0
0.0 4.314481984 0.137340487136 0.0
0.0 4.315833215 0.137531238044 0.0
0.0 4.317184447 0.13772283887 0.0
0.0 4.318535678 0.137915290775 0.0
0.0 4.319886909 0.138108595452 0.0
0.0 4.321238141 0.13830275454 0.0
0.0 4.322589372 0.138497769216 0.0
0.0 4.323940604 0.13869364108 0.0
0.0 4.325291835 0.138890371573 0.0
0.0 4.326643067 0.139087962414 0.0
0.0 4.327994298 0.139286414724 0.0
0.0 4.32934553 0.139485730391 0.0
0.0 4.330696761 0.139685910651 0.0
0.0 4.332047992 0.139886957094 0.0
0.0 4.333399224 0.140088871391 0.0
0.0 4.334750455 0.140291654737 0.0
0.0 4.336101687 0.14049530895 0.0
0.0 4.337452918 0.140699835238 0.0
0.0 4.33880415 0.140905235619 0.0
0.0 4.340155381 0.14111151095 0.0
0.0 4.341506612 0.141318663109 0.0
0.0 4.342857844 0.141526693589 0.0
0.0 4.344209075 0.14173560353 0.0
0.0 4.345560307 0.141945395007 0.0
0.0 4.346911538 0.142156069338 0.0
0.0 4.34826277 0.142367628216 0.0
0.0 4.349614001 0.142580072792 0.0
0.0 4.350965233 0.142793404901 0.0
0.0 4.352316464 0.1430076259 0.0
0.0 4.353667695 0.143222737374 0.0
0.0 4.355018927 0.143438740936 0.0
0.0 4.356370158 0.143655637901 0.0
0.0 4.35772139 0.143873430206 0.0
0.0 4.359072621 0.14409211904 0.0
0.0 4.360423853 0.144311706199 0.0
0.0 4.361775084 0.144532192933 0.0
0.0 4.363126315 0.144753580957 0.0
0.0 4.364477547 0.144975872073 0.0
0.0 4.365828778 0.145199067245 0.0
0.0 4.36718001 0.145423168581 0.0
0.0 4.368531241 0.145648177277 0.0
0.0 4.369882473 0.145874095067 0.0
0.0 4.371233704 0.146100923229 0.0
0.0 4.372584936 0.14632866384 0.0
0.0 4.373936167 0.146557318048 0.0
0.0 4.375287398 0.14678688759 0.0
0.0 4.37663863 0.147017374006 0.0
0.0 4.377989861 0.147248778747 0.0
0.0 4.379341093 0.147481103751 0.0
0.0 4.380692324 0.14771435023 0.0
0.0 4.382043556 0.147948519605 0.0
0.0 4.383394787 0.148183613722 0.0
0.0 4.384746018 0.148419634218 0.0
0.0 4.38609725 0.148656582762 0.0
0.0 4.387448481 0.148894460385 0.0
0.0 4.388799713 0.149133269352 0.0
0.0 4.390150944 0.149373010905 0.0
0.0 4.391502176 0.149613686612 0.0
0.0 4.392853407 0.149855297926 0.0
0.0 4.394204639 0.150097846925 0.0
0.0 4.39555587 0.150341334923 0.0
0.0 4.396907101 0.150585763299 0.0
0.0 4.398258333 0.150831133977 0.0
0.0 4.399609564 0.151077448288 0.0
0.0 4.400960796 0.151324708312 0.0
0.0 4.402312027 0.151572914935 0.0
0.0 4.403663259 0.151822070343 0.0
0.0 4.40501449 0.152072175821 0.0
0.0 4.406365722 0.152323233433 0.0
0.0 4.407716953 0.152575244164 0.0
0.0 4.409068184 0.152828209912 0.0
0.0 4.410419416 0.153082132515 0.0
0.0 4.411770647 0.153337013221 0.0
0.0 4.413121879 0.153592853962 0.0
0.0 4.41447311 0.153849656014 0.0
0.0 4.415824342 0.154107421457 0.0
0.0 4.417175573 0.154366151527 0.0
0.0 4.418526804 0.154625847894 0.0
0.0 4.419878036 0.154886512377 0.0
0.0 4.421229267 0.155148146465 0.0
0.0 4.422580499 0.155410752012 0.0
0.0 4.42393173 0.15567433032 0.0
0.0 4.425282962 0.155938883301 0.0
0.0 4.426634193 0.156204412367 0.0
0.0 4.427985425 0.156470919487 0.0
0.0 4.429336656 0.156738405851 0.0
0.0 4.430687887 0.157006873205 0.0
0.0 4.432039119 0.157276323703 0.0
0.0 4.43339035 0.157546758532 0.0
0.0 4.434741582 0.157818179478 0.0
0.0 4.436092813 0.158090587936 0.0
0.0 4.437444045 0.158363986095 0.0
0.0 4.438795276 0.158638375121 0.0
0.0 4.440146507 0.158913756849 0.0
0.0 4.441497739 0.159190133178 0.0
0.0 4.44284897 0.159467505355 0.0
0.0 4.444200202 0.159745875463 0.0
0.0 4.445551433 0.160025244773 0.0
0.0 4.446902665 0.16030561532 0.0
0.0 4.448253896 0.160586988388 0.0
0.0 4.449605128 0.160869366109 0.0
0.0 4.450956359 0.161152749706 0.0
0.0 4.45230759 0.161437141026 0.0
0.0 4.453658822 0.161722542034 0.0
0.0 4.455010053 0.162008953985 0.0
0.0 4.456361285 0.162296378957 0.0
0.0 4.457712516 0.162584818217 0.0
0.0 4.459063748 0.162874273931 0.0
0.0 4.460414979 0.163164747358 0.0
0.0 4.461766211 0.163456240631 0.0
0.0 4.463117442 0.16374875472 0.0
0.0 4.464468673 0.164042291943 0.0
0.0 4.465819905 0.164336854092 0.0
0.0 4.467171136 0.164632442418 0.0
0.0 4.468522368 0.164929059063 0.0
0.0 4.469873599 0.165226705298 0.0
0.0 4.471224831 0.165525383293 0.0
0.0 4.472576062 0.165825094319 0.0
0.0 4.473927293 0.166125840239 0.0
0.0 4.475278525 0.166427623027 0.0
0.0 4.476629756 0.166730444052 0.0
0.0 4.477980988 0.167034305393 0.0
0.0 4.479332219 0.167339208282 0.0
0.0 4.480683451 0.167645154887 0.0
0.0 4.482034682 0.167952146601 0.0
0.0 4.483385914 0.168260185562 0.0
0.0 4.484737145 0.16856927304 0.0
0.0 4.486088376 0.168879410998 0.0
0.0 4.487439608 0.169190601398 0.0
0.0 4.488790839 0.169502845701 0.0
0.0 4.490142071 0.169816145745 0.0
0.0 4.491493302 0.17013050295 0.0
0.0 4.492844534 0.170445919569 0.0
0.0 4.494195765 0.170762396965 0.0
0.0 4.495546996 0.171079937001 0.0
0.0 4.496898228 0.171398541683 0.0
0.0 4.498249459 0.171718212296 0.0
0.0 4.499600691 0.172038951136 0.0
0.0 4.500951922 0.172360759483 0.0
0.0 4.502303154 0.172683639406 0.0
0.0 4.503654385 0.17300759235 0.0
0.0 4.505005617 0.173332620576 0.0
0.0 4.506356848 0.173658725344 0.0
0.0 4.507708079 0.173985908391 0.0
0.0 4.509059311 0.17431417216 0.0
0.0 4.510410542 0.174643517813 0.0
0.0 4.511761774 0.174973947578 0.0
0.0 4.513113005 0.175305462605 0.0
0.0 4.514464237 0.175638065285 0.0
0.0 4.515815468 0.175971757033 0.0
0.0 4.517166699 0.17630653968 0.0
0.0 4.518517931 0.176642415235 0.0
0.0 4.519869162 0.176979385095 0.0
0.0 4.521220394 0.177317451642 0.0
0.0 4.522571625 0.177656616189 0.0
0.0 4.523922857 0.177996880927 0.0
0.0 4.525274088 0.178338246974 0.0
0.0 4.52662532 0.17868071687 0.0
0.0 4.527976551 0.179024291982 0.0
0.0 4.529327782 0.179368974067 0.0
0.0 4.530679014 0.179714765354 0.0
0.0 4.532030245 0.1800616672 0.0
0.0 4.533381477 0.180409682068 0.0
0.0 4.534732708 0.180758811001 0.0
0.0 4.53608394 0.181109056244 0.0
0.0 4.537435171 0.181460419191 0.0
0.0 4.538786403 0.181812902411 0.0
0.0 4.540137634 0.182166507109 0.0
0.0 4.541488865 0.182521235191 0.0
0.0 4.542840097 0.182877088897 0.0
0.0 4.544191328 0.18323406948 0.0
0.0 4.54554256 0.183592179444 0.0
0.0 4.546893791 0.183951419808 0.0
0.0 4.548245023 0.184311793135 0.0
0.0 4.549596254 0.184673300757 0.0
0.0 4.550947485 0.185035944797 0.0
0.0 4.552298717 0.185399727293 0.0
0.0 4.553649948 0.185764649467 0.0
0.0 4.55500118 0.18613071392 0.0
0.0 4.556352411 0.186497921903 0.0
0.0 4.557703643 0.18686627592 0.0
0.0 4.559054874 0.187235776757 0.0
0.0 4.560406106 0.187606427221 0.0
0.0 4.561757337 0.187978228677 0.0
0.0 4.563108568 0.188351183183 0.0
0.0 4.5644598 0.188725292841 0.0
0.0 4.565811031 0.189100558999 0.0
0.0 4.567162263 0.189476984177 0.0
0.0 4.568513494 0.189854569587 0.0
0.0 4.569864726 0.190233317667 0.0
0.0 4.571215957 0.190613229723 0.0
0.0 4.572567188 0.190994308072 0.0
0.0 4.57391842 0.191376554968 0.0
0.0 4.575269651 0.191759970988 0.0
0.0 4.576620883 0.192144559282 0.0
0.0 4.577972114 0.192530321055 0.0
0.0 4.579323346 0.192917258865 0.0
0.0 4.580674577 0.193305373904 0.0
0.0 4.582025809 0.193694668538 0.0
0.0 4.58337704 0.194085144062 0.0
0.0 4.584728271 0.19447680293 0.0
0.0 4.586079503 0.194869647355 0.0
0.0 4.587430734 0.195263677942 0.0
0.0 4.588781966 0.195658897734 0.0
0.0 4.590133197 0.196055308375 0.0
0.0 4.591484429 0.196452912077 0.0
0.0 4.59283566 0.19685171015 0.0
0.0 4.594186891 0.197251704808 0.0
0.0 4.595538123 0.197652898269 0.0
0.0 4.596889354 0.198055291866 0.0
0.0 4.598240586 0.198458888257 0.0
0.0 4.599591817 0.198863688484 0.0
0.0 4.600943049 0.199269695235 0.0
0.0 4.60229428 0.19967690985 0.0
0.0 4.603645512 0.200085334889 0.0
0.0 4.604996743 0.200494971563 0.0
0.0 4.606347974 0.200905822189 0.0
0.0 4.607699206 0.201317889081 0.0
0.0 4.609050437 0.201731173523 0.0
0.0 4.610401669 0.202145678106 0.0
0.0 4.6117529 0.202561404132 0.0
0.0 4.613104132 0.202978354187 0.0
0.0 4.614455363 0.203396529605 0.0
0.0 4.615806595 0.203815932962 0.0
0.0 4.617157826 0.204236565594 0.0
0.0 4.618509057 0.204658429778 0.0
0.0 4.619860289 0.205081527802 0.0
0.0 4.62121152 0.205505861161 0.0
0.0 4.622562752 0.20593143224 0.0
0.0 4.623913983 0.206358242243 0.0
0.0 4.625265215 0.206786293895 0.0
0.0 4.626616446 0.20721558874 0.0
0.0 4.627967677 0.207646128989 0.0
0.0 4.629318909 0.208077916913 0.0
0.0 4.63067014 0.208510953856 0.0
0.0 4.632021372 0.208945242449 0.0
0.0 4.633372603 0.209380784086 0.0
0.0 4.634723835 0.209817581308 0.0
0.0 4.636075066 0.210255635486 0.0
0.0 4.637426298 0.210694949325 0.0
0.0 4.638777529 0.211135524156 0.0
0.0 4.64012876 0.2115773623 0.0
0.0 4.641479992 0.212020466091 0.0
0.0 4.642831223 0.212464836885 0.0
0.0 4.644182455 0.212910477349 0.0
0.0 4.645533686 0.213357388847 0.0
0.0 4.646884918 0.213805574035 0.0
0.0 4.648236149 0.214255034297 0.0
0.0 4.64958738 0.214705771984 0.0
0.0 4.650938612 0.215157789391 0.0
0.0 4.652289843 0.215611087959 0.0
0.0 4.653641075 0.216065670355 0.0
0.0 4.654992306 0.216521537944 0.0
0.0 4.656343538 0.216978693451 0.0
0.0 4.657694769 0.217437138203 0.0
0.0 4.659046001 0.217896874904 0.0
0.0 4.660397232 0.218357904969 0.0
0.0 4.661748463 0.218820230764 0.0
0.0 4.663099695 0.21928385469 0.0
0.0 4.664450926 0.219748778078 0.0
0.0 4.665802158 0.220215003666 0.0
0.0 4.667153389 0.220682532863 0.0
0.0 4.668504621 0.221151368398 0.0
0.0 4.669855852 0.221621511638 0.0
0.0 4.671207083 0.222092964987 0.0
0.0 4.672558315 0.222565730866 0.0
0.0 4.673909546 0.223039810645 0.0
0.0 4.675260778 0.2235152071 0.0
0.0 4.676612009 0.223991921588 0.0
0.0 4.677963241 0.224469956904 0.0
0.0 4.679314472 0.224949314416 0.0
0.0 4.680665704 0.225429996915 0.0
0.0 4.682016935 0.225912005771 0.0
0.0 4.683368166 0.226395343428 0.0
0.0 4.684719398 0.226880012337 0.0
0.0 4.686070629 0.22736601387 0.0
0.0 4.687421861 0.227853350845 0.0
0.0 4.688773092 0.228342024632 0.0
0.0 4.690124324 0.22883203806 0.0
0.0 4.691475555 0.229323392504 0.0
0.0 4.692826787 0.229816090798 0.0
0.0 4.694178018 0.230310134331 0.0
0.0 4.695529249 0.230805525548 0.0
0.0 4.696880481 0.231302266959 0.0
0.0 4.698231712 0.231800359946 0.0
0.0 4.699582944 0.232299807381 0.0
0.0 4.700934175 0.232800610632 0.0
0.0 4.702285407 0.23330277247 0.0
0.0 4.703636638 0.233806294379 0.0
0.0 4.704987869 0.234311178903 0.0
0.0 4.706339101 0.234817428489 0.0
0.0 4.707690332 0.23532504444 0.0
0.0 4.709041564 0.235834029737 0.0
0.0 4.710392795 0.236344385781 0.0
0.0 4.711744027 0.236856115463 0.0
0.0 4.713095258 0.237369220169 0.0
0.0 4.71444649 0.237883702769 0.0
0.0 4.715797721 0.23839956469 0.0
0.0 4.717148952 0.238916808457 0.0
0.0 4.718500184 0.23943543661 0.0
0.0 4.719851415 0.239955450541 0.0
0.0 4.721202647 0.240476853181 0.0
0.0 4.722553878 0.240999645924 0.0
0.0 4.72390511 0.241523831728 0.0
0.0 4.725256341 0.242049411951 0.0
0.0 4.726607572 0.242576389164 0.0
0.0 4.727958804 0.243104765956 0.0
0.0 4.729310035 0.243634543719 0.0
0.0 4.730661267 0.244165725414 0.0
0.0 4.732012498 0.244698312411 0.0
0.0 4.73336373 0.245232307725 0.0
0.0 4.734714961 0.245767712743 0.0
0.0 4.736066193 0.246304530452 0.0
0.0 4.737417424 0.246842762255 0.0
0.0 4.738768655 0.247382410719 0.0
0.0 4.740119887 0.247923478481 0.0
0.0 4.741471118 0.248465966932 0.0
0.0 4.74282235 0.24900987908 0.0
0.0 4.744173581 0.249555216327 0.0
0.0 4.745524813 0.250101981695 0.0
0.0 4.746876044 0.25065017659 0.0
0.0 4.748227276 0.251199804041 0.0
0.0 4.749578507 0.251750865465 0.0
0.0 4.750929738 0.252303363459 0.0
0.0 4.75228097 0.252857300692 0.0
0.0 4.753632201 0.253412678562 0.0
0.0 4.754983433 0.253969500124 0.0
0.0 4.756334664 0.254527766788 0.0
0.0 4.757685896 0.255087481618 0.0
0.0 4.759037127 0.255648646058 0.0
0.0 4.760388358 0.256211262766 0.0
0.0 4.76173959 0.25677533437 0.0
0.0 4.763090821 0.257340862189 0.0
0.0 4.764442053 0.257907849296 0.0
0.0 4.765793284 0.258476297358 0.0
0.0 4.767144516 0.259046209335 0.0
0.0 4.768495747 0.259617586643 0.0
0.0 4.769846979 0.260190432392 0.0
0.0 4.77119821 0.260764747991 0.0
0.0 4.772549441 0.261340536143 0.0
0.0 4.773900673 0.261917799557 0.0
0.0 4.775251904 0.26249653962 0.0
0.0 4.776603136 0.263076759482 0.0
0.0 4.777954367 0.263658460577 0.0
0.0 4.779305599 0.264241646063 0.0
0.0 4.78065683 0.264826317489 0.0
0.0 4.782008061 0.265412477154 0.0
0.0 4.783359293 0.266000128048 0.0
0.0 4.784710524 0.2665892717 0.0
0.0 4.786061756 0.267179911189 0.0
0.0 4.787412987 0.26777204796 0.0
0.0 4.788764219 0.268365685131 0.0
0.0 4.79011545 0.26896082417 0.0
0.0 4.791466682 0.269557468269 0.0
0.0 4.792817913 0.270155618855 0.0
0.0 4.794169144 0.270755278702 0.0
0.0 4.795520376 0.271356450516 0.0
0.0 4.796871607 0.271959135772 0.0
0.0 4.798222839 0.272563337679 0.0
0.0 4.79957407 0.273169057668 0.0
0.0 4.800925302 0.273776298963 0.0
0.0 4.802276533 0.274385062992 0.0
0.0 4.803627764 0.274995352554 0.0
0.0 4.804978996 0.275607170435 0.0
0.0 4.806330227 0.276220518076 0.0
0.0 4.807681459 0.276835398744 0.0
0.0 4.80903269 0.277451813817 0.0
0.0 4.810383922 0.278069766592 0.0
0.0 4.811735153 0.278689258507 0.0
0.0 4.813086385 0.27931029282 0.0
0.0 4.814437616 0.279932871006 0.0
0.0 4.815788847 0.280556995874 0.0
0.0 4.817140079 0.281182670246 0.0
0.0 4.81849131 0.281809895567 0.0
0.0 4.819842542 0.282438675131 0.0
0.0 4.821193773 0.283069010384 0.0
0.0 4.822545005 0.283700904637 0.0
0.0 4.823896236 0.284334359342 0.0
0.0 4.825247468 0.284969377876 0.0
0.0 4.826598699 0.285605961556 0.0
0.0 4.82794993 0.28624411324 0.0
0.0 4.829301162 0.286883835881 0.0
0.0 4.830652393 0.287525130919 0.0
0.0 4.832003625 0.288168001721 0.0
0.0 4.833354856 0.288812449684 0.0
0.0 4.834706088 0.289458478153 0.0
0.0 4.836057319 0.290106088631 0.0
0.0 4.83740855 0.290755283985 0.0
0.0 4.838759782 0.29140606712 0.0
0.0 4.840111013 0.292058439463 0.0
0.0 4.841462245 0.292712404415 0.0
0.0 4.842813476 0.293367963426 0.0
0.0 4.844164708 0.294025119914 0.0
0.0 4.845515939 0.29468387535 0.0
0.0 4.846867171 0.295344232987 0.0
0.0 4.848218402 0.296006194444 0.0
0.0 4.849569633 0.296669762613 0.0
0.0 4.850920865 0.297334940422 0.0
0.0 4.852272096 0.29800172935 0.0
0.0 4.853623328 0.298670132761 0.0
0.0 4.854974559 0.299340152156 0.0
0.0 4.856325791 0.300011790989 0.0
0.0 4.857677022 0.300685050726 0.0
0.0 4.859028253 0.30135993434 0.0
0.0 4.860379485 0.302036444686 0.0
0.0 4.861730716 0.302714583333 0.0
0.0 4.863081948 0.303394353743 0.0
0.0 4.864433179 0.304075757383 0.0
0.0 4.865784411 0.304758797716 0.0
0.0 4.867135642 0.305443476126 0.0
0.0 4.868486874 0.306129796238 0.0
0.0 4.869838105 0.306817759487 0.0
0.0 4.871189336 0.307507368853 0.0
0.0 4.872540568 0.308198627337 0.0
0.0 4.873891799 0.308891536361 0.0
0.0 4.875243031 0.309586099531 0.0
0.0 4.876594262 0.310282318273 0.0
0.0 4.877945494 0.310980196132 0.0
0.0 4.879296725 0.311679734588 0.0
0.0 4.880647956 0.312380936625 0.0
0.0 4.881999188 0.313083805316 0.0
0.0 4.883350419 0.313788342124 0.0
0.0 4.884701651 0.314494550608 0.0
0.0 4.886052882 0.315202432247 0.0
0.0 4.887404114 0.315911990611 0.0
0.0 4.888755345 0.316623227173 0.0
0.0 4.890106577 0.317336145526 0.0
0.0 4.891457808 0.318050747134 0.0
0.0 4.892809039 0.318767035063 0.0
0.0 4.894160271 0.319485012402 0.0
0.0 4.895511502 0.320204680618 0.0
0.0 4.896862734 0.320926043321 0.0
0.0 4.898213965 0.321649102034 0.0
0.0 4.899565197 0.322373860299 0.0
0.0 4.900916428 0.323100319635 0.0
0.0 4.90226766 0.3238284837 0.0
0.0 4.903618891 0.324558353967 0.0
0.0 4.904970122 0.325289933536 0.0
0.0 4.906321354 0.326023225521 0.0
0.0 4.907672585 0.326758231406 0.0
0.0 4.909023817 0.327494954852 0.0
0.0 4.910375048 0.328233397352 0.0
0.0 4.91172628 0.328973562594 0.0
0.0 4.913077511 0.329715452028 0.0
0.0 4.914428742 0.330459068818 0.0
0.0 4.915779974 0.331204416106 0.0
0.0 4.917131205 0.331951495387 0.0
0.0 4.918482437 0.332700310374 0.0
0.0 4.919833668 0.33345086249 0.0
0.0 4.9211849 0.334203155522 0.0
0.0 4.922536131 0.334957190948 0.0
0.0 4.923887363 0.3357129725 0.0
0.0 4.925238594 0.336470501657 0.0
0.0 4.926589825 0.337229781606 0.0
0.0 4.927941057 0.337990815529 0.0
0.0 4.929292288 0.338753604924 0.0
0.0 4.93064352 0.339518153584 0.0
0.0 4.931994751 0.340284462931 0.0
0.0 4.933345983 0.341052536737 0.0
0.0 4.934697214 0.341822376555 0.0
0.0 4.936048445 0.342593985586 0.0
0.0 4.937399677 0.343367367033 0.0
0.0 4.938750908 0.344142522402 0.0
0.0 4.94010214 0.344919455524 0.0
0.0 4.941453371 0.345698167813 0.0
0.0 4.942804603 0.346478663138 0.0
0.0 4.944155834 0.347260943014 0.0
0.0 4.945507066 0.348045011247 0.0
0.0 4.946858297 0.348830869309 0.0
0.0 4.948209528 0.349618520471 0.0
0.0 4.94956076 0.350407968026 0.0
0.0 4.950911991 0.351199213459 0.0
0.0 4.952263223 0.351992260619 0.0
0.0 4.953614454 0.352787111012 0.0
0.0 4.954965686 0.353583768505 0.0
0.0 4.956316917 0.354382234611 0.0
0.0 4.957668148 0.355182512609 0.0
0.0 4.95901938 0.355984605798 0.0
0.0 4.960370611 0.356788515648 0.0
0.0 4.961721843 0.357594246105 0.0
0.0 4.963073074 0.358401798664 0.0
0.0 4.964424306 0.35921117723 0.0
0.0 4.965775537 0.360022383333 0.0
0.0 4.967126769 0.360835420844 0.0
0.0 4.968478 0.361650291324 0.0
0.0 4.969829231 0.36246699809 0.0
0.0 4.971180463 0.363285544484 0.0
0.0 4.972531694 0.364105932015 0.0
0.0 4.973882926 0.364928164588 0.0
0.0 4.975234157 0.365752243778 0.0
0.0 4.976585389 0.366578173542 0.0
0.0 4.97793662 0.367405955397 0.0
0.0 4.979287852 0.368235593305 0.0
0.0 4.980639083 0.369067088758 0.0
0.0 4.981990314 0.369900445066 0.0
0.0 4.983341546 0.370735665722 0.0
0.0 4.984692777 0.371572752267 0.0
0.0 4.986044009 0.372411708651 0.0
0.0 4.98739524 0.373252536413 0.0
0.0 4.988746472 0.374095239563 0.0
0.0 4.990097703 0.374939819626 0.0
0.0 4.991448934 0.375786280004 0.0
0.0 4.992800166 0.376634624122 0.0
0.0 4.994151397 0.377484853475 0.0
0.0 4.995502629 0.378336972117 0.0
0.0 4.99685386 0.379190981587 0.0
0.0 4.998205092 0.380046885963 0.0
0.0 4.999556323 0.380904686948 0.0
0.0 5.000907555 0.38176438824 0.0
0.0 5.002258786 0.382625991548 0.0
0.0 5.003610017 0.383489500247 0.0
0.0 5.004961249 0.384354917922 0.0
0.0 5.00631248 0.385222246113 0.0
0.0 5.007663712 0.38609148876 0.0
0.0 5.009014943 0.386962647492 0.0
0.0 5.010366175 0.387835726428 0.0
0.0 5.011717406 0.388710727184 0.0
0.0 5.013068637 0.389587653167 0.0
0.0 5.014419869 0.390466507865 0.0
0.0 5.0157711 0.391347292816 0.0
0.0 5.017122332 0.392230012167 0.0
0.0 5.018473563 0.393114667461 0.0
0.0 5.019824795 0.394001262853 0.0
0.0 5.021176026 0.394889799888 0.0
0.0 5.022527258 0.395780282741 0.0
0.0 5.023878489 0.396672712957 0.0
0.0 5.02522972 0.397567094056 0.0
0.0 5.026580952 0.398463429577 0.0
0.0 5.027932183 0.399361721074 0.0
0.0 5.029283415 0.400261972726 0.0
0.0 5.030634646 0.401164186054 0.0
0.0 5.031985878 0.402068365303 0.0
0.0 5.033337109 0.40297451203 0.0
0.0 5.034688341 0.40388263044 0.0
0.0 5.036039572 0.404792722165 0.0
0.0 5.037390803 0.405704790654 0.0
0.0 5.038742035 0.406618839576 0.0
0.0 5.040093266 0.407534870449 0.0
0.0 5.041444498 0.408452887535 0.0
0.0 5.042795729 0.409372892397 0.0
0.0 5.044146961 0.410294889316 0.0
0.0 5.045498192 0.411218879803 0.0
0.0 5.046849423 0.412144867463 0.0
0.0 5.048200655 0.413072855974 0.0
0.0 5.049551886 0.41400284683 0.0
0.0 5.050903118 0.414934844354 0.0
0.0 5.052254349 0.415868850114 0.0
0.0 5.053605581 0.416804868432 0.0
0.0 5.054956812 0.417742900861 0.0
0.0 5.056308044 0.418682951736 0.0
0.0 5.057659275 0.419625022614 0.0
0.0 5.059010506 0.420569117146 0.0
0.0 5.060361738 0.421515239005 0.0
0.0 5.061712969 0.422463389739 0.0
0.0 5.063064201 0.423413573745 0.0
0.0 5.064415432 0.424365792455 0.0
0.0 5.065766664 0.425320050387 0.0
0.0 5.067117895 0.426276349059 0.0
0.0 5.068469126 0.427234692178 0.0
0.0 5.069820358 0.428195083447 0.0
0.0 5.071171589 0.429157524401 0.0
0.0 5.072522821 0.430122019424 0.0
0.0 5.073874052 0.431088570117 0.0
0.0 5.075225284 0.432057180927 0.0
0.0 5.076576515 0.433027853413 0.0
0.0 5.077927747 0.434000592033 0.0
0.0 5.079278978 0.434975398295 0.0
0.0 5.080630209 0.435952275972 0.0
0.0 5.081981441 0.436931228802 0.0
0.0 5.083332672 0.437912258356 0.0
0.0 5.084683904 0.438895369104 0.0
0.0 5.086035135 0.439880562623 0.0
0.0 5.087386367 0.440867843401 0.0
0.0 5.088737598 0.441857213012 0.0
0.0 5.090088829 0.442848675222 0.0
0.0 5.091440061 0.443842233808 0.0
0.0 5.092791292 0.444837890346 0.0
0.0 5.094142524 0.445835649359 0.0
0.0 5.095493755 0.446835512422 0.0
0.0 5.096844987 0.447837484073 0.0
0.0 5.098196218 0.448841565888 0.0
0.0 5.09954745 0.449847762422 0.0
