0.0 2.002074478 0.199473174065 0.0
0.0 2.00368257 0.19981437798 0.0
0.0 2.005290662 0.200154153572 0.0
0.0 2.006898754 0.200492502632 0.0
0.0 2.008506846 0.200829426953 0.0
0.0 2.010114938 0.201164928322 0.0
0.0 2.01172303 0.201499008532 0.0
0.0 2.013331122 0.201831669375 0.0
0.0 2.014939214 0.202162912639 0.0
0.0 2.016547306 0.202492740115 0.0
0.0 2.018155398 0.202821153596 0.0
0.0 2.01976349 0.203148154869 0.0
0.0 2.021371582 0.203473745726 0.0
0.0 2.022979674 0.203797927958 0.0
0.0 2.024587766 0.204120703357 0.0
0.0 2.026195858 0.204442073711 0.0
0.0 2.027803949 0.204762040614 0.0
0.0 2.029412041 0.205080606255 0.0
0.0 2.031020133 0.205397772223 0.0
0.0 2.032628225 0.205713540311 0.0
0.0 2.034236317 0.206027912307 0.0
0.0 2.035844409 0.206340890003 0.0
0.0 2.037452501 0.20665247519 0.0
0.0 2.039060593 0.206962669659 0.0
0.0 2.040668685 0.2072714752 0.0
0.0 2.042276777 0.207578893605 0.0
0.0 2.043884869 0.207884926662 0.0
0.0 2.045492961 0.208189576163 0.0
0.0 2.047101053 0.208492843899 0.0
0.0 2.048709145 0.20879473166 0.0
0.0 2.050317237 0.209095241236 0.0
0.0 2.051925329 0.20939437442 0.0
0.0 2.053533421 0.209692133002 0.0
0.0 2.055141513 0.209988518769 0.0
0.0 2.056749605 0.210283533516 0.0
0.0 2.058357697 0.210577179032 0.0
0.0 2.059965788 0.210869456927 0.0
0.0 2.06157388 0.211160369354 0.0
0.0 2.063181972 0.211449917924 0.0
0.0 2.064790064 0.211738104424 0.0
0.0 2.066398156 0.212024930646 0.0
0.0 2.068006248 0.212310398383 0.0
0.0 2.06961434 0.212594509422 0.0
0.0 2.071222432 0.212877265555 0.0
0.0 2.072830524 0.213158668573 0.0
0.0 2.074438616 0.213438720267 0.0
0.0 2.076046708 0.213717422429 0.0
0.0 2.0776548 0.213994776847 0.0
0.0 2.079262892 0.214270785309 0.0
0.0 2.080870984 0.214545449611 0.0
0.0 2.082479076 0.214818771543 0.0
0.0 2.084087168 0.215090752896 0.0
0.0 2.08569526 0.215361395457 0.0
0.0 2.087303352 0.215630701018 0.0
0.0 2.088911444 0.215898671371 0.0
0.0 2.090519536 0.216165308307 0.0
0.0 2.092127627 0.216430613453 0.0
0.0 2.093735719 0.216694588929 0.0
0.0 2.095343811 0.216957236355 0.0
0.0 2.096951903 0.217218557525 0.0
0.0 2.098559995 0.217478554236 0.0
0.0 2.100168087 0.217737228281 0.0
0.0 2.101776179 0.21799458142 0.0
0.0 2.103384271 0.218250615466 0.0
0.0 2.104992363 0.218505332217 0.0
0.0 2.106600455 0.218758733461 0.0
0.0 2.108208547 0.219010820983 0.0
0.0 2.109816639 0.219261596575 0.0
0.0 2.111424731 0.21951106203 0.0
0.0 2.113032823 0.219759219129 0.0
0.0 2.114640915 0.220006069677 0.0
0.0 2.116249007 0.220251615447 0.0
0.0 2.117857099 0.220495858241 0.0
0.0 2.119465191 0.220738799849 0.0
0.0 2.121073283 0.220980442063 0.0
0.0 2.122681375 0.221220786682 0.0
0.0 2.124289466 0.221459835351 0.0
0.0 2.125897558 0.221697590112 0.0
0.0 2.12750565 0.221934052636 0.0
0.0 2.129113742 0.222169224732 0.0
0.0 2.130721834 0.222403108194 0.0
0.0 2.132329926 0.222635704807 0.0
0.0 2.133938018 0.222867016306 0.0
0.0 2.13554611 0.22309704453 0.0
0.0 2.137154202 0.223325791284 0.0
0.0 2.138762294 0.223553258343 0.0
0.0 2.140370386 0.22377944746 0.0
0.0 2.141978478 0.224004360476 0.0
0.0 2.14358657 0.224227999162 0.0
0.0 2.145194662 0.224450365313 0.0
0.0 2.146802754 0.22467146071 0.0
0.0 2.148410846 0.224891287154 0.0
0.0 2.150018938 0.22510984645 0.0
0.0 2.15162703 0.225327140355 0.0
0.0 2.153235122 0.225543170686 0.0
0.0 2.154843214 0.225757939243 0.0
0.0 2.156451305 0.225971447717 0.0
0.0 2.158059397 0.226183698005 0.0
0.0 2.159667489 0.226394691893 0.0
0.0 2.161275581 0.226604431181 0.0
0.0 2.162883673 0.226812917648 0.0
0.0 2.164491765 0.227020153062 0.0
0.0 2.166099857 0.227226139208 0.0
0.0 2.167707949 0.227430877911 0.0
0.0 2.169316041 0.227634370906 0.0
0.0 2.170924133 0.227836620019 0.0
0.0 2.172532225 0.228037627059 0.0
0.0 2.174140317 0.22823739381 0.0
0.0 2.175748409 0.228435921985 0.0
0.0 2.177356501 0.22863321341 0.0
0.0 2.178964593 0.228829269925 0.0
0.0 2.180572685 0.229024093322 0.0
0.0 2.182180777 0.229217685346 0.0
0.0 2.183788869 0.229410047725 0.0
0.0 2.185396961 0.229601182409 0.0
0.0 2.187005053 0.229791091144 0.0
0.0 2.188613145 0.229979775724 0.0
0.0 2.190221236 0.230167237818 0.0
0.0 2.191829328 0.230353479361 0.0
0.0 2.19343742 0.230538502107 0.0
0.0 2.195045512 0.230722307805 0.0
0.0 2.196653604 0.230904898269 0.0
0.0 2.198261696 0.231086275308 0.0
0.0 2.199869788 0.231266440702 0.0
0.0 2.20147788 0.231445396209 0.0
0.0 2.203085972 0.231623143625 0.0
0.0 2.204694064 0.231799684777 0.0
0.0 2.206302156 0.231975021506 0.0
0.0 2.207910248 0.232149155561 0.0
0.0 2.20951834 0.232322088588 0.0
0.0 2.211126432 0.232493822484 0.0
0.0 2.212734524 0.232664359099 0.0
0.0 2.214342616 0.232833700242 0.0
0.0 2.215950708 0.233001847817 0.0
0.0 2.2175588 0.233168803183 0.0
0.0 2.219166892 0.233334568461 0.0
0.0 2.220774984 0.233499145665 0.0
0.0 2.222383075 0.233662536413 0.0
0.0 2.223991167 0.233824742665 0.0
0.0 2.225599259 0.233985766061 0.0
0.0 2.227207351 0.234145608298 0.0
0.0 2.228815443 0.234304270073 0.0
0.0 2.230423535 0.234461754125 0.0
0.0 2.232031627 0.234618062472 0.0
0.0 2.233639719 0.234773197085 0.0
0.0 2.235247811 0.234927158646 0.0
0.0 2.236855903 0.235079949128 0.0
0.0 2.238463995 0.235231571797 0.0
0.0 2.240072087 0.235382028421 0.0
0.0 2.241680179 0.235531320545 0.0
0.0 2.243288271 0.2356794494 0.0
0.0 2.244896363 0.235826414985 0.0
0.0 2.246504455 0.235972221195 0.0
0.0 2.248112547 0.236116871375 0.0
0.0 2.249720639 0.236260366371 0.0
0.0 2.251328731 0.236402705014 0.0
0.0 2.252936823 0.236543890509 0.0
0.0 2.254544914 0.236683925071 0.0
0.0 2.256153006 0.2368228091 0.0
0.0 2.257761098 0.2369605461 0.0
0.0 2.25936919 0.23709714306 0.0
0.0 2.260977282 0.237232601542 0.0
0.0 2.262585374 0.237366919483 0.0
0.0 2.264193466 0.237500089025 0.0
0.0 2.265801558 0.23763212113 0.0
0.0 2.26740965 0.237763016333 0.0
0.0 2.269017742 0.237892777979 0.0
0.0 2.270625834 0.2380213974 0.0
0.0 2.272233926 0.238148880805 0.0
0.0 2.273842018 0.238275238853 0.0
0.0 2.27545011 0.238400475627 0.0
0.0 2.277058202 0.238524590575 0.0
0.0 2.278666294 0.23864758553 0.0
0.0 2.280274386 0.238769447004 0.0
0.0 2.281882478 0.2388901907 0.0
0.0 2.28349057 0.23900982544 0.0
0.0 2.285098662 0.239128346756 0.0
0.0 2.286706753 0.239245752514 0.0
0.0 2.288314845 0.239362043718 0.0
0.0 2.289922937 0.239477229341 0.0
0.0 2.291531029 0.239591269972 0.0
0.0 2.293139121 0.239704207675 0.0
0.0 2.294747213 0.239816053856 0.0
0.0 2.296355305 0.239926814064 0.0
0.0 2.297963397 0.240036488685 0.0
0.0 2.299571489 0.240144986348 0.0
0.0 2.301179581 0.240252414778 0.0
0.0 2.302787673 0.240358761742 0.0
0.0 2.304395765 0.240464033158 0.0
0.0 2.306003857 0.240568226371 0.0
0.0 2.307611949 0.240671226439 0.0
0.0 2.309220041 0.24077318291 0.0
0.0 2.310828133 0.24087408676 0.0
0.0 2.312436225 0.240973906885 0.0
0.0 2.314044317 0.241072670702 0.0
0.0 2.315652409 0.241170371176 0.0
0.0 2.317260501 0.241267007856 0.0
0.0 2.318868592 0.24136258647 0.0
0.0 2.320476684 0.241456854361 0.0
0.0 2.322084776 0.24155009396 0.0
0.0 2.323692868 0.241642377996 0.0
0.0 2.32530096 0.241733761681 0.0
0.0 2.326909052 0.241824286581 0.0
0.0 2.328517144 0.241913174476 0.0
0.0 2.330125236 0.242001199156 0.0
0.0 2.331733328 0.242088222527 0.0
0.0 2.33334142 0.24217430601 0.0
0.0 2.334949512 0.242259895905 0.0
0.0 2.336557604 0.242343927761 0.0
0.0 2.338165696 0.242426190846 0.0
0.0 2.339773788 0.242507561394 0.0
0.0 2.34138188 0.242588268098 0.0
0.0 2.342989972 0.242668170154 0.0
0.0 2.344598064 0.242746908234 0.0
0.0 2.346206156 0.242824014942 0.0
0.0 2.347814248 0.242900148393 0.0
0.0 2.34942234 0.242974704984 0.0
0.0 2.351030431 0.243048800716 0.0
0.0 2.352638523 0.243122091708 0.0
0.0 2.354246615 0.243194467675 0.0
0.0 2.355854707 0.243265925077 0.0
0.0 2.357462799 0.243335440636 0.0
0.0 2.359070891 0.243404286668 0.0
0.0 2.360678983 0.243472342696 0.0
0.0 2.362287075 0.243539765809 0.0
0.0 2.363895167 0.243606686908 0.0
0.0 2.365503259 0.243673943378 0.0
0.0 2.367111351 0.243736388642 0.0
0.0 2.368719443 0.24379840653 0.0
0.0 2.370327535 0.243860119733 0.0
0.0 2.371935627 0.243921470972 0.0
0.0 2.373543719 0.243982310849 0.0
0.0 2.375151811 0.244041331877 0.0
0.0 2.376759903 0.244099138834 0.0
0.0 2.378367995 0.244155954544 0.0
0.0 2.379976087 0.244210590387 0.0
0.0 2.381584179 0.244264968243 0.0
0.0 2.383192271 0.24431865699 0.0
0.0 2.384800362 0.244371778971 0.0
0.0 2.386408454 0.244424247173 0.0
0.0 2.388016546 0.244474284019 0.0
0.0 2.389624638 0.244523156998 0.0
0.0 2.39123273 0.244571468311 0.0
0.0 2.392840822 0.244619713134 0.0
0.0 2.394448914 0.244667491185 0.0
0.0 2.396057006 0.244714394396 0.0
0.0 2.397665098 0.244757257839 0.0
0.0 2.39927319 0.244800418762 0.0
0.0 2.400881282 0.244842948164 0.0
0.0 2.402489374 0.244884709074 0.0
0.0 2.404097466 0.244925953604 0.0
0.0 2.405705558 0.244965881251 0.0
0.0 2.40731365 0.245004473552 0.0
0.0 2.408921742 0.245042267774 0.0
0.0 2.410529834 0.245079305024 0.0
0.0 2.412137926 0.245115435587 0.0
0.0 2.413746018 0.245150622759 0.0
0.0 2.41535411 0.245184668998 0.0
0.0 2.416962201 0.245218035264 0.0
0.0 2.418570293 0.245251508326 0.0
0.0 2.420178385 0.245281668773 0.0
0.0 2.421786477 0.245311180426 0.0
0.0 2.423394569 0.245340421573 0.0
0.0 2.425002661 0.2453697255 0.0
0.0 2.426610753 0.245398859739 0.0
0.0 2.428218845 0.245423600493 0.0
0.0 2.429826937 0.245447576784 0.0
0.0 2.431435029 0.245471343866 0.0
0.0 2.433043121 0.245495147559 0.0
0.0 2.434651213 0.245518630505 0.0
0.0 2.436259305 0.245542359246 0.0
0.0 2.437867397 0.245562881283 0.0
0.0 2.439475489 0.245582386005 0.0
0.0 2.441083581 0.245601159167 0.0
0.0 2.442691673 0.245619708029 0.0
0.0 2.444299765 0.245637471114 0.0
0.0 2.445907857 0.245654180726 0.0
0.0 2.447515949 0.245669034432 0.0
0.0 2.44912404 0.245682972428 0.0
0.0 2.450732132 0.245695487313 0.0
0.0 2.452340224 0.245706379027 0.0
0.0 2.453948316 0.24571661807 0.0
0.0 2.455556408 0.245726925986 0.0
0.0 2.4571645 0.245737443507 0.0
0.0 2.458772592 0.245747375724 0.0
0.0 2.460380684 0.245754629623 0.0
0.0 2.461988776 0.245759793539 0.0
0.0 2.463596868 0.245764392303 0.0
0.0 2.46520496 0.245769483785 0.0
0.0 2.466813052 0.24577453232 0.0
0.0 2.468421144 0.245779081231 0.0
0.0 2.470029236 0.245778487122 0.0
0.0 2.471637328 0.245778171112 0.0
0.0 2.47324542 0.245777652218 0.0
0.0 2.474853512 0.245776776149 0.0
0.0 2.476461604 0.245775156681 0.0
0.0 2.478069696 0.245773232333 0.0
0.0 2.479677788 0.245770073743 0.0
0.0 2.481285879 0.2457658699 0.0
0.0 2.482893971 0.245760850024 0.0
0.0 2.484502063 0.245755345608 0.0
0.0 2.486110155 0.245749111172 0.0
0.0 2.487718247 0.24574215936 0.0
0.0 2.489326339 0.24573473802 0.0
0.0 2.490934431 0.245726801277 0.0
0.0 2.492542523 0.245718449708 0.0
0.0 2.494150615 0.245704303747 0.0
0.0 2.495758707 0.245690201987 0.0
0.0 2.497366799 0.245675794547 0.0
0.0 2.498974891 0.245662652172 0.0
0.0 2.499778162 0.245662214455 0.0
0.0 2.501129393 0.245646864956 0.0
0.0 2.502480624 0.245631387352 0.0
0.0 2.503831856 0.245617365725 0.0
0.0 2.505183087 0.245602263383 0.0
0.0 2.506534319 0.245586202833 0.0
0.0 2.50788555 0.245570552467 0.0
0.0 2.509236782 0.245556484808 0.0
0.0 2.510588013 0.245535692566 0.0
0.0 2.511939244 0.245517924364 0.0
0.0 2.513290476 0.245497782012 0.0
0.0 2.514641707 0.245478011645 0.0
0.0 2.515992939 0.245459520692 0.0
0.0 2.51734417 0.245439523151 0.0
0.0 2.518695402 0.245415581438 0.0
0.0 2.520046633 0.245397174127 0.0
0.0 2.521397865 0.245374304985 0.0
0.0 2.522749096 0.245353566904 0.0
0.0 2.524100327 0.245332987578 0.0
0.0 2.525451559 0.24530946604 0.0
0.0 2.52680279 0.24528482355 0.0
0.0 2.528154022 0.245259020525 0.0
0.0 2.529505253 0.24523574075 0.0
0.0 2.530856485 0.245210399771 0.0
0.0 2.532207716 0.245178888285 0.0
0.0 2.533558948 0.245149430527 0.0
0.0 2.534910179 0.245121590866 0.0
0.0 2.53626141 0.245090330303 0.0
0.0 2.537612642 0.245065867886 0.0
0.0 2.538963873 0.245037188527 0.0
0.0 2.540315105 0.245003460701 0.0
0.0 2.541666336 0.244973889392 0.0
0.0 2.543017568 0.244944240986 0.0
0.0 2.544368799 0.244909117728 0.0
0.0 2.54572003 0.244873098685 0.0
0.0 2.547071262 0.244843456154 0.0
0.0 2.548422493 0.244815008663 0.0
0.0 2.549773725 0.244778263035 0.0
0.0 2.551124956 0.244739156304 0.0
0.0 2.552476188 0.244702654897 0.0
0.0 2.553827419 0.244669153735 0.0
0.0 2.555178651 0.244632107569 0.0
0.0 2.556529882 0.244595923317 0.0
0.0 2.557881113 0.24455737424 0.0
0.0 2.559232345 0.244517164766 0.0
0.0 2.560583576 0.244478023791 0.0
0.0 2.561934808 0.244440373893 0.0
0.0 2.563286039 0.244402859952 0.0
0.0 2.564637271 0.244358619393 0.0
0.0 2.565988502 0.244317371978 0.0
0.0 2.567339733 0.244274143959 0.0
0.0 2.568690965 0.244236722684 0.0
0.0 2.570042196 0.244193138902 0.0
0.0 2.571393428 0.244146595479 0.0
0.0 2.572744659 0.24410327208 0.0
0.0 2.574095891 0.244057868177 0.0
0.0 2.575447122 0.244012120895 0.0
0.0 2.576798354 0.243965038291 0.0
0.0 2.578149585 0.243922341769 0.0
0.0 2.579500816 0.243874462942 0.0
0.0 2.580852048 0.243830136371 0.0
0.0 2.582203279 0.243780260518 0.0
0.0 2.583554511 0.243731844141 0.0
0.0 2.584905742 0.243685773428 0.0
0.0 2.586256974 0.243636418745 0.0
0.0 2.587608205 0.243579539497 0.0
0.0 2.588959437 0.243529535645 0.0
0.0 2.590310668 0.243478980491 0.0
0.0 2.591661899 0.243426733901 0.0
0.0 2.593013131 0.243376650786 0.0
0.0 2.594364362 0.243320014514 0.0
0.0 2.595715594 0.243265680143 0.0
0.0 2.597066825 0.243212572235 0.0
0.0 2.598418057 0.243159917801 0.0
0.0 2.599769288 0.243102416544 0.0
0.0 2.601120519 0.243050697072 0.0
0.0 2.602471751 0.24299449222 0.0
0.0 2.603822982 0.242936192669 0.0
0.0 2.605174214 0.242879205599 0.0
0.0 2.606525445 0.242820385379 0.0
0.0 2.607876677 0.242760988841 0.0
0.0 2.609227908 0.242703782777 0.0
0.0 2.61057914 0.242642105073 0.0
0.0 2.611930371 0.242580209843 0.0
0.0 2.613281602 0.242526108582 0.0
0.0 2.614632834 0.242465720725 0.0
0.0 2.615984065 0.242398868255 0.0
0.0 2.617335297 0.242335419172 0.0
0.0 2.618686528 0.242273240023 0.0
0.0 2.62003776 0.242210847167 0.0
0.0 2.621388991 0.242148474589 0.0
0.0 2.622740222 0.242087147778 0.0
0.0 2.624091454 0.242022201003 0.0
0.0 2.625442685 0.241954225034 0.0
0.0 2.626793917 0.241887364251 0.0
0.0 2.628145148 0.241821903008 0.0
0.0 2.62949638 0.241754290197 0.0
0.0 2.630847611 0.24168673567 0.0
0.0 2.632198843 0.241619842855 0.0
0.0 2.633550074 0.241552888607 0.0
0.0 2.634901305 0.241485655886 0.0
0.0 2.636252537 0.241412191478 0.0
0.0 2.637603768 0.241345259551 0.0
0.0 2.638955 0.241275636749 0.0
0.0 2.640306231 0.241204019506 0.0
0.0 2.641657463 0.241131991698 0.0
0.0 2.643008694 0.241062895694 0.0
0.0 2.644359925 0.240986612706 0.0
0.0 2.645711157 0.240914310506 0.0
0.0 2.647062388 0.240842526567 0.0
0.0 2.64841362 0.240770412723 0.0
0.0 2.649764851 0.24069495008 0.0
0.0 2.651116083 0.240619714403 0.0
0.0 2.652467314 0.240542386659 0.0
0.0 2.653818546 0.240465831854 0.0
0.0 2.655169777 0.240391378854 0.0
0.0 2.656521008 0.240312204322 0.0
0.0 2.65787224 0.240233657209 0.0
0.0 2.659223471 0.240155111788 0.0
0.0 2.660574703 0.240078990741 0.0
0.0 2.661925934 0.240001591765 0.0
0.0 2.663277166 0.23992023827 0.0
0.0 2.664628397 0.239840601593 0.0
0.0 2.665979629 0.239758857944 0.0
0.0 2.66733086 0.239676500628 0.0
0.0 2.668682091 0.239596079135 0.0
0.0 2.670033323 0.239515838481 0.0
0.0 2.671384554 0.239434502479 0.0
0.0 2.672735786 0.239351129026 0.0
0.0 2.674087017 0.239268342125 0.0
0.0 2.675438249 0.239182861846 0.0
0.0 2.67678948 0.239098019594 0.0
0.0 2.678140711 0.23901205334 0.0
0.0 2.679491943 0.238927484644 0.0
0.0 2.680843174 0.238841660469 0.0
0.0 2.682194406 0.238755087542 0.0
0.0 2.683545637 0.238670842721 0.0
0.0 2.684896869 0.238585572019 0.0
0.0 2.6862481 0.238496300768 0.0
0.0 2.687599332 0.238407248864 0.0
0.0 2.688950563 0.238318524328 0.0
0.0 2.690301794 0.238230976642 0.0
0.0 2.691653026 0.238140581732 0.0
0.0 2.693004257 0.238051899092 0.0
0.0 2.694355489 0.237962132469 0.0
0.0 2.69570672 0.237871016363 0.0
0.0 2.697057952 0.23777762939 0.0
0.0 2.698409183 0.237685448719 0.0
0.0 2.699760414 0.237596792291 0.0
0.0 2.701111646 0.23750191149 0.0
0.0 2.702462877 0.237406939352 0.0
0.0 2.703814109 0.237313576821 0.0
0.0 2.70516534 0.237221682738 0.0
0.0 2.706516572 0.237128601896 0.0
0.0 2.707867803 0.237031080178 0.0
0.0 2.709219035 0.236937901988 0.0
0.0 2.710570266 0.236840887058 0.0
0.0 2.711921497 0.236744194615 0.0
0.0 2.713272729 0.236649053246 0.0
0.0 2.71462396 0.23654967977 0.0
0.0 2.715975192 0.236453456331 0.0
0.0 2.717326423 0.236356270051 0.0
0.0 2.718677655 0.236258386888 0.0
0.0 2.720028886 0.236157673528 0.0
0.0 2.721380117 0.236055610395 0.0
0.0 2.722731349 0.235957255519 0.0
0.0 2.72408258 0.235856734423 0.0
0.0 2.725433812 0.235755609744 0.0
0.0 2.726785043 0.235653514609 0.0
0.0 2.728136275 0.235551229196 0.0
0.0 2.729487506 0.235450444753 0.0
0.0 2.730838738 0.235346907807 0.0
0.0 2.732189969 0.235243565795 0.0
0.0 2.7335412 0.235140556554 0.0
0.0 2.734892432 0.235038446164 0.0
0.0 2.736243663 0.234933094934 0.0
0.0 2.737594895 0.234827611247 0.0
0.0 2.738946126 0.23472266205 0.0
0.0 2.740297358 0.23461650439 0.0
0.0 2.741648589 0.234510485627 0.0
0.0 2.742999821 0.234404240392 0.0
0.0 2.744351052 0.234297164236 0.0
0.0 2.745702283 0.234189863814 0.0
0.0 2.747053515 0.234082155836 0.0
0.0 2.748404746 0.233973988682 0.0
0.0 2.749755978 0.233865416092 0.0
0.0 2.751107209 0.233756421678 0.0
0.0 2.752458441 0.233647006336 0.0
0.0 2.753809672 0.233537171294 0.0
0.0 2.755160903 0.233426917537 0.0
0.0 2.756512135 0.233316246039 0.0
0.0 2.757863366 0.233205158029 0.0
0.0 2.759214598 0.233093654408 0.0
0.0 2.760565829 0.232981736404 0.0
0.0 2.761917061 0.232869404903 0.0
0.0 2.763268292 0.232756661144 0.0
0.0 2.764619524 0.23264350602 0.0
0.0 2.765970755 0.23252994076 0.0
0.0 2.767321986 0.232415966337 0.0
0.0 2.768673218 0.23230158374 0.0
0.0 2.770024449 0.232186794195 0.0
0.0 2.771375681 0.232071598589 0.0
0.0 2.772726912 0.231955998165 0.0
0.0 2.774078144 0.23183999381 0.0
0.0 2.775429375 0.231723586755 0.0
0.0 2.776780606 0.231606777979 0.0
0.0 2.778131838 0.231489568461 0.0
0.0 2.779483069 0.231371959437 0.0
0.0 2.780834301 0.231253951784 0.0
0.0 2.782185532 0.23113554675 0.0
0.0 2.783536764 0.231016745219 0.0
0.0 2.784887995 0.230897548429 0.0
0.0 2.786239227 0.230777957262 0.0
0.0 2.787590458 0.230657972965 0.0
0.0 2.788941689 0.23053759651 0.0
0.0 2.790292921 0.230416828865 0.0
0.0 2.791644152 0.230295671273 0.0
0.0 2.792995384 0.230174124622 0.0
0.0 2.794346615 0.230052190147 0.0
0.0 2.795697847 0.229929868734 0.0
0.0 2.797049078 0.229807161627 0.0
0.0 2.798400309 0.229684069799 0.0
0.0 2.799751541 0.229560594216 0.0
0.0 2.801102772 0.229436736124 0.0
0.0 2.802454004 0.229312496405 0.0
0.0 2.803805235 0.229187876302 0.0
0.0 2.805156467 0.229062876692 0.0
0.0 2.806507698 0.228937498829 0.0
0.0 2.80785893 0.228811743585 0.0
0.0 2.809210161 0.228685612208 0.0
0.0 2.810561392 0.228559105666 0.0
0.0 2.811912624 0.228432224934 0.0
0.0 2.813263855 0.228304971257 0.0
0.0 2.814615087 0.228177345509 0.0
0.0 2.815966318 0.228049348942 0.0
0.0 2.81731755 0.227920982431 0.0
0.0 2.818668781 0.22779224723 0.0
0.0 2.820020013 0.2276631442 0.0
0.0 2.821371244 0.227533674604 0.0
0.0 2.822722475 0.227403839407 0.0
0.0 2.824073707 0.227273639575 0.0
0.0 2.825424938 0.227143076363 0.0
0.0 2.82677617 0.227012150639 0.0
0.0 2.828127401 0.22688086366 0.0
0.0 2.829478633 0.226749216294 0.0
0.0 2.830829864 0.226617209797 0.0
0.0 2.832181095 0.226484845135 0.0
0.0 2.833532327 0.226352123272 0.0
0.0 2.834883558 0.226219045467 0.0
0.0 2.83623479 0.226085612585 0.0
0.0 2.837586021 0.225951825882 0.0
0.0 2.838937253 0.225817686231 0.0
0.0 2.840288484 0.225683194889 0.0
0.0 2.841639716 0.225548352722 0.0
0.0 2.842990947 0.225413160985 0.0
0.0 2.844342178 0.225277620644 0.0
0.0 2.84569341 0.225141732661 0.0
0.0 2.847044641 0.2250054983 0.0
0.0 2.848395873 0.22486891842 0.0
0.0 2.849747104 0.224731994287 0.0
0.0 2.851098336 0.224594726759 0.0
0.0 2.852449567 0.2244571171 0.0
0.0 2.853800798 0.224319166275 0.0
0.0 2.85515203 0.224180875244 0.0
0.0 2.856503261 0.224042245271 0.0
0.0 2.857854493 0.223903277215 0.0
0.0 2.859205724 0.223763972345 0.0
0.0 2.860556956 0.223624331513 0.0
0.0 2.861908187 0.223484355993 0.0
0.0 2.863259419 0.223344046639 0.0
0.0 2.86461065 0.223203404724 0.0
0.0 2.865961881 0.223062431202 0.0
0.0 2.867313113 0.22292112703 0.0
0.0 2.868664344 0.22277949348 0.0
0.0 2.870015576 0.222637531407 0.0
0.0 2.871366807 0.222495242082 0.0
0.0 2.872718039 0.222352626357 0.0
0.0 2.87406927 0.222209685504 0.0
0.0 2.875420501 0.222066420483 0.0
0.0 2.876771733 0.221922832248 0.0
0.0 2.878122964 0.221778922073 0.0
0.0 2.879474196 0.22163469081 0.0
0.0 2.880825427 0.221490139732 0.0
0.0 2.882176659 0.221345269688 0.0
0.0 2.88352789 0.221200487803 0.0
0.0 2.884879122 0.221054583397 0.0
0.0 2.886230353 0.220908757241 0.0
0.0 2.887581584 0.220762622495 0.0
0.0 2.888932816 0.220616174095 0.0
0.0 2.890284047 0.220469413318 0.0
0.0 2.891635279 0.220322341013 0.0
0.0 2.89298651 0.220174958461 0.0
0.0 2.894337742 0.220027266498 0.0
0.0 2.895688973 0.219879266409 0.0
0.0 2.897040205 0.219730959038 0.0
0.0 2.898391436 0.219582345666 0.0
0.0 2.899742667 0.219433427247 0.0
0.0 2.901093899 0.21928420473 0.0
0.0 2.90244513 0.219134679401 0.0
0.0 2.903796362 0.2189848521 0.0
0.0 2.905147593 0.218834724111 0.0
0.0 2.906498825 0.218684296275 0.0
0.0 2.907850056 0.218533671198 0.0
0.0 2.909201287 0.218382545865 0.0
0.0 2.910552519 0.218231225192 0.0
0.0 2.91190375 0.218079609144 0.0
0.0 2.913254982 0.217927698561 0.0
0.0 2.914606213 0.21777684333 0.0
0.0 2.915957445 0.217624491979 0.0
0.0 2.917308676 0.217470219612 0.0
0.0 2.918659908 0.217317141237 0.0
0.0 2.920011139 0.217164113725 0.0
0.0 2.92136237 0.21701015542 0.0
0.0 2.922713602 0.216856680268 0.0
0.0 2.924064833 0.216703467414 0.0
0.0 2.925416065 0.216549750012 0.0
0.0 2.926767296 0.216394345325 0.0
0.0 2.928118528 0.216238883391 0.0
0.0 2.929469759 0.216084276492 0.0
0.0 2.93082099 0.215928455397 0.0
0.0 2.932172222 0.215774172221 0.0
0.0 2.933523453 0.215619378468 0.0
0.0 2.934874685 0.215463153434 0.0
0.0 2.936225916 0.21530740194 0.0
0.0 2.937577148 0.215149189389 0.0
0.0 2.938928379 0.214991312324 0.0
0.0 2.940279611 0.21483411446 0.0
0.0 2.941630842 0.214678835916 0.0
0.0 2.942982073 0.214521258822 0.0
0.0 2.944333305 0.214363519124 0.0
0.0 2.945684536 0.214206765269 0.0
0.0 2.947035768 0.214046264126 0.0
0.0 2.948386999 0.213890473599 0.0
0.0 2.949738231 0.213731208211 0.0
0.0 2.951089462 0.213571361225 0.0
0.0 2.952440694 0.213414710802 0.0
0.0 2.953791925 0.213255514564 0.0
0.0 2.955143156 0.213093813277 0.0
0.0 2.956494388 0.212930798738 0.0
0.0 2.957845619 0.212772849938 0.0
0.0 2.959196851 0.212616025304 0.0
0.0 2.960548082 0.212454714659 0.0
0.0 2.961899314 0.212294310178 0.0
0.0 2.963250545 0.212132253375 0.0
0.0 2.964601776 0.211973032951 0.0
0.0 2.965953008 0.21181365661 0.0
0.0 2.967304239 0.211651686547 0.0
0.0 2.968655471 0.211489223732 0.0
0.0 2.970006702 0.211329792756 0.0
0.0 2.971357934 0.21116377738 0.0
0.0 2.972709165 0.211001278479 0.0
0.0 2.974060397 0.210839486078 0.0
0.0 2.975411628 0.210679762971 0.0
0.0 2.976762859 0.21051534935 0.0
0.0 2.978114091 0.210353937108 0.0
0.0 2.979465322 0.21019067131 0.0
0.0 2.980816554 0.210024740439 0.0
0.0 2.982167785 0.209859890116 0.0
0.0 2.983519017 0.209697271497 0.0
0.0 2.984870248 0.209535907029 0.0
0.0 2.986221479 0.209372281248 0.0
0.0 2.987572711 0.209212049797 0.0
0.0 2.988923942 0.209051351484 0.0
0.0 2.990275174 0.208887876015 0.0
0.0 2.991626405 0.208720278905 0.0
0.0 2.992977637 0.208554428191 0.0
0.0 2.994328868 0.208390853409 0.0
0.0 2.9956801 0.208224608866 0.0
0.0 2.997031331 0.208063705723 0.0
0.0 2.998382562 0.207902685068 0.0
0.0 2.999733794 0.207740569855 0.0
0.0 3.001085025 0.207578688028 0.0
0.0 3.002436257 0.207419661719 0.0
0.0 3.003787488 0.207252446574 0.0
0.0 3.00513872 0.207082609051 0.0
0.0 3.006489951 0.20690544508 0.0
0.0 3.007841182 0.206739206488 0.0
0.0 3.009192414 0.206576468959 0.0
0.0 3.010543645 0.206406842249 0.0
0.0 3.011894877 0.206238223941 0.0
0.0 3.013246108 0.206071088905 0.0
0.0 3.01459734 0.205900212503 0.0
0.0 3.015948571 0.205720633959 0.0
0.0 3.017299803 0.205548686189 0.0
0.0 3.018651034 0.205375124494 0.0
0.0 3.020002265 0.205200297189 0.0
0.0 3.021353497 0.205022780062 0.0
0.0 3.022704728 0.204852563033 0.0
0.0 3.02405596 0.204678450715 0.0
0.0 3.025407191 0.204507977192 0.0
0.0 3.026758423 0.204339262954 0.0
0.0 3.028109654 0.204171176595 0.0
0.0 3.029460886 0.20400235417 0.0
0.0 3.030812117 0.203831088626 0.0
0.0 3.032163348 0.203659300919 0.0
0.0 3.03351458 0.203484160992 0.0
0.0 3.034865811 0.203310063957 0.0
0.0 3.036217043 0.20313956357 0.0
0.0 3.037568274 0.202969977267 0.0
0.0 3.038919506 0.202794767692 0.0
0.0 3.040270737 0.202623200002 0.0
0.0 3.041621968 0.202448359398 0.0
0.0 3.0429732 0.202278847518 0.0
0.0 3.044324431 0.202107023071 0.0
0.0 3.045675663 0.201937276749 0.0
0.0 3.047026894 0.201765409367 0.0
0.0 3.048378126 0.201597282404 0.0
0.0 3.049729357 0.201425463266 0.0
0.0 3.051080589 0.201256361297 0.0
0.0 3.05243182 0.20108847064 0.0
0.0 3.053783051 0.200920083622 0.0
0.0 3.055134283 0.200751185515 0.0
0.0 3.056485514 0.200578999064 0.0
0.0 3.057836746 0.200408030094 0.0
0.0 3.059187977 0.200235505597 0.0
0.0 3.060539209 0.2000682388 0.0
0.0 3.06189044 0.199899301694 0.0
0.0 3.063241671 0.199734661337 0.0
0.0 3.064592903 0.199569528984 0.0
0.0 3.065944134 0.199405346846 0.0
0.0 3.067295366 0.19923739582 0.0
0.0 3.068646597 0.199075501203 0.0
0.0 3.069997829 0.198905901586 0.0
0.0 3.07134906 0.198742166993 0.0
0.0 3.072700292 0.198579480871 0.0
0.0 3.074051523 0.198418184861 0.0
0.0 3.075402754 0.198249561666 0.0
0.0 3.076753986 0.198089972581 0.0
0.0 3.078105217 0.197926676669 0.0
0.0 3.079456449 0.197766936883 0.0
0.0 3.08080768 0.197608537336 0.0
0.0 3.082158912 0.197453083423 0.0
0.0 3.083510143 0.197292127844 0.0
0.0 3.084861374 0.197140874674 0.0
0.0 3.086212606 0.19698671385 0.0
0.0 3.087563837 0.196832895037 0.0
0.0 3.088915069 0.19667812868 0.0
0.0 3.0902663 0.196530908804 0.0
0.0 3.091617532 0.196383543182 0.0
0.0 3.092968763 0.196241241359 0.0
0.0 3.094319995 0.196095350243 0.0
0.0 3.095671226 0.195955523023 0.0
0.0 3.097022457 0.195818404895 0.0
0.0 3.098373689 0.195687192222 0.0
0.0 3.09972492 0.195560941686 0.0
0.0 3.101076152 0.195440727003 0.0
0.0 3.102427383 0.195316651766 0.0
0.0 3.103778615 0.195199281529 0.0
0.0 3.105129846 0.195085668418 0.0
0.0 3.106481078 0.194977627099 0.0
0.0 3.107832309 0.194876025439 0.0
0.0 3.10918354 0.194784640236 0.0
0.0 3.110534772 0.194703326852 0.0
0.0 3.111886003 0.194628906981 0.0
0.0 3.113237235 0.194562644718 0.0
0.0 3.114588466 0.194515125907 0.0
0.0 3.115939698 0.194477912348 0.0
0.0 3.117290929 0.194453246696 0.0
0.0 3.11864216 0.194442087079 0.0
0.0 3.119993392 0.194447395879 0.0
0.0 3.121344623 0.194479968479 0.0
0.0 3.122695855 0.194533361854 0.0
0.0 3.124047086 0.194608963744 0.0
0.0 3.125398318 0.19471543948 0.0
0.0 3.126749549 0.19485065752 0.0
0.0 3.128100781 0.195020255826 0.0
0.0 3.129452012 0.195225402656 0.0
0.0 3.130803243 0.195471161221 0.0
0.0 3.132154475 0.195763555662 0.0
0.0 3.133505706 0.196116346882 0.0
0.0 3.134856938 0.196523079375 0.0
0.0 3.136208169 0.196998927326 0.0
0.0 3.137559401 0.197542859986 0.0
0.0 3.138910632 0.198178060519 0.0
0.0 3.140261863 0.198903182228 0.0
0.0 3.141613095 0.199742357469 0.0
0.0 3.142964326 0.200693537968 0.0
0.0 3.144315558 0.201790695138 0.0
0.0 3.145666789 0.203029474802 0.0
0.0 3.147018021 0.204439109271 0.0
0.0 3.148369252 0.206044146053 0.0
0.0 3.149720484 0.207849390629 0.0
0.0 3.151071715 0.209874261178 0.0
0.0 3.152422946 0.212165158296 0.0
0.0 3.153774178 0.214730853947 0.0
0.0 3.155125409 0.21762279925 0.0
0.0 3.156476641 0.220839423105 0.0
0.0 3.157827872 0.224443810743 0.0
0.0 3.159179104 0.228434618519 0.0
0.0 3.160530335 0.232870984356 0.0
0.0 3.161881566 0.237760123337 0.0
0.0 3.163232798 0.24316123369 0.0
0.0 3.164584029 0.24905509494 0.0
0.0 3.165935261 0.255508918277 0.0
0.0 3.167286492 0.262497598572 0.0
0.0 3.168637724 0.270044845028 0.0
0.0 3.169988955 0.2781426936 0.0
0.0 3.171340187 0.286828801713 0.0
0.0 3.172691418 0.296140903547 0.0
0.0 3.174042649 0.305893211721 0.0
0.0 3.175393881 0.316013923579 0.0
0.0 3.176745112 0.326541900301 0.0
0.0 3.178096344 0.337314398465 0.0
0.0 3.179447575 0.348324089292 0.0
0.0 3.180798807 0.35944458062 0.0
0.0 3.182150038 0.370519889048 0.0
0.0 3.18350127 0.381612616889 0.0
0.0 3.184852501 0.392516904711 0.0
0.0 3.186203732 0.403221821098 0.0
0.0 3.187554964 0.413698535747 0.0
0.0 3.188906195 0.423765426148 0.0
0.0 3.190257427 0.433508587423 0.0
0.0 3.191608658 0.442861118414 0.0
0.0 3.19295989 0.451736201784 0.0
0.0 3.194311121 0.460225122814 0.0
0.0 3.195662352 0.468224281075 0.0
0.0 3.197013584 0.475798248333 0.0
0.0 3.198364815 0.483341697082 0.0
0.0 3.199716047 0.490046894727 0.0
0.0 3.201067278 0.496375127191 0.0
0.0 3.20241851 0.502323273997 0.0
0.0 3.203769741 0.507870251524 0.0
0.0 3.205120973 0.51310951943 0.0
0.0 3.206472204 0.51803222143 0.0
0.0 3.207823435 0.522634255827 0.0
0.0 3.209174667 0.52698846028 0.0
0.0 3.210525898 0.53104458314 0.0
0.0 3.21187713 0.534860533993 0.0
0.0 3.213228361 0.538072093246 0.0
0.0 3.214579593 0.541435200905 0.0
0.0 3.215930824 0.544618633801 0.0
0.0 3.217282055 0.547600729271 0.0
0.0 3.218633287 0.550385238501 0.0
0.0 3.219984518 0.553009800331 0.0
0.0 3.22133575 0.555749768312 0.0
0.0 3.222686981 0.558474752196 0.0
0.0 3.224038213 0.560781062041 0.0
0.0 3.225389444 0.562928418027 0.0
0.0 3.226740676 0.564929299062 0.0
0.0 3.228091907 0.566810454048 0.0
0.0 3.229443138 0.568587521466 0.0
0.0 3.23079437 0.570118394926 0.0
0.0 3.232145601 0.571450607761 0.0
0.0 3.233496833 0.572677030458 0.0
0.0 3.234848064 0.573803569798 0.0
0.0 3.236199296 0.574864081103 0.0
0.0 3.237550527 0.575813162892 0.0
0.0 3.238901759 0.576687133191 0.0
0.0 3.24025299 0.577463410874 0.0
0.0 3.241604221 0.578127992256 0.0
0.0 3.242955453 0.578723005519 0.0
0.0 3.244306684 0.579421520056 0.0
0.0 3.245657916 0.580245286444 0.0
0.0 3.247009147 0.58069112336 0.0
0.0 3.248360379 0.581078674713 0.0
0.0 3.24971161 0.581392377097 0.0
0.0 3.251062841 0.581778465766 0.0
0.0 3.252414073 0.582174601199 0.0
0.0 3.253765304 0.582562083264 0.0
0.0 3.255116536 0.582918068786 0.0
0.0 3.256467767 0.583262197708 0.0
0.0 3.257818999 0.583586303234 0.0
0.0 3.25917023 0.583926889973 0.0
0.0 3.260521462 0.584223082545 0.0
0.0 3.261872693 0.584471467251 0.0
0.0 3.263223924 0.584721530361 0.0
0.0 3.264575156 0.584972005986 0.0
0.0 3.265926387 0.585237745179 0.0
0.0 3.267277619 0.58565304443 0.0
0.0 3.26862885 0.586309468389 0.0
0.0 3.269980082 0.586624580457 0.0
0.0 3.271331313 0.586856625145 0.0
0.0 3.272682544 0.587078640488 0.0
0.0 3.274033776 0.587325574713 0.0
0.0 3.275385007 0.587591067299 0.0
0.0 3.276736239 0.587886703553 0.0
0.0 3.27808747 0.588205377048 0.0
0.0 3.279438702 0.58854505608 0.0
0.0 3.280789933 0.588905267712 0.0
0.0 3.282141165 0.58926676802 0.0
0.0 3.283492396 0.589639580334 0.0
0.0 3.284843627 0.590013957456 0.0
0.0 3.286194859 0.590425443706 0.0
0.0 3.28754609 0.590835062289 0.0
0.0 3.288897322 0.591249910716 0.0
0.0 3.290248553 0.592170215703 0.0
0.0 3.291599785 0.592602983561 0.0
0.0 3.292951016 0.593036012443 0.0
0.0 3.294302247 0.593456265553 0.0
0.0 3.295653479 0.593870961877 0.0
0.0 3.29700471 0.59426619985 0.0
0.0 3.298355942 0.594682166821 0.0
0.0 3.299707173 0.595070827365 0.0
0.0 3.301058405 0.595332130747 0.0
0.0 3.302409636 0.595553810874 0.0
0.0 3.303760868 0.595776821148 0.0
0.0 3.305112099 0.595987411668 0.0
0.0 3.30646333 0.596175789166 0.0
0.0 3.307814562 0.596342133753 0.0
0.0 3.309165793 0.59648467114 0.0
0.0 3.310517025 0.59661324373 0.0
0.0 3.311868256 0.597132245602 0.0
0.0 3.313219488 0.597274662861 0.0
0.0 3.314570719 0.597336000075 0.0
0.0 3.315921951 0.597390527727 0.0
0.0 3.317273182 0.597435037723 0.0
0.0 3.318624413 0.597463588187 0.0
0.0 3.319975645 0.597492315288 0.0
0.0 3.321326876 0.597450465664 0.0
0.0 3.322678108 0.597411177633 0.0
0.0 3.324029339 0.597375699276 0.0
0.0 3.325380571 0.597355237654 0.0
0.0 3.326731802 0.597346939094 0.0
0.0 3.328083033 0.597345405251 0.0
0.0 3.329434265 0.597342730895 0.0
0.0 3.330785496 0.597014346009 0.0
0.0 3.332136728 0.596475404748 0.0
0.0 3.333487959 0.595955789563 0.0
0.0 3.334839191 0.595898051726 0.0
0.0 3.336190422 0.595502282894 0.0
0.0 3.337541654 0.595033090675 0.0
0.0 3.338892885 0.594580405345 0.0
0.0 3.340244116 0.593935651988 0.0
0.0 3.341595348 0.592362196589 0.0
0.0 3.342946579 0.590786213918 0.0
0.0 3.344297811 0.589238374357 0.0
0.0 3.345649042 0.587707503736 0.0
0.0 3.347000274 0.586195745109 0.0
0.0 3.348351505 0.584692656471 0.0
0.0 3.349702736 0.583192426334 0.0
0.0 3.351053968 0.580183430778 0.0
0.0 3.352405199 0.576743055184 0.0
0.0 3.353756431 0.573312043772 0.0
0.0 3.355107662 0.569866634058 0.0
0.0 3.356458894 0.566414707228 0.0
0.0 3.357810125 0.562954811195 0.0
0.0 3.359161357 0.559489597846 0.0
0.0 3.360512588 0.557488120182 0.0
0.0 3.361863819 0.557864336055 0.0
0.0 3.363215051 0.558220889552 0.0
0.0 3.364566282 0.558557049634 0.0
0.0 3.365917514 0.558883040072 0.0
0.0 3.367268745 0.559197778143 0.0
0.0 3.368619977 0.559503960009 0.0
0.0 3.369971208 0.559796687247 0.0
0.0 3.371322439 0.563389739069 0.0
0.0 3.372673671 0.567355331129 0.0
0.0 3.374024902 0.571626354844 0.0
0.0 3.375376134 0.575246159733 0.0
0.0 3.376727365 0.578850686648 0.0
0.0 3.378078597 0.582445448028 0.0
0.0 3.379429828 0.586025273768 0.0
0.0 3.38078106 0.588053938709 0.0
0.0 3.382132291 0.588955089294 0.0
0.0 3.383483522 0.58985484715 0.0
0.0 3.384834754 0.59076021384 0.0
0.0 3.386185985 0.591652344474 0.0
0.0 3.387537217 0.592533313854 0.0
0.0 3.388888448 0.593410646186 0.0
0.0 3.39023968 0.594032975805 0.0
0.0 3.391590911 0.593492723496 0.0
0.0 3.392942143 0.592952739666 0.0
0.0 3.394293374 0.592413859943 0.0
0.0 3.395644605 0.591873412155 0.0
0.0 3.396995837 0.591327983096 0.0
0.0 3.398347068 0.590786166158 0.0
0.0 3.3996983 0.590255526682 0.0
0.0 3.401049531 0.58971563722 0.0
0.0 3.402400763 0.589182725494 0.0
0.0 3.403751994 0.588664767458 0.0
0.0 3.405103225 0.588168144663 0.0
0.0 3.406454457 0.587688831089 0.0
0.0 3.407805688 0.587237686506 0.0
0.0 3.40915692 0.586890547217 0.0
0.0 3.410508151 0.586983210972 0.0
0.0 3.411859383 0.586783179224 0.0
0.0 3.413210614 0.586596770504 0.0
0.0 3.414561846 0.586420913338 0.0
0.0 3.415913077 0.586703918724 0.0
0.0 3.417264308 0.586594836516 0.0
0.0 3.41861554 0.586459398136 0.0
0.0 3.419966771 0.586327683271 0.0
0.0 3.421318003 0.586557657257 0.0
0.0 3.422669234 0.586804727429 0.0
0.0 3.424020466 0.587049315332 0.0
0.0 3.425371697 0.587285310109 0.0
0.0 3.426722928 0.587511389413 0.0
0.0 3.42807416 0.587748599839 0.0
0.0 3.429425391 0.587979031133 0.0
0.0 3.430776623 0.588122294167 0.0
0.0 3.432127854 0.588234863502 0.0
0.0 3.433479086 0.588329294159 0.0
0.0 3.434830317 0.588356077121 0.0
0.0 3.436181549 0.588275783043 0.0
0.0 3.43753278 0.588090786417 0.0
0.0 3.438884011 0.587885577283 0.0
0.0 3.440235243 0.587629457053 0.0
0.0 3.441586474 0.587201445656 0.0
0.0 3.442937706 0.586749628002 0.0
0.0 3.444288937 0.586780453504 0.0
0.0 3.445640169 0.586279607643 0.0
0.0 3.4469914 0.585731843037 0.0
0.0 3.448342631 0.585340007265 0.0
0.0 3.449693863 0.585098826484 0.0
0.0 3.451045094 0.584711318953 0.0
0.0 3.452396326 0.584382376612 0.0
0.0 3.453747557 0.584040238969 0.0
0.0 3.455098789 0.583710243885 0.0
0.0 3.45645002 0.583388105521 0.0
0.0 3.457801252 0.583076854524 0.0
0.0 3.459152483 0.582798434406 0.0
0.0 3.460503714 0.582676519804 0.0
0.0 3.461854946 0.582837398413 0.0
0.0 3.463206177 0.583029572628 0.0
0.0 3.464557409 0.58325566062 0.0
0.0 3.46590864 0.583546958475 0.0
0.0 3.467259872 0.583881387822 0.0
0.0 3.468611103 0.584281222167 0.0
0.0 3.469962335 0.584724841449 0.0
0.0 3.471313566 0.584925243902 0.0
0.0 3.472664797 0.585194428818 0.0
0.0 3.474016029 0.585485945789 0.0
0.0 3.47536726 0.585829060457 0.0
0.0 3.476718492 0.586582936735 0.0
0.0 3.478069723 0.587142608466 0.0
0.0 3.479420955 0.587794673226 0.0
0.0 3.480772186 0.588690346267 0.0
0.0 3.482123417 0.589439034575 0.0
0.0 3.483474649 0.590137718367 0.0
0.0 3.48482588 0.59077325282 0.0
0.0 3.486177112 0.591329479068 0.0
0.0 3.487528343 0.591736900253 0.0
0.0 3.488879575 0.592004612047 0.0
0.0 3.490230806 0.592064784199 0.0
0.0 3.491582038 0.591986559769 0.0
0.0 3.492933269 0.591652001299 0.0
0.0 3.4942845 0.590988881918 0.0
0.0 3.495635732 0.58999282466 0.0
0.0 3.496986963 0.588575916262 0.0
0.0 3.498338195 0.586706076319 0.0
0.0 3.499689426 0.584343256882 0.0
0.0 3.501040658 0.581367233287 0.0
0.0 3.502391889 0.577842879672 0.0
0.0 3.50374312 0.57374286726 0.0
0.0 3.505094352 0.569030981503 0.0
0.0 3.506445583 0.56374381987 0.0
0.0 3.507796815 0.558195527512 0.0
0.0 3.509148046 0.551669554291 0.0
0.0 3.510499278 0.544679374243 0.0
0.0 3.511850509 0.537095942732 0.0
0.0 3.513201741 0.528785786733 0.0
0.0 3.514552972 0.520001856853 0.0
0.0 3.515904203 0.510842533677 0.0
0.0 3.517255435 0.501372710989 0.0
0.0 3.518606666 0.49150953456 0.0
0.0 3.519957898 0.48134270329 0.0
0.0 3.521309129 0.470870229837 0.0
0.0 3.522660361 0.460217512793 0.0
0.0 3.524011592 0.449470104462 0.0
0.0 3.525362824 0.438655030126 0.0
0.0 3.526714055 0.427883094048 0.0
0.0 3.528065286 0.417167560066 0.0
0.0 3.529416518 0.406534270866 0.0
0.0 3.530767749 0.396081988925 0.0
0.0 3.532118981 0.385802457788 0.0
0.0 3.533470212 0.375781958777 0.0
0.0 3.534821444 0.366254124646 0.0
0.0 3.536172675 0.356814472769 0.0
0.0 3.537523906 0.347659875621 0.0
0.0 3.538875138 0.338791715615 0.0
0.0 3.540226369 0.330240633237 0.0
0.0 3.541577601 0.321989860414 0.0
0.0 3.542928832 0.314231985495 0.0
0.0 3.544280064 0.306643837394 0.0
0.0 3.545631295 0.299359608221 0.0
0.0 3.546982527 0.292388187103 0.0
0.0 3.548333758 0.285737826447 0.0
0.0 3.549684989 0.279355104586 0.0
0.0 3.551036221 0.273268823214 0.0
0.0 3.552387452 0.267595807362 0.0
0.0 3.553738684 0.261997526919 0.0
0.0 3.555089915 0.256666642546 0.0
0.0 3.556441147 0.251553020072 0.0
0.0 3.557792378 0.246662062216 0.0
0.0 3.559143609 0.24198645389 0.0
0.0 3.560494841 0.237492117582 0.0
0.0 3.561846072 0.233203948679 0.0
0.0 3.563197304 0.229069009541 0.0
0.0 3.564548535 0.225076305516 0.0
0.0 3.565899767 0.221245903004 0.0
0.0 3.567250998 0.217529738456 0.0
0.0 3.56860223 0.214006183899 0.0
0.0 3.569953461 0.210575414747 0.0
0.0 3.571304692 0.207190677017 0.0
0.0 3.572655924 0.203921990706 0.0
0.0 3.574007155 0.20073678274 0.0
0.0 3.575358387 0.197645785396 0.0
0.0 3.576709618 0.194651383612 0.0
0.0 3.57806085 0.191780327364 0.0
0.0 3.579412081 0.188924203377 0.0
0.0 3.580763312 0.18613343562 0.0
0.0 3.582114544 0.183402094854 0.0
0.0 3.583465775 0.180760610966 0.0
0.0 3.584817007 0.178224855672 0.0
0.0 3.586168238 0.175717037856 0.0
0.0 3.58751947 0.17327351228 0.0
0.0 3.588870701 0.170888364394 0.0
0.0 3.590221933 0.168584479737 0.0
0.0 3.591573164 0.166338092117 0.0
0.0 3.592924395 0.164153386057 0.0
0.0 3.594275627 0.162055933611 0.0
0.0 3.595626858 0.160016303326 0.0
0.0 3.59697809 0.158055455756 0.0
0.0 3.598329321 0.156173726073 0.0
0.0 3.599680553 0.154351380212 0.0
0.0 3.601031784 0.152609224559 0.0
0.0 3.602383016 0.150935051394 0.0
0.0 3.603734247 0.14935106351 0.0
0.0 3.605085478 0.147832167594 0.0
0.0 3.60643671 0.146360427496 0.0
0.0 3.607787941 0.144963859233 0.0
0.0 3.609139173 0.143640291076 0.0
0.0 3.610490404 0.142362481792 0.0
0.0 3.611841636 0.141159408749 0.0
0.0 3.613192867 0.140014145295 0.0
0.0 3.614544098 0.13892176588 0.0
0.0 3.61589533 0.137894083857 0.0
0.0 3.617246561 0.136910056578 0.0
0.0 3.618597793 0.135981115133 0.0
0.0 3.619949024 0.135115615678 0.0
0.0 3.621300256 0.134270318786 0.0
0.0 3.622651487 0.13347444781 0.0
0.0 3.624002719 0.132715960324 0.0
0.0 3.62535395 0.13199469271 0.0
0.0 3.626705181 0.131324656761 0.0
0.0 3.628056413 0.130670489408 0.0
0.0 3.629407644 0.130044786118 0.0
0.0 3.630758876 0.129462907737 0.0
0.0 3.632110107 0.128897461477 0.0
0.0 3.633461339 0.128367204487 0.0
0.0 3.63481257 0.127864671381 0.0
0.0 3.636163801 0.127372122113 0.0
0.0 3.637515033 0.12690558616 0.0
0.0 3.638866264 0.12645868144 0.0
0.0 3.640217496 0.12603578083 0.0
0.0 3.641568727 0.125638383596 0.0
0.0 3.642919959 0.125242908518 0.0
0.0 3.64427119 0.124864473901 0.0
0.0 3.645622422 0.124506020184 0.0
0.0 3.646973653 0.124152740185 0.0
0.0 3.648324884 0.123819597352 0.0
0.0 3.649676116 0.123494776629 0.0
0.0 3.651027347 0.123171267071 0.0
0.0 3.652378579 0.122873057548 0.0
0.0 3.65372981 0.122576443358 0.0
0.0 3.655081042 0.122286591464 0.0
0.0 3.656432273 0.122014960422 0.0
0.0 3.657783504 0.121738782645 0.0
0.0 3.659134736 0.121474234992 0.0
0.0 3.660485967 0.121224598583 0.0
0.0 3.661837199 0.120972193866 0.0
0.0 3.66318843 0.120730472641 0.0
0.0 3.664539662 0.120493532394 0.0
0.0 3.665890893 0.120255543167 0.0
0.0 3.667242125 0.120028909534 0.0
0.0 3.668593356 0.119802434476 0.0
0.0 3.669944587 0.119582303649 0.0
0.0 3.671295819 0.119371981185 0.0
0.0 3.67264705 0.119156133759 0.0
0.0 3.673998282 0.118945397093 0.0
0.0 3.675349513 0.118742554148 0.0
0.0 3.676700745 0.118534712605 0.0
0.0 3.678051976 0.118337206261 0.0
0.0 3.679403208 0.118144949456 0.0
0.0 3.680754439 0.117949542363 0.0
0.0 3.68210567 0.117765433571 0.0
0.0 3.683456902 0.117577105236 0.0
0.0 3.684808133 0.117385523774 0.0
0.0 3.686159365 0.1172078865 0.0
0.0 3.687510596 0.117020884278 0.0
0.0 3.688861828 0.116832267919 0.0
0.0 3.690213059 0.11665667713 0.0
0.0 3.69156429 0.116477193846 0.0
0.0 3.692915522 0.116301991783 0.0
0.0 3.694266753 0.116133830142 0.0
0.0 3.695617985 0.115958342406 0.0
0.0 3.696969216 0.115788367902 0.0
0.0 3.698320448 0.115619409204 0.0
0.0 3.699671679 0.115443998477 0.0
0.0 3.701022911 0.115275350329 0.0
0.0 3.702374142 0.115107858006 0.0
0.0 3.703725373 0.114939866893 0.0
0.0 3.705076605 0.114779700392 0.0
0.0 3.706427836 0.114616370376 0.0
0.0 3.707779068 0.11445116579 0.0
0.0 3.709130299 0.114290271156 0.0
0.0 3.710481531 0.114126127157 0.0
0.0 3.711832762 0.113965174412 0.0
0.0 3.713183993 0.113807410867 0.0
0.0 3.714535225 0.113645751391 0.0
0.0 3.715886456 0.113490887604 0.0
0.0 3.717237688 0.113338351133 0.0
0.0 3.718588919 0.113179093601 0.0
0.0 3.719940151 0.113024155743 0.0
0.0 3.721291382 0.112871263712 0.0
0.0 3.722642614 0.112716741602 0.0
0.0 3.723993845 0.112565469801 0.0
0.0 3.725345076 0.112409482896 0.0
0.0 3.726696308 0.112253064601 0.0
0.0 3.728047539 0.112104138325 0.0
0.0 3.729398771 0.111952793078 0.0
0.0 3.730750002 0.111802881467 0.0
0.0 3.732101234 0.11165717019 0.0
0.0 3.733452465 0.111505725627 0.0
0.0 3.734803696 0.111357397869 0.0
0.0 3.736154928 0.111213667131 0.0
0.0 3.737506159 0.111064163147 0.0
0.0 3.738857391 0.110919617076 0.0
0.0 3.740208622 0.110778326248 0.0
0.0 3.741559854 0.110631354003 0.0
0.0 3.742911085 0.110488316597 0.0
0.0 3.744262317 0.110345410415 0.0
0.0 3.745613548 0.110197479757 0.0
0.0 3.746964779 0.11005570066 0.0
0.0 3.748316011 0.109913945874 0.0
0.0 3.749667242 0.109769476637 0.0
0.0 3.751018474 0.109632730122 0.0
0.0 3.752369705 0.109495445525 0.0
0.0 3.753720937 0.109355459333 0.0
0.0 3.755072168 0.109220474623 0.0
0.0 3.7564234 0.109081402682 0.0
0.0 3.757774631 0.108939845486 0.0
0.0 3.759125862 0.108804805195 0.0
0.0 3.760477094 0.108667614668 0.0
0.0 3.761828325 0.108529705887 0.0
0.0 3.763179557 0.108397757172 0.0
0.0 3.764530788 0.108265804555 0.0
0.0 3.76588202 0.108135613736 0.0
0.0 3.767233251 0.1080084577 0.0
0.0 3.768584482 0.107877501336 0.0
0.0 3.769935714 0.107748145428 0.0
0.0 3.771286945 0.107622231439 0.0
0.0 3.772638177 0.107492287097 0.0
0.0 3.773989408 0.107363804864 0.0
0.0 3.77534064 0.107238418123 0.0
0.0 3.776691871 0.107109525589 0.0
0.0 3.778043103 0.106983488415 0.0
0.0 3.779394334 0.106858258247 0.0
0.0 3.780745565 0.106732693649 0.0
0.0 3.782096797 0.106610793713 0.0
0.0 3.783448028 0.106490760165 0.0
0.0 3.78479926 0.106367643221 0.0
0.0 3.786150491 0.106246565215 0.0
0.0 3.787501723 0.106126302994 0.0
0.0 3.788852954 0.106002384173 0.0
0.0 3.790204185 0.10588257338 0.0
0.0 3.791555417 0.105764874711 0.0
0.0 3.792906648 0.10564183777 0.0
0.0 3.79425788 0.105522414198 0.0
0.0 3.795609111 0.105407286329 0.0
0.0 3.796960343 0.105288335308 0.0
0.0 3.798311574 0.105172977614 0.0
0.0 3.799662806 0.105059997804 0.0
0.0 3.801014037 0.104942384121 0.0
0.0 3.802365268 0.104827543392 0.0
0.0 3.8037165 0.104711632444 0.0
0.0 3.805067731 0.104594169843 0.0
0.0 3.806418963 0.104483637366 0.0
0.0 3.807770194 0.104369257665 0.0
0.0 3.809121426 0.104249343552 0.0
0.0 3.810472657 0.10413794734 0.0
0.0 3.811823889 0.104028262657 0.0
0.0 3.81317512 0.103914687189 0.0
0.0 3.814526351 0.103802523752 0.0
0.0 3.815877583 0.103689509879 0.0
0.0 3.817228814 0.10357603537 0.0
0.0 3.818580046 0.103466664551 0.0
0.0 3.819931277 0.103357689284 0.0
0.0 3.821282509 0.103246884642 0.0
0.0 3.82263374 0.103137752809 0.0
0.0 3.823984971 0.10303065025 0.0
0.0 3.825336203 0.102921610697 0.0
0.0 3.826687434 0.102815864742 0.0
0.0 3.828038666 0.102711911727 0.0
0.0 3.829389897 0.102604415316 0.0
0.0 3.830741129 0.102497776605 0.0
0.0 3.83209236 0.102392345052 0.0
0.0 3.833443592 0.102284626543 0.0
0.0 3.834794823 0.102181321588 0.0
0.0 3.836146054 0.102077697729 0.0
0.0 3.837497286 0.101967201107 0.0
0.0 3.838848517 0.101862188955 0.0
0.0 3.840199749 0.101761902557 0.0
0.0 3.84155098 0.101658258446 0.0
0.0 3.842902212 0.101558474136 0.0
0.0 3.844253443 0.101454710531 0.0
0.0 3.845604674 0.101346481396 0.0
0.0 3.846955906 0.101244403405 0.0
0.0 3.848307137 0.101145029426 0.0
0.0 3.849658369 0.101044906536 0.0
0.0 3.8510096 0.100946071279 0.0
0.0 3.852360832 0.100847117301 0.0
0.0 3.853712063 0.100740785757 0.0
0.0 3.855063295 0.10064008925 0.0
0.0 3.856414526 0.10054502988 0.0
0.0 3.857765757 0.100450479959 0.0
0.0 3.859116989 0.100356623216 0.0
0.0 3.86046822 0.100265225889 0.0
0.0 3.861819452 0.100165531754 0.0
0.0 3.863170683 0.100069301126 0.0
0.0 3.864521915 0.0999784382195 0.0
0.0 3.865873146 0.099883136239 0.0
0.0 3.867224377 0.0997886549119 0.0
0.0 3.868575609 0.0996955568709 0.0
0.0 3.86992684 0.0995994179438 0.0
0.0 3.871278072 0.0995048585242 0.0
0.0 3.872629303 0.0994121491275 0.0
0.0 3.873980535 0.0993169556697 0.0
0.0 3.875331766 0.0992223414648 0.0
0.0 3.876682998 0.0991316814511 0.0
0.0 3.878034229 0.0990397358964 0.0
0.0 3.87938546 0.0989469497161 0.0
0.0 3.880736692 0.098860763611 0.0
0.0 3.882087923 0.0987744312899 0.0
0.0 3.883439155 0.0986843133815 0.0
0.0 3.884790386 0.098596893126 0.0
0.0 3.886141618 0.0985079028645 0.0
0.0 3.887492849 0.098417676526 0.0
0.0 3.888844081 0.0983297721539 0.0
0.0 3.890195312 0.0982436681717 0.0
0.0 3.891546543 0.09815673056 0.0
0.0 3.892897775 0.0980742417019 0.0
0.0 3.894249006 0.0979954069986 0.0
0.0 3.895600238 0.0979111881403 0.0
0.0 3.896951469 0.0978266850148 0.0
0.0 3.898302701 0.0977431403817 0.0
0.0 3.899653932 0.0976576151654 0.0
0.0 3.901005163 0.097576627211 0.0
0.0 3.902356395 0.097493754186 0.0
0.0 3.903707626 0.0974063655368 0.0
0.0 3.905058858 0.0973242119505 0.0
0.0 3.906410089 0.0972459099129 0.0
0.0 3.907761321 0.0971662526596 0.0
0.0 3.909112552 0.09708825161 0.0
0.0 3.910463784 0.0970112527971 0.0
0.0 3.911815015 0.0969301539039 0.0
0.0 3.913166246 0.0968498676977 0.0
0.0 3.914517478 0.0967772710742 0.0
0.0 3.915868709 0.0966989211134 0.0
0.0 3.917219941 0.0966152984778 0.0
0.0 3.918571172 0.0965419270458 0.0
0.0 3.919922404 0.0964689250794 0.0
0.0 3.921273635 0.0963935125116 0.0
0.0 3.922624866 0.0963187773071 0.0
0.0 3.923976098 0.0962418591095 0.0
0.0 3.925327329 0.0961652691553 0.0
0.0 3.926678561 0.0960933489523 0.0
0.0 3.928029792 0.0960244315587 0.0
0.0 3.929381024 0.0959510434847 0.0
0.0 3.930732255 0.0958796054381 0.0
0.0 3.932083487 0.0958099735186 0.0
0.0 3.933434718 0.0957383339684 0.0
0.0 3.934785949 0.0956705474336 0.0
0.0 3.936137181 0.0956049218891 0.0
0.0 3.937488412 0.0955374405488 0.0
0.0 3.938839644 0.0954694461372 0.0
0.0 3.940190875 0.0954027568857 0.0
0.0 3.941542107 0.0953352259823 0.0
0.0 3.942893338 0.0952664076169 0.0
0.0 3.944244569 0.0952004569155 0.0
0.0 3.945595801 0.0951329116194 0.0
0.0 3.946947032 0.0950648289622 0.0
0.0 3.948298264 0.0950019223268 0.0
0.0 3.949649495 0.0949362542792 0.0
0.0 3.951000727 0.0948699263898 0.0
0.0 3.952351958 0.0948089173493 0.0
0.0 3.95370319 0.0947517653234 0.0
0.0 3.955054421 0.0946919240921 0.0
0.0 3.956405652 0.0946307983649 0.0
0.0 3.957756884 0.0945698779236 0.0
0.0 3.959108115 0.0945014621128 0.0
0.0 3.960459347 0.0944379649364 0.0
0.0 3.961810578 0.0943820133344 0.0
0.0 3.96316181 0.0943229330063 0.0
0.0 3.964513041 0.0942637899995 0.0
0.0 3.965864273 0.094208488093 0.0
0.0 3.967215504 0.0941534384057 0.0
0.0 3.968566735 0.0940933475736 0.0
0.0 3.969917967 0.094035656877 0.0
0.0 3.971269198 0.0939821490485 0.0
0.0 3.97262043 0.0939242383559 0.0
0.0 3.973971661 0.0938719481684 0.0
0.0 3.975322893 0.0938218446884 0.0
0.0 3.976674124 0.0937674619052 0.0
0.0 3.978025355 0.0937118078746 0.0
0.0 3.979376587 0.0936591538427 0.0
0.0 3.980727818 0.0936071777504 0.0
0.0 3.98207905 0.0935526248355 0.0
0.0 3.983430281 0.0935034376951 0.0
0.0 3.984781513 0.0934541730344 0.0
0.0 3.986132744 0.0934029654502 0.0
0.0 3.987483976 0.0933555010942 0.0
0.0 3.988835207 0.0933083809945 0.0
0.0 3.990186438 0.0932581701145 0.0
0.0 3.99153767 0.0932076463479 0.0
0.0 3.992888901 0.0931617573244 0.0
0.0 3.994240133 0.093114438112 0.0
0.0 3.995591364 0.0930645796796 0.0
0.0 3.996942596 0.0930181957696 0.0
0.0 3.998293827 0.0929721534266 0.0
0.0 3.999645058 0.0929270134585 0.0
0.0 4.00099629 0.0928830019173 0.0
0.0 4.002347521 0.0928378368447 0.0
0.0 4.003698753 0.0927899122923 0.0
0.0 4.005049984 0.0927450635366 0.0
0.0 4.006401216 0.0927039964366 0.0
0.0 4.007752447 0.09266335947 0.0
0.0 4.009103679 0.0926275714417 0.0
0.0 4.01045491 0.0925925063597 0.0
0.0 4.011806141 0.0925531632638 0.0
0.0 4.013157373 0.0925113361575 0.0
0.0 4.014508604 0.0924741574292 0.0
0.0 4.015859836 0.092435809594 0.0
0.0 4.017211067 0.0923915363477 0.0
0.0 4.018562299 0.0923529083672 0.0
0.0 4.01991353 0.0923156892242 0.0
0.0 4.021264761 0.0922771535378 0.0
0.0 4.022615993 0.0922400985624 0.0
0.0 4.023967224 0.0922080585545 0.0
0.0 4.025318456 0.0921758175451 0.0
0.0 4.026669687 0.0921403626449 0.0
0.0 4.028020919 0.0921074553569 0.0
0.0 4.02937215 0.0920735430969 0.0
0.0 4.030723382 0.0920408745477 0.0
0.0 4.032074613 0.0920114953813 0.0
0.0 4.033425844 0.0919837176305 0.0
0.0 4.034777076 0.0919516723917 0.0
0.0 4.036128307 0.0919220095206 0.0
0.0 4.037479539 0.091899575037 0.0
0.0 4.03883077 0.0918750578939 0.0
0.0 4.040182002 0.0918482937519 0.0
0.0 4.041533233 0.0918203881441 0.0
0.0 4.042884465 0.0917917346001 0.0
0.0 4.044235696 0.0917628446061 0.0
0.0 4.045586927 0.0917411979768 0.0
0.0 4.046938159 0.0917204690656 0.0
0.0 4.04828939 0.0916951063941 0.0
0.0 4.049640622 0.0916714127683 0.0
0.0 4.050991853 0.091650532608 0.0
0.0 4.052343085 0.0916295531969 0.0
0.0 4.053694316 0.0916064306803 0.0
0.0 4.055045547 0.0915878165987 0.0
0.0 4.056396779 0.0915673423146 0.0
0.0 4.05774801 0.0915450312717 0.0
0.0 4.059099242 0.0915258354269 0.0
0.0 4.060450473 0.091508247021 0.0
0.0 4.061801705 0.0914880076968 0.0
0.0 4.063152936 0.0914667235663 0.0
0.0 4.064504168 0.0914550011711 0.0
0.0 4.065855399 0.0914430386053 0.0
0.0 4.06720663 0.0914288549867 0.0
0.0 4.068557862 0.0914141195389 0.0
0.0 4.069909093 0.0913988849581 0.0
0.0 4.071260325 0.0913816364367 0.0
0.0 4.072611556 0.0913679139692 0.0
0.0 4.073962788 0.0913593587475 0.0
0.0 4.075314019 0.0913474438226 0.0
0.0 4.07666525 0.0913352214002 0.0
0.0 4.078016482 0.0913249035522 0.0
0.0 4.079367713 0.0913153141185 0.0
0.0 4.080718945 0.0913020028827 0.0
0.0 4.082070176 0.091293686032 0.0
0.0 4.083421408 0.0912879601189 0.0
0.0 4.084772639 0.0912790298846 0.0
0.0 4.086123871 0.0912698845255 0.0
0.0 4.087475102 0.091263391453 0.0
0.0 4.088826333 0.0912576799311 0.0
0.0 4.090177565 0.0912483071379 0.0
0.0 4.091528796 0.0912454998329 0.0
0.0 4.092880028 0.0912450527522 0.0
0.0 4.094231259 0.0912435443504 0.0
0.0 4.095582491 0.0912412737475 0.0
0.0 4.096933722 0.0912424643383 0.0
0.0 4.098284953 0.0912418094482 0.0
0.0 4.099636185 0.0912388295514 0.0
0.0 4.100987416 0.0912404557749 0.0
0.0 4.102338648 0.0912440856374 0.0
0.0 4.103689879 0.091246637858 0.0
0.0 4.105041111 0.0912478220792 0.0
0.0 4.106392342 0.0912524383992 0.0
0.0 4.107743574 0.0912539598434 0.0
0.0 4.109094805 0.0912556441962 0.0
0.0 4.110446036 0.0912602564261 0.0
0.0 4.111797268 0.0912671385067 0.0
0.0 4.113148499 0.0912716753045 0.0
0.0 4.114499731 0.0912773325417 0.0
0.0 4.115850962 0.0912854582587 0.0
0.0 4.117202194 0.0912906684497 0.0
0.0 4.118553425 0.0912956239483 0.0
0.0 4.119904657 0.0913038481656 0.0
0.0 4.121255888 0.0913167330222 0.0
0.0 4.122607119 0.091326683191 0.0
0.0 4.123958351 0.091339675411 0.0
0.0 4.125309582 0.0913549401249 0.0
0.0 4.126660814 0.0913702755676 0.0
0.0 4.128012045 0.0913833750179 0.0
0.0 4.129363277 0.0913981011407 0.0
0.0 4.130714508 0.0914110125128 0.0
0.0 4.132065739 0.0914218621176 0.0
0.0 4.133416971 0.0914353995713 0.0
0.0 4.134768202 0.0914519218839 0.0
0.0 4.136119434 0.0914675456362 0.0
0.0 4.137470665 0.091480758225 0.0
0.0 4.138821897 0.0915014845182 0.0
0.0 4.140173128 0.0915247332257 0.0
0.0 4.14152436 0.0915472205581 0.0
0.0 4.142875591 0.0915672786446 0.0
0.0 4.144226822 0.0915878934358 0.0
0.0 4.145578054 0.0916060614795 0.0
0.0 4.146929285 0.0916260607587 0.0
0.0 4.148280517 0.0916498075002 0.0
0.0 4.149631748 0.0916761726288 0.0
0.0 4.15098298 0.0917006525184 0.0
0.0 4.152334211 0.0917269538119 0.0
0.0 4.153685442 0.0917562697125 0.0
0.0 4.155036674 0.0917829016586 0.0
0.0 4.156387905 0.0918071532801 0.0
0.0 4.157739137 0.0918320446487 0.0
0.0 4.159090368 0.0918608976274 0.0
0.0 4.1604416 0.091888357094 0.0
0.0 4.161792831 0.0919173653823 0.0
0.0 4.163144063 0.0919482791492 0.0
0.0 4.164495294 0.0919802594845 0.0
0.0 4.165846525 0.0920114478891 0.0
0.0 4.167197757 0.0920473196898 0.0
0.0 4.168548988 0.0920833337384 0.0
0.0 4.16990022 0.0921168934109 0.0
0.0 4.171251451 0.0921489777589 0.0
0.0 4.172602683 0.0921846965525 0.0
0.0 4.173953914 0.0922213279484 0.0
0.0 4.175305146 0.0922575462955 0.0
0.0 4.176656377 0.0922956795106 0.0
0.0 4.178007608 0.0923355315839 0.0
0.0 4.17935884 0.0923732176362 0.0
0.0 4.180710071 0.0924107495118 0.0
0.0 4.182061303 0.09245372801 0.0
0.0 4.183412534 0.0924978552543 0.0
0.0 4.184763766 0.0925403284198 0.0
0.0 4.186114997 0.0925807922401 0.0
0.0 4.187466228 0.092622871179 0.0
0.0 4.18881746 0.092662265631 0.0
0.0 4.190168691 0.092703018106 0.0
0.0 4.191519923 0.0927476239337 0.0
0.0 4.192871154 0.0927988151612 0.0
0.0 4.194222386 0.0928473498961 0.0
0.0 4.195573617 0.0928954029933 0.0
0.0 4.196924849 0.0929433047838 0.0
0.0 4.19827608 0.0929904261683 0.0
0.0 4.199627311 0.0930345068766 0.0
0.0 4.200978543 0.0930849459237 0.0
0.0 4.202329774 0.0931397658092 0.0
0.0 4.203681006 0.0931946027303 0.0
0.0 4.205032237 0.0932456393355 0.0
0.0 4.206383469 0.093295890459 0.0
0.0 4.2077347 0.0933469494162 0.0
0.0 4.209085931 0.0933981871266 0.0
0.0 4.210437163 0.0934515734389 0.0
0.0 4.211788394 0.0935091871424 0.0
0.0 4.213139626 0.0935682027676 0.0
0.0 4.214490857 0.0936252976906 0.0
0.0 4.215842089 0.093684991755 0.0
0.0 4.21719332 0.0937471887297 0.0
0.0 4.218544552 0.0938109922667 0.0
0.0 4.219895783 0.0938744892196 0.0
0.0 4.221247014 0.0939384645639 0.0
0.0 4.222598246 0.0939998527141 0.0
0.0 4.223949477 0.0940587001946 0.0
0.0 4.225300709 0.0941185994628 0.0
0.0 4.22665194 0.094184938631 0.0
0.0 4.228003172 0.0942496252556 0.0
0.0 4.229354403 0.0943130689618 0.0
0.0 4.230705634 0.0943767827087 0.0
0.0 4.232056866 0.0944444190377 0.0
0.0 4.233408097 0.0945100657947 0.0
0.0 4.234759329 0.0945759775186 0.0
0.0 4.23611056 0.0946439152841 0.0
0.0 4.237461792 0.0947149359202 0.0
0.0 4.238813023 0.0947856999525 0.0
0.0 4.240164255 0.0948592533052 0.0
0.0 4.241515486 0.0949343384427 0.0
0.0 4.242866717 0.095009350567 0.0
0.0 4.244217949 0.0950806316114 0.0
0.0 4.24556918 0.095154089122 0.0
0.0 4.246920412 0.0952290882125 0.0
0.0 4.248271643 0.0953054547817 0.0
0.0 4.249622875 0.0953821526577 0.0
0.0 4.250974106 0.0954633157859 0.0
0.0 4.252325338 0.0955422625727 0.0
0.0 4.253676569 0.0956179809233 0.0
0.0 4.2550278 0.0956924963038 0.0
0.0 4.256379032 0.0957719655307 0.0
0.0 4.257730263 0.0958531487187 0.0
0.0 4.259081495 0.0959354515768 0.0
0.0 4.260432726 0.0960196942796 0.0
0.0 4.261783958 0.0961081008704 0.0
0.0 4.263135189 0.0961930597654 0.0
0.0 4.26448642 0.0962768210357 0.0
0.0 4.265837652 0.0963623017347 0.0
0.0 4.267188883 0.0964506689963 0.0
0.0 4.268540115 0.0965367420485 0.0
0.0 4.269891346 0.0966233055667 0.0
0.0 4.271242578 0.0967118441043 0.0
0.0 4.272593809 0.0968026430116 0.0
0.0 4.273945041 0.096891208404 0.0
0.0 4.275296272 0.0969818938317 0.0
0.0 4.276647503 0.0970756083818 0.0
0.0 4.277998735 0.0971699582278 0.0
0.0 4.279349966 0.0972610878814 0.0
0.0 4.280701198 0.0973536278047 0.0
0.0 4.282052429 0.0974494650821 0.0
0.0 4.283403661 0.0975471561081 0.0
0.0 4.284754892 0.0976445234917 0.0
0.0 4.286106123 0.0977442132131 0.0
0.0 4.287457355 0.0978444830869 0.0
0.0 4.288808586 0.0979441160446 0.0
0.0 4.290159818 0.0980425202896 0.0
0.0 4.291511049 0.0981426556069 0.0
0.0 4.292862281 0.0982415045174 0.0
0.0 4.294213512 0.0983400115397 0.0
0.0 4.295564744 0.0984421919701 0.0
0.0 4.296915975 0.0985494999108 0.0
0.0 4.298267206 0.0986572624885 0.0
0.0 4.299618438 0.098762728067 0.0
0.0 4.300969669 0.0988671982941 0.0
0.0 4.302320901 0.0989749298699 0.0
0.0 4.303672132 0.0990827849859 0.0
0.0 4.305023364 0.0991902801874 0.0
0.0 4.306374595 0.0992998550766 0.0
0.0 4.307725826 0.0994139448801 0.0
0.0 4.309077058 0.099527955036 0.0
0.0 4.310428289 0.0996430080368 0.0
0.0 4.311779521 0.0997591265558 0.0
0.0 4.313130752 0.0998761432813 0.0
0.0 4.314481984 0.0999872840629 0.0
0.0 4.315833215 0.100098518094 0.0
0.0 4.317184447 0.100210950577 0.0
0.0 4.318535678 0.100327171138 0.0
0.0 4.319886909 0.100441690394 0.0
0.0 4.321238141 0.100558564394 0.0
0.0 4.322589372 0.100677564993 0.0
0.0 4.323940604 0.100801959299 0.0
0.0 4.325291835 0.10092493222 0.0
0.0 4.326643067 0.101048080814 0.0
0.0 4.327994298 0.101171869913 0.0
0.0 4.32934553 0.101294893365 0.0
0.0 4.330696761 0.101412904126 0.0
0.0 4.332047992 0.101533955123 0.0
0.0 4.333399224 0.101657153703 0.0
0.0 4.334750455 0.101783864257 0.0
0.0 4.336101687 0.101912196188 0.0
0.0 4.337452918 0.102043383155 0.0
0.0 4.33880415 0.102175536586 0.0
0.0 4.340155381 0.102305237373 0.0
0.0 4.341506612 0.102432797595 0.0
0.0 4.342857844 0.102563605967 0.0
0.0 4.344209075 0.102697172402 0.0
0.0 4.345560307 0.102832531497 0.0
0.0 4.346911538 0.102968185807 0.0
0.0 4.34826277 0.103105119738 0.0
0.0 4.349614001 0.10324280338 0.0
0.0 4.350965233 0.10337766061 0.0
0.0 4.352316464 0.103511901012 0.0
0.0 4.353667695 0.103648693459 0.0
0.0 4.355018927 0.103787562332 0.0
0.0 4.356370158 0.103925717532 0.0
0.0 4.35772139 0.104065210261 0.0
0.0 4.359072621 0.104207353473 0.0
0.0 4.360423853 0.104352120276 0.0
0.0 4.361775084 0.104495664708 0.0
0.0 4.363126315 0.104639267126 0.0
0.0 4.364477547 0.104783456241 0.0
0.0 4.365828778 0.104928806921 0.0
0.0 4.36718001 0.10507387068 0.0
0.0 4.368531241 0.105222361868 0.0
0.0 4.369882473 0.105369849805 0.0
0.0 4.371233704 0.105521355808 0.0
0.0 4.372584936 0.105672726028 0.0
0.0 4.373936167 0.105823936274 0.0
0.0 4.375287398 0.105975332508 0.0
0.0 4.37663863 0.106128086909 0.0
0.0 4.377989861 0.106281599723 0.0
0.0 4.379341093 0.106436450782 0.0
0.0 4.380692324 0.106592772807 0.0
0.0 4.382043556 0.106747214476 0.0
0.0 4.383394787 0.106902936466 0.0
0.0 4.384746018 0.107060270823 0.0
0.0 4.38609725 0.107220067806 0.0
0.0 4.387448481 0.107381707917 0.0
0.0 4.388799713 0.107544263003 0.0
0.0 4.390150944 0.107707362842 0.0
0.0 4.391502176 0.107870249977 0.0
0.0 4.392853407 0.108031059689 0.0
0.0 4.394204639 0.108191586554 0.0
0.0 4.39555587 0.108352930044 0.0
0.0 4.396907101 0.108518522601 0.0
0.0 4.398258333 0.108686033808 0.0
0.0 4.399609564 0.108855141165 0.0
0.0 4.400960796 0.109025075952 0.0
0.0 4.402312027 0.109195039724 0.0
0.0 4.403663259 0.109364575908 0.0
0.0 4.40501449 0.109534019099 0.0
0.0 4.406365722 0.109705254287 0.0
0.0 4.407716953 0.109878647489 0.0
0.0 4.409068184 0.110052903908 0.0
0.0 4.410419416 0.110226851266 0.0
0.0 4.411770647 0.110401432967 0.0
0.0 4.413121879 0.110577164181 0.0
0.0 4.41447311 0.110753708888 0.0
0.0 4.415824342 0.110929960934 0.0
0.0 4.417175573 0.111108738183 0.0
0.0 4.418526804 0.111289682039 0.0
0.0 4.419878036 0.111473566274 0.0
0.0 4.421229267 0.111656189057 0.0
0.0 4.422580499 0.111838478214 0.0
0.0 4.42393173 0.112020799744 0.0
0.0 4.425282962 0.112203823497 0.0
0.0 4.426634193 0.112387311682 0.0
0.0 4.427985425 0.112572002223 0.0
0.0 4.429336656 0.112758698563 0.0
0.0 4.430687887 0.112946021264 0.0
0.0 4.432039119 0.113135427561 0.0
0.0 4.43339035 0.113326139654 0.0
0.0 4.434741582 0.113517757041 0.0
0.0 4.436092813 0.113709371412 0.0
0.0 4.437444045 0.11390161308 0.0
0.0 4.438795276 0.114094730426 0.0
0.0 4.440146507 0.114288738563 0.0
0.0 4.441497739 0.114482976558 0.0
0.0 4.44284897 0.114678180513 0.0
0.0 4.444200202 0.1148762235 0.0
0.0 4.445551433 0.115076712192 0.0
0.0 4.446902665 0.115278527467 0.0
0.0 4.448253896 0.115478330617 0.0
0.0 4.449605128 0.115675504171 0.0
0.0 4.450956359 0.115875322131 0.0
0.0 4.45230759 0.116077784836 0.0
0.0 4.453658822 0.116282005657 0.0
0.0 4.455010053 0.11648729794 0.0
0.0 4.456361285 0.11669346388 0.0
0.0 4.457712516 0.116900474532 0.0
0.0 4.459063748 0.11710716009 0.0
0.0 4.460414979 0.117316233739 0.0
0.0 4.461766211 0.117527194709 0.0
0.0 4.463117442 0.117737680729 0.0
0.0 4.464468673 0.117946911097 0.0
0.0 4.465819905 0.118155934459 0.0
0.0 4.467171136 0.118367281227 0.0
0.0 4.468522368 0.118581188362 0.0
0.0 4.469873599 0.11879620639 0.0
0.0 4.471224831 0.119011415783 0.0
0.0 4.472576062 0.119228523285 0.0
0.0 4.473927293 0.119445955822 0.0
0.0 4.475278525 0.119662952885 0.0
0.0 4.476629756 0.119879488381 0.0
0.0 4.477980988 0.120100181885 0.0
0.0 4.479332219 0.120322621378 0.0
0.0 4.480683451 0.120546143476 0.0
0.0 4.482034682 0.120769999199 0.0
0.0 4.483385914 0.120993915467 0.0
0.0 4.484737145 0.121218770381 0.0
0.0 4.486088376 0.121442825728 0.0
0.0 4.487439608 0.121669832161 0.0
0.0 4.488790839 0.121896878003 0.0
0.0 4.490142071 0.122123497348 0.0
0.0 4.491493302 0.122352498124 0.0
0.0 4.492844534 0.122584309657 0.0
0.0 4.494195765 0.122816323032 0.0
0.0 4.495546996 0.123049635371 0.0
0.0 4.496898228 0.123283658807 0.0
0.0 4.498249459 0.123516690902 0.0
0.0 4.499600691 0.123751491469 0.0
0.0 4.500951922 0.123987687863 0.0
0.0 4.502303154 0.124225260064 0.0
0.0 4.503654385 0.124461925897 0.0
0.0 4.505005617 0.124700326702 0.0
0.0 4.506356848 0.124940927842 0.0
0.0 4.507708079 0.125183459543 0.0
0.0 4.509059311 0.12542584191 0.0
0.0 4.510410542 0.125668253429 0.0
0.0 4.511761774 0.125912796399 0.0
0.0 4.513113005 0.126158188777 0.0
0.0 4.514464237 0.126403726988 0.0
0.0 4.515815468 0.126647683198 0.0
0.0 4.517166699 0.126894008752 0.0
0.0 4.518517931 0.127142638369 0.0
0.0 4.519869162 0.127394120294 0.0
0.0 4.521220394 0.127646320593 0.0
0.0 4.522571625 0.127899370048 0.0
0.0 4.523922857 0.128154170426 0.0
0.0 4.525274088 0.128407662005 0.0
0.0 4.52662532 0.128659933733 0.0
0.0 4.527976551 0.128913745598 0.0
0.0 4.529327782 0.129169856333 0.0
0.0 4.530679014 0.129427093393 0.0
0.0 4.532030245 0.129686115126 0.0
0.0 4.533381477 0.129947882814 0.0
0.0 4.534732708 0.130211536431 0.0
0.0 4.53608394 0.130476350737 0.0
0.0 4.537435171 0.130737699142 0.0
0.0 4.538786403 0.13099969897 0.0
0.0 4.540137634 0.131262662473 0.0
0.0 4.541488865 0.131527334879 0.0
0.0 4.542840097 0.131790618613 0.0
0.0 4.544191328 0.132055031107 0.0
0.0 4.54554256 0.132322344921 0.0
0.0 4.546893791 0.132591943306 0.0
0.0 4.548245023 0.132861812591 0.0
0.0 4.549596254 0.133130796389 0.0
0.0 4.550947485 0.133401753812 0.0
0.0 4.552298717 0.13367427238 0.0
0.0 4.553649948 0.133948597186 0.0
0.0 4.55500118 0.134222588947 0.0
0.0 4.556352411 0.134499272435 0.0
0.0 4.557703643 0.134778619518 0.0
0.0 4.559054874 0.13505909426 0.0
0.0 4.560406106 0.135339222907 0.0
0.0 4.561757337 0.135617594052 0.0
0.0 4.563108568 0.135899274257 0.0
0.0 4.5644598 0.136181938492 0.0
0.0 4.565811031 0.136465117204 0.0
0.0 4.567162263 0.136746913961 0.0
0.0 4.568513494 0.137032520935 0.0
0.0 4.569864726 0.137322604554 0.0
0.0 4.571215957 0.137610520629 0.0
0.0 4.572567188 0.1378956116 0.0
0.0 4.57391842 0.138181969288 0.0
0.0 4.575269651 0.138471469456 0.0
0.0 4.576620883 0.138761385238 0.0
0.0 4.577972114 0.139053639978 0.0
0.0 4.579323346 0.139346855045 0.0
0.0 4.580674577 0.139641339675 0.0
0.0 4.582025809 0.139939561809 0.0
0.0 4.58337704 0.140233878743 0.0
0.0 4.584728271 0.14052913859 0.0
0.0 4.586079503 0.14082647415 0.0
0.0 4.587430734 0.141125561447 0.0
0.0 4.588781966 0.141426836181 0.0
0.0 4.590133197 0.141727696163 0.0
0.0 4.591484429 0.142029319504 0.0
0.0 4.59283566 0.142334618222 0.0
0.0 4.594186891 0.142640725262 0.0
0.0 4.595538123 0.142944618728 0.0
0.0 4.596889354 0.143249907714 0.0
0.0 4.598240586 0.143557974613 0.0
0.0 4.599591817 0.143865398908 0.0
0.0 4.600943049 0.144174462447 0.0
0.0 4.60229428 0.144484435664 0.0
0.0 4.603645512 0.144796434113 0.0
0.0 4.604996743 0.145109288924 0.0
0.0 4.606347974 0.145424376539 0.0
0.0 4.607699206 0.145738309147 0.0
0.0 4.609050437 0.146053747047 0.0
0.0 4.610401669 0.146370799294 0.0
0.0 4.6117529 0.146689434474 0.0
0.0 4.613104132 0.147008453372 0.0
0.0 4.614455363 0.147327439468 0.0
0.0 4.615806595 0.147648319111 0.0
0.0 4.617157826 0.147970632516 0.0
0.0 4.618509057 0.148296420801 0.0
0.0 4.619860289 0.148621898674 0.0
0.0 4.62121152 0.148944998853 0.0
0.0 4.622562752 0.149271374356 0.0
0.0 4.623913983 0.149599076747 0.0
0.0 4.625265215 0.149927840758 0.0
0.0 4.626616446 0.150257036825 0.0
0.0 4.627967677 0.150589417004 0.0
0.0 4.629318909 0.150925346341 0.0
0.0 4.63067014 0.15125929138 0.0
0.0 4.632021372 0.151592530378 0.0
0.0 4.633372603 0.151926253806 0.0
0.0 4.634723835 0.152262223249 0.0
0.0 4.636075066 0.152598360315 0.0
0.0 4.637426298 0.152935188412 0.0
0.0 4.638777529 0.153273484518 0.0
0.0 4.64012876 0.153614060134 0.0
0.0 4.641479992 0.153956968963 0.0
0.0 4.642831223 0.154297357076 0.0
0.0 4.644182455 0.154638678632 0.0
0.0 4.645533686 0.154984142381 0.0
0.0 4.646884918 0.155331360912 0.0
0.0 4.648236149 0.155678535945 0.0
0.0 4.64958738 0.156025737375 0.0
0.0 4.650938612 0.156375217096 0.0
0.0 4.652289843 0.156724518451 0.0
0.0 4.653641075 0.157073998741 0.0
0.0 4.654992306 0.157422410581 0.0
0.0 4.656343538 0.157775527205 0.0
0.0 4.657694769 0.158130778377 0.0
0.0 4.659046001 0.158486885248 0.0
0.0 4.660397232 0.158844532384 0.0
0.0 4.661748463 0.159200080869 0.0
0.0 4.663099695 0.159557333069 0.0
0.0 4.664450926 0.159916837572 0.0
0.0 4.665802158 0.160276793667 0.0
0.0 4.667153389 0.160638281152 0.0
0.0 4.668504621 0.160999724356 0.0
0.0 4.669855852 0.161364096789 0.0
0.0 4.671207083 0.161730441372 0.0
0.0 4.672558315 0.162098132354 0.0
0.0 4.673909546 0.162466153318 0.0
0.0 4.675260778 0.162835471183 0.0
0.0 4.676612009 0.163206043621 0.0
0.0 4.677963241 0.163576502864 0.0
0.0 4.679314472 0.163947217029 0.0
0.0 4.680665704 0.164317202104 0.0
0.0 4.682016935 0.164689209791 0.0
0.0 4.683368166 0.165063582808 0.0
0.0 4.684719398 0.165438902559 0.0
0.0 4.686070629 0.165814672517 0.0
0.0 4.687421861 0.166192617778 0.0
0.0 4.688773092 0.16657217068 0.0
0.0 4.690124324 0.166951868575 0.0
0.0 4.691475555 0.167331385203 0.0
0.0 4.692826787 0.167712537964 0.0
0.0 4.694178018 0.168095008299 0.0
0.0 4.695529249 0.168479221774 0.0
0.0 4.696880481 0.168866817931 0.0
0.0 4.698231712 0.169254055292 0.0
0.0 4.699582944 0.169642706262 0.0
0.0 4.700934175 0.170031432848 0.0
0.0 4.702285407 0.170423705412 0.0
0.0 4.703636638 0.170815652511 0.0
0.0 4.704987869 0.171207961724 0.0
0.0 4.706339101 0.171601587124 0.0
0.0 4.707690332 0.17199479904 0.0
0.0 4.709041564 0.172388748221 0.0
0.0 4.710392795 0.172780588134 0.0
0.0 4.711744027 0.173177826546 0.0
0.0 4.713095258 0.173576510884 0.0
0.0 4.71444649 0.173976859535 0.0
0.0 4.715797721 0.174378645499 0.0
0.0 4.717148952 0.174781361146 0.0
0.0 4.718500184 0.175185876732 0.0
0.0 4.719851415 0.175592880656 0.0
0.0 4.721202647 0.175998579668 0.0
0.0 4.722553878 0.176402961525 0.0
0.0 4.72390511 0.176810082677 0.0
0.0 4.725256341 0.177219243005 0.0
0.0 4.726607572 0.177629694021 0.0
0.0 4.727958804 0.178041704303 0.0
0.0 4.729310035 0.178454539355 0.0
0.0 4.730661267 0.178868653496 0.0
0.0 4.732012498 0.179284322703 0.0
0.0 4.73336373 0.179700720762 0.0
0.0 4.734714961 0.180117870342 0.0
0.0 4.736066193 0.180535734905 0.0
0.0 4.737417424 0.180955393466 0.0
0.0 4.738768655 0.181376537403 0.0
0.0 4.740119887 0.181796923306 0.0
0.0 4.741471118 0.182219611488 0.0
0.0 4.74282235 0.18264523268 0.0
0.0 4.744173581 0.183072584613 0.0
0.0 4.745524813 0.183501425826 0.0
0.0 4.746876044 0.183927317644 0.0
0.0 4.748227276 0.184354320517 0.0
0.0 4.749578507 0.184782639378 0.0
0.0 4.750929738 0.18521313155 0.0
0.0 4.75228097 0.185645782403 0.0
0.0 4.753632201 0.186078404771 0.0
0.0 4.754983433 0.186511194514 0.0
0.0 4.756334664 0.186947441233 0.0
0.0 4.757685896 0.187384239646 0.0
0.0 4.759037127 0.187822327085 0.0
0.0 4.760388358 0.188259850108 0.0
0.0 4.76173959 0.188698970535 0.0
0.0 4.763090821 0.189139528909 0.0
0.0 4.764442053 0.189581351639 0.0
0.0 4.765793284 0.190025224343 0.0
0.0 4.767144516 0.190469865618 0.0
0.0 4.768495747 0.190914732827 0.0
0.0 4.769846979 0.191361760465 0.0
0.0 4.77119821 0.191810013582 0.0
0.0 4.772549441 0.192259600882 0.0
0.0 4.773900673 0.192712063588 0.0
0.0 4.775251904 0.193164220347 0.0
0.0 4.776603136 0.193616484446 0.0
0.0 4.777954367 0.194069345727 0.0
0.0 4.779305599 0.194523988985 0.0
0.0 4.78065683 0.19498037359 0.0
0.0 4.782008061 0.195437975649 0.0
0.0 4.783359293 0.195896753907 0.0
0.0 4.784710524 0.196356708748 0.0
0.0 4.786061756 0.196817841915 0.0
0.0 4.787412987 0.197280155434 0.0
0.0 4.788764219 0.197743891471 0.0
0.0 4.79011545 0.1982097345 0.0
0.0 4.791466682 0.198674945513 0.0
0.0 4.792817913 0.199141239922 0.0
0.0 4.794169144 0.199609436716 0.0
0.0 4.795520376 0.200078845525 0.0
0.0 4.796871607 0.20054944047 0.0
0.0 4.798222839 0.201021223308 0.0
0.0 4.79957407 0.201494308513 0.0
0.0 4.800925302 0.201970155273 0.0
0.0 4.802276533 0.202446743056 0.0
0.0 4.803627764 0.202922422399 0.0
0.0 4.804978996 0.203400405535 0.0
0.0 4.806330227 0.20387965328 0.0
0.0 4.807681459 0.204360179319 0.0
0.0 4.80903269 0.204842044506 0.0
0.0 4.810383922 0.205323937808 0.0
0.0 4.811735153 0.205806261325 0.0
0.0 4.813086385 0.206289534022 0.0
0.0 4.814437616 0.206775630204 0.0
0.0 4.815788847 0.207262947457 0.0
0.0 4.817140079 0.207751467489 0.0
0.0 4.81849131 0.208241191681 0.0
0.0 4.819842542 0.208732343259 0.0
0.0 4.821193773 0.209227311287 0.0
0.0 4.822545005 0.209722220567 0.0
0.0 4.823896236 0.210216164009 0.0
0.0 4.825247468 0.210710844155 0.0
0.0 4.826598699 0.211206462806 0.0
0.0 4.82794993 0.211703223789 0.0
0.0 4.829301162 0.212202432079 0.0
0.0 4.830652393 0.212703032392 0.0
0.0 4.832003625 0.21320484915 0.0
0.0 4.833354856 0.213707880704 0.0
0.0 4.834706088 0.214212128859 0.0
0.0 4.836057319 0.214717593932 0.0
0.0 4.83740855 0.215224277359 0.0
0.0 4.838759782 0.215732182611 0.0
0.0 4.840111013 0.216241510639 0.0
0.0 4.841462245 0.216753433154 0.0
0.0 4.842813476 0.217266385381 0.0
0.0 4.844164708 0.217780073372 0.0
0.0 4.845515939 0.218294612231 0.0
0.0 4.846867171 0.218809366935 0.0
0.0 4.848218402 0.219324312638 0.0
0.0 4.849569633 0.219840458339 0.0
0.0 4.850920865 0.220358405347 0.0
0.0 4.852272096 0.220878512568 0.0
0.0 4.853623328 0.221399946207 0.0
0.0 4.854974559 0.221922609011 0.0
0.0 4.856325791 0.222446372437 0.0
0.0 4.857677022 0.222971456229 0.0
0.0 4.859028253 0.223497777988 0.0
0.0 4.860379485 0.224025414254 0.0
0.0 4.861730716 0.224554386522 0.0
0.0 4.863081948 0.225084170361 0.0
0.0 4.864433179 0.225615439563 0.0
0.0 4.865784411 0.226147954206 0.0
0.0 4.867135642 0.226681769957 0.0
0.0 4.868486874 0.227217643283 0.0
0.0 4.869838105 0.227754266741 0.0
0.0 4.871189336 0.228291302718 0.0
0.0 4.872540568 0.228830894438 0.0
0.0 4.873891799 0.229370427105 0.0
0.0 4.875243031 0.229910814425 0.0
0.0 4.876594262 0.23045286973 0.0
0.0 4.877945494 0.230996589154 0.0
0.0 4.879296725 0.231541568455 0.0
0.0 4.880647956 0.232087800105 0.0
0.0 4.881999188 0.232635286393 0.0
0.0 4.883350419 0.233184162871 0.0
0.0 4.884701651 0.233735934553 0.0
0.0 4.886052882 0.234288408707 0.0
0.0 4.887404114 0.234841653109 0.0
0.0 4.888755345 0.23539576842 0.0
0.0 4.890106577 0.235950566065 0.0
0.0 4.891457808 0.236506650348 0.0
0.0 4.892809039 0.237064297003 0.0
0.0 4.894160271 0.237623070568 0.0
0.0 4.895511502 0.238181944332 0.0
0.0 4.896862734 0.238740736629 0.0
0.0 4.898213965 0.239303261085 0.0
0.0 4.899565197 0.239867137576 0.0
0.0 4.900916428 0.240432281934 0.0
0.0 4.90226766 0.240998696055 0.0
0.0 4.903618891 0.241566380166 0.0
0.0 4.904970122 0.242135335749 0.0
0.0 4.906321354 0.242705564285 0.0
0.0 4.907672585 0.243277065994 0.0
0.0 4.909023817 0.243849842785 0.0
0.0 4.910375048 0.244423910164 0.0
0.0 4.91172628 0.245000239402 0.0
0.0 4.913077511 0.245577750466 0.0
0.0 4.914428742 0.246154877891 0.0
0.0 4.915779974 0.246732899749 0.0
0.0 4.917131205 0.247313329145 0.0
0.0 4.918482437 0.247895058292 0.0
0.0 4.919833668 0.248478070164 0.0
0.0 4.9211849 0.249062366688 0.0
0.0 4.922536131 0.24964794806 0.0
0.0 4.923887363 0.25023481621 0.0
0.0 4.925238594 0.250822971332 0.0
0.0 4.926589825 0.251412414922 0.0
0.0 4.927941057 0.252003148479 0.0
0.0 4.929292288 0.252595172191 0.0
0.0 4.93064352 0.253188487998 0.0
0.0 4.931994751 0.253783096084 0.0
0.0 4.933345983 0.254378998389 0.0
0.0 4.934697214 0.254976195096 0.0
0.0 4.936048445 0.255574687708 0.0
0.0 4.937399677 0.25617447773 0.0
0.0 4.938750908 0.256775565338 0.0
0.0 4.94010214 0.257377952482 0.0
0.0 4.941453371 0.257981639337 0.0
0.0 4.942804603 0.258586627857 0.0
0.0 4.944155834 0.259192918205 0.0
0.0 4.945507066 0.25980052577 0.0
0.0 4.946858297 0.260410131822 0.0
0.0 4.948209528 0.261019665913 0.0
0.0 4.94956076 0.261631124531 0.0
0.0 4.950911991 0.262243942206 0.0
0.0 4.952263223 0.262858068989 0.0
0.0 4.953614454 0.263473505032 0.0
0.0 4.954965686 0.264090252309 0.0
0.0 4.956316917 0.26470831097 0.0
0.0 4.957668148 0.265327682531 0.0
0.0 4.95901938 0.265948368517 0.0
0.0 4.960370611 0.26657036907 0.0
0.0 4.961721843 0.267193688515 0.0
0.0 4.963073074 0.267818384494 0.0
0.0 4.964424306 0.268444640525 0.0
0.0 4.965775537 0.269072429853 0.0
0.0 4.967126769 0.26970148161 0.0
0.0 4.968478 0.270332485457 0.0
0.0 4.969829231 0.270962508799 0.0
0.0 4.971180463 0.271594831675 0.0
0.0 4.972531694 0.272228954036 0.0
0.0 4.973882926 0.272864828625 0.0
0.0 4.975234157 0.273502626165 0.0
0.0 4.976585389 0.27414054508 0.0
0.0 4.97793662 0.274779353316 0.0
0.0 4.979287852 0.275419212986 0.0
0.0 4.980639083 0.276060664544 0.0
0.0 4.981990314 0.276703878887 0.0
0.0 4.983341546 0.277348953178 0.0
0.0 4.984692777 0.277994819797 0.0
0.0 4.986044009 0.278642314413 0.0
0.0 4.98739524 0.279291472442 0.0
0.0 4.988746472 0.279939337675 0.0
0.0 4.990097703 0.280589911468 0.0
0.0 4.991448934 0.281242219884 0.0
0.0 4.992800166 0.28189612527 0.0
0.0 4.994151397 0.282551914524 0.0
0.0 4.995502629 0.283208491091 0.0
0.0 4.99685386 0.28386690097 0.0
0.0 4.998205092 0.284525116852 0.0
0.0 4.999556323 0.285185308837 0.0
0.0 5.000907555 0.285847361183 0.0
0.0 5.002258786 0.286511288523 0.0
0.0 5.003610017 0.287176223174 0.0
0.0 5.004961249 0.287841382884 0.0
0.0 5.00631248 0.288508428119 0.0
0.0 5.007663712 0.289177117301 0.0
0.0 5.009014943 0.289847166341 0.0
0.0 5.010366175 0.290518575981 0.0
0.0 5.011717406 0.291191373161 0.0
0.0 5.013068637 0.291865613136 0.0
0.0 5.014419869 0.292541434853 0.0
0.0 5.0157711 0.293218646994 0.0
0.0 5.017122332 0.293897193367 0.0
0.0 5.018473563 0.294576858834 0.0
0.0 5.019824795 0.295257847136 0.0
0.0 5.021176026 0.295940176926 0.0
0.0 5.022527258 0.296623352458 0.0
0.0 5.023878489 0.297308651901 0.0
0.0 5.02522972 0.297993734198 0.0
0.0 5.026580952 0.298681437851 0.0
0.0 5.027932183 0.299370544227 0.0
0.0 5.029283415 0.30006102032 0.0
0.0 5.030634646 0.300752866171 0.0
0.0 5.031985878 0.301446083866 0.0
0.0 5.033337109 0.302140673442 0.0
0.0 5.034688341 0.302836636988 0.0
0.0 5.036039572 0.303533974726 0.0
0.0 5.037390803 0.304232711292 0.0
0.0 5.038742035 0.304933031954 0.0
0.0 5.040093266 0.305634913245 0.0
0.0 5.041444498 0.30633844397 0.0
0.0 5.042795729 0.307043364327 0.0
0.0 5.044146961 0.307748894628 0.0
0.0 5.045498192 0.308455434493 0.0
0.0 5.046849423 0.309162356227 0.0
0.0 5.048200655 0.30987204331 0.0
0.0 5.049551886 0.310583184312 0.0
0.0 5.050903118 0.3112957122 0.0
0.0 5.052254349 0.312009626826 0.0
0.0 5.053605581 0.312724930311 0.0
0.0 5.054956812 0.313441622658 0.0
0.0 5.056308044 0.314159705988 0.0
0.0 5.057659275 0.314879180303 0.0
0.0 5.059010506 0.315600047195 0.0
0.0 5.060361738 0.316322308261 0.0
0.0 5.061712969 0.317045985977 0.0
0.0 5.063064201 0.317771620729 0.0
0.0 5.064415432 0.318498329108 0.0
0.0 5.065766664 0.319225868459 0.0
0.0 5.067117895 0.319954566655 0.0
0.0 5.068469126 0.32068519847 0.0
0.0 5.069820358 0.321417244772 0.0
0.0 5.071171589 0.322150692671 0.0
0.0 5.072522821 0.322885544315 0.0
0.0 5.073874052 0.323621799678 0.0
0.0 5.075225284 0.324359460914 0.0
0.0 5.076576515 0.325098527992 0.0
0.0 5.077927747 0.325839003073 0.0
0.0 5.079278978 0.326580886115 0.0
0.0 5.080630209 0.327324178731 0.0
0.0 5.081981441 0.328068882536 0.0
0.0 5.083332672 0.328814997491 0.0
0.0 5.084683904 0.32956252576 0.0
0.0 5.086035135 0.330311467302 0.0
0.0 5.087386367 0.331061824285 0.0
0.0 5.088737598 0.331813596663 0.0
0.0 5.090088829 0.332566786051 0.0
0.0 5.091440061 0.333321394073 0.0
0.0 5.092791292 0.334077420672 0.0
0.0 5.094142524 0.334834868032 0.0
0.0 5.095493755 0.335593736091 0.0
0.0 5.096844987 0.336354027036 0.0
0.0 5.098196218 0.337115740805 0.0
0.0 5.09954745 0.337878879586 0.0
