0.0 2.002610509 0.209709754106 0.0
0.0 2.004754632 0.209872594843 0.0
0.0 2.006898754 0.210034014423 0.0
0.0 2.009042877 0.210194015741 0.0
0.0 2.011186999 0.210352601393 0.0
0.0 2.013331122 0.210509774266 0.0
0.0 2.015475245 0.210665537031 0.0
0.0 2.017619367 0.210819892357 0.0
0.0 2.01976349 0.210972843134 0.0
0.0 2.021907612 0.211124391962 0.0
0.0 2.024051735 0.211274541726 0.0
0.0 2.026195858 0.211423295103 0.0
0.0 2.02833998 0.211570654769 0.0
0.0 2.030484103 0.211716623604 0.0
0.0 2.032628225 0.21186120422 0.0
0.0 2.034772348 0.212004399493 0.0
0.0 2.036916471 0.212146212103 0.0
0.0 2.039060593 0.212286644731 0.0
0.0 2.041204716 0.212425700252 0.0
0.0 2.043348838 0.212563381281 0.0
0.0 2.045492961 0.212699690694 0.0
0.0 2.047637084 0.212834631171 0.0
0.0 2.049781206 0.212968205396 0.0
0.0 2.051925329 0.21310041624 0.0
0.0 2.054069451 0.213231266326 0.0
0.0 2.056213574 0.213360758522 0.0
0.0 2.058357697 0.213488895512 0.0
0.0 2.060501819 0.213615679985 0.0
0.0 2.062645942 0.213741114804 0.0
0.0 2.064790064 0.213865202598 0.0
0.0 2.066934187 0.213987946232 0.0
0.0 2.06907831 0.214109348393 0.0
0.0 2.071222432 0.214229411771 0.0
0.0 2.073366555 0.214348139227 0.0
0.0 2.075510677 0.214465533397 0.0
0.0 2.0776548 0.214581597135 0.0
0.0 2.079798923 0.214696333139 0.0
0.0 2.081943045 0.214809744099 0.0
0.0 2.084087168 0.214921832875 0.0
0.0 2.08623129 0.215032602108 0.0
0.0 2.088375413 0.215142054648 0.0
0.0 2.090519536 0.215250193174 0.0
0.0 2.092663658 0.215357020402 0.0
0.0 2.094807781 0.215462539142 0.0
0.0 2.096951903 0.215566752063 0.0
0.0 2.099096026 0.215669661996 0.0
0.0 2.101240149 0.215771271639 0.0
0.0 2.103384271 0.215871583689 0.0
0.0 2.105528394 0.215970600948 0.0
0.0 2.107672516 0.216068326113 0.0
0.0 2.109816639 0.216164761999 0.0
0.0 2.111960762 0.216259911329 0.0
0.0 2.114104884 0.216353776794 0.0
0.0 2.116249007 0.216446361254 0.0
0.0 2.118393129 0.216537667388 0.0
0.0 2.120537252 0.21662769804 0.0
0.0 2.122681375 0.216716455884 0.0
0.0 2.124825497 0.216803943618 0.0
0.0 2.12696962 0.216890164071 0.0
0.0 2.129113742 0.216975119901 0.0
0.0 2.131257865 0.217058813941 0.0
0.0 2.133401988 0.217141248903 0.0
0.0 2.13554611 0.217222427485 0.0
0.0 2.137690233 0.217302352515 0.0
0.0 2.139834355 0.217381026631 0.0
0.0 2.141978478 0.21745845268 0.0
0.0 2.144122601 0.217534633367 0.0
0.0 2.146266723 0.217609571407 0.0
0.0 2.148410846 0.217683269614 0.0
0.0 2.150554968 0.21775573064 0.0
0.0 2.152699091 0.217826957319 0.0
0.0 2.154843214 0.217896952366 0.0
0.0 2.156987336 0.217965718482 0.0
0.0 2.159131459 0.218033258496 0.0
0.0 2.161275581 0.218099575038 0.0
0.0 2.163419704 0.218164670944 0.0
0.0 2.165563827 0.218228548916 0.0
0.0 2.167707949 0.218291211688 0.0
0.0 2.169852072 0.21835266204 0.0
0.0 2.171996194 0.218412902648 0.0
0.0 2.174140317 0.218471936342 0.0
0.0 2.17628444 0.218529765799 0.0
0.0 2.178428562 0.2185863938 0.0
0.0 2.180572685 0.218641823093 0.0
0.0 2.182716807 0.218696056382 0.0
0.0 2.18486093 0.218749096476 0.0
0.0 2.187005053 0.218800946025 0.0
0.0 2.189149175 0.218851607801 0.0
0.0 2.191293298 0.218901084581 0.0
0.0 2.19343742 0.218949379071 0.0
0.0 2.195581543 0.218996494073 0.0
0.0 2.197725666 0.219042432225 0.0
0.0 2.199869788 0.219087196321 0.0
0.0 2.202013911 0.219130789142 0.0
0.0 2.204158033 0.21917321338 0.0
0.0 2.206302156 0.219214471856 0.0
0.0 2.208446279 0.219254567174 0.0
0.0 2.210590401 0.219293502133 0.0
0.0 2.212734524 0.219331279432 0.0
0.0 2.214878646 0.219367901809 0.0
0.0 2.217022769 0.219403372117 0.0
0.0 2.219166892 0.219437692945 0.0
0.0 2.221311014 0.219470867142 0.0
0.0 2.223455137 0.219502897457 0.0
0.0 2.225599259 0.21953378656 0.0
0.0 2.227743382 0.219563537293 0.0
0.0 2.229887505 0.219592152306 0.0
0.0 2.232031627 0.219619634393 0.0
0.0 2.23417575 0.219645986052 0.0
0.0 2.236319872 0.219671209974 0.0
0.0 2.238463995 0.219695309293 0.0
0.0 2.240608118 0.21971828658 0.0
0.0 2.24275224 0.219740144656 0.0
0.0 2.244896363 0.219760886223 0.0
0.0 2.247040485 0.219780513832 0.0
0.0 2.249184608 0.219799030408 0.0
0.0 2.251328731 0.219816438643 0.0
0.0 2.253472853 0.219832741382 0.0
0.0 2.255616976 0.219847942594 0.0
0.0 2.257761098 0.219862042606 0.0
0.0 2.259905221 0.219875046801 0.0
0.0 2.262049344 0.219886956705 0.0
0.0 2.264193466 0.219897771198 0.0
0.0 2.266337589 0.219907497184 0.0
0.0 2.268481711 0.219916136253 0.0
0.0 2.270625834 0.219923693078 0.0
0.0 2.272769957 0.219930169859 0.0
0.0 2.274914079 0.219935566019 0.0
0.0 2.277058202 0.219939892999 0.0
0.0 2.279202324 0.219943149652 0.0
0.0 2.281346447 0.219945332328 0.0
0.0 2.28349057 0.219946448193 0.0
0.0 2.285634692 0.219946481995 0.0
0.0 2.287778815 0.21994546318 0.0
0.0 2.289922937 0.219943379033 0.0
0.0 2.29206706 0.219940243047 0.0
0.0 2.294211183 0.219936057106 0.0
0.0 2.296355305 0.219930822592 0.0
0.0 2.298499428 0.219924542869 0.0
0.0 2.30064355 0.219917222787 0.0
0.0 2.302787673 0.219908852614 0.0
0.0 2.304931796 0.219899445864 0.0
0.0 2.307075918 0.219888991824 0.0
0.0 2.309220041 0.219877507973 0.0
0.0 2.311364163 0.219865013613 0.0
0.0 2.313508286 0.219851442586 0.0
0.0 2.315652409 0.219836860177 0.0
0.0 2.317796531 0.219821259316 0.0
0.0 2.319940654 0.219804648119 0.0
0.0 2.322084776 0.21978710018 0.0
0.0 2.324228899 0.219768668524 0.0
0.0 2.326373022 0.219749064996 0.0
0.0 2.328517144 0.219728484175 0.0
0.0 2.330661267 0.219706666794 0.0
0.0 2.332805389 0.219683993056 0.0
0.0 2.334949512 0.219660328195 0.0
0.0 2.337093635 0.219635546455 0.0
0.0 2.339237757 0.219609864767 0.0
0.0 2.34138188 0.219583231524 0.0
0.0 2.343526002 0.219555619333 0.0
0.0 2.345670125 0.219527076429 0.0
0.0 2.347814248 0.219497061207 0.0
0.0 2.34995837 0.219466318962 0.0
0.0 2.352102493 0.219434701177 0.0
0.0 2.354246615 0.219402117985 0.0
0.0 2.356390738 0.219368561828 0.0
0.0 2.358534861 0.219334038405 0.0
0.0 2.360678983 0.219298577954 0.0
0.0 2.362823106 0.219262417349 0.0
0.0 2.364967228 0.219225940646 0.0
0.0 2.367111351 0.219187495465 0.0
0.0 2.369255474 0.219148124486 0.0
0.0 2.371399596 0.219107559853 0.0
0.0 2.373543719 0.219066248326 0.0
0.0 2.375687841 0.219024106659 0.0
0.0 2.377831964 0.21898011272 0.0
0.0 2.379976087 0.218935885346 0.0
0.0 2.382120209 0.218890867917 0.0
0.0 2.384264332 0.218844851946 0.0
0.0 2.386408454 0.218797994261 0.0
0.0 2.388552577 0.218750472365 0.0
0.0 2.3906967 0.218701957988 0.0
0.0 2.392840822 0.218652844237 0.0
0.0 2.394984945 0.218602248466 0.0
0.0 2.397129067 0.21855026811 0.0
0.0 2.39927319 0.218497629415 0.0
0.0 2.401417313 0.218443909178 0.0
0.0 2.403561435 0.218389480244 0.0
0.0 2.405705558 0.218334541659 0.0
0.0 2.40784968 0.21827860259 0.0
0.0 2.409993803 0.218221757081 0.0
0.0 2.412137926 0.218164391865 0.0
0.0 2.414282048 0.218105680637 0.0
0.0 2.416426171 0.218046068343 0.0
0.0 2.418570293 0.217985803009 0.0
0.0 2.420714416 0.217923525859 0.0
0.0 2.422858539 0.217860726621 0.0
0.0 2.425002661 0.217797569865 0.0
0.0 2.427146784 0.217733165217 0.0
0.0 2.429290906 0.217668080499 0.0
0.0 2.431435029 0.217602324648 0.0
0.0 2.433579152 0.21753552354 0.0
0.0 2.435723274 0.2174679874 0.0
0.0 2.437867397 0.217398901424 0.0
0.0 2.440011519 0.217328914083 0.0
0.0 2.442155642 0.217258413366 0.0
0.0 2.444299765 0.21718725513 0.0
0.0 2.446443887 0.217115437167 0.0
0.0 2.44858801 0.217043223126 0.0
0.0 2.450732132 0.216969493007 0.0
0.0 2.452876255 0.21689483779 0.0
0.0 2.455020378 0.21681956771 0.0
0.0 2.4571645 0.216743246132 0.0
0.0 2.459308623 0.216666107087 0.0
0.0 2.461452745 0.21658886308 0.0
0.0 2.463596868 0.216510035768 0.0
0.0 2.465740991 0.216430021727 0.0
0.0 2.467885113 0.21634938525 0.0
0.0 2.470029236 0.216267471764 0.0
0.0 2.472173358 0.21618509083 0.0
0.0 2.474317481 0.21610227229 0.0
0.0 2.476461604 0.216018331602 0.0
0.0 2.478605726 0.215933832347 0.0
0.0 2.480749849 0.215848967895 0.0
0.0 2.482893971 0.215762504247 0.0
0.0 2.485038094 0.215675250122 0.0
0.0 2.487182217 0.215587302984 0.0
0.0 2.489326339 0.215498664604 0.0
0.0 2.491470462 0.21540974403 0.0
0.0 2.493614584 0.215320579458 0.0
0.0 2.495758707 0.215228463412 0.0
0.0 2.49790283 0.215135898224 0.0
0.0 2.500046952 0.215042331238 0.0
0.0 2.502191075 0.214949818479 0.0
0.0 2.503831856 0.214878721946 0.0
0.0 2.505183087 0.214820613767 0.0
0.0 2.506534319 0.214758044229 0.0
0.0 2.50788555 0.21469718809 0.0
0.0 2.509236782 0.214637329302 0.0
0.0 2.510588013 0.214576242526 0.0
0.0 2.511939244 0.214514425698 0.0
0.0 2.513290476 0.214452611583 0.0
0.0 2.514641707 0.21439180524 0.0
0.0 2.515992939 0.214327917228 0.0
0.0 2.51734417 0.214267786759 0.0
0.0 2.518695402 0.214204517351 0.0
0.0 2.520046633 0.214141447456 0.0
0.0 2.521397865 0.214075934147 0.0
0.0 2.522749096 0.214013240608 0.0
0.0 2.524100327 0.213949641145 0.0
0.0 2.525451559 0.213884896484 0.0
0.0 2.52680279 0.213819884621 0.0
0.0 2.528154022 0.213755142573 0.0
0.0 2.529505253 0.213690315084 0.0
0.0 2.530856485 0.213624986937 0.0
0.0 2.532207716 0.21355887268 0.0
0.0 2.533558948 0.213494143202 0.0
0.0 2.534910179 0.213428659865 0.0
0.0 2.53626141 0.213361266055 0.0
0.0 2.537612642 0.213293330461 0.0
0.0 2.538963873 0.21322479416 0.0
0.0 2.540315105 0.2131581299 0.0
0.0 2.541666336 0.21308904007 0.0
0.0 2.543017568 0.213022517177 0.0
0.0 2.544368799 0.212954407044 0.0
0.0 2.54572003 0.212886349946 0.0
0.0 2.547071262 0.212817571311 0.0
0.0 2.548422493 0.212746932193 0.0
0.0 2.549773725 0.212676625126 0.0
0.0 2.551124956 0.212606358666 0.0
0.0 2.552476188 0.212536440092 0.0
0.0 2.553827419 0.212466739297 0.0
0.0 2.555178651 0.212396453304 0.0
0.0 2.556529882 0.212326089204 0.0
0.0 2.557881113 0.212254124282 0.0
0.0 2.559232345 0.212181929945 0.0
0.0 2.560583576 0.212111833918 0.0
0.0 2.561934808 0.212040849704 0.0
0.0 2.563286039 0.211966249318 0.0
0.0 2.564637271 0.211894052902 0.0
0.0 2.565988502 0.2118225282 0.0
0.0 2.567339733 0.211747454398 0.0
0.0 2.568690965 0.211672688048 0.0
0.0 2.570042196 0.211600103789 0.0
0.0 2.571393428 0.211524575812 0.0
0.0 2.572744659 0.211451726285 0.0
0.0 2.574095891 0.211377860273 0.0
0.0 2.575447122 0.211301265119 0.0
0.0 2.576798354 0.21122584031 0.0
0.0 2.578149585 0.211151088973 0.0
0.0 2.579500816 0.211074936356 0.0
0.0 2.580852048 0.210997216307 0.0
0.0 2.582203279 0.210921574108 0.0
0.0 2.583554511 0.210844216099 0.0
0.0 2.584905742 0.210768467858 0.0
0.0 2.586256974 0.210691820551 0.0
0.0 2.587608205 0.210614406821 0.0
0.0 2.588959437 0.210535966212 0.0
0.0 2.590310668 0.210459155722 0.0
0.0 2.591661899 0.210380878443 0.0
0.0 2.593013131 0.210303415269 0.0
0.0 2.594364362 0.210223629524 0.0
0.0 2.595715594 0.210141705161 0.0
0.0 2.597066825 0.210061702546 0.0
0.0 2.598418057 0.209984981475 0.0
0.0 2.599769288 0.209905256817 0.0
0.0 2.601120519 0.209823917941 0.0
0.0 2.602471751 0.209743834366 0.0
0.0 2.603822982 0.209666866756 0.0
0.0 2.605174214 0.209585179136 0.0
0.0 2.606525445 0.209499985392 0.0
0.0 2.607876677 0.209420179422 0.0
0.0 2.609227908 0.209337836126 0.0
0.0 2.61057914 0.209254554913 0.0
0.0 2.611930371 0.209173572483 0.0
0.0 2.613281602 0.20909212625 0.0
0.0 2.614632834 0.209009747099 0.0
0.0 2.615984065 0.20892705019 0.0
0.0 2.617335297 0.208842966371 0.0
0.0 2.618686528 0.208758369932 0.0
0.0 2.62003776 0.208674325983 0.0
0.0 2.621388991 0.208593665863 0.0
0.0 2.622740222 0.208510722301 0.0
0.0 2.624091454 0.208423520649 0.0
0.0 2.625442685 0.208339061154 0.0
0.0 2.626793917 0.20825267171 0.0
0.0 2.628145148 0.208166410785 0.0
0.0 2.62949638 0.208082490835 0.0
0.0 2.630847611 0.207996318824 0.0
0.0 2.632198843 0.20791120482 0.0
0.0 2.633550074 0.207822768671 0.0
0.0 2.634901305 0.207735745113 0.0
0.0 2.636252537 0.20765300779 0.0
0.0 2.637603768 0.207562974727 0.0
0.0 2.638955 0.207476899897 0.0
0.0 2.640306231 0.207388843646 0.0
0.0 2.641657463 0.207303626347 0.0
0.0 2.643008694 0.207215270049 0.0
0.0 2.644359925 0.207125352037 0.0
0.0 2.645711157 0.207035977714 0.0
0.0 2.647062388 0.206947224595 0.0
0.0 2.64841362 0.206856349552 0.0
0.0 2.649764851 0.206766730065 0.0
0.0 2.651116083 0.206677290312 0.0
0.0 2.652467314 0.206588700164 0.0
0.0 2.653818546 0.206500005049 0.0
0.0 2.655169777 0.206410362418 0.0
0.0 2.656521008 0.206321420416 0.0
0.0 2.65787224 0.206228193765 0.0
0.0 2.659223471 0.206138073066 0.0
0.0 2.660574703 0.206048304693 0.0
0.0 2.661925934 0.205957015622 0.0
0.0 2.663277166 0.205863600099 0.0
0.0 2.664628397 0.205770207473 0.0
0.0 2.665979629 0.205679372631 0.0
0.0 2.66733086 0.205585962372 0.0
0.0 2.668682091 0.205496516986 0.0
0.0 2.670033323 0.20540332456 0.0
0.0 2.671384554 0.205308656138 0.0
0.0 2.672735786 0.205215904934 0.0
0.0 2.674087017 0.205122966213 0.0
0.0 2.675438249 0.205029463288 0.0
0.0 2.67678948 0.204933518795 0.0
0.0 2.678140711 0.204841434828 0.0
0.0 2.679491943 0.204747010579 0.0
0.0 2.680843174 0.20465116436 0.0
0.0 2.682194406 0.204556098608 0.0
0.0 2.683545637 0.204459491181 0.0
0.0 2.684896869 0.204366373218 0.0
0.0 2.6862481 0.204269017769 0.0
0.0 2.687599332 0.20417369842 0.0
0.0 2.688950563 0.204078238256 0.0
0.0 2.690301794 0.203983600565 0.0
0.0 2.691653026 0.203888224439 0.0
0.0 2.693004257 0.203789993414 0.0
0.0 2.694355489 0.203691734773 0.0
0.0 2.69570672 0.203595500555 0.0
0.0 2.697057952 0.203499185055 0.0
0.0 2.698409183 0.203401125873 0.0
0.0 2.699760414 0.203303655336 0.0
0.0 2.701111646 0.203205447795 0.0
0.0 2.702462877 0.203106699667 0.0
0.0 2.703814109 0.203010920451 0.0
0.0 2.70516534 0.202910695696 0.0
0.0 2.706516572 0.202811820701 0.0
0.0 2.707867803 0.202715778361 0.0
0.0 2.709219035 0.202614179253 0.0
0.0 2.710570266 0.202515817262 0.0
0.0 2.711921497 0.202414874467 0.0
0.0 2.713272729 0.202315785282 0.0
0.0 2.71462396 0.202217003462 0.0
0.0 2.715975192 0.202115619527 0.0
0.0 2.717326423 0.202016888264 0.0
0.0 2.718677655 0.201914383501 0.0
0.0 2.720028886 0.201815110225 0.0
0.0 2.721380117 0.201713913509 0.0
0.0 2.722731349 0.201612425611 0.0
0.0 2.72408258 0.201511248722 0.0
0.0 2.725433812 0.201409484216 0.0
0.0 2.726785043 0.20130659053 0.0
0.0 2.728136275 0.201204864073 0.0
0.0 2.729487506 0.201104297352 0.0
0.0 2.730838738 0.200999595012 0.0
0.0 2.732189969 0.200896913219 0.0
0.0 2.7335412 0.200794493422 0.0
0.0 2.734892432 0.200691104382 0.0
0.0 2.736243663 0.200588064473 0.0
0.0 2.737594895 0.200485332522 0.0
0.0 2.738946126 0.200379641154 0.0
0.0 2.740297358 0.200276422224 0.0
0.0 2.741648589 0.200172577522 0.0
0.0 2.742999821 0.20006849721 0.0
0.0 2.744351052 0.199963467913 0.0
0.0 2.745702283 0.199859215355 0.0
0.0 2.747053515 0.19975490208 0.0
0.0 2.748404746 0.199650149254 0.0
0.0 2.749755978 0.199544956307 0.0
0.0 2.751107209 0.199438559498 0.0
0.0 2.752458441 0.19933300692 0.0
0.0 2.753809672 0.19922764153 0.0
0.0 2.755160903 0.199122503462 0.0
0.0 2.756512135 0.19901461503 0.0
0.0 2.757863366 0.198908517524 0.0
0.0 2.759214598 0.198803345424 0.0
0.0 2.760565829 0.198695927113 0.0
0.0 2.761917061 0.198590446349 0.0
0.0 2.763268292 0.198482039387 0.0
0.0 2.764619524 0.198374523258 0.0
0.0 2.765970755 0.198266809565 0.0
0.0 2.767321986 0.198160509689 0.0
0.0 2.768673218 0.198054315318 0.0
0.0 2.770024449 0.197946683358 0.0
0.0 2.771375681 0.197837453317 0.0
0.0 2.772726912 0.197728536359 0.0
0.0 2.774078144 0.197619442366 0.0
0.0 2.775429375 0.197511268749 0.0
0.0 2.776780606 0.197401826689 0.0
0.0 2.778131838 0.197292631615 0.0
0.0 2.779483069 0.197183289422 0.0
0.0 2.780834301 0.197074577171 0.0
0.0 2.782185532 0.196964713618 0.0
0.0 2.783536764 0.196855098444 0.0
0.0 2.784887995 0.196744596147 0.0
0.0 2.786239227 0.196634214232 0.0
0.0 2.787590458 0.196524163939 0.0
0.0 2.788941689 0.196414485707 0.0
0.0 2.790292921 0.196304305622 0.0
0.0 2.791644152 0.196193993495 0.0
0.0 2.792995384 0.196082295311 0.0
0.0 2.794346615 0.195970580998 0.0
0.0 2.795697847 0.195860049949 0.0
0.0 2.797049078 0.195747590371 0.0
0.0 2.798400309 0.195636469817 0.0
0.0 2.799751541 0.195524239672 0.0
0.0 2.801102772 0.195412299963 0.0
0.0 2.802454004 0.195300215456 0.0
0.0 2.803805235 0.195187966771 0.0
0.0 2.805156467 0.195075987923 0.0
0.0 2.806507698 0.194962999503 0.0
0.0 2.80785893 0.194850567519 0.0
0.0 2.809210161 0.194737615575 0.0
0.0 2.810561392 0.194625262205 0.0
0.0 2.811912624 0.194512302802 0.0
0.0 2.813263855 0.194397913959 0.0
0.0 2.814615087 0.194284143731 0.0
0.0 2.815966318 0.194170467719 0.0
0.0 2.81731755 0.194057431923 0.0
0.0 2.818668781 0.193943586677 0.0
0.0 2.820020013 0.193829219925 0.0
0.0 2.821371244 0.193714975023 0.0
0.0 2.822722475 0.193601284332 0.0
0.0 2.824073707 0.19348575731 0.0
0.0 2.825424938 0.193370290674 0.0
0.0 2.82677617 0.193255278262 0.0
0.0 2.828127401 0.193140956751 0.0
0.0 2.829478633 0.193024924752 0.0
0.0 2.830829864 0.19291003488 0.0
0.0 2.832181095 0.192794065667 0.0
0.0 2.833532327 0.192678323581 0.0
0.0 2.834883558 0.192562539811 0.0
0.0 2.83623479 0.192446835559 0.0
0.0 2.837586021 0.192330552593 0.0
0.0 2.838937253 0.192214515744 0.0
0.0 2.840288484 0.192098122477 0.0
0.0 2.841639716 0.191983541292 0.0
0.0 2.842990947 0.191865283883 0.0
0.0 2.844342178 0.19174777842 0.0
0.0 2.84569341 0.191631419318 0.0
0.0 2.847044641 0.191514587178 0.0
0.0 2.848395873 0.191397460081 0.0
0.0 2.849747104 0.191280068721 0.0
0.0 2.851098336 0.19116164987 0.0
0.0 2.852449567 0.191044074092 0.0
0.0 2.853800798 0.190927313671 0.0
0.0 2.85515203 0.190808653193 0.0
0.0 2.856503261 0.190689800489 0.0
0.0 2.857854493 0.190570992576 0.0
0.0 2.859205724 0.190452923796 0.0
0.0 2.860556956 0.190334925782 0.0
0.0 2.861908187 0.190215560473 0.0
0.0 2.863259419 0.190096748655 0.0
0.0 2.86461065 0.189977637374 0.0
0.0 2.865961881 0.189858714536 0.0
0.0 2.867313113 0.189739659133 0.0
0.0 2.868664344 0.18962060163 0.0
0.0 2.870015576 0.189500711382 0.0
0.0 2.871366807 0.189381128951 0.0
0.0 2.872718039 0.189261137372 0.0
0.0 2.87406927 0.189141934599 0.0
0.0 2.875420501 0.189023334887 0.0
0.0 2.876771733 0.188902820345 0.0
0.0 2.878122964 0.188781014011 0.0
0.0 2.879474196 0.188660493485 0.0
0.0 2.880825427 0.188539986595 0.0
0.0 2.882176659 0.188419354136 0.0
0.0 2.88352789 0.188298596954 0.0
0.0 2.884879122 0.188177716013 0.0
0.0 2.886230353 0.18805702628 0.0
0.0 2.887581584 0.18793691994 0.0
0.0 2.888932816 0.187815894746 0.0
0.0 2.890284047 0.187693476929 0.0
0.0 2.891635279 0.187572092514 0.0
0.0 2.89298651 0.187449860024 0.0
0.0 2.894337742 0.187328126347 0.0
0.0 2.895688973 0.187206396985 0.0
0.0 2.897040205 0.187084309633 0.0
0.0 2.898391436 0.18696282673 0.0
0.0 2.899742667 0.186840277713 0.0
0.0 2.901093899 0.186717773465 0.0
0.0 2.90244513 0.186595427548 0.0
0.0 2.903796362 0.186473811306 0.0
0.0 2.905147593 0.186351589151 0.0
0.0 2.906498825 0.186229136001 0.0
0.0 2.907850056 0.186106879016 0.0
0.0 2.909201287 0.185981585277 0.0
0.0 2.910552519 0.185858356404 0.0
0.0 2.91190375 0.185736306364 0.0
0.0 2.913254982 0.185613263181 0.0
0.0 2.914606213 0.18548892418 0.0
0.0 2.915957445 0.185365636437 0.0
0.0 2.917308676 0.185241825549 0.0
0.0 2.918659908 0.185118776385 0.0
0.0 2.920011139 0.184994515191 0.0
0.0 2.92136237 0.184869453522 0.0
0.0 2.922713602 0.184745837191 0.0
0.0 2.924064833 0.184621317663 0.0
0.0 2.925416065 0.184497381087 0.0
0.0 2.926767296 0.184372962427 0.0
0.0 2.928118528 0.184247978927 0.0
0.0 2.929469759 0.184123375236 0.0
0.0 2.93082099 0.183998672117 0.0
0.0 2.932172222 0.183873868251 0.0
0.0 2.933523453 0.183748964492 0.0
0.0 2.934874685 0.183623961329 0.0
0.0 2.936225916 0.183499223528 0.0
0.0 2.937577148 0.183374854444 0.0
0.0 2.938928379 0.183249571682 0.0
0.0 2.940279611 0.18312298529 0.0
0.0 2.941630842 0.182997811015 0.0
0.0 2.942982073 0.182871996444 0.0
0.0 2.944333305 0.182746931762 0.0
0.0 2.945684536 0.182620460458 0.0
0.0 2.947035768 0.182494581584 0.0
0.0 2.948386999 0.18236867555 0.0
0.0 2.949738231 0.182242715638 0.0
0.0 2.951089462 0.182117053339 0.0
0.0 2.952440694 0.181990981139 0.0
0.0 2.953791925 0.181863894787 0.0
0.0 2.955143156 0.181737505499 0.0
0.0 2.956494388 0.181611582785 0.0
0.0 2.957845619 0.181484974289 0.0
0.0 2.959196851 0.181358177352 0.0
0.0 2.960548082 0.181231056911 0.0
0.0 2.961899314 0.181104565677 0.0
0.0 2.963250545 0.180977760981 0.0
0.0 2.964601776 0.180850344372 0.0
0.0 2.965953008 0.180723326717 0.0
0.0 2.967304239 0.180596765697 0.0
0.0 2.968655471 0.1804688035 0.0
0.0 2.970006702 0.180341228752 0.0
0.0 2.971357934 0.180213822108 0.0
0.0 2.972709165 0.180086949108 0.0
0.0 2.974060397 0.1799590784 0.0
0.0 2.975411628 0.179831212488 0.0
0.0 2.976762859 0.179703423191 0.0
0.0 2.978114091 0.179575453189 0.0
0.0 2.979465322 0.179447550599 0.0
0.0 2.980816554 0.179319573176 0.0
0.0 2.982167785 0.17919151686 0.0
0.0 2.983519017 0.179063386942 0.0
0.0 2.984870248 0.178935331622 0.0
0.0 2.986221479 0.178807417879 0.0
0.0 2.987572711 0.178678610093 0.0
0.0 2.988923942 0.17855103256 0.0
0.0 2.990275174 0.178421950029 0.0
0.0 2.991626405 0.178293130658 0.0
0.0 2.992977637 0.178164433784 0.0
0.0 2.994328868 0.178035727983 0.0
0.0 2.9956801 0.177906993401 0.0
0.0 2.997031331 0.1777783507 0.0
0.0 2.998382562 0.177649754715 0.0
0.0 2.999733794 0.177521241494 0.0
0.0 3.001085025 0.177392111332 0.0
0.0 3.002436257 0.177262973191 0.0
0.0 3.003787488 0.177134236656 0.0
0.0 3.00513872 0.177004397993 0.0
0.0 3.006489951 0.176874837454 0.0
0.0 3.007841182 0.176745261563 0.0
0.0 3.009192414 0.176616131325 0.0
0.0 3.010543645 0.176486219538 0.0
0.0 3.011894877 0.17635796146 0.0
0.0 3.013246108 0.176226973068 0.0
0.0 3.01459734 0.176097255737 0.0
0.0 3.015948571 0.175967850697 0.0
0.0 3.017299803 0.175838895105 0.0
0.0 3.018651034 0.175710112237 0.0
0.0 3.020002265 0.175578902764 0.0
0.0 3.021353497 0.17544849034 0.0
0.0 3.022704728 0.175319383972 0.0
0.0 3.02405596 0.175189722362 0.0
0.0 3.025407191 0.17506009822 0.0
0.0 3.026758423 0.174928339601 0.0
0.0 3.028109654 0.174797981178 0.0
0.0 3.029460886 0.174668298161 0.0
0.0 3.030812117 0.174540667652 0.0
0.0 3.032163348 0.174410521075 0.0
0.0 3.03351458 0.174278585408 0.0
0.0 3.034865811 0.174147345538 0.0
0.0 3.036217043 0.174017437777 0.0
0.0 3.037568274 0.173886530707 0.0
0.0 3.038919506 0.173755938097 0.0
0.0 3.040270737 0.173625312562 0.0
0.0 3.041621968 0.173494040564 0.0
0.0 3.0429732 0.17336331275 0.0
0.0 3.044324431 0.173234331418 0.0
0.0 3.045675663 0.173101166359 0.0
0.0 3.047026894 0.172969883103 0.0
0.0 3.048378126 0.172838864536 0.0
0.0 3.049729357 0.172709363784 0.0
0.0 3.051080589 0.172577636828 0.0
0.0 3.05243182 0.172447372224 0.0
0.0 3.053783051 0.172316188881 0.0
0.0 3.055134283 0.172184518447 0.0
0.0 3.056485514 0.172053118767 0.0
0.0 3.057836746 0.171923179493 0.0
0.0 3.059187977 0.171790628169 0.0
0.0 3.060539209 0.171660494803 0.0
0.0 3.06189044 0.171529380799 0.0
0.0 3.063241671 0.17139798191 0.0
0.0 3.064592903 0.171267014263 0.0
0.0 3.065944134 0.17113537948 0.0
0.0 3.067295366 0.171002813831 0.0
0.0 3.068646597 0.17087222288 0.0
0.0 3.069997829 0.170741396462 0.0
0.0 3.07134906 0.170610752271 0.0
0.0 3.072700292 0.170479911325 0.0
0.0 3.074051523 0.170347995093 0.0
0.0 3.075402754 0.170216098912 0.0
0.0 3.076753986 0.17008529558 0.0
0.0 3.078105217 0.169952803586 0.0
0.0 3.079456449 0.169821576066 0.0
0.0 3.08080768 0.169690791142 0.0
0.0 3.082158912 0.169558167842 0.0
0.0 3.083510143 0.169426864274 0.0
0.0 3.084861374 0.16929812919 0.0
0.0 3.086212606 0.169166826845 0.0
0.0 3.087563837 0.169036454532 0.0
0.0 3.088915069 0.168903199871 0.0
0.0 3.0902663 0.168772874295 0.0
0.0 3.091617532 0.168643237721 0.0
0.0 3.092968763 0.168510610587 0.0
0.0 3.094319995 0.168378477849 0.0
0.0 3.095671226 0.168246401059 0.0
0.0 3.097022457 0.168115945618 0.0
0.0 3.098373689 0.167985841194 0.0
0.0 3.09972492 0.167853376419 0.0
0.0 3.101076152 0.167722043329 0.0
0.0 3.102427383 0.167591111427 0.0
0.0 3.103778615 0.167459362989 0.0
0.0 3.105129846 0.167329055906 0.0
0.0 3.106481078 0.167199370292 0.0
0.0 3.107832309 0.167068577664 0.0
0.0 3.10918354 0.166936852476 0.0
0.0 3.110534772 0.166804108719 0.0
0.0 3.111886003 0.166673499711 0.0
0.0 3.113237235 0.166542114761 0.0
0.0 3.114588466 0.1664087057 0.0
0.0 3.115939698 0.166277470541 0.0
0.0 3.117290929 0.166147318833 0.0
0.0 3.11864216 0.16601556022 0.0
0.0 3.119993392 0.165883208442 0.0
0.0 3.121344623 0.165749325939 0.0
0.0 3.122695855 0.165616966816 0.0
0.0 3.124047086 0.165486530377 0.0
0.0 3.125398318 0.165353141447 0.0
0.0 3.126749549 0.165218384493 0.0
0.0 3.128100781 0.16508710216 0.0
0.0 3.129452012 0.164955627273 0.0
0.0 3.130803243 0.164820489783 0.0
0.0 3.132154475 0.164683800391 0.0
0.0 3.133505706 0.164551614576 0.0
0.0 3.134856938 0.164418761093 0.0
0.0 3.136208169 0.164283816661 0.0
0.0 3.137559401 0.164151147436 0.0
0.0 3.138910632 0.164020317415 0.0
0.0 3.140261863 0.163887700543 0.0
0.0 3.141613095 0.163753664562 0.0
0.0 3.142964326 0.16362157544 0.0
0.0 3.144315558 0.163489547047 0.0
0.0 3.145666789 0.163356241929 0.0
0.0 3.147018021 0.163222739141 0.0
0.0 3.148369252 0.163091026793 0.0
0.0 3.149720484 0.162958229258 0.0
0.0 3.151071715 0.162824605947 0.0
0.0 3.152422946 0.162690454727 0.0
0.0 3.153774178 0.162559692386 0.0
0.0 3.155125409 0.162428682679 0.0
0.0 3.156476641 0.162298336286 0.0
0.0 3.157827872 0.162162552565 0.0
0.0 3.159179104 0.16202795295 0.0
0.0 3.160530335 0.161896396406 0.0
0.0 3.161881566 0.161762729735 0.0
0.0 3.163232798 0.161630179021 0.0
0.0 3.164584029 0.16149977574 0.0
0.0 3.165935261 0.16136779986 0.0
0.0 3.167286492 0.161235507491 0.0
0.0 3.168637724 0.161103467184 0.0
0.0 3.169988955 0.160971004307 0.0
0.0 3.171340187 0.160837252825 0.0
0.0 3.172691418 0.160704851625 0.0
0.0 3.174042649 0.160574570411 0.0
0.0 3.175393881 0.160443749027 0.0
0.0 3.176745112 0.160310719382 0.0
0.0 3.178096344 0.160178237774 0.0
0.0 3.179447575 0.160044737551 0.0
0.0 3.180798807 0.15991524154 0.0
0.0 3.182150038 0.15978531364 0.0
0.0 3.18350127 0.159651417521 0.0
0.0 3.184852501 0.159519790461 0.0
0.0 3.186203732 0.159388174419 0.0
0.0 3.187554964 0.159255801395 0.0
0.0 3.188906195 0.159124646961 0.0
0.0 3.190257427 0.158994970355 0.0
0.0 3.191608658 0.158863130094 0.0
0.0 3.19295989 0.158731436627 0.0
0.0 3.194311121 0.15859982238 0.0
0.0 3.195662352 0.158467358912 0.0
0.0 3.197013584 0.158336298206 0.0
0.0 3.198364815 0.158206354567 0.0
0.0 3.199716047 0.158073746543 0.0
0.0 3.201067278 0.15794080437 0.0
0.0 3.20241851 0.157809723313 0.0
0.0 3.203769741 0.157680333832 0.0
0.0 3.205120973 0.157548921946 0.0
0.0 3.206472204 0.157415252466 0.0
0.0 3.207823435 0.15728409871 0.0
0.0 3.209174667 0.157153586091 0.0
0.0 3.210525898 0.157025616799 0.0
0.0 3.21187713 0.15689615211 0.0
0.0 3.213228361 0.156764426381 0.0
0.0 3.214579593 0.156631842221 0.0
0.0 3.215930824 0.156499016044 0.0
0.0 3.217282055 0.156368038003 0.0
0.0 3.218633287 0.156237874076 0.0
0.0 3.219984518 0.156108496017 0.0
0.0 3.22133575 0.155979015801 0.0
0.0 3.222686981 0.155848754614 0.0
0.0 3.224038213 0.155717891814 0.0
0.0 3.225389444 0.155585355356 0.0
0.0 3.226740676 0.155454499152 0.0
0.0 3.228091907 0.155323749574 0.0
0.0 3.229443138 0.155193225307 0.0
0.0 3.23079437 0.155064701806 0.0
0.0 3.232145601 0.154935617505 0.0
0.0 3.233496833 0.154802730916 0.0
0.0 3.234848064 0.154673290247 0.0
0.0 3.236199296 0.154544746145 0.0
0.0 3.237550527 0.154413647622 0.0
0.0 3.238901759 0.154281770978 0.0
0.0 3.24025299 0.154150367655 0.0
0.0 3.241604221 0.154020979991 0.0
0.0 3.242955453 0.153891770407 0.0
0.0 3.244306684 0.153763827254 0.0
0.0 3.245657916 0.153633981856 0.0
0.0 3.247009147 0.153503832015 0.0
0.0 3.248360379 0.153373720912 0.0
0.0 3.24971161 0.153244732712 0.0
0.0 3.251062841 0.15311497865 0.0
0.0 3.252414073 0.152986877777 0.0
0.0 3.253765304 0.152859981364 0.0
0.0 3.255116536 0.152731156921 0.0
0.0 3.256467767 0.152603632661 0.0
0.0 3.257818999 0.152477238868 0.0
0.0 3.25917023 0.152347352945 0.0
0.0 3.260521462 0.152217921858 0.0
0.0 3.261872693 0.152087412436 0.0
0.0 3.263223924 0.151958149385 0.0
0.0 3.264575156 0.151830640492 0.0
0.0 3.265926387 0.151702169139 0.0
0.0 3.267277619 0.151573525938 0.0
0.0 3.26862885 0.151443083176 0.0
0.0 3.269980082 0.151312313154 0.0
0.0 3.271331313 0.151182051438 0.0
0.0 3.272682544 0.151052047818 0.0
0.0 3.274033776 0.150923943105 0.0
0.0 3.275385007 0.150795176794 0.0
0.0 3.276736239 0.150666800955 0.0
0.0 3.27808747 0.15053894344 0.0
0.0 3.279438702 0.150411976084 0.0
0.0 3.280789933 0.150284772194 0.0
0.0 3.282141165 0.150156380287 0.0
0.0 3.283492396 0.150028336217 0.0
0.0 3.284843627 0.149899500964 0.0
0.0 3.286194859 0.149771488196 0.0
0.0 3.28754609 0.149644639377 0.0
0.0 3.288897322 0.149518245064 0.0
0.0 3.290248553 0.149391902449 0.0
0.0 3.291599785 0.14926499756 0.0
0.0 3.292951016 0.149138177001 0.0
0.0 3.294302247 0.14901070978 0.0
0.0 3.295653479 0.148882685654 0.0
0.0 3.29700471 0.148755766721 0.0
0.0 3.298355942 0.148631076209 0.0
0.0 3.299707173 0.148504092191 0.0
0.0 3.301058405 0.148375904346 0.0
0.0 3.302409636 0.148249464498 0.0
0.0 3.303760868 0.148123814637 0.0
0.0 3.305112099 0.147996035936 0.0
0.0 3.30646333 0.147869651801 0.0
0.0 3.307814562 0.147744417579 0.0
0.0 3.309165793 0.147618134643 0.0
0.0 3.310517025 0.147491208016 0.0
0.0 3.311868256 0.147366060216 0.0
0.0 3.313219488 0.147241459449 0.0
0.0 3.314570719 0.147115081919 0.0
0.0 3.315921951 0.146988912893 0.0
0.0 3.317273182 0.146862386692 0.0
0.0 3.318624413 0.146736201174 0.0
0.0 3.319975645 0.146610287401 0.0
0.0 3.321326876 0.146486160811 0.0
0.0 3.322678108 0.146361700991 0.0
0.0 3.324029339 0.146237050328 0.0
0.0 3.325380571 0.146112022504 0.0
0.0 3.326731802 0.145986493152 0.0
0.0 3.328083033 0.145861764842 0.0
0.0 3.329434265 0.145737854746 0.0
0.0 3.330785496 0.145614494881 0.0
0.0 3.332136728 0.145489292292 0.0
0.0 3.333487959 0.145364123482 0.0
0.0 3.334839191 0.145240066997 0.0
0.0 3.336190422 0.14511683572 0.0
0.0 3.337541654 0.14499255262 0.0
0.0 3.338892885 0.14486749527 0.0
0.0 3.340244116 0.144743496943 0.0
0.0 3.341595348 0.144618293461 0.0
0.0 3.342946579 0.144495074361 0.0
0.0 3.344297811 0.14437344978 0.0
0.0 3.345649042 0.144250645695 0.0
0.0 3.347000274 0.144126701308 0.0
0.0 3.348351505 0.144004476811 0.0
0.0 3.349702736 0.14388146459 0.0
0.0 3.351053968 0.14375826716 0.0
0.0 3.352405199 0.143636532822 0.0
0.0 3.353756431 0.143515141256 0.0
0.0 3.355107662 0.143391078983 0.0
0.0 3.356458894 0.143266194326 0.0
0.0 3.357810125 0.143144370656 0.0
0.0 3.359161357 0.143023512263 0.0
0.0 3.360512588 0.142901945017 0.0
0.0 3.361863819 0.142779216002 0.0
0.0 3.363215051 0.142657532146 0.0
0.0 3.364566282 0.142536347637 0.0
0.0 3.365917514 0.142414401732 0.0
0.0 3.367268745 0.14229191891 0.0
0.0 3.368619977 0.142168670178 0.0
0.0 3.369971208 0.142046502897 0.0
0.0 3.371322439 0.141926501988 0.0
0.0 3.372673671 0.1418065724 0.0
0.0 3.374024902 0.141686501543 0.0
0.0 3.375376134 0.141565598778 0.0
0.0 3.376727365 0.141443548905 0.0
0.0 3.378078597 0.141322741649 0.0
0.0 3.379429828 0.141204334229 0.0
0.0 3.38078106 0.141087570687 0.0
0.0 3.382132291 0.140967684761 0.0
0.0 3.383483522 0.140846913303 0.0
0.0 3.384834754 0.140728047577 0.0
0.0 3.386185985 0.14060947355 0.0
0.0 3.387537217 0.140489453616 0.0
0.0 3.388888448 0.140368214838 0.0
0.0 3.39023968 0.140248143563 0.0
0.0 3.391590911 0.140129746532 0.0
0.0 3.392942143 0.140013043727 0.0
0.0 3.394293374 0.139895133566 0.0
0.0 3.395644605 0.139775890507 0.0
0.0 3.396995837 0.139657190616 0.0
0.0 3.398347068 0.139537120832 0.0
0.0 3.3996983 0.139417271031 0.0
0.0 3.401049531 0.139298185895 0.0
0.0 3.402400763 0.139182261106 0.0
0.0 3.403751994 0.139065994539 0.0
0.0 3.405103225 0.138946825667 0.0
0.0 3.406454457 0.138829897789 0.0
0.0 3.407805688 0.13871125957 0.0
0.0 3.40915692 0.138592855957 0.0
0.0 3.410508151 0.13847752648 0.0
0.0 3.411859383 0.138361831289 0.0
0.0 3.413210614 0.138245004208 0.0
0.0 3.414561846 0.138128107779 0.0
0.0 3.415913077 0.138012703552 0.0
0.0 3.417264308 0.137896554343 0.0
0.0 3.41861554 0.137779145359 0.0
0.0 3.419966771 0.137662399612 0.0
0.0 3.421318003 0.137545591057 0.0
0.0 3.422669234 0.137428920418 0.0
0.0 3.424020466 0.137313776218 0.0
0.0 3.425371697 0.13719933499 0.0
0.0 3.426722928 0.137086906386 0.0
0.0 3.42807416 0.136969164588 0.0
0.0 3.429425391 0.13685243125 0.0
0.0 3.430776623 0.136738683087 0.0
0.0 3.432127854 0.136626910748 0.0
0.0 3.433479086 0.136513459772 0.0
0.0 3.434830317 0.13639982291 0.0
0.0 3.436181549 0.13628435295 0.0
0.0 3.43753278 0.13616770181 0.0
0.0 3.438884011 0.136053197691 0.0
0.0 3.440235243 0.135940309605 0.0
0.0 3.441586474 0.135825390987 0.0
0.0 3.442937706 0.135711942829 0.0
0.0 3.444288937 0.135599137173 0.0
0.0 3.445640169 0.135486476693 0.0
0.0 3.4469914 0.135373637463 0.0
0.0 3.448342631 0.135259574734 0.0
0.0 3.449693863 0.135148017729 0.0
0.0 3.451045094 0.135037555228 0.0
0.0 3.452396326 0.134925847278 0.0
0.0 3.453747557 0.134812771916 0.0
0.0 3.455098789 0.134699252908 0.0
0.0 3.45645002 0.134587888711 0.0
0.0 3.457801252 0.134478482917 0.0
0.0 3.459152483 0.134368462379 0.0
0.0 3.460503714 0.13425728001 0.0
0.0 3.461854946 0.134147193715 0.0
0.0 3.463206177 0.134037253111 0.0
0.0 3.464557409 0.133925991653 0.0
0.0 3.46590864 0.133814857393 0.0
0.0 3.467259872 0.133704356776 0.0
0.0 3.468611103 0.133594728836 0.0
0.0 3.469962335 0.13348674088 0.0
0.0 3.471313566 0.13337850293 0.0
0.0 3.472664797 0.133269252347 0.0
0.0 3.474016029 0.133159736939 0.0
0.0 3.47536726 0.133050534104 0.0
0.0 3.476718492 0.132941849916 0.0
0.0 3.478069723 0.132833733134 0.0
0.0 3.479420955 0.132724949667 0.0
0.0 3.480772186 0.132615853683 0.0
0.0 3.482123417 0.13250773817 0.0
0.0 3.483474649 0.132400034728 0.0
0.0 3.48482588 0.132291399011 0.0
0.0 3.486177112 0.13218286566 0.0
0.0 3.487528343 0.132076473751 0.0
0.0 3.488879575 0.131970304742 0.0
0.0 3.490230806 0.131862942956 0.0
0.0 3.491582038 0.131756004111 0.0
0.0 3.492933269 0.131650551914 0.0
0.0 3.4942845 0.131545056214 0.0
0.0 3.495635732 0.131438327696 0.0
0.0 3.496986963 0.131331403011 0.0
0.0 3.498338195 0.131225444943 0.0
0.0 3.499689426 0.13111847486 0.0
0.0 3.501040658 0.131012631435 0.0
0.0 3.502391889 0.130907668353 0.0
0.0 3.50374312 0.130802783658 0.0
0.0 3.505094352 0.130698578412 0.0
0.0 3.506445583 0.130594877944 0.0
0.0 3.507796815 0.130492666433 0.0
0.0 3.509148046 0.130389175649 0.0
0.0 3.510499278 0.130283494643 0.0
0.0 3.511850509 0.130178589638 0.0
0.0 3.513201741 0.130075221457 0.0
0.0 3.514552972 0.129972345983 0.0
0.0 3.515904203 0.129870915078 0.0
0.0 3.517255435 0.129768698903 0.0
0.0 3.518606666 0.129664868321 0.0
0.0 3.519957898 0.129561293579 0.0
0.0 3.521309129 0.129459449376 0.0
0.0 3.522660361 0.12935693671 0.0
0.0 3.524011592 0.129254287628 0.0
0.0 3.525362824 0.129152241189 0.0
0.0 3.526714055 0.12905103573 0.0
0.0 3.528065286 0.1289517083 0.0
0.0 3.529416518 0.128851580515 0.0
0.0 3.530767749 0.128751157586 0.0
0.0 3.532118981 0.128652106189 0.0
0.0 3.533470212 0.128551265119 0.0
0.0 3.534821444 0.128452020194 0.0
0.0 3.536172675 0.128352195659 0.0
0.0 3.537523906 0.12824965253 0.0
0.0 3.538875138 0.128149556303 0.0
0.0 3.540226369 0.128050854143 0.0
0.0 3.541577601 0.127951140345 0.0
0.0 3.542928832 0.127851160033 0.0
0.0 3.544280064 0.127753843903 0.0
0.0 3.545631295 0.12765600349 0.0
0.0 3.546982527 0.127558531439 0.0
0.0 3.548333758 0.127461120799 0.0
0.0 3.549684989 0.127363418115 0.0
0.0 3.551036221 0.127267237041 0.0
0.0 3.552387452 0.127169523888 0.0
0.0 3.553738684 0.127073409768 0.0
0.0 3.555089915 0.126977488734 0.0
0.0 3.556441147 0.126879336362 0.0
0.0 3.557792378 0.126784192049 0.0
0.0 3.559143609 0.126688491612 0.0
0.0 3.560494841 0.126593785614 0.0
0.0 3.561846072 0.12649871589 0.0
0.0 3.563197304 0.126403016778 0.0
0.0 3.564548535 0.126308135273 0.0
0.0 3.565899767 0.126214039571 0.0
0.0 3.567250998 0.126119957852 0.0
0.0 3.56860223 0.126024619815 0.0
0.0 3.569953461 0.125930161937 0.0
0.0 3.571304692 0.125836536077 0.0
0.0 3.572655924 0.125745118341 0.0
0.0 3.574007155 0.125652432315 0.0
0.0 3.575358387 0.125557176503 0.0
0.0 3.576709618 0.12546489991 0.0
0.0 3.57806085 0.125373617537 0.0
0.0 3.579412081 0.125280833254 0.0
0.0 3.580763312 0.125186885269 0.0
0.0 3.582114544 0.125094913724 0.0
0.0 3.583465775 0.125003587907 0.0
0.0 3.584817007 0.124912294031 0.0
0.0 3.586168238 0.124821099443 0.0
0.0 3.58751947 0.124731235676 0.0
0.0 3.588870701 0.124639703074 0.0
0.0 3.590221933 0.124547031568 0.0
0.0 3.591573164 0.124456400408 0.0
0.0 3.592924395 0.124366821314 0.0
0.0 3.594275627 0.124278980145 0.0
0.0 3.595626858 0.12419182062 0.0
0.0 3.59697809 0.124103183746 0.0
0.0 3.598329321 0.124013567204 0.0
0.0 3.599680553 0.12392383428 0.0
0.0 3.601031784 0.123835372612 0.0
0.0 3.602383016 0.123746340761 0.0
0.0 3.603734247 0.123657359703 0.0
0.0 3.605085478 0.123570086027 0.0
0.0 3.60643671 0.123484141924 0.0
0.0 3.607787941 0.123398103638 0.0
0.0 3.609139173 0.123311534173 0.0
0.0 3.610490404 0.123225175319 0.0
0.0 3.611841636 0.123138686982 0.0
0.0 3.613192867 0.123053001296 0.0
0.0 3.614544098 0.122968289173 0.0
0.0 3.61589533 0.122883528057 0.0
0.0 3.617246561 0.122798164553 0.0
0.0 3.618597793 0.122712674431 0.0
0.0 3.619949024 0.122627993204 0.0
0.0 3.621300256 0.122544212766 0.0
0.0 3.622651487 0.122459761687 0.0
0.0 3.624002719 0.122375523059 0.0
0.0 3.62535395 0.122291999074 0.0
0.0 3.626705181 0.122208620913 0.0
0.0 3.628056413 0.122125899134 0.0
0.0 3.629407644 0.122044225098 0.0
0.0 3.630758876 0.121962368939 0.0
0.0 3.632110107 0.121879923066 0.0
0.0 3.633461339 0.121798024252 0.0
0.0 3.63481257 0.12171760938 0.0
0.0 3.636163801 0.12163808738 0.0
0.0 3.637515033 0.121557792246 0.0
0.0 3.638866264 0.121476330271 0.0
0.0 3.640217496 0.121394414376 0.0
0.0 3.641568727 0.121313637048 0.0
0.0 3.642919959 0.121234404633 0.0
0.0 3.64427119 0.121155396721 0.0
0.0 3.645622422 0.12107675502 0.0
0.0 3.646973653 0.120997814978 0.0
0.0 3.648324884 0.120918429565 0.0
0.0 3.649676116 0.120840640385 0.0
0.0 3.651027347 0.120764556953 0.0
0.0 3.652378579 0.120686882022 0.0
0.0 3.65372981 0.12061001557 0.0
0.0 3.655081042 0.120533663273 0.0
0.0 3.656432273 0.120457068026 0.0
0.0 3.657783504 0.120379753921 0.0
0.0 3.659134736 0.120302884575 0.0
0.0 3.660485967 0.12022706135 0.0
0.0 3.661837199 0.120151616083 0.0
0.0 3.66318843 0.120076048458 0.0
0.0 3.664539662 0.120001150171 0.0
0.0 3.665890893 0.119925287834 0.0
0.0 3.667242125 0.119850919813 0.0
0.0 3.668593356 0.11977779083 0.0
0.0 3.669944587 0.119706308354 0.0
0.0 3.671295819 0.1196338956 0.0
0.0 3.67264705 0.119559844307 0.0
0.0 3.673998282 0.119486065234 0.0
0.0 3.675349513 0.119413522926 0.0
0.0 3.676700745 0.119342153954 0.0
0.0 3.678051976 0.119272643319 0.0
0.0 3.679403208 0.119202597587 0.0
0.0 3.680754439 0.119130587053 0.0
0.0 3.68210567 0.119057005698 0.0
0.0 3.683456902 0.11898534402 0.0
0.0 3.684808133 0.118915280471 0.0
0.0 3.686159365 0.118844835524 0.0
0.0 3.687510596 0.118774916282 0.0
0.0 3.688861828 0.118706344844 0.0
0.0 3.690213059 0.118637495922 0.0
0.0 3.69156429 0.118567556204 0.0
0.0 3.692915522 0.118498867477 0.0
0.0 3.694266753 0.11843173842 0.0
0.0 3.695617985 0.118363926532 0.0
0.0 3.696969216 0.118295081806 0.0
0.0 3.698320448 0.118226884852 0.0
0.0 3.699671679 0.118160060222 0.0
0.0 3.701022911 0.118094892527 0.0
0.0 3.702374142 0.118028554322 0.0
0.0 3.703725373 0.117962850326 0.0
0.0 3.705076605 0.117898228274 0.0
0.0 3.706427836 0.117833808093 0.0
0.0 3.707779068 0.117770511214 0.0
0.0 3.709130299 0.117707431464 0.0
0.0 3.710481531 0.117642103904 0.0
0.0 3.711832762 0.117576870202 0.0
0.0 3.713183993 0.117513190848 0.0
0.0 3.714535225 0.11745023186 0.0
0.0 3.715886456 0.117387361166 0.0
0.0 3.717237688 0.117325979193 0.0
0.0 3.718588919 0.117264333251 0.0
0.0 3.719940151 0.117202143443 0.0
0.0 3.721291382 0.117140946442 0.0
0.0 3.722642614 0.11708103142 0.0
0.0 3.723993845 0.11702000759 0.0
0.0 3.725345076 0.116959009418 0.0
0.0 3.726696308 0.116897702061 0.0
0.0 3.728047539 0.116839083318 0.0
0.0 3.729398771 0.116780323996 0.0
0.0 3.730750002 0.116720303078 0.0
0.0 3.732101234 0.116661818871 0.0
0.0 3.733452465 0.116603800553 0.0
0.0 3.734803696 0.116544973122 0.0
0.0 3.736154928 0.116486474945 0.0
0.0 3.737506159 0.116430234012 0.0
0.0 3.738857391 0.116375160944 0.0
0.0 3.740208622 0.116318528385 0.0
0.0 3.741559854 0.116261391061 0.0
0.0 3.742911085 0.116205489378 0.0
0.0 3.744262317 0.116150227618 0.0
0.0 3.745613548 0.11609639391 0.0
0.0 3.746964779 0.116042537581 0.0
0.0 3.748316011 0.11598803237 0.0
0.0 3.749667242 0.115933207162 0.0
0.0 3.751018474 0.115877710683 0.0
0.0 3.752369705 0.115824329717 0.0
0.0 3.753720937 0.115771497547 0.0
0.0 3.755072168 0.115719934258 0.0
0.0 3.7564234 0.115668448433 0.0
0.0 3.757774631 0.115615058841 0.0
0.0 3.759125862 0.115562352899 0.0
0.0 3.760477094 0.115511465679 0.0
0.0 3.761828325 0.115460078718 0.0
0.0 3.763179557 0.115406629345 0.0
0.0 3.764530788 0.115355694425 0.0
0.0 3.76588202 0.115305586425 0.0
0.0 3.767233251 0.115256580611 0.0
0.0 3.768584482 0.115208974534 0.0
0.0 3.769935714 0.115159284518 0.0
0.0 3.771286945 0.115110671211 0.0
0.0 3.772638177 0.1150636053 0.0
0.0 3.773989408 0.115017327233 0.0
0.0 3.77534064 0.114971885793 0.0
0.0 3.776691871 0.114925928458 0.0
0.0 3.778043103 0.114879311136 0.0
0.0 3.779394334 0.114832540425 0.0
0.0 3.780745565 0.114787410136 0.0
0.0 3.782096797 0.114743889062 0.0
0.0 3.783448028 0.114700214703 0.0
0.0 3.78479926 0.114656249187 0.0
0.0 3.786150491 0.114612296032 0.0
0.0 3.787501723 0.114567820769 0.0
0.0 3.788852954 0.114523684781 0.0
0.0 3.790204185 0.114480893894 0.0
0.0 3.791555417 0.114439193155 0.0
0.0 3.792906648 0.114397223557 0.0
0.0 3.79425788 0.114354979757 0.0
0.0 3.795609111 0.114312831917 0.0
0.0 3.796960343 0.114272259142 0.0
0.0 3.798311574 0.114232905244 0.0
0.0 3.799662806 0.114191401605 0.0
0.0 3.801014037 0.114148558564 0.0
0.0 3.802365268 0.114108938701 0.0
0.0 3.8037165 0.114072109686 0.0
0.0 3.805067731 0.114035648268 0.0
0.0 3.806418963 0.113998772654 0.0
0.0 3.807770194 0.113961746572 0.0
0.0 3.809121426 0.113924775331 0.0
0.0 3.810472657 0.113887895976 0.0
0.0 3.811823889 0.113850888817 0.0
0.0 3.81317512 0.113813396214 0.0
0.0 3.814526351 0.113775673134 0.0
0.0 3.815877583 0.113739124798 0.0
0.0 3.817228814 0.113704839046 0.0
0.0 3.818580046 0.113672236806 0.0
0.0 3.819931277 0.113639952312 0.0
0.0 3.821282509 0.113607330285 0.0
0.0 3.82263374 0.113574303741 0.0
0.0 3.823984971 0.113541030525 0.0
0.0 3.825336203 0.113508028444 0.0
0.0 3.826687434 0.113475642871 0.0
0.0 3.828038666 0.113444143988 0.0
0.0 3.829389897 0.113413886879 0.0
0.0 3.830741129 0.113384545602 0.0
0.0 3.83209236 0.113354659122 0.0
0.0 3.833443592 0.113324580345 0.0
0.0 3.834794823 0.113296809171 0.0
0.0 3.836146054 0.113268855578 0.0
0.0 3.837497286 0.113239920966 0.0
0.0 3.838848517 0.113210921513 0.0
0.0 3.840199749 0.113182351747 0.0
0.0 3.84155098 0.11315395751 0.0
0.0 3.842902212 0.113125221792 0.0
0.0 3.844253443 0.11309692985 0.0
0.0 3.845604674 0.11307152776 0.0
0.0 3.846955906 0.113047780887 0.0
0.0 3.848307137 0.113023502225 0.0
0.0 3.849658369 0.112997505757 0.0
0.0 3.8510096 0.112971148519 0.0
0.0 3.852360832 0.112946283771 0.0
0.0 3.853712063 0.112923256944 0.0
0.0 3.855063295 0.112901111192 0.0
0.0 3.856414526 0.112879537063 0.0
0.0 3.857765757 0.112859241679 0.0
0.0 3.859116989 0.112839310708 0.0
0.0 3.86046822 0.112816190405 0.0
0.0 3.861819452 0.112792432877 0.0
0.0 3.863170683 0.112772315717 0.0
0.0 3.864521915 0.112752967199 0.0
0.0 3.865873146 0.112731748355 0.0
0.0 3.867224377 0.112710676836 0.0
0.0 3.868575609 0.112692057128 0.0
0.0 3.86992684 0.112674099657 0.0
0.0 3.871278072 0.112656402615 0.0
0.0 3.872629303 0.112638943424 0.0
0.0 3.873980535 0.112621464363 0.0
0.0 3.875331766 0.112604259025 0.0
0.0 3.876682998 0.112587084427 0.0
0.0 3.878034229 0.112570156566 0.0
0.0 3.87938546 0.112553894395 0.0
0.0 3.880736692 0.112538864892 0.0
0.0 3.882087923 0.112525499088 0.0
0.0 3.883439155 0.112512523586 0.0
0.0 3.884790386 0.112498797446 0.0
0.0 3.886141618 0.112484556215 0.0
0.0 3.887492849 0.112471488882 0.0
0.0 3.888844081 0.112459430589 0.0
0.0 3.890195312 0.11244843726 0.0
0.0 3.891546543 0.112438502149 0.0
0.0 3.892897775 0.112429636553 0.0
0.0 3.894249006 0.112421931032 0.0
0.0 3.895600238 0.112412188781 0.0
0.0 3.896951469 0.112401405048 0.0
0.0 3.898302701 0.112391163781 0.0
0.0 3.899653932 0.112384245936 0.0
0.0 3.901005163 0.112378913901 0.0
0.0 3.902356395 0.112372089068 0.0
0.0 3.903707626 0.112365496543 0.0
0.0 3.905058858 0.11235967547 0.0
0.0 3.906410089 0.112353138254 0.0
0.0 3.907761321 0.112346500672 0.0
0.0 3.909112552 0.11234120069 0.0
0.0 3.910463784 0.112337930867 0.0
0.0 3.911815015 0.112335410339 0.0
0.0 3.913166246 0.112332368362 0.0
0.0 3.914517478 0.112328957832 0.0
0.0 3.915868709 0.112324376838 0.0
0.0 3.917219941 0.112319794181 0.0
0.0 3.918571172 0.112317572734 0.0
0.0 3.919922404 0.112317001824 0.0
0.0 3.921273635 0.112316727329 0.0
0.0 3.922624866 0.112315551723 0.0
0.0 3.923976098 0.112314943331 0.0
0.0 3.925327329 0.112315801824 0.0
0.0 3.926678561 0.112317815819 0.0
0.0 3.928029792 0.112320597005 0.0
0.0 3.929381024 0.112323126141 0.0
0.0 3.930732255 0.112326074063 0.0
0.0 3.932083487 0.112330052308 0.0
0.0 3.933434718 0.112333529031 0.0
0.0 3.934785949 0.112337221829 0.0
0.0 3.936137181 0.112342361202 0.0
0.0 3.937488412 0.112348659599 0.0
0.0 3.938839644 0.112355361232 0.0
0.0 3.940190875 0.1123610592 0.0
0.0 3.941542107 0.112364884023 0.0
0.0 3.942893338 0.112370268928 0.0
0.0 3.944244569 0.112378064121 0.0
0.0 3.945595801 0.11238920818 0.0
0.0 3.946947032 0.112399710047 0.0
0.0 3.948298264 0.11240816846 0.0
0.0 3.949649495 0.112415499821 0.0
0.0 3.951000727 0.112423392178 0.0
0.0 3.952351958 0.112432788783 0.0
0.0 3.95370319 0.112443600188 0.0
0.0 3.955054421 0.1124545065 0.0
0.0 3.956405652 0.112465088551 0.0
0.0 3.957756884 0.112475748596 0.0
0.0 3.959108115 0.112486829377 0.0
0.0 3.960459347 0.112497392736 0.0
0.0 3.961810578 0.112509298541 0.0
0.0 3.96316181 0.112523251013 0.0
0.0 3.964513041 0.112538828718 0.0
0.0 3.965864273 0.112554566108 0.0
0.0 3.967215504 0.112569712462 0.0
0.0 3.968566735 0.11258449908 0.0
0.0 3.969917967 0.112600897577 0.0
0.0 3.971269198 0.112616841491 0.0
0.0 3.97262043 0.1126322257 0.0
0.0 3.973971661 0.112650687616 0.0
0.0 3.975322893 0.112671078683 0.0
0.0 3.976674124 0.112692170513 0.0
0.0 3.978025355 0.112713525299 0.0
0.0 3.979376587 0.112734650392 0.0
0.0 3.980727818 0.112755396373 0.0
0.0 3.98207905 0.112776472568 0.0
0.0 3.983430281 0.112799262071 0.0
0.0 3.984781513 0.112823541447 0.0
0.0 3.986132744 0.112848188821 0.0
0.0 3.987483976 0.112873158599 0.0
0.0 3.988835207 0.11289892711 0.0
0.0 3.990186438 0.112925694611 0.0
0.0 3.99153767 0.112952685965 0.0
0.0 3.992888901 0.112978554236 0.0
0.0 3.994240133 0.113004538287 0.0
0.0 3.995591364 0.113032878775 0.0
0.0 3.996942596 0.113063027545 0.0
0.0 3.998293827 0.113094734916 0.0
0.0 3.999645058 0.113124923036 0.0
0.0 4.00099629 0.113154192754 0.0
0.0 4.002347521 0.113184987861 0.0
0.0 4.003698753 0.113215245482 0.0
0.0 4.005049984 0.113246282698 0.0
0.0 4.006401216 0.113278046749 0.0
0.0 4.007752447 0.113310991571 0.0
0.0 4.009103679 0.113344553187 0.0
0.0 4.01045491 0.113378613866 0.0
0.0 4.011806141 0.11341311191 0.0
0.0 4.013157373 0.11344810925 0.0
0.0 4.014508604 0.113482548996 0.0
0.0 4.015859836 0.113517037342 0.0
0.0 4.017211067 0.113552664308 0.0
0.0 4.018562299 0.113589152265 0.0
0.0 4.01991353 0.113626852937 0.0
0.0 4.021264761 0.113665692574 0.0
0.0 4.022615993 0.113705223926 0.0
0.0 4.023967224 0.113745480979 0.0
0.0 4.025318456 0.113786818325 0.0
0.0 4.026669687 0.113827731146 0.0
0.0 4.028020919 0.113867173141 0.0
0.0 4.02937215 0.113906894162 0.0
0.0 4.030723382 0.113948939333 0.0
0.0 4.032074613 0.113993279718 0.0
0.0 4.033425844 0.114039440906 0.0
0.0 4.034777076 0.114085171671 0.0
0.0 4.036128307 0.114128557849 0.0
0.0 4.037479539 0.114172060954 0.0
0.0 4.03883077 0.114218474853 0.0
0.0 4.040182002 0.114267067124 0.0
0.0 4.041533233 0.114316484235 0.0
0.0 4.042884465 0.114365662333 0.0
0.0 4.044235696 0.114415834235 0.0
0.0 4.045586927 0.114465579994 0.0
0.0 4.046938159 0.114515839717 0.0
0.0 4.04828939 0.11456791704 0.0
0.0 4.049640622 0.114620334081 0.0
0.0 4.050991853 0.11467367091 0.0
0.0 4.052343085 0.114729249857 0.0
0.0 4.053694316 0.114788912761 0.0
0.0 4.055045547 0.114849422757 0.0
0.0 4.056396779 0.114908377728 0.0
0.0 4.05774801 0.114967328905 0.0
0.0 4.059099242 0.115026235779 0.0
0.0 4.060450473 0.115085344659 0.0
0.0 4.061801705 0.115145496434 0.0
0.0 4.063152936 0.115208430289 0.0
0.0 4.064504168 0.115272220765 0.0
0.0 4.065855399 0.115334907209 0.0
0.0 4.06720663 0.115398631173 0.0
0.0 4.068557862 0.115464918574 0.0
0.0 4.069909093 0.115534223916 0.0
0.0 4.071260325 0.115605453986 0.0
0.0 4.072611556 0.11567718364 0.0
0.0 4.073962788 0.115750160035 0.0
0.0 4.075314019 0.115826118402 0.0
0.0 4.07666525 0.115904885094 0.0
0.0 4.078016482 0.115985609473 0.0
0.0 4.079367713 0.116067564517 0.0
0.0 4.080718945 0.116151491874 0.0
0.0 4.082070176 0.11623911394 0.0
0.0 4.083421408 0.116330363948 0.0
0.0 4.084772639 0.116424935656 0.0
0.0 4.086123871 0.116522410525 0.0
0.0 4.087475102 0.116622815149 0.0
0.0 4.088826333 0.116727185915 0.0
0.0 4.090177565 0.1168374993 0.0
0.0 4.091528796 0.1169526731 0.0
0.0 4.092880028 0.117072369416 0.0
0.0 4.094231259 0.11719726462 0.0
0.0 4.095582491 0.117328101321 0.0
0.0 4.096933722 0.117465265657 0.0
0.0 4.098284953 0.117609806682 0.0
0.0 4.099636185 0.117763507249 0.0
0.0 4.100987416 0.117925783709 0.0
0.0 4.102338648 0.118097060904 0.0
0.0 4.103689879 0.118279963875 0.0
0.0 4.105041111 0.118476323903 0.0
0.0 4.106392342 0.118688981827 0.0
0.0 4.107743574 0.118918015522 0.0
0.0 4.109094805 0.119164106131 0.0
0.0 4.110446036 0.119428995819 0.0
0.0 4.111797268 0.119715326355 0.0
0.0 4.113148499 0.12002655146 0.0
0.0 4.114499731 0.120368048388 0.0
0.0 4.115850962 0.120742725436 0.0
0.0 4.117202194 0.12115354018 0.0
0.0 4.118553425 0.121607276827 0.0
0.0 4.119904657 0.122107547851 0.0
0.0 4.121255888 0.122659869585 0.0
0.0 4.122607119 0.123274301926 0.0
0.0 4.123958351 0.123957103197 0.0
0.0 4.125309582 0.124718310119 0.0
0.0 4.126660814 0.125568467009 0.0
0.0 4.128012045 0.126518915464 0.0
0.0 4.129363277 0.127583189851 0.0
0.0 4.130714508 0.128781445997 0.0
0.0 4.132065739 0.130131117026 0.0
0.0 4.133416971 0.131653582899 0.0
0.0 4.134768202 0.133373930743 0.0
0.0 4.136119434 0.135322950623 0.0
0.0 4.137470665 0.137537074345 0.0
0.0 4.138821897 0.14004868467 0.0
0.0 4.140173128 0.142903946584 0.0
0.0 4.14152436 0.146159066286 0.0
0.0 4.142875591 0.149865734686 0.0
0.0 4.144226822 0.154086040953 0.0
0.0 4.145578054 0.158895656039 0.0
0.0 4.146929285 0.164366024685 0.0
0.0 4.148280517 0.170638178607 0.0
0.0 4.149631748 0.177696082748 0.0
0.0 4.15098298 0.18568688898 0.0
0.0 4.152334211 0.194678069317 0.0
0.0 4.153685442 0.204760605869 0.0
0.0 4.155036674 0.21602958946 0.0
0.0 4.156387905 0.228562350696 0.0
0.0 4.157739137 0.242416042229 0.0
0.0 4.159090368 0.257541483953 0.0
0.0 4.1604416 0.273996347898 0.0
0.0 4.161792831 0.291733386191 0.0
0.0 4.163144063 0.310532144154 0.0
0.0 4.164495294 0.330362646633 0.0
0.0 4.165846525 0.350921138946 0.0
0.0 4.167197757 0.371762536926 0.0
0.0 4.168548988 0.392872125706 0.0
0.0 4.16990022 0.414001867465 0.0
0.0 4.171251451 0.434885287548 0.0
0.0 4.172602683 0.455103176413 0.0
0.0 4.173953914 0.474047718604 0.0
0.0 4.175305146 0.492034192145 0.0
0.0 4.176656377 0.508899634322 0.0
0.0 4.178007608 0.52452710752 0.0
0.0 4.17935884 0.538803676379 0.0
0.0 4.180710071 0.551278531495 0.0
0.0 4.182061303 0.562469619193 0.0
0.0 4.183412534 0.57242341094 0.0
0.0 4.184763766 0.581192202737 0.0
0.0 4.186114997 0.588786255723 0.0
0.0 4.187466228 0.594977387313 0.0
0.0 4.18881746 0.60029668001 0.0
0.0 4.190168691 0.604802276254 0.0
0.0 4.191519923 0.60855325195 0.0
0.0 4.192871154 0.611598346729 0.0
0.0 4.194222386 0.614542636733 0.0
0.0 4.195573617 0.616482826596 0.0
0.0 4.196924849 0.618032642945 0.0
0.0 4.19827608 0.619258713435 0.0
0.0 4.199627311 0.620236117872 0.0
0.0 4.200978543 0.620939051071 0.0
0.0 4.202329774 0.621482839133 0.0
0.0 4.203681006 0.622293341664 0.0
0.0 4.205032237 0.622829414111 0.0
0.0 4.206383469 0.623082970719 0.0
0.0 4.2077347 0.623277364869 0.0
0.0 4.209085931 0.623464026872 0.0
0.0 4.210437163 0.623635019086 0.0
0.0 4.211788394 0.623784353071 0.0
0.0 4.213139626 0.62394044228 0.0
0.0 4.214490857 0.624128288299 0.0
0.0 4.215842089 0.624310904057 0.0
0.0 4.21719332 0.624496936101 0.0
0.0 4.218544552 0.624713488412 0.0
0.0 4.219895783 0.624967768827 0.0
0.0 4.221247014 0.625189252581 0.0
0.0 4.222598246 0.625422049343 0.0
0.0 4.223949477 0.625677455685 0.0
0.0 4.225300709 0.625944438876 0.0
0.0 4.22665194 0.626173665976 0.0
0.0 4.228003172 0.62641711272 0.0
0.0 4.229354403 0.62666292893 0.0
0.0 4.230705634 0.626896122681 0.0
0.0 4.232056866 0.627088097827 0.0
0.0 4.233408097 0.62729384501 0.0
0.0 4.234759329 0.627481438255 0.0
0.0 4.23611056 0.6276390227 0.0
0.0 4.237461792 0.627764175248 0.0
0.0 4.238813023 0.627914312329 0.0
0.0 4.240164255 0.628036249394 0.0
0.0 4.241515486 0.628123770393 0.0
0.0 4.242866717 0.628687579852 0.0
0.0 4.244217949 0.628839752785 0.0
0.0 4.24556918 0.62884769813 0.0
0.0 4.246920412 0.628810569895 0.0
0.0 4.248271643 0.629292160249 0.0
0.0 4.249622875 0.629205766104 0.0
0.0 4.250974106 0.629013842034 0.0
0.0 4.252325338 0.628776696281 0.0
0.0 4.253676569 0.628501506768 0.0
0.0 4.2550278 0.628180896504 0.0
0.0 4.256379032 0.627741476399 0.0
0.0 4.257730263 0.627220419237 0.0
0.0 4.259081495 0.626620274793 0.0
0.0 4.260432726 0.625619026394 0.0
0.0 4.261783958 0.623833107945 0.0
0.0 4.263135189 0.621868848957 0.0
0.0 4.26448642 0.619724658046 0.0
0.0 4.265837652 0.617345567997 0.0
0.0 4.267188883 0.614683493632 0.0
0.0 4.268540115 0.611595286904 0.0
0.0 4.269891346 0.60808609961 0.0
0.0 4.271242578 0.603834307413 0.0
0.0 4.272593809 0.599372727677 0.0
0.0 4.273945041 0.595176993135 0.0
0.0 4.275296272 0.592295593294 0.0
0.0 4.276647503 0.591103845837 0.0
0.0 4.277998735 0.591701842311 0.0
0.0 4.279349966 0.594147796095 0.0
0.0 4.280701198 0.598889187596 0.0
0.0 4.282052429 0.604562666936 0.0
0.0 4.283403661 0.609209516787 0.0
0.0 4.284754892 0.612689412233 0.0
0.0 4.286106123 0.615082520988 0.0
0.0 4.287457355 0.617197731076 0.0
0.0 4.288808586 0.619174228071 0.0
0.0 4.290159818 0.620863906843 0.0
0.0 4.291511049 0.620611555053 0.0
0.0 4.292862281 0.620371155452 0.0
0.0 4.294213512 0.620809010368 0.0
0.0 4.295564744 0.621053059604 0.0
0.0 4.296915975 0.620846424326 0.0
0.0 4.298267206 0.620666842952 0.0
0.0 4.299618438 0.620518121393 0.0
0.0 4.300969669 0.620337464801 0.0
0.0 4.302320901 0.620126370556 0.0
0.0 4.303672132 0.619963970754 0.0
0.0 4.305023364 0.619841156218 0.0
0.0 4.306374595 0.61974963723 0.0
0.0 4.307725826 0.619668742105 0.0
0.0 4.309077058 0.619663858878 0.0
0.0 4.310428289 0.619702822561 0.0
0.0 4.311779521 0.619768297774 0.0
0.0 4.313130752 0.619843547547 0.0
0.0 4.314481984 0.619991166214 0.0
0.0 4.315833215 0.620167999705 0.0
0.0 4.317184447 0.620362544241 0.0
0.0 4.318535678 0.620561478016 0.0
0.0 4.319886909 0.620825454171 0.0
0.0 4.321238141 0.621118282375 0.0
0.0 4.322589372 0.621417960121 0.0
0.0 4.323940604 0.621715921288 0.0
0.0 4.325291835 0.622054644411 0.0
0.0 4.326643067 0.622377508085 0.0
0.0 4.327994298 0.622679008353 0.0
0.0 4.32934553 0.622956844901 0.0
0.0 4.330696761 0.623244813201 0.0
0.0 4.332047992 0.623492867072 0.0
0.0 4.333399224 0.623698625294 0.0
0.0 4.334750455 0.623860859317 0.0
0.0 4.336101687 0.623993323386 0.0
0.0 4.337452918 0.624058633435 0.0
0.0 4.33880415 0.624054285899 0.0
0.0 4.340155381 0.623983096569 0.0
0.0 4.341506612 0.62384819682 0.0
0.0 4.342857844 0.623629375523 0.0
0.0 4.344209075 0.623326464018 0.0
0.0 4.345560307 0.623246656996 0.0
0.0 4.346911538 0.623034971498 0.0
0.0 4.34826277 0.622511320391 0.0
0.0 4.349614001 0.621899861 0.0
0.0 4.350965233 0.621233094409 0.0
0.0 4.352316464 0.62105833536 0.0
0.0 4.353667695 0.620282819311 0.0
0.0 4.355018927 0.619451002281 0.0
0.0 4.356370158 0.618608091475 0.0
0.0 4.35772139 0.617743705304 0.0
0.0 4.359072621 0.616851579969 0.0
0.0 4.360423853 0.615929241847 0.0
0.0 4.361775084 0.61502781698 0.0
0.0 4.363126315 0.614098414918 0.0
0.0 4.364477547 0.613130978809 0.0
0.0 4.365828778 0.612105995638 0.0
0.0 4.36718001 0.611010865503 0.0
0.0 4.368531241 0.609793231363 0.0
0.0 4.369882473 0.608426052486 0.0
0.0 4.371233704 0.60681891043 0.0
0.0 4.372584936 0.604889860526 0.0
0.0 4.373936167 0.602606145797 0.0
0.0 4.375287398 0.599915444445 0.0
0.0 4.37663863 0.596519676317 0.0
0.0 4.377989861 0.592408490255 0.0
0.0 4.379341093 0.587593413037 0.0
0.0 4.380692324 0.58202397508 0.0
0.0 4.382043556 0.575042485366 0.0
0.0 4.383394787 0.567080239479 0.0
0.0 4.384746018 0.558120434963 0.0
0.0 4.38609725 0.547901976227 0.0
0.0 4.387448481 0.536036722311 0.0
0.0 4.388799713 0.523109628304 0.0
0.0 4.390150944 0.509188396524 0.0
0.0 4.391502176 0.493717600781 0.0
0.0 4.392853407 0.477034118752 0.0
0.0 4.394204639 0.459655035298 0.0
0.0 4.39555587 0.4417473559 0.0
0.0 4.396907101 0.422582374543 0.0
0.0 4.398258333 0.403339660574 0.0
0.0 4.399609564 0.384246144093 0.0
0.0 4.400960796 0.365245549986 0.0
0.0 4.402312027 0.346387860365 0.0
0.0 4.403663259 0.328370234893 0.0
0.0 4.40501449 0.311314124497 0.0
0.0 4.406365722 0.295190368857 0.0
0.0 4.407716953 0.280052098412 0.0
0.0 4.409068184 0.266199874844 0.0
0.0 4.410419416 0.253591217175 0.0
0.0 4.411770647 0.242134412228 0.0
0.0 4.413121879 0.231928003303 0.0
0.0 4.41447311 0.222921670935 0.0
0.0 4.415824342 0.214880475828 0.0
0.0 4.417175573 0.207809218209 0.0
0.0 4.418526804 0.20161800279 0.0
0.0 4.419878036 0.196208903562 0.0
0.0 4.421229267 0.191514208096 0.0
0.0 4.422580499 0.187436109777 0.0
0.0 4.42393173 0.183898004982 0.0
0.0 4.425282962 0.180841424684 0.0
0.0 4.426634193 0.178211282263 0.0
0.0 4.427985425 0.175941748506 0.0
0.0 4.429336656 0.173985409722 0.0
0.0 4.430687887 0.172315295061 0.0
0.0 4.432039119 0.170882844042 0.0
0.0 4.43339035 0.169656274492 0.0
0.0 4.434741582 0.168611202657 0.0
0.0 4.436092813 0.16772602447 0.0
0.0 4.437444045 0.166978004693 0.0
0.0 4.438795276 0.166350883503 0.0
0.0 4.440146507 0.165831634279 0.0
0.0 4.441497739 0.165402464185 0.0
0.0 4.44284897 0.165052803932 0.0
0.0 4.444200202 0.164775956285 0.0
0.0 4.445551433 0.164561145531 0.0
0.0 4.446902665 0.164401236648 0.0
0.0 4.448253896 0.164291131706 0.0
0.0 4.449605128 0.164225916108 0.0
0.0 4.450956359 0.164195662727 0.0
0.0 4.45230759 0.164197057131 0.0
0.0 4.453658822 0.164229719867 0.0
0.0 4.455010053 0.164290079456 0.0
0.0 4.456361285 0.164373633604 0.0
0.0 4.457712516 0.164477275818 0.0
0.0 4.459063748 0.164601110016 0.0
0.0 4.460414979 0.164742624937 0.0
0.0 4.461766211 0.164900080644 0.0
0.0 4.463117442 0.165071107482 0.0
0.0 4.464468673 0.165254664089 0.0
0.0 4.465819905 0.165449482012 0.0
0.0 4.467171136 0.165654786476 0.0
0.0 4.468522368 0.16586861849 0.0
0.0 4.469873599 0.166090679567 0.0
0.0 4.471224831 0.166320667528 0.0
0.0 4.472576062 0.166557810353 0.0
0.0 4.473927293 0.166801357349 0.0
0.0 4.475278525 0.167050836816 0.0
0.0 4.476629756 0.167306826679 0.0
0.0 4.477980988 0.167566980545 0.0
0.0 4.479332219 0.167831282409 0.0
0.0 4.480683451 0.168100230811 0.0
0.0 4.482034682 0.168373979405 0.0
0.0 4.483385914 0.168651233581 0.0
0.0 4.484737145 0.168931540029 0.0
0.0 4.486088376 0.16921568524 0.0
0.0 4.487439608 0.16950381578 0.0
0.0 4.488790839 0.169795795721 0.0
0.0 4.490142071 0.170088946144 0.0
0.0 4.491493302 0.170383385446 0.0
0.0 4.492844534 0.170679475839 0.0
0.0 4.494195765 0.170977494633 0.0
0.0 4.495546996 0.171278996459 0.0
0.0 4.496898228 0.171584141978 0.0
0.0 4.498249459 0.171894093521 0.0
0.0 4.499600691 0.172205604122 0.0
0.0 4.500951922 0.172517572301 0.0
0.0 4.502303154 0.172829358365 0.0
0.0 4.503654385 0.173144538489 0.0
0.0 4.505005617 0.173462281186 0.0
0.0 4.506356848 0.173782546225 0.0
0.0 4.507708079 0.174102160497 0.0
0.0 4.509059311 0.17442360841 0.0
0.0 4.510410542 0.174746928418 0.0
0.0 4.511761774 0.175071996007 0.0
0.0 4.513113005 0.175397616817 0.0
0.0 4.514464237 0.175724455987 0.0
0.0 4.515815468 0.176053342 0.0
0.0 4.517166699 0.176384306549 0.0
0.0 4.518517931 0.176716855848 0.0
0.0 4.519869162 0.177050844704 0.0
0.0 4.521220394 0.177386283788 0.0
0.0 4.522571625 0.177722335749 0.0
0.0 4.523922857 0.178058665035 0.0
0.0 4.525274088 0.178395281579 0.0
0.0 4.52662532 0.178733612921 0.0
0.0 4.527976551 0.179073683214 0.0
0.0 4.529327782 0.179414823855 0.0
0.0 4.530679014 0.179757526464 0.0
0.0 4.532030245 0.180101876108 0.0
0.0 4.533381477 0.180446993848 0.0
0.0 4.534732708 0.180791663122 0.0
0.0 4.53608394 0.181137109933 0.0
0.0 4.537435171 0.181485058038 0.0
0.0 4.538786403 0.18183689282 0.0
0.0 4.540137634 0.18219078429 0.0
0.0 4.541488865 0.182545270917 0.0
0.0 4.542840097 0.182900201567 0.0
0.0 4.544191328 0.183256126223 0.0
0.0 4.54554256 0.183613356435 0.0
0.0 4.546893791 0.183970826343 0.0
0.0 4.548245023 0.184330526961 0.0
0.0 4.549596254 0.184691242526 0.0
0.0 4.550947485 0.185052948868 0.0
0.0 4.552298717 0.185416564495 0.0
0.0 4.553649948 0.18578095183 0.0
0.0 4.55500118 0.186146607222 0.0
0.0 4.556352411 0.18651361335 0.0
0.0 4.557703643 0.186881520337 0.0
0.0 4.559054874 0.187249543395 0.0
0.0 4.560406106 0.18761962273 0.0
0.0 4.561757337 0.18799128368 0.0
0.0 4.563108568 0.188363316939 0.0
0.0 4.5644598 0.188736758206 0.0
0.0 4.565811031 0.189111972412 0.0
0.0 4.567162263 0.189489799969 0.0
0.0 4.568513494 0.189868251754 0.0
0.0 4.569864726 0.190247023675 0.0
0.0 4.571215957 0.190625033863 0.0
0.0 4.572567188 0.191005010602 0.0
0.0 4.57391842 0.191386415173 0.0
0.0 4.575269651 0.191768640286 0.0
0.0 4.576620883 0.192152642069 0.0
0.0 4.577972114 0.192537823296 0.0
0.0 4.579323346 0.19292446828 0.0
0.0 4.580674577 0.193312166982 0.0
0.0 4.582025809 0.193700981549 0.0
0.0 4.58337704 0.194091164487 0.0
0.0 4.584728271 0.194482800928 0.0
0.0 4.586079503 0.194875869586 0.0
0.0 4.587430734 0.195269588126 0.0
0.0 4.588781966 0.195664226111 0.0
0.0 4.590133197 0.196059896384 0.0
0.0 4.591484429 0.196456468483 0.0
0.0 4.59283566 0.19685420317 0.0
0.0 4.594186891 0.197253266195 0.0
0.0 4.595538123 0.197654816286 0.0
0.0 4.596889354 0.198058191155 0.0
0.0 4.598240586 0.198463948068 0.0
0.0 4.599591817 0.198869950277 0.0
0.0 4.600943049 0.199277060412 0.0
0.0 4.60229428 0.199684746913 0.0
0.0 4.603645512 0.200093628205 0.0
0.0 4.604996743 0.200503600405 0.0
0.0 4.606347974 0.20091463746 0.0
0.0 4.607699206 0.201327001887 0.0
0.0 4.609050437 0.201740071502 0.0
0.0 4.610401669 0.202153934377 0.0
0.0 4.6117529 0.202567392612 0.0
0.0 4.613104132 0.202982326275 0.0
0.0 4.614455363 0.203399539315 0.0
0.0 4.615806595 0.203819348994 0.0
0.0 4.617157826 0.204241275228 0.0
0.0 4.618509057 0.204664084729 0.0
0.0 4.619860289 0.205088008912 0.0
0.0 4.62121152 0.205511937522 0.0
0.0 4.622562752 0.205937217623 0.0
0.0 4.623913983 0.206363065152 0.0
0.0 4.625265215 0.206791230384 0.0
0.0 4.626616446 0.207220630368 0.0
0.0 4.627967677 0.207651258388 0.0
0.0 4.629318909 0.208083171503 0.0
0.0 4.63067014 0.208516587114 0.0
0.0 4.632021372 0.208951424348 0.0
0.0 4.633372603 0.209387173478 0.0
0.0 4.634723835 0.209823332832 0.0
0.0 4.636075066 0.210260666807 0.0
0.0 4.637426298 0.210699836054 0.0
0.0 4.638777529 0.211141109229 0.0
0.0 4.64012876 0.211583601959 0.0
0.0 4.641479992 0.212027299267 0.0
0.0 4.642831223 0.212471428084 0.0
0.0 4.644182455 0.212916872432 0.0
0.0 4.645533686 0.213363911375 0.0
0.0 4.646884918 0.213812746124 0.0
0.0 4.648236149 0.214262759675 0.0
0.0 4.64958738 0.214713471311 0.0
0.0 4.650938612 0.215164515745 0.0
0.0 4.652289843 0.215618286971 0.0
0.0 4.653641075 0.216073991074 0.0
0.0 4.654992306 0.216531718347 0.0
0.0 4.656343538 0.216991749064 0.0
0.0 4.657694769 0.217452525623 0.0
0.0 4.659046001 0.217912391989 0.0
0.0 4.660397232 0.218371790892 0.0
0.0 4.661748463 0.218832432131 0.0
0.0 4.663099695 0.219296188352 0.0
0.0 4.664450926 0.219761874167 0.0
0.0 4.665802158 0.220228677822 0.0
0.0 4.667153389 0.220696723189 0.0
0.0 4.668504621 0.221165875068 0.0
0.0 4.669855852 0.221636407104 0.0
0.0 4.671207083 0.222108290199 0.0
0.0 4.672558315 0.2225814978 0.0
0.0 4.673909546 0.223055944131 0.0
0.0 4.675260778 0.223531788542 0.0
0.0 4.676612009 0.224008506811 0.0
0.0 4.677963241 0.22448638279 0.0
0.0 4.679314472 0.224965569656 0.0
0.0 4.680665704 0.225446346238 0.0
0.0 4.682016935 0.225928271387 0.0
0.0 4.683368166 0.22641153494 0.0
0.0 4.684719398 0.226895957126 0.0
0.0 4.686070629 0.227382325778 0.0
0.0 4.687421861 0.227870134902 0.0
0.0 4.688773092 0.228358437505 0.0
0.0 4.690124324 0.228847929764 0.0
0.0 4.691475555 0.229338217876 0.0
0.0 4.692826787 0.229830370316 0.0
0.0 4.694178018 0.230323992315 0.0
0.0 4.695529249 0.230818999239 0.0
0.0 4.696880481 0.231315504371 0.0
0.0 4.698231712 0.231813769155 0.0
0.0 4.699582944 0.232313767069 0.0
0.0 4.700934175 0.232815038837 0.0
0.0 4.702285407 0.233317505859 0.0
0.0 4.703636638 0.233820906135 0.0
0.0 4.704987869 0.234325619302 0.0
0.0 4.706339101 0.234831834363 0.0
0.0 4.707690332 0.235339224392 0.0
0.0 4.709041564 0.235847875577 0.0
0.0 4.710392795 0.236357728445 0.0
0.0 4.711744027 0.236869347511 0.0
0.0 4.713095258 0.237382732466 0.0
0.0 4.71444649 0.237897547731 0.0
0.0 4.715797721 0.238413584409 0.0
0.0 4.717148952 0.23893064941 0.0
0.0 4.718500184 0.239449197224 0.0
0.0 4.719851415 0.239969137456 0.0
0.0 4.721202647 0.240490301252 0.0
0.0 4.722553878 0.241012526269 0.0
0.0 4.72390511 0.241535919315 0.0
0.0 4.725256341 0.242060822786 0.0
0.0 4.726607572 0.242587306638 0.0
0.0 4.727958804 0.243115448193 0.0
0.0 4.729310035 0.243645288463 0.0
0.0 4.730661267 0.244176704926 0.0
0.0 4.732012498 0.244709939616 0.0
0.0 4.73336373 0.245244542617 0.0
0.0 4.734714961 0.24578053799 0.0
0.0 4.736066193 0.246317128325 0.0
0.0 4.737417424 0.246854900153 0.0
0.0 4.738768655 0.247393772318 0.0
0.0 4.740119887 0.24793430574 0.0
0.0 4.741471118 0.248476414012 0.0
0.0 4.74282235 0.249020312581 0.0
0.0 4.744173581 0.249565561129 0.0
0.0 4.745524813 0.250112182743 0.0
0.0 4.746876044 0.250660168878 0.0
0.0 4.748227276 0.251209762608 0.0
0.0 4.749578507 0.251761111278 0.0
0.0 4.750929738 0.252313980641 0.0
0.0 4.75228097 0.252868250749 0.0
0.0 4.753632201 0.253423464061 0.0
0.0 4.754983433 0.253979976542 0.0
0.0 4.756334664 0.25453781423 0.0
0.0 4.757685896 0.255097543409 0.0
0.0 4.759037127 0.255658934596 0.0
0.0 4.760388358 0.256222210664 0.0
0.0 4.76173959 0.256786767898 0.0
0.0 4.763090821 0.257352645011 0.0
0.0 4.764442053 0.257919164758 0.0
0.0 4.765793284 0.258487125657 0.0
0.0 4.767144516 0.259056524559 0.0
0.0 4.768495747 0.259627765288 0.0
0.0 4.769846979 0.26020050964 0.0
0.0 4.77119821 0.26077453417 0.0
0.0 4.772549441 0.261349942107 0.0
0.0 4.773900673 0.261926769728 0.0
0.0 4.775251904 0.262505493848 0.0
0.0 4.776603136 0.263085652351 0.0
0.0 4.777954367 0.263667143172 0.0
0.0 4.779305599 0.264249805218 0.0
0.0 4.78065683 0.264833903566 0.0
0.0 4.782008061 0.265420383656 0.0
0.0 4.783359293 0.266008759782 0.0
0.0 4.784710524 0.266599306782 0.0
0.0 4.786061756 0.267190673323 0.0
0.0 4.787412987 0.267783128549 0.0
0.0 4.788764219 0.268375954859 0.0
0.0 4.79011545 0.268970440342 0.0
0.0 4.791466682 0.269566558115 0.0
0.0 4.792817913 0.270164931433 0.0
0.0 4.794169144 0.270764926214 0.0
0.0 4.795520376 0.271366455633 0.0
0.0 4.796871607 0.27196935363 0.0
0.0 4.798222839 0.272573667097 0.0
0.0 4.79957407 0.27317941614 0.0
0.0 4.800925302 0.273786598854 0.0
0.0 4.802276533 0.274395124865 0.0
0.0 4.803627764 0.275004985178 0.0
0.0 4.804978996 0.275616301715 0.0
0.0 4.806330227 0.276229219499 0.0
0.0 4.807681459 0.276843821208 0.0
0.0 4.80903269 0.277460191724 0.0
0.0 4.810383922 0.278078211236 0.0
0.0 4.811735153 0.278697796899 0.0
0.0 4.813086385 0.279318668009 0.0
0.0 4.814437616 0.279941040506 0.0
0.0 4.815788847 0.280564903419 0.0
0.0 4.817140079 0.281190504704 0.0
0.0 4.81849131 0.281817698681 0.0
0.0 4.819842542 0.282446324844 0.0
0.0 4.821193773 0.28307635653 0.0
0.0 4.822545005 0.283707783518 0.0
0.0 4.823896236 0.284340855162 0.0
0.0 4.825247468 0.284975566079 0.0
0.0 4.826598699 0.285612121102 0.0
0.0 4.82794993 0.286250441606 0.0
0.0 4.829301162 0.286890576402 0.0
0.0 4.830652393 0.287532432023 0.0
0.0 4.832003625 0.288175856973 0.0
0.0 4.833354856 0.288820349602 0.0
0.0 4.834706088 0.2894661824 0.0
0.0 4.836057319 0.290113347024 0.0
0.0 4.83740855 0.290762339913 0.0
0.0 4.838759782 0.291413011449 0.0
0.0 4.840111013 0.292065484774 0.0
0.0 4.841462245 0.29271937869 0.0
0.0 4.842813476 0.293374671484 0.0
0.0 4.844164708 0.294031087992 0.0
0.0 4.845515939 0.294689055767 0.0
0.0 4.846867171 0.295348603304 0.0
0.0 4.848218402 0.296010206288 0.0
0.0 4.849569633 0.296674237028 0.0
0.0 4.850920865 0.297340800957 0.0
0.0 4.852272096 0.298008327445 0.0
0.0 4.853623328 0.298676209785 0.0
0.0 4.854974559 0.299346536547 0.0
0.0 4.856325791 0.300018577104 0.0
0.0 4.857677022 0.300692004581 0.0
0.0 4.859028253 0.301367453072 0.0
0.0 4.860379485 0.302043483369 0.0
0.0 4.861730716 0.302721052761 0.0
0.0 4.863081948 0.303400047989 0.0
0.0 4.864433179 0.304080946463 0.0
0.0 4.865784411 0.304763641931 0.0
0.0 4.867135642 0.30544802581 0.0
0.0 4.868486874 0.306134333564 0.0
0.0 4.869838105 0.30682258245 0.0
0.0 4.871189336 0.307512517186 0.0
0.0 4.872540568 0.308204448094 0.0
0.0 4.873891799 0.308897628641 0.0
0.0 4.875243031 0.309592263947 0.0
0.0 4.876594262 0.310288478524 0.0
0.0 4.877945494 0.310986231129 0.0
0.0 4.879296725 0.311685542059 0.0
0.0 4.880647956 0.312385948037 0.0
0.0 4.881999188 0.313088561377 0.0
0.0 4.883350419 0.313792949275 0.0
0.0 4.884701651 0.314499000349 0.0
0.0 4.886052882 0.315206710786 0.0
0.0 4.887404114 0.315916230123 0.0
0.0 4.888755345 0.316627483878 0.0
0.0 4.890106577 0.317340932729 0.0
0.0 4.891457808 0.318056058743 0.0
0.0 4.892809039 0.318772713851 0.0
0.0 4.894160271 0.319490792659 0.0
0.0 4.895511502 0.320210354316 0.0
0.0 4.896862734 0.320931443784 0.0
0.0 4.898213965 0.321654075005 0.0
0.0 4.899565197 0.322377777951 0.0
0.0 4.900916428 0.323102957846 0.0
0.0 4.90226766 0.323829939961 0.0
0.0 4.903618891 0.32455950842 0.0
0.0 4.904970122 0.325290988139 0.0
0.0 4.906321354 0.326024886381 0.0
0.0 4.907672585 0.326760598542 0.0
0.0 4.909023817 0.327497600617 0.0
0.0 4.910375048 0.328235890951 0.0
0.0 4.91172628 0.32897563151 0.0
0.0 4.913077511 0.32971675046 0.0
0.0 4.914428742 0.330459849293 0.0
0.0 4.915779974 0.331204901818 0.0
0.0 4.917131205 0.331951900904 0.0
0.0 4.918482437 0.332700832145 0.0
0.0 4.919833668 0.333451491495 0.0
0.0 4.9211849 0.334203890519 0.0
0.0 4.922536131 0.334958120608 0.0
0.0 4.923887363 0.335714082162 0.0
0.0 4.925238594 0.336471564435 0.0
0.0 4.926589825 0.337229921767 0.0
0.0 4.927941057 0.33799082115 0.0
0.0 4.929292288 0.338753609153 0.0
0.0 4.93064352 0.339518157823 0.0
0.0 4.931994751 0.340284504073 0.0
0.0 4.933345983 0.3410531699 0.0
0.0 4.934697214 0.341822901002 0.0
0.0 4.936048445 0.342594047377 0.0
0.0 4.937399677 0.343367371872 0.0
0.0 4.938750908 0.344142526581 0.0
0.0 4.94010214 0.344919459657 0.0
0.0 4.941453371 0.345698171955 0.0
0.0 4.942804603 0.346478667281 0.0
0.0 4.944155834 0.347260947139 0.0
0.0 4.945507066 0.348045020445 0.0
0.0 4.946858297 0.348831145499 0.0
0.0 4.948209528 0.349619068282 0.0
0.0 4.94956076 0.350409892493 0.0
0.0 4.950911991 0.351201737825 0.0
0.0 4.952263223 0.351994878199 0.0
0.0 4.953614454 0.352789504959 0.0
0.0 4.954965686 0.353585866476 0.0
0.0 4.956316917 0.354384031386 0.0
0.0 4.957668148 0.355184196701 0.0
0.0 4.95901938 0.355986252141 0.0
0.0 4.960370611 0.356790156017 0.0
0.0 4.961721843 0.357596059854 0.0
0.0 4.963073074 0.358403892268 0.0
0.0 4.964424306 0.359213903676 0.0
0.0 4.965775537 0.360026148561 0.0
0.0 4.967126769 0.360839687872 0.0
0.0 4.968478 0.361654874517 0.0
0.0 4.969829231 0.362471171502 0.0
0.0 4.971180463 0.363290137404 0.0
0.0 4.972531694 0.364110544684 0.0
0.0 4.973882926 0.364931951348 0.0
0.0 4.975234157 0.365755332857 0.0
0.0 4.976585389 0.366580683618 0.0
0.0 4.97793662 0.367408814818 0.0
0.0 4.979287852 0.368238579289 0.0
0.0 4.980639083 0.369070260178 0.0
0.0 4.981990314 0.369902778139 0.0
0.0 4.983341546 0.370737396833 0.0
0.0 4.984692777 0.371574034539 0.0
0.0 4.986044009 0.372412914018 0.0
0.0 4.98739524 0.373253777759 0.0
0.0 4.988746472 0.374096018781 0.0
0.0 4.990097703 0.374940354934 0.0
0.0 4.991448934 0.375786773082 0.0
0.0 4.992800166 0.376635823509 0.0
0.0 4.994151397 0.377486877435 0.0
0.0 4.995502629 0.378339887228 0.0
0.0 4.99685386 0.379194572852 0.0
0.0 4.998205092 0.380050903417 0.0
0.0 4.999556323 0.380909459828 0.0
0.0 5.000907555 0.381768126376 0.0
0.0 5.002258786 0.382629111452 0.0
0.0 5.003610017 0.383491145098 0.0
0.0 5.004961249 0.3843559283 0.0
0.0 5.00631248 0.385223222974 0.0
0.0 5.007663712 0.386092903433 0.0
0.0 5.009014943 0.386965425933 0.0
0.0 5.010366175 0.387839143113 0.0
0.0 5.011717406 0.388714355921 0.0
0.0 5.013068637 0.389590905607 0.0
0.0 5.014419869 0.390469627141 0.0
0.0 5.0157711 0.391350099396 0.0
0.0 5.017122332 0.392232142683 0.0
0.0 5.018473563 0.393116324575 0.0
0.0 5.019824795 0.39400255612 0.0
0.0 5.021176026 0.3948915732 0.0
0.0 5.022527258 0.395782262289 0.0
0.0 5.023878489 0.396674745602 0.0
0.0 5.02522972 0.397568340822 0.0
0.0 5.026580952 0.39846418214 0.0
0.0 5.027932183 0.399362090257 0.0
0.0 5.029283415 0.400262477765 0.0
0.0 5.030634646 0.401165377033 0.0
0.0 5.031985878 0.402070248083 0.0
0.0 5.033337109 0.402976922095 0.0
0.0 5.034688341 0.403885105173 0.0
0.0 5.036039572 0.404795316309 0.0
0.0 5.037390803 0.405706931082 0.0
0.0 5.038742035 0.406620796731 0.0
0.0 5.040093266 0.40753664742 0.0
0.0 5.041444498 0.408454646837 0.0
0.0 5.042795729 0.409374933479 0.0
0.0 5.044146961 0.410297281964 0.0
0.0 5.045498192 0.411221654743 0.0
0.0 5.046849423 0.412148158862 0.0
0.0 5.048200655 0.413076860738 0.0
0.0 5.049551886 0.414007177251 0.0
0.0 5.050903118 0.41493932859 0.0
0.0 5.052254349 0.415872666524 0.0
0.0 5.053605581 0.416807979927 0.0
0.0 5.054956812 0.417745760419 0.0
0.0 5.056308044 0.418685702228 0.0
0.0 5.057659275 0.419627689444 0.0
0.0 5.059010506 0.420571539036 0.0
0.0 5.060361738 0.421517391194 0.0
0.0 5.061712969 0.422465601347 0.0
0.0 5.063064201 0.423415949653 0.0
0.0 5.064415432 0.424368675485 0.0
0.0 5.065766664 0.425323394085 0.0
0.0 5.067117895 0.426279535184 0.0
0.0 5.068469126 0.427237306969 0.0
0.0 5.069820358 0.428196730867 0.0
0.0 5.071171589 0.429158088974 0.0
0.0 5.072522821 0.430122181219 0.0
0.0 5.073874052 0.431088832301 0.0
0.0 5.075225284 0.432058104141 0.0
0.0 5.076576515 0.433029569111 0.0
0.0 5.077927747 0.434003558359 0.0
0.0 5.079278978 0.43497788647 0.0
0.0 5.080630209 0.435954351956 0.0
0.0 5.081981441 0.436932491884 0.0
0.0 5.083332672 0.437913148904 0.0
0.0 5.084683904 0.43889655162 0.0
0.0 5.086035135 0.439882155628 0.0
0.0 5.087386367 0.440869518056 0.0
0.0 5.088737598 0.441858891293 0.0
0.0 5.090088829 0.442850312263 0.0
0.0 5.091440061 0.443844231932 0.0
0.0 5.092791292 0.444841120693 0.0
0.0 5.094142524 0.445839587512 0.0
0.0 5.095493755 0.446840247004 0.0
0.0 5.096844987 0.447841834884 0.0
0.0 5.098196218 0.448845516237 0.0
0.0 5.09954745 0.449851093456 0.0
