0.0 2.002610509 0.199587067741 0.0
0.0 2.004754632 0.200041053908 0.0
0.0 2.006898754 0.20049250275 0.0
0.0 2.009042877 0.200941418936 0.0
0.0 2.011186999 0.201387806288 0.0
0.0 2.013331122 0.201831669468 0.0
0.0 2.015475245 0.202273012509 0.0
0.0 2.017619367 0.202711839449 0.0
0.0 2.01976349 0.203148154944 0.0
0.0 2.021907612 0.203581962833 0.0
0.0 2.024051735 0.204013267762 0.0
0.0 2.026195858 0.204442073774 0.0
0.0 2.02833998 0.204868384917 0.0
0.0 2.030484103 0.20529220583 0.0
0.0 2.032628225 0.205713540366 0.0
0.0 2.034772348 0.206132393158 0.0
0.0 2.036916471 0.206548768256 0.0
0.0 2.039060593 0.206962669711 0.0
0.0 2.041204716 0.207374102156 0.0
0.0 2.043348838 0.207783069449 0.0
0.0 2.045492961 0.208189576215 0.0
0.0 2.047637084 0.208593626511 0.0
0.0 2.049781206 0.208995224393 0.0
0.0 2.051925329 0.209394374479 0.0
0.0 2.054069451 0.209791080642 0.0
0.0 2.056213574 0.210185347497 0.0
0.0 2.058357697 0.210577179102 0.0
0.0 2.060501819 0.210966579521 0.0
0.0 2.062645942 0.211353553362 0.0
0.0 2.064790064 0.211738104508 0.0
0.0 2.066934187 0.212120237563 0.0
0.0 2.06907831 0.212499956591 0.0
0.0 2.071222432 0.212877265664 0.0
0.0 2.073366555 0.213252169376 0.0
0.0 2.075510677 0.213624671626 0.0
0.0 2.0776548 0.213994777004 0.0
0.0 2.079798923 0.214362489584 0.0
0.0 2.081943045 0.21472781344 0.0
0.0 2.084087168 0.21509075316 0.0
0.0 2.08623129 0.215451312651 0.0
0.0 2.088375413 0.215809496495 0.0
0.0 2.090519536 0.216165308754 0.0
0.0 2.092663658 0.216518753526 0.0
0.0 2.094807781 0.216869835346 0.0
0.0 2.096951903 0.217218558155 0.0
0.0 2.099096026 0.217564926508 0.0
0.0 2.101240149 0.217908944491 0.0
0.0 2.103384271 0.218250616184 0.0
0.0 2.105528394 0.218589946119 0.0
0.0 2.107672516 0.21892693826 0.0
0.0 2.109816639 0.219261597153 0.0
0.0 2.111960762 0.219593926897 0.0
0.0 2.114104884 0.219923931572 0.0
0.0 2.116249007 0.220251615753 0.0
0.0 2.118393129 0.220576983401 0.0
0.0 2.120537252 0.220900039082 0.0
0.0 2.122681375 0.221220786856 0.0
0.0 2.124825497 0.221539230808 0.0
0.0 2.12696962 0.221855375487 0.0
0.0 2.129113742 0.22216922482 0.0
0.0 2.131257865 0.222480783369 0.0
0.0 2.133401988 0.222790055242 0.0
0.0 2.13554611 0.223097044538 0.0
0.0 2.137690233 0.223401755787 0.0
0.0 2.139834355 0.223704192926 0.0
0.0 2.141978478 0.224004360492 0.0
0.0 2.144122601 0.224302262592 0.0
0.0 2.146266723 0.22459790333 0.0
0.0 2.148410846 0.224891287232 0.0
0.0 2.150554968 0.22518241823 0.0
0.0 2.152699091 0.225471300876 0.0
0.0 2.154843214 0.225757939277 0.0
0.0 2.156987336 0.226042337557 0.0
0.0 2.159131459 0.226324500233 0.0
0.0 2.161275581 0.226604431246 0.0
0.0 2.163419704 0.226882135122 0.0
0.0 2.165563827 0.227157615967 0.0
0.0 2.167707949 0.227430877906 0.0
0.0 2.169852072 0.227701925415 0.0
0.0 2.171996194 0.227970762488 0.0
0.0 2.174140317 0.228237393657 0.0
0.0 2.17628444 0.228501822953 0.0
0.0 2.178428562 0.228764054643 0.0
0.0 2.180572685 0.229024093149 0.0
0.0 2.182716807 0.229281942467 0.0
0.0 2.18486093 0.229537607105 0.0
0.0 2.187005053 0.229791091111 0.0
0.0 2.189149175 0.230042398686 0.0
0.0 2.191293298 0.230291534292 0.0
0.0 2.19343742 0.230538501945 0.0
0.0 2.195581543 0.230783306157 0.0
0.0 2.197725666 0.231025950903 0.0
0.0 2.199869788 0.231266440467 0.0
0.0 2.202013911 0.231504779318 0.0
0.0 2.204158033 0.231740971459 0.0
0.0 2.206302156 0.231975021431 0.0
0.0 2.208446279 0.232206933167 0.0
0.0 2.210590401 0.232436710931 0.0
0.0 2.212734524 0.232664359037 0.0
0.0 2.214878646 0.2328898816 0.0
0.0 2.217022769 0.233113283216 0.0
0.0 2.219166892 0.233334567766 0.0
0.0 2.221311014 0.233553739634 0.0
0.0 2.223455137 0.233770803248 0.0
0.0 2.225599259 0.233985762594 0.0
0.0 2.227743382 0.234198622222 0.0
0.0 2.229887505 0.234409386114 0.0
0.0 2.232031627 0.234618058489 0.0
0.0 2.23417575 0.234824643539 0.0
0.0 2.236319872 0.235029145268 0.0
0.0 2.238463995 0.235231568531 0.0
0.0 2.240608118 0.235431917316 0.0
0.0 2.24275224 0.235630195983 0.0
0.0 2.244896363 0.235826408855 0.0
0.0 2.247040485 0.236020559667 0.0
0.0 2.249184608 0.23621265319 0.0
0.0 2.251328731 0.236402693489 0.0
0.0 2.253472853 0.236590684702 0.0
0.0 2.255616976 0.236776631248 0.0
0.0 2.257761098 0.236960537303 0.0
0.0 2.259905221 0.237142408748 0.0
0.0 2.262049344 0.237322251382 0.0
0.0 2.264193466 0.237500061996 0.0
0.0 2.266337589 0.237675849102 0.0
0.0 2.268481711 0.237849617357 0.0
0.0 2.270625834 0.238021371545 0.0
0.0 2.272769957 0.238191116537 0.0
0.0 2.274914079 0.238358849226 0.0
0.0 2.277058202 0.238524580249 0.0
0.0 2.279202324 0.238688312483 0.0
0.0 2.281346447 0.238850051461 0.0
0.0 2.28349057 0.239009802971 0.0
0.0 2.285634692 0.239167568938 0.0
0.0 2.287778815 0.239323356087 0.0
0.0 2.289922937 0.239477160081 0.0
0.0 2.29206706 0.239628991417 0.0
0.0 2.294211183 0.239778856829 0.0
0.0 2.296355305 0.239926761534 0.0
0.0 2.298499428 0.240072710172 0.0
0.0 2.30064355 0.240216708449 0.0
0.0 2.302787673 0.24035874549 0.0
0.0 2.304931796 0.240498839889 0.0
0.0 2.307075918 0.240636993202 0.0
0.0 2.309220041 0.240773209586 0.0
0.0 2.311364163 0.240907494728 0.0
0.0 2.313508286 0.241039787439 0.0
0.0 2.315652409 0.24117019609 0.0
0.0 2.317796531 0.241298690402 0.0
0.0 2.319940654 0.241425274297 0.0
0.0 2.322084776 0.241550020864 0.0
0.0 2.324228899 0.241673009369 0.0
0.0 2.326373022 0.241793895456 0.0
0.0 2.328517144 0.2419129211 0.0
0.0 2.330661267 0.242029615989 0.0
0.0 2.332805389 0.24214471295 0.0
0.0 2.334949512 0.242257980533 0.0
0.0 2.337093635 0.242369371683 0.0
0.0 2.339237757 0.24247888352 0.0
0.0 2.34138188 0.24258652038 0.0
0.0 2.343526002 0.242692286411 0.0
0.0 2.345670125 0.24279618597 0.0
0.0 2.347814248 0.242898223267 0.0
0.0 2.34995837 0.242998402517 0.0
0.0 2.352102493 0.243096728073 0.0
0.0 2.354246615 0.243193204094 0.0
0.0 2.356390738 0.243287834918 0.0
0.0 2.358534861 0.243380625631 0.0
0.0 2.360678983 0.243471607027 0.0
0.0 2.362823106 0.243561027322 0.0
0.0 2.364967228 0.243649386692 0.0
0.0 2.367111351 0.243734889909 0.0
0.0 2.369255474 0.243818572985 0.0
0.0 2.371399596 0.24389976627 0.0
0.0 2.373543719 0.243979410015 0.0
0.0 2.375687841 0.24405745148 0.0
0.0 2.377831964 0.244133643601 0.0
0.0 2.379976087 0.244208232407 0.0
0.0 2.382120209 0.244281126467 0.0
0.0 2.384264332 0.244352081178 0.0
0.0 2.386408454 0.244421416345 0.0
0.0 2.388552577 0.244489432003 0.0
0.0 2.3906967 0.244555372887 0.0
0.0 2.392840822 0.244619665147 0.0
0.0 2.394984945 0.244681051305 0.0
0.0 2.397129067 0.244740916607 0.0
0.0 2.39927319 0.244799484513 0.0
0.0 2.401417313 0.244856345107 0.0
0.0 2.403561435 0.244911481926 0.0
0.0 2.405705558 0.244965038719 0.0
0.0 2.40784968 0.245016888502 0.0
0.0 2.409993803 0.245067028405 0.0
0.0 2.412137926 0.245116099192 0.0
0.0 2.414282048 0.245162671234 0.0
0.0 2.416426171 0.245207420579 0.0
0.0 2.418570293 0.245250393726 0.0
0.0 2.420714416 0.24529117207 0.0
0.0 2.422858539 0.245330564618 0.0
0.0 2.425002661 0.245369157839 0.0
0.0 2.427146784 0.245405103614 0.0
0.0 2.429290906 0.245439413751 0.0
0.0 2.431435029 0.245472173013 0.0
0.0 2.433579152 0.245503496485 0.0
0.0 2.435723274 0.245533298758 0.0
0.0 2.437867397 0.245560031972 0.0
0.0 2.440011519 0.245585008515 0.0
0.0 2.442155642 0.245609008521 0.0
0.0 2.444299765 0.245631666161 0.0
0.0 2.446443887 0.245652981196 0.0
0.0 2.44858801 0.245673528564 0.0
0.0 2.450732132 0.245691713735 0.0
0.0 2.452876255 0.245707776448 0.0
0.0 2.455020378 0.245722524811 0.0
0.0 2.4571645 0.245735188002 0.0
0.0 2.459308623 0.245746128746 0.0
0.0 2.461452745 0.245755464495 0.0
0.0 2.463596868 0.245762339853 0.0
0.0 2.465740991 0.245767795713 0.0
0.0 2.467885113 0.245771955354 0.0
0.0 2.470029236 0.245774187594 0.0
0.0 2.472173358 0.245775396739 0.0
0.0 2.474317481 0.245775316519 0.0
0.0 2.476461604 0.24577361615 0.0
0.0 2.478605726 0.245770466265 0.0
0.0 2.480749849 0.245766549589 0.0
0.0 2.482893971 0.245759708918 0.0
0.0 2.485038094 0.245751242945 0.0
0.0 2.487182217 0.24574123423 0.0
0.0 2.489326339 0.245730210961 0.0
0.0 2.491470462 0.245717898421 0.0
0.0 2.493614584 0.245704640328 0.0
0.0 2.495758707 0.245686620406 0.0
0.0 2.49790283 0.245668200411 0.0
0.0 2.500046952 0.245648097502 0.0
0.0 2.502191075 0.24562777579 0.0
0.0 2.503831856 0.245609707286 0.0
0.0 2.505183087 0.245595762234 0.0
0.0 2.506534319 0.24557900625 0.0
0.0 2.50788555 0.245564198827 0.0
0.0 2.509236782 0.245547545021 0.0
0.0 2.510588013 0.245531561599 0.0
0.0 2.511939244 0.245513940213 0.0
0.0 2.513290476 0.245493221021 0.0
0.0 2.514641707 0.245474360732 0.0
0.0 2.515992939 0.245454852199 0.0
0.0 2.51734417 0.24543443145 0.0
0.0 2.518695402 0.245414206521 0.0
0.0 2.520046633 0.245394032354 0.0
0.0 2.521397865 0.245370260499 0.0
0.0 2.522749096 0.245348483286 0.0
0.0 2.524100327 0.245324387514 0.0
0.0 2.525451559 0.245300823928 0.0
0.0 2.52680279 0.245276471903 0.0
0.0 2.528154022 0.24525185238 0.0
0.0 2.529505253 0.245226296059 0.0
0.0 2.530856485 0.245199656268 0.0
0.0 2.532207716 0.245172570084 0.0
0.0 2.533558948 0.245146745733 0.0
0.0 2.534910179 0.245121191989 0.0
0.0 2.53626141 0.245089316089 0.0
0.0 2.537612642 0.245060483167 0.0
0.0 2.538963873 0.245029742921 0.0
0.0 2.540315105 0.24500084489 0.0
0.0 2.541666336 0.244968579504 0.0
0.0 2.543017568 0.244939743986 0.0
0.0 2.544368799 0.244905121468 0.0
0.0 2.54572003 0.244874157358 0.0
0.0 2.547071262 0.244841902328 0.0
0.0 2.548422493 0.244808546629 0.0
0.0 2.549773725 0.244772516751 0.0
0.0 2.551124956 0.244735744247 0.0
0.0 2.552476188 0.244700612653 0.0
0.0 2.553827419 0.244666378209 0.0
0.0 2.555178651 0.244629661801 0.0
0.0 2.556529882 0.244592562123 0.0
0.0 2.557881113 0.24455286046 0.0
0.0 2.559232345 0.244514815149 0.0
0.0 2.560583576 0.24448114786 0.0
0.0 2.561934808 0.244440449125 0.0
0.0 2.563286039 0.244398711965 0.0
0.0 2.564637271 0.244357745589 0.0
0.0 2.565988502 0.244316138407 0.0
0.0 2.567339733 0.244274495371 0.0
0.0 2.568690965 0.244229941855 0.0
0.0 2.570042196 0.244186941218 0.0
0.0 2.571393428 0.244144528803 0.0
0.0 2.572744659 0.244103538217 0.0
0.0 2.574095891 0.244058279581 0.0
0.0 2.575447122 0.244008217809 0.0
0.0 2.576798354 0.243963836331 0.0
0.0 2.578149585 0.24391638006 0.0
0.0 2.579500816 0.24386990061 0.0
0.0 2.580852048 0.243823018494 0.0
0.0 2.582203279 0.243775302745 0.0
0.0 2.583554511 0.243725981154 0.0
0.0 2.584905742 0.243678824666 0.0
0.0 2.586256974 0.243629558534 0.0
0.0 2.587608205 0.243578337749 0.0
0.0 2.588959437 0.24353027796 0.0
0.0 2.590310668 0.243477989825 0.0
0.0 2.591661899 0.243425911136 0.0
0.0 2.593013131 0.243376343551 0.0
0.0 2.594364362 0.243322232606 0.0
0.0 2.595715594 0.243263507089 0.0
0.0 2.597066825 0.243209720567 0.0
0.0 2.598418057 0.243158467226 0.0
0.0 2.599769288 0.243103547598 0.0
0.0 2.601120519 0.243046791589 0.0
0.0 2.602471751 0.242990809564 0.0
0.0 2.603822982 0.242938120299 0.0
0.0 2.605174214 0.242880577345 0.0
0.0 2.606525445 0.242816074645 0.0
0.0 2.607876677 0.242760572399 0.0
0.0 2.609227908 0.242701106739 0.0
0.0 2.61057914 0.242640722166 0.0
0.0 2.611930371 0.242582569987 0.0
0.0 2.613281602 0.242522502639 0.0
0.0 2.614632834 0.242462230024 0.0
0.0 2.615984065 0.242401499708 0.0
0.0 2.617335297 0.242340083626 0.0
0.0 2.618686528 0.242273989295 0.0
0.0 2.62003776 0.242210786889 0.0
0.0 2.621388991 0.242151593474 0.0
0.0 2.622740222 0.242089490236 0.0
0.0 2.624091454 0.242022116551 0.0
0.0 2.625442685 0.241956482644 0.0
0.0 2.626793917 0.241890878376 0.0
0.0 2.628145148 0.24182066272 0.0
0.0 2.62949638 0.241755524996 0.0
0.0 2.630847611 0.241689232603 0.0
0.0 2.632198843 0.24162346674 0.0
0.0 2.633550074 0.241549804603 0.0
0.0 2.634901305 0.241482406715 0.0
0.0 2.636252537 0.241417467224 0.0
0.0 2.637603768 0.241341406743 0.0
0.0 2.638955 0.241272523408 0.0
0.0 2.640306231 0.241201548994 0.0
0.0 2.641657463 0.24113269376 0.0
0.0 2.643008694 0.241060769935 0.0
0.0 2.644359925 0.24098796498 0.0
0.0 2.645711157 0.240913879489 0.0
0.0 2.647062388 0.240839935506 0.0
0.0 2.64841362 0.240765556749 0.0
0.0 2.649764851 0.240690348679 0.0
0.0 2.651116083 0.240615193415 0.0
0.0 2.652467314 0.240540467404 0.0
0.0 2.653818546 0.24046555365 0.0
0.0 2.655169777 0.240388143089 0.0
0.0 2.656521008 0.240315243042 0.0
0.0 2.65787224 0.240234368548 0.0
0.0 2.659223471 0.240157497218 0.0
0.0 2.660574703 0.240080051429 0.0
0.0 2.661925934 0.240001472457 0.0
0.0 2.663277166 0.239921043163 0.0
0.0 2.664628397 0.239838840746 0.0
0.0 2.665979629 0.239759222818 0.0
0.0 2.66733086 0.239677399375 0.0
0.0 2.668682091 0.239600140101 0.0
0.0 2.670033323 0.239518646963 0.0
0.0 2.671384554 0.239434899922 0.0
0.0 2.672735786 0.23935172681 0.0
0.0 2.674087017 0.239268526298 0.0
0.0 2.675438249 0.239185484821 0.0
0.0 2.67678948 0.239099997469 0.0
0.0 2.678140711 0.239017858835 0.0
0.0 2.679491943 0.238932186921 0.0
0.0 2.680843174 0.238844278553 0.0
0.0 2.682194406 0.238756910273 0.0
0.0 2.683545637 0.238668999489 0.0
0.0 2.684896869 0.238584184871 0.0
0.0 2.6862481 0.238495117659 0.0
0.0 2.687599332 0.238407198054 0.0
0.0 2.688950563 0.23831957406 0.0
0.0 2.690301794 0.238232246772 0.0
0.0 2.691653026 0.238142540503 0.0
0.0 2.693004257 0.238051922985 0.0
0.0 2.694355489 0.237960250277 0.0
0.0 2.69570672 0.23787093963 0.0
0.0 2.697057952 0.237779758535 0.0
0.0 2.698409183 0.237688252324 0.0
0.0 2.699760414 0.237595817696 0.0
0.0 2.701111646 0.237500209802 0.0
0.0 2.702462877 0.237407788073 0.0
0.0 2.703814109 0.23731641886 0.0
0.0 2.70516534 0.237220081481 0.0
0.0 2.706516572 0.23712735717 0.0
0.0 2.707867803 0.237035685538 0.0
0.0 2.709219035 0.236937875536 0.0
0.0 2.710570266 0.236841898372 0.0
0.0 2.711921497 0.236743758612 0.0
0.0 2.713272729 0.236647730012 0.0
0.0 2.71462396 0.236553860831 0.0
0.0 2.715975192 0.236455009698 0.0
0.0 2.717326423 0.236357631933 0.0
0.0 2.718677655 0.236257363325 0.0
0.0 2.720028886 0.236159995822 0.0
0.0 2.721380117 0.236060284155 0.0
0.0 2.722731349 0.235958076479 0.0
0.0 2.72408258 0.235857076839 0.0
0.0 2.725433812 0.235756221972 0.0
0.0 2.726785043 0.235656033093 0.0
0.0 2.728136275 0.235553570781 0.0
0.0 2.729487506 0.23545245526 0.0
0.0 2.730838738 0.235350181743 0.0
0.0 2.732189969 0.235246188019 0.0
0.0 2.7335412 0.235144380411 0.0
0.0 2.734892432 0.235038005166 0.0
0.0 2.736243663 0.234933495959 0.0
0.0 2.737594895 0.234829222354 0.0
0.0 2.738946126 0.234722480819 0.0
0.0 2.740297358 0.234618400888 0.0
0.0 2.741648589 0.23451303756 0.0
0.0 2.742999821 0.234405863562 0.0
0.0 2.744351052 0.234298345576 0.0
0.0 2.745702283 0.234192099196 0.0
0.0 2.747053515 0.234084752863 0.0
0.0 2.748404746 0.233976235156 0.0
0.0 2.749755978 0.233867751669 0.0
0.0 2.751107209 0.233757477632 0.0
0.0 2.752458441 0.233647282493 0.0
0.0 2.753809672 0.233539273841 0.0
0.0 2.755160903 0.233428628194 0.0
0.0 2.756512135 0.233316270954 0.0
0.0 2.757863366 0.233205159532 0.0
0.0 2.759214598 0.233093654408 0.0
0.0 2.760565829 0.232982171187 0.0
0.0 2.761917061 0.232872710433 0.0
0.0 2.763268292 0.232756700063 0.0
0.0 2.764619524 0.23264350602 0.0
0.0 2.765970755 0.232530229222 0.0
0.0 2.767321986 0.232418837981 0.0
0.0 2.768673218 0.232307588126 0.0
0.0 2.770024449 0.232191937454 0.0
0.0 2.771375681 0.23207492698 0.0
0.0 2.772726912 0.231956984375 0.0
0.0 2.774078144 0.231840244547 0.0
0.0 2.775429375 0.231724360312 0.0
0.0 2.776780606 0.231608485505 0.0
0.0 2.778131838 0.231490913274 0.0
0.0 2.779483069 0.231372846569 0.0
0.0 2.780834301 0.231256010986 0.0
0.0 2.782185532 0.231137251216 0.0
0.0 2.783536764 0.231017517074 0.0
0.0 2.784887995 0.230898224544 0.0
0.0 2.786239227 0.23077799215 0.0
0.0 2.787590458 0.230657978284 0.0
0.0 2.788941689 0.230537872284 0.0
0.0 2.790292921 0.230418496394 0.0
0.0 2.791644152 0.230297590653 0.0
0.0 2.792995384 0.230175818457 0.0
0.0 2.794346615 0.230052558695 0.0
0.0 2.795697847 0.229932005073 0.0
0.0 2.797049078 0.229807164184 0.0
0.0 2.798400309 0.229685062546 0.0
0.0 2.799751541 0.22956063464 0.0
0.0 2.801102772 0.229436736124 0.0
0.0 2.802454004 0.229312496405 0.0
0.0 2.803805235 0.229187876302 0.0
0.0 2.805156467 0.229063729694 0.0
0.0 2.806507698 0.228937498829 0.0
0.0 2.80785893 0.228811745092 0.0
0.0 2.809210161 0.228686003651 0.0
0.0 2.810561392 0.228561004201 0.0
0.0 2.811912624 0.228434336939 0.0
0.0 2.813263855 0.228305434167 0.0
0.0 2.814615087 0.228177345601 0.0
0.0 2.815966318 0.228049348942 0.0
0.0 2.81731755 0.227921015966 0.0
0.0 2.818668781 0.227794098349 0.0
0.0 2.820020013 0.227664758076 0.0
0.0 2.821371244 0.227534209468 0.0
0.0 2.822722475 0.227403844204 0.0
0.0 2.824073707 0.227275140875 0.0
0.0 2.825424938 0.227143272329 0.0
0.0 2.82677617 0.227012150639 0.0
0.0 2.828127401 0.22688086366 0.0
0.0 2.829478633 0.226749216294 0.0
0.0 2.830829864 0.226617269351 0.0
0.0 2.832181095 0.2264848473 0.0
0.0 2.833532327 0.226352123272 0.0
0.0 2.834883558 0.22621909798 0.0
0.0 2.83623479 0.226086371215 0.0
0.0 2.837586021 0.225951828777 0.0
0.0 2.838937253 0.225817722489 0.0
0.0 2.840288484 0.225684227437 0.0
0.0 2.841639716 0.225551902884 0.0
0.0 2.842990947 0.225415123452 0.0
0.0 2.844342178 0.225278282411 0.0
0.0 2.84569341 0.225143564258 0.0
0.0 2.847044641 0.22500812283 0.0
0.0 2.848395873 0.224870365811 0.0
0.0 2.849747104 0.224732773861 0.0
0.0 2.851098336 0.224596092123 0.0
0.0 2.852449567 0.224458566932 0.0
0.0 2.853800798 0.224321303601 0.0
0.0 2.85515203 0.224181908861 0.0
0.0 2.856503261 0.224042245271 0.0
0.0 2.857854493 0.223903277215 0.0
0.0 2.859205724 0.223764614567 0.0
0.0 2.860556956 0.223626101608 0.0
0.0 2.861908187 0.223484358051 0.0
0.0 2.863259419 0.223344453247 0.0
0.0 2.86461065 0.223203486549 0.0
0.0 2.865961881 0.223062832163 0.0
0.0 2.867313113 0.222921774357 0.0
0.0 2.868664344 0.222780769883 0.0
0.0 2.870015576 0.222637987542 0.0
0.0 2.871366807 0.222495666714 0.0
0.0 2.872718039 0.222352626357 0.0
0.0 2.87406927 0.222209778929 0.0
0.0 2.875420501 0.222069102651 0.0
0.0 2.876771733 0.22192384185 0.0
0.0 2.878122964 0.221778922073 0.0
0.0 2.879474196 0.22163469081 0.0
0.0 2.880825427 0.221490139732 0.0
0.0 2.882176659 0.221345269688 0.0
0.0 2.88352789 0.221200081956 0.0
0.0 2.884879122 0.221054577383 0.0
0.0 2.886230353 0.220908757241 0.0
0.0 2.887581584 0.220762622495 0.0
0.0 2.888932816 0.220616341904 0.0
0.0 2.890284047 0.220469435948 0.0
0.0 2.891635279 0.220322341013 0.0
0.0 2.89298651 0.220174958461 0.0
0.0 2.894337742 0.220027266498 0.0
0.0 2.895688973 0.219879363855 0.0
0.0 2.897040205 0.219730959038 0.0
0.0 2.898391436 0.219582358788 0.0
0.0 2.899742667 0.219433427247 0.0
0.0 2.901093899 0.219284351398 0.0
0.0 2.90244513 0.219134975853 0.0
0.0 2.903796362 0.218986171445 0.0
0.0 2.905147593 0.218835800401 0.0
0.0 2.906498825 0.218684625829 0.0
0.0 2.907850056 0.218534906091 0.0
0.0 2.909201287 0.218382640322 0.0
0.0 2.910552519 0.21823138955 0.0
0.0 2.91190375 0.218082021586 0.0
0.0 2.913254982 0.217929604699 0.0
0.0 2.914606213 0.217776762219 0.0
0.0 2.915957445 0.217622998484 0.0
0.0 2.917308676 0.217470211115 0.0
0.0 2.918659908 0.217317656982 0.0
0.0 2.920011139 0.217164168964 0.0
0.0 2.92136237 0.21701011209 0.0
0.0 2.922713602 0.216856170279 0.0
0.0 2.924064833 0.216701942656 0.0
0.0 2.925416065 0.216547430055 0.0
0.0 2.926767296 0.216392633771 0.0
0.0 2.928118528 0.216237554632 0.0
0.0 2.929469759 0.21608219393 0.0
0.0 2.93082099 0.215926552614 0.0
0.0 2.932172222 0.21577063163 0.0
0.0 2.933523453 0.215614432272 0.0
0.0 2.934874685 0.215457955372 0.0
0.0 2.936225916 0.215301202224 0.0
0.0 2.937577148 0.215145026281 0.0
0.0 2.938928379 0.214988463295 0.0
0.0 2.940279611 0.214829327168 0.0
0.0 2.941630842 0.214671446995 0.0
0.0 2.942982073 0.214513421561 0.0
0.0 2.944333305 0.214356371671 0.0
0.0 2.945684536 0.214196317801 0.0
0.0 2.947035768 0.214037367508 0.0
0.0 2.948386999 0.213878162311 0.0
0.0 2.949738231 0.213718865916 0.0
0.0 2.951089462 0.213559078545 0.0
0.0 2.952440694 0.213398994015 0.0
0.0 2.953791925 0.213238744803 0.0
0.0 2.955143156 0.213078237021 0.0
0.0 2.956494388 0.212918544746 0.0
0.0 2.957845619 0.212756851082 0.0
0.0 2.959196851 0.212595143551 0.0
0.0 2.960548082 0.212433597376 0.0
0.0 2.961899314 0.21227179503 0.0
0.0 2.963250545 0.212109737686 0.0
0.0 2.964601776 0.211947426288 0.0
0.0 2.965953008 0.211784870501 0.0
0.0 2.967304239 0.211623035776 0.0
0.0 2.968655471 0.211459172331 0.0
0.0 2.970006702 0.211295661147 0.0
0.0 2.971357934 0.211132100434 0.0
0.0 2.972709165 0.21096926749 0.0
0.0 2.974060397 0.210804954031 0.0
0.0 2.975411628 0.210639916117 0.0
0.0 2.976762859 0.210475366035 0.0
0.0 2.978114091 0.210310572392 0.0
0.0 2.979465322 0.210145536503 0.0
0.0 2.980816554 0.209980259182 0.0
0.0 2.982167785 0.209814741739 0.0
0.0 2.983519017 0.20964898499 0.0
0.0 2.984870248 0.209482991621 0.0
0.0 2.986221479 0.209317779269 0.0
0.0 2.987572711 0.209150395499 0.0
0.0 2.988923942 0.208983843385 0.0
0.0 2.990275174 0.208816745055 0.0
0.0 2.991626405 0.20864960257 0.0
0.0 2.992977637 0.208482080376 0.0
0.0 2.994328868 0.208314448537 0.0
0.0 2.9956801 0.208146586952 0.0
0.0 2.997031331 0.207978496932 0.0
0.0 2.998382562 0.207810179416 0.0
0.0 2.999733794 0.207641635341 0.0
0.0 3.001085025 0.207472866016 0.0
0.0 3.002436257 0.20730387226 0.0
0.0 3.003787488 0.207134655378 0.0
0.0 3.00513872 0.206965216184 0.0
0.0 3.006489951 0.206795555996 0.0
0.0 3.007841182 0.206625675748 0.0
0.0 3.009192414 0.206456527199 0.0
0.0 3.010543645 0.206285329909 0.0
0.0 3.011894877 0.206114725009 0.0
0.0 3.013246108 0.205944089125 0.0
0.0 3.01459734 0.205773020503 0.0
0.0 3.015948571 0.205601974872 0.0
0.0 3.017299803 0.205432535028 0.0
0.0 3.018651034 0.205261681967 0.0
0.0 3.020002265 0.205088091728 0.0
0.0 3.021353497 0.204915342179 0.0
0.0 3.022704728 0.204742773859 0.0
0.0 3.02405596 0.204571050072 0.0
0.0 3.025407191 0.204400552236 0.0
0.0 3.026758423 0.20422535191 0.0
0.0 3.028109654 0.204052659934 0.0
0.0 3.029460886 0.20388069959 0.0
0.0 3.030812117 0.203709134823 0.0
0.0 3.032163348 0.203536406924 0.0
0.0 3.03351458 0.203360263555 0.0
0.0 3.034865811 0.203184084898 0.0
0.0 3.036217043 0.203009323742 0.0
0.0 3.037568274 0.20283506301 0.0
0.0 3.038919506 0.202660337318 0.0
0.0 3.040270737 0.202485298612 0.0
0.0 3.041621968 0.202311445291 0.0
0.0 3.0429732 0.202137340817 0.0
0.0 3.044324431 0.201962201561 0.0
0.0 3.045675663 0.20178482965 0.0
0.0 3.047026894 0.201608196012 0.0
0.0 3.048378126 0.201432207705 0.0
0.0 3.049729357 0.201256032516 0.0
0.0 3.051080589 0.201079671128 0.0
0.0 3.05243182 0.200904261648 0.0
0.0 3.053783051 0.20072865183 0.0
0.0 3.055134283 0.200551711853 0.0
0.0 3.056485514 0.200374230224 0.0
0.0 3.057836746 0.200198152609 0.0
0.0 3.059187977 0.200019419479 0.0
0.0 3.060539209 0.199841784574 0.0
0.0 3.06189044 0.199664137053 0.0
0.0 3.063241671 0.199486673235 0.0
0.0 3.064592903 0.199311713223 0.0
0.0 3.065944134 0.199132973038 0.0
0.0 3.067295366 0.19895118952 0.0
0.0 3.068646597 0.19877385647 0.0
0.0 3.069997829 0.198596857962 0.0
0.0 3.07134906 0.198417165268 0.0
0.0 3.072700292 0.198237764857 0.0
0.0 3.074051523 0.198060400433 0.0
0.0 3.075402754 0.197880793419 0.0
0.0 3.076753986 0.197702319204 0.0
0.0 3.078105217 0.19752079507 0.0
0.0 3.079456449 0.197340436015 0.0
0.0 3.08080768 0.197160986125 0.0
0.0 3.082158912 0.196980168208 0.0
0.0 3.083510143 0.196803306436 0.0
0.0 3.084861374 0.196626603851 0.0
0.0 3.086212606 0.196445014748 0.0
0.0 3.087563837 0.196265052713 0.0
0.0 3.088915069 0.196082860633 0.0
0.0 3.0902663 0.195903033748 0.0
0.0 3.091617532 0.195723720971 0.0
0.0 3.092968763 0.195539822424 0.0
0.0 3.094319995 0.195357713457 0.0
0.0 3.095671226 0.195175785888 0.0
0.0 3.097022457 0.194994652295 0.0
0.0 3.098373689 0.194814869398 0.0
0.0 3.09972492 0.194632759952 0.0
0.0 3.101076152 0.194450161389 0.0
0.0 3.102427383 0.194265785016 0.0
0.0 3.103778615 0.194081430576 0.0
0.0 3.105129846 0.193901792453 0.0
0.0 3.106481078 0.193722535297 0.0
0.0 3.107832309 0.193538367101 0.0
0.0 3.10918354 0.193353391332 0.0
0.0 3.110534772 0.193169155958 0.0
0.0 3.111886003 0.192987240532 0.0
0.0 3.113237235 0.192804569632 0.0
0.0 3.114588466 0.192619085037 0.0
0.0 3.115939698 0.192433979239 0.0
0.0 3.117290929 0.192251578513 0.0
0.0 3.11864216 0.192068046135 0.0
0.0 3.119993392 0.191883147261 0.0
0.0 3.121344623 0.191697667698 0.0
0.0 3.122695855 0.191510946229 0.0
0.0 3.124047086 0.191325137542 0.0
0.0 3.125398318 0.191139841929 0.0
0.0 3.126749549 0.190952635544 0.0
0.0 3.128100781 0.190767730863 0.0
0.0 3.129452012 0.19058257314 0.0
0.0 3.130803243 0.190394946376 0.0
0.0 3.132154475 0.190207522768 0.0
0.0 3.133505706 0.190023558101 0.0
0.0 3.134856938 0.1898338927 0.0
0.0 3.136208169 0.189643635994 0.0
0.0 3.137559401 0.189458018975 0.0
0.0 3.138910632 0.189274545842 0.0
0.0 3.140261863 0.189089545536 0.0
0.0 3.141613095 0.188901726162 0.0
0.0 3.142964326 0.188714170626 0.0
0.0 3.144315558 0.188527050355 0.0
0.0 3.145666789 0.188340603004 0.0
0.0 3.147018021 0.188154530751 0.0
0.0 3.148369252 0.187968233874 0.0
0.0 3.149720484 0.187780607839 0.0
0.0 3.151071715 0.187593636804 0.0
0.0 3.152422946 0.18740540246 0.0
0.0 3.153774178 0.187220215371 0.0
0.0 3.155125409 0.187033904495 0.0
0.0 3.156476641 0.186847686722 0.0
0.0 3.157827872 0.186654923611 0.0
0.0 3.159179104 0.186463998621 0.0
0.0 3.160530335 0.186276456342 0.0
0.0 3.161881566 0.186087285245 0.0
0.0 3.163232798 0.185899099955 0.0
0.0 3.164584029 0.185713592967 0.0
0.0 3.165935261 0.185524701295 0.0
0.0 3.167286492 0.18533693948 0.0
0.0 3.168637724 0.185148345371 0.0
0.0 3.169988955 0.184958390066 0.0
0.0 3.171340187 0.184769288475 0.0
0.0 3.172691418 0.184580370233 0.0
0.0 3.174042649 0.184391436137 0.0
0.0 3.175393881 0.184202940963 0.0
0.0 3.176745112 0.184014026054 0.0
0.0 3.178096344 0.183825135616 0.0
0.0 3.179447575 0.183635705751 0.0
0.0 3.180798807 0.18344569832 0.0
0.0 3.182150038 0.183259821108 0.0
0.0 3.18350127 0.183070332651 0.0
0.0 3.184852501 0.182880769996 0.0
0.0 3.186203732 0.182689801582 0.0
0.0 3.187554964 0.1824986921 0.0
0.0 3.188906195 0.182310228485 0.0
0.0 3.190257427 0.182122078142 0.0
0.0 3.191608658 0.181931135057 0.0
0.0 3.19295989 0.181741130608 0.0
0.0 3.194311121 0.181551824443 0.0
0.0 3.195662352 0.181362413819 0.0
0.0 3.197013584 0.181173526403 0.0
0.0 3.198364815 0.180984665377 0.0
0.0 3.199716047 0.180791585764 0.0
0.0 3.201067278 0.180598783006 0.0
0.0 3.20241851 0.18040987934 0.0
0.0 3.203769741 0.18022259362 0.0
0.0 3.205120973 0.180030400377 0.0
0.0 3.206472204 0.179835115508 0.0
0.0 3.207823435 0.17964417092 0.0
0.0 3.209174667 0.17945440609 0.0
0.0 3.210525898 0.179266520191 0.0
0.0 3.21187713 0.179079722304 0.0
0.0 3.213228361 0.17888873025 0.0
0.0 3.214579593 0.178693786935 0.0
0.0 3.215930824 0.178499622936 0.0
0.0 3.217282055 0.178308919567 0.0
0.0 3.218633287 0.178119457558 0.0
0.0 3.219984518 0.177930250553 0.0
0.0 3.22133575 0.17773866123 0.0
0.0 3.222686981 0.177547600094 0.0
0.0 3.224038213 0.17735592011 0.0
0.0 3.225389444 0.177161266666 0.0
0.0 3.226740676 0.176968733854 0.0
0.0 3.228091907 0.176778012283 0.0
0.0 3.229443138 0.176586893949 0.0
0.0 3.23079437 0.176396779287 0.0
0.0 3.232145601 0.17620512676 0.0
0.0 3.233496833 0.176011389923 0.0
0.0 3.234848064 0.175821708411 0.0
0.0 3.236199296 0.175630954028 0.0
0.0 3.237550527 0.175436399264 0.0
0.0 3.238901759 0.175243377432 0.0
0.0 3.24025299 0.175049955099 0.0
0.0 3.241604221 0.174859576363 0.0
0.0 3.242955453 0.174668753024 0.0
0.0 3.244306684 0.174477737255 0.0
0.0 3.245657916 0.174286327964 0.0
0.0 3.247009147 0.17409411813 0.0
0.0 3.248360379 0.173899864147 0.0
0.0 3.24971161 0.173706986399 0.0
0.0 3.251062841 0.173514783133 0.0
0.0 3.252414073 0.17332392355 0.0
0.0 3.253765304 0.1731343917 0.0
0.0 3.255116536 0.172943733767 0.0
0.0 3.256467767 0.17275293558 0.0
0.0 3.257818999 0.172562570051 0.0
0.0 3.25917023 0.172369650853 0.0
0.0 3.260521462 0.172176455636 0.0
0.0 3.261872693 0.171981567341 0.0
0.0 3.263223924 0.171788899232 0.0
0.0 3.264575156 0.171598067719 0.0
0.0 3.265926387 0.171408217591 0.0
0.0 3.267277619 0.171217349994 0.0
0.0 3.26862885 0.171020891884 0.0
0.0 3.269980082 0.170824661357 0.0
0.0 3.271331313 0.170630288034 0.0
0.0 3.272682544 0.170436771432 0.0
0.0 3.274033776 0.170245437883 0.0
0.0 3.275385007 0.170053637406 0.0
0.0 3.276736239 0.169860865048 0.0
0.0 3.27808747 0.169667880614 0.0
0.0 3.279438702 0.16947650516 0.0
0.0 3.280789933 0.169283861601 0.0
0.0 3.282141165 0.169091992044 0.0
0.0 3.283492396 0.168900528793 0.0
0.0 3.284843627 0.168705097473 0.0
0.0 3.286194859 0.168510944287 0.0
0.0 3.28754609 0.168318118035 0.0
0.0 3.288897322 0.168126639905 0.0
0.0 3.290248553 0.167936608967 0.0
0.0 3.291599785 0.167743632347 0.0
0.0 3.292951016 0.167548913986 0.0
0.0 3.294302247 0.167356870158 0.0
0.0 3.295653479 0.167164492285 0.0
0.0 3.29700471 0.166972623753 0.0
0.0 3.298355942 0.16678123253 0.0
0.0 3.299707173 0.166588652661 0.0
0.0 3.301058405 0.16639557815 0.0
0.0 3.302409636 0.166203063778 0.0
0.0 3.303760868 0.166009847176 0.0
0.0 3.305112099 0.165816192193 0.0
0.0 3.30646333 0.165623705739 0.0
0.0 3.307814562 0.16543251897 0.0
0.0 3.309165793 0.165240038875 0.0
0.0 3.310517025 0.165047646234 0.0
0.0 3.311868256 0.164855773472 0.0
0.0 3.313219488 0.164665887677 0.0
0.0 3.314570719 0.164472838967 0.0
0.0 3.315921951 0.164279991425 0.0
0.0 3.317273182 0.164088261743 0.0
0.0 3.318624413 0.16389579098 0.0
0.0 3.319975645 0.16370083695 0.0
0.0 3.321326876 0.163509869892 0.0
0.0 3.322678108 0.163317858478 0.0
0.0 3.324029339 0.163126098908 0.0
0.0 3.325380571 0.162935401914 0.0
0.0 3.326731802 0.162744343313 0.0
0.0 3.328083033 0.162552581651 0.0
0.0 3.329434265 0.162360533899 0.0
0.0 3.330785496 0.162167231609 0.0
0.0 3.332136728 0.161972903109 0.0
0.0 3.333487959 0.161781163273 0.0
0.0 3.334839191 0.16159048575 0.0
0.0 3.336190422 0.161399503531 0.0
0.0 3.337541654 0.161206583738 0.0
0.0 3.338892885 0.161013612507 0.0
0.0 3.340244116 0.160823066817 0.0
0.0 3.341595348 0.160630139815 0.0
0.0 3.342946579 0.160438552083 0.0
0.0 3.344297811 0.160249089395 0.0
0.0 3.345649042 0.160056558661 0.0
0.0 3.347000274 0.159862871672 0.0
0.0 3.348351505 0.15967330615 0.0
0.0 3.349702736 0.159483565498 0.0
0.0 3.351053968 0.159292278484 0.0
0.0 3.352405199 0.15910136537 0.0
0.0 3.353756431 0.158909889482 0.0
0.0 3.355107662 0.15871716591 0.0
0.0 3.356458894 0.158522802061 0.0
0.0 3.357810125 0.158330802082 0.0
0.0 3.359161357 0.158141909797 0.0
0.0 3.360512588 0.157953731675 0.0
0.0 3.361863819 0.157764542023 0.0
0.0 3.363215051 0.157574418987 0.0
0.0 3.364566282 0.157383518679 0.0
0.0 3.365917514 0.157191222233 0.0
0.0 3.367268745 0.156998199913 0.0
0.0 3.368619977 0.156805008097 0.0
0.0 3.369971208 0.156613208501 0.0
0.0 3.371322439 0.156424812548 0.0
0.0 3.372673671 0.156236255505 0.0
0.0 3.374024902 0.156045097833 0.0
0.0 3.375376134 0.155853885098 0.0
0.0 3.376727365 0.155663262784 0.0
0.0 3.378078597 0.155472420831 0.0
0.0 3.379429828 0.155283514172 0.0
0.0 3.38078106 0.155097442904 0.0
0.0 3.382132291 0.154907528866 0.0
0.0 3.383483522 0.154715221248 0.0
0.0 3.384834754 0.154525727503 0.0
0.0 3.386185985 0.154337278176 0.0
0.0 3.387537217 0.154146184009 0.0
0.0 3.388888448 0.153952975474 0.0
0.0 3.39023968 0.153761942446 0.0
0.0 3.391590911 0.153574576199 0.0
0.0 3.392942143 0.153388607121 0.0
0.0 3.394293374 0.153200406699 0.0
0.0 3.395644605 0.153011136818 0.0
0.0 3.396995837 0.152821279878 0.0
0.0 3.398347068 0.152632227478 0.0
0.0 3.3996983 0.152442982385 0.0
0.0 3.401049531 0.152251361517 0.0
0.0 3.402400763 0.152064141305 0.0
0.0 3.403751994 0.151875227634 0.0
0.0 3.405103225 0.151684929811 0.0
0.0 3.406454457 0.151497199523 0.0
0.0 3.407805688 0.151308108696 0.0
0.0 3.40915692 0.151121073345 0.0
0.0 3.410508151 0.15093495438 0.0
0.0 3.411859383 0.150747182924 0.0
0.0 3.413210614 0.150559856561 0.0
0.0 3.414561846 0.150371264747 0.0
0.0 3.415913077 0.15018470593 0.0
0.0 3.417264308 0.149997864983 0.0
0.0 3.41861554 0.149809708957 0.0
0.0 3.419966771 0.149620995965 0.0
0.0 3.421318003 0.149432064564 0.0
0.0 3.422669234 0.149243848524 0.0
0.0 3.424020466 0.149057889715 0.0
0.0 3.425371697 0.148872266627 0.0
0.0 3.426722928 0.148686719137 0.0
0.0 3.42807416 0.148497919074 0.0
0.0 3.429425391 0.148309067867 0.0
0.0 3.430776623 0.148122502744 0.0
0.0 3.432127854 0.1479378417 0.0
0.0 3.433479086 0.147749783217 0.0
0.0 3.434830317 0.147563360431 0.0
0.0 3.436181549 0.147377596708 0.0
0.0 3.43753278 0.147191144046 0.0
0.0 3.438884011 0.147005121954 0.0
0.0 3.440235243 0.146819663548 0.0
0.0 3.441586474 0.146633006632 0.0
0.0 3.442937706 0.14644712048 0.0
0.0 3.444288937 0.146262387558 0.0
0.0 3.445640169 0.146078889485 0.0
0.0 3.4469914 0.145893415248 0.0
0.0 3.448342631 0.145706568661 0.0
0.0 3.449693863 0.145522331194 0.0
0.0 3.451045094 0.145337362719 0.0
0.0 3.452396326 0.145153993029 0.0
0.0 3.453747557 0.14496969201 0.0
0.0 3.455098789 0.144783305231 0.0
0.0 3.45645002 0.144599403044 0.0
0.0 3.457801252 0.144417796002 0.0
0.0 3.459152483 0.144235609586 0.0
0.0 3.460503714 0.144053004123 0.0
0.0 3.461854946 0.143870946336 0.0
0.0 3.463206177 0.143688752955 0.0
0.0 3.464557409 0.143503554617 0.0
0.0 3.46590864 0.143317831977 0.0
0.0 3.467259872 0.143133742501 0.0
0.0 3.468611103 0.142951811548 0.0
0.0 3.469962335 0.142772076045 0.0
0.0 3.471313566 0.142592586619 0.0
0.0 3.472664797 0.142410900868 0.0
0.0 3.474016029 0.142227823992 0.0
0.0 3.47536726 0.142045147809 0.0
0.0 3.476718492 0.141863284011 0.0
0.0 3.478069723 0.141682329566 0.0
0.0 3.479420955 0.141499815831 0.0
0.0 3.480772186 0.141316450574 0.0
0.0 3.482123417 0.141134814706 0.0
0.0 3.483474649 0.140952184819 0.0
0.0 3.48482588 0.140769467725 0.0
0.0 3.486177112 0.14058749517 0.0
0.0 3.487528343 0.1404083018 0.0
0.0 3.488879575 0.140229528503 0.0
0.0 3.490230806 0.140047149254 0.0
0.0 3.491582038 0.139865672086 0.0
0.0 3.492933269 0.139687126201 0.0
0.0 3.4942845 0.139508377894 0.0
0.0 3.495635732 0.139326717903 0.0
0.0 3.496986963 0.139144537756 0.0
0.0 3.498338195 0.138965106159 0.0
0.0 3.499689426 0.138785033303 0.0
0.0 3.501040658 0.138604882831 0.0
0.0 3.502391889 0.138426089973 0.0
0.0 3.50374312 0.13824721861 0.0
0.0 3.505094352 0.138069470363 0.0
0.0 3.506445583 0.137891971671 0.0
0.0 3.507796815 0.137714184445 0.0
0.0 3.509148046 0.137538556255 0.0
0.0 3.510499278 0.137357913892 0.0
0.0 3.511850509 0.13717711869 0.0
0.0 3.513201741 0.137000085173 0.0
0.0 3.514552972 0.136824788696 0.0
0.0 3.515904203 0.136648059541 0.0
0.0 3.517255435 0.136471295635 0.0
0.0 3.518606666 0.136293119819 0.0
0.0 3.519957898 0.136113895805 0.0
0.0 3.521309129 0.135935764186 0.0
0.0 3.522660361 0.135758516906 0.0
0.0 3.524011592 0.13558193841 0.0
0.0 3.525362824 0.135407431756 0.0
0.0 3.526714055 0.135232471433 0.0
0.0 3.528065286 0.135058120483 0.0
0.0 3.529416518 0.134882196086 0.0
0.0 3.530767749 0.134707020499 0.0
0.0 3.532118981 0.134533318141 0.0
0.0 3.533470212 0.134357634874 0.0
0.0 3.534821444 0.134182833284 0.0
0.0 3.536172675 0.134006997129 0.0
0.0 3.537523906 0.133830969813 0.0
0.0 3.538875138 0.133657219704 0.0
0.0 3.540226369 0.133483721483 0.0
0.0 3.541577601 0.133308224693 0.0
0.0 3.542928832 0.13313501016 0.0
0.0 3.544280064 0.132964212021 0.0
0.0 3.545631295 0.13279183447 0.0
0.0 3.546982527 0.132618364887 0.0
0.0 3.548333758 0.132443661052 0.0
0.0 3.549684989 0.132269687337 0.0
0.0 3.551036221 0.132099486698 0.0
0.0 3.552387452 0.131929181757 0.0
0.0 3.553738684 0.131761012914 0.0
0.0 3.555089915 0.131589579474 0.0
0.0 3.556441147 0.131415963442 0.0
0.0 3.557792378 0.131245247458 0.0
0.0 3.559143609 0.131073794772 0.0
0.0 3.560494841 0.130904661363 0.0
0.0 3.561846072 0.13073318491 0.0
0.0 3.563197304 0.130561634694 0.0
0.0 3.564548535 0.130392958173 0.0
0.0 3.565899767 0.130223868473 0.0
0.0 3.567250998 0.130053704607 0.0
0.0 3.56860223 0.129883284581 0.0
0.0 3.569953461 0.129712758814 0.0
0.0 3.571304692 0.129544289124 0.0
0.0 3.572655924 0.129378562379 0.0
0.0 3.574007155 0.12920865742 0.0
0.0 3.575358387 0.129038689529 0.0
0.0 3.576709618 0.128871905827 0.0
0.0 3.57806085 0.128705538108 0.0
0.0 3.579412081 0.128536112883 0.0
0.0 3.580763312 0.128366303693 0.0
0.0 3.582114544 0.12819775027 0.0
0.0 3.583465775 0.128028832548 0.0
0.0 3.584817007 0.127861509647 0.0
0.0 3.586168238 0.127694397683 0.0
0.0 3.58751947 0.127529239813 0.0
0.0 3.588870701 0.127362607624 0.0
0.0 3.590221933 0.127195213645 0.0
0.0 3.591573164 0.127029513361 0.0
0.0 3.592924395 0.126864165358 0.0
0.0 3.594275627 0.126699058801 0.0
0.0 3.595626858 0.126534194426 0.0
0.0 3.59697809 0.126369573051 0.0
0.0 3.598329321 0.126205195983 0.0
0.0 3.599680553 0.126041064039 0.0
0.0 3.601031784 0.125877178525 0.0
0.0 3.602383016 0.125713540261 0.0
0.0 3.603734247 0.125550150556 0.0
0.0 3.605085478 0.125387010344 0.0
0.0 3.60643671 0.125224120569 0.0
0.0 3.607787941 0.125061482534 0.0
0.0 3.609139173 0.124899097061 0.0
0.0 3.610490404 0.124736965455 0.0
0.0 3.611841636 0.124575088534 0.0
0.0 3.613192867 0.124413467604 0.0
0.0 3.614544098 0.124252103606 0.0
0.0 3.61589533 0.124090997484 0.0
0.0 3.617246561 0.123930150536 0.0
0.0 3.618597793 0.12376956359 0.0
0.0 3.619949024 0.123609237951 0.0
0.0 3.621300256 0.12344917443 0.0
0.0 3.622651487 0.123289374334 0.0
0.0 3.624002719 0.123129838489 0.0
0.0 3.62535395 0.122970568193 0.0
0.0 3.626705181 0.122811564389 0.0
0.0 3.628056413 0.122652828024 0.0
0.0 3.629407644 0.122494360394 0.0
0.0 3.630758876 0.122336162329 0.0
0.0 3.632110107 0.122178235122 0.0
0.0 3.633461339 0.122020579604 0.0
0.0 3.63481257 0.121863197072 0.0
0.0 3.636163801 0.121706088467 0.0
0.0 3.637515033 0.121549258219 0.0
0.0 3.638866264 0.121392777486 0.0
0.0 3.640217496 0.12123643591 0.0
0.0 3.641568727 0.121080414364 0.0
0.0 3.642919959 0.120924691229 0.0
0.0 3.64427119 0.120769248512 0.0
0.0 3.645622422 0.120614087048 0.0
0.0 3.646973653 0.120459208126 0.0
0.0 3.648324884 0.120304612695 0.0
0.0 3.649676116 0.120150668452 0.0
0.0 3.651027347 0.119997824337 0.0
0.0 3.652378579 0.119843244233 0.0
0.0 3.65372981 0.119689086907 0.0
0.0 3.655081042 0.119535927681 0.0
0.0 3.656432273 0.119384312127 0.0
0.0 3.657783504 0.119233069805 0.0
0.0 3.659134736 0.119079862853 0.0
0.0 3.660485967 0.118928840997 0.0
0.0 3.661837199 0.118778478858 0.0
0.0 3.66318843 0.118626999827 0.0
0.0 3.664539662 0.118475998682 0.0
0.0 3.665890893 0.118322281723 0.0
0.0 3.667242125 0.118171384935 0.0
0.0 3.668593356 0.118022308681 0.0
0.0 3.669944587 0.117875371576 0.0
0.0 3.671295819 0.117727145443 0.0
0.0 3.67264705 0.117577165714 0.0
0.0 3.673998282 0.117428724671 0.0
0.0 3.675349513 0.117280180519 0.0
0.0 3.676700745 0.117132198463 0.0
0.0 3.678051976 0.116985247995 0.0
0.0 3.679403208 0.116838510152 0.0
0.0 3.680754439 0.116691391128 0.0
0.0 3.68210567 0.116542031847 0.0
0.0 3.683456902 0.116393084826 0.0
0.0 3.684808133 0.116247528531 0.0
0.0 3.686159365 0.11610225593 0.0
0.0 3.687510596 0.115955132889 0.0
0.0 3.688861828 0.115808757684 0.0
0.0 3.690213059 0.115663597145 0.0
0.0 3.69156429 0.115517963591 0.0
0.0 3.692915522 0.115375527619 0.0
0.0 3.694266753 0.115233746483 0.0
0.0 3.695617985 0.115089651331 0.0
0.0 3.696969216 0.114943166634 0.0
0.0 3.698320448 0.114797645066 0.0
0.0 3.699671679 0.114653833424 0.0
0.0 3.701022911 0.114511714085 0.0
0.0 3.702374142 0.114368792113 0.0
0.0 3.703725373 0.114227551906 0.0
0.0 3.705076605 0.114087687134 0.0
0.0 3.706427836 0.113947349086 0.0
0.0 3.707779068 0.11380920464 0.0
0.0 3.709130299 0.113672421291 0.0
0.0 3.710481531 0.113531237751 0.0
0.0 3.711832762 0.113388412318 0.0
0.0 3.713183993 0.113248286882 0.0
0.0 3.714535225 0.113108689611 0.0
0.0 3.715886456 0.112969155212 0.0
0.0 3.717237688 0.112831997947 0.0
0.0 3.718588919 0.112694084251 0.0
0.0 3.719940151 0.112555319212 0.0
0.0 3.721291382 0.112418304805 0.0
0.0 3.722642614 0.112284034297 0.0
0.0 3.723993845 0.112147820202 0.0
0.0 3.725345076 0.112007388639 0.0
0.0 3.726696308 0.111868668328 0.0
0.0 3.728047539 0.11173544589 0.0
0.0 3.729398771 0.111601545092 0.0
0.0 3.730750002 0.111464295056 0.0
0.0 3.732101234 0.111328979939 0.0
0.0 3.733452465 0.111194540383 0.0
0.0 3.734803696 0.111059000188 0.0
0.0 3.736154928 0.110924107858 0.0
0.0 3.737506159 0.110792989944 0.0
0.0 3.738857391 0.11066370369 0.0
0.0 3.740208622 0.110532218902 0.0
0.0 3.741559854 0.110399022452 0.0
0.0 3.742911085 0.11026698185 0.0
0.0 3.744262317 0.110135667421 0.0
0.0 3.745613548 0.110003995598 0.0
0.0 3.746964779 0.109873096242 0.0
0.0 3.748316011 0.109743495343 0.0
0.0 3.749667242 0.109613628635 0.0
0.0 3.751018474 0.109482394029 0.0
0.0 3.752369705 0.109352045317 0.0
0.0 3.753720937 0.109224281875 0.0
0.0 3.755072168 0.10909602502 0.0
0.0 3.7564234 0.108965088193 0.0
0.0 3.757774631 0.108834606812 0.0
0.0 3.759125862 0.108706835975 0.0
0.0 3.760477094 0.108578945798 0.0
0.0 3.761828325 0.108448639604 0.0
0.0 3.763179557 0.108317355602 0.0
0.0 3.764530788 0.108189051165 0.0
0.0 3.76588202 0.108061329759 0.0
0.0 3.767233251 0.107935904719 0.0
0.0 3.768584482 0.107813041484 0.0
0.0 3.769935714 0.10768747069 0.0
0.0 3.771286945 0.107562697205 0.0
0.0 3.772638177 0.107438986112 0.0
0.0 3.773989408 0.107316587892 0.0
0.0 3.77534064 0.107196446646 0.0
0.0 3.776691871 0.107073543444 0.0
0.0 3.778043103 0.10695052339 0.0
0.0 3.779394334 0.106829732957 0.0
0.0 3.780745565 0.106710770461 0.0
0.0 3.782096797 0.106591379988 0.0
0.0 3.783448028 0.106470377303 0.0
0.0 3.78479926 0.106349799537 0.0
0.0 3.786150491 0.1062310501 0.0
0.0 3.787501723 0.10611246423 0.0
0.0 3.788852954 0.105993102264 0.0
0.0 3.790204185 0.105873636234 0.0
0.0 3.791555417 0.105754535288 0.0
0.0 3.792906648 0.105635472412 0.0
0.0 3.79425788 0.105516800646 0.0
0.0 3.795609111 0.105399966147 0.0
0.0 3.796960343 0.105286233421 0.0
0.0 3.798311574 0.105172962652 0.0
0.0 3.799662806 0.105055838115 0.0
0.0 3.801014037 0.104937086421 0.0
0.0 3.802365268 0.104821878002 0.0
0.0 3.8037165 0.104709190045 0.0
0.0 3.805067731 0.104595198626 0.0
0.0 3.806418963 0.104480252679 0.0
0.0 3.807770194 0.10436623883 0.0
0.0 3.809121426 0.104252980005 0.0
0.0 3.810472657 0.104139827353 0.0
0.0 3.811823889 0.104027545224 0.0
0.0 3.81317512 0.103915091192 0.0
0.0 3.814526351 0.103800949311 0.0
0.0 3.815877583 0.103687384377 0.0
0.0 3.817228814 0.103577084806 0.0
0.0 3.818580046 0.103469452223 0.0
0.0 3.819931277 0.10336237312 0.0
0.0 3.821282509 0.103254398929 0.0
0.0 3.82263374 0.103145184552 0.0
0.0 3.823984971 0.103035786605 0.0
0.0 3.825336203 0.102926949862 0.0
0.0 3.826687434 0.102817657857 0.0
0.0 3.828038666 0.102708554986 0.0
0.0 3.829389897 0.102602127709 0.0
0.0 3.830741129 0.102498020142 0.0
0.0 3.83209236 0.10239293579 0.0
0.0 3.833443592 0.102287697522 0.0
0.0 3.834794823 0.10218410984 0.0
0.0 3.836146054 0.102080881487 0.0
0.0 3.837497286 0.101977104307 0.0
0.0 3.838848517 0.101871352956 0.0
0.0 3.840199749 0.10176349674 0.0
0.0 3.84155098 0.101657562739 0.0
0.0 3.842902212 0.101555043757 0.0
0.0 3.844253443 0.101453911328 0.0
0.0 3.845604674 0.101354030054 0.0
0.0 3.846955906 0.101255105291 0.0
0.0 3.848307137 0.10115532585 0.0
0.0 3.849658369 0.101053895177 0.0
0.0 3.8510096 0.100952255319 0.0
0.0 3.852360832 0.100852333619 0.0
0.0 3.853712063 0.100754672325 0.0
0.0 3.855063295 0.100657316718 0.0
0.0 3.856414526 0.100558877417 0.0
0.0 3.857765757 0.100461275679 0.0
0.0 3.859116989 0.100364509426 0.0
0.0 3.86046822 0.100264772616 0.0
0.0 3.861819452 0.100165562464 0.0
0.0 3.863170683 0.100071884649 0.0
0.0 3.864521915 0.0999773337835 0.0
0.0 3.865873146 0.099878341167 0.0
0.0 3.867224377 0.0997791177379 0.0
0.0 3.868575609 0.0996831392559 0.0
0.0 3.86992684 0.0995879454938 0.0
0.0 3.871278072 0.0994946540992 0.0
0.0 3.872629303 0.0994024872745 0.0
0.0 3.873980535 0.0993096089657 0.0
0.0 3.875331766 0.0992173065148 0.0
0.0 3.876682998 0.0991257842971 0.0
0.0 3.878034229 0.0990350779784 0.0
0.0 3.87938546 0.0989449658511 0.0
0.0 3.880736692 0.098855879736 0.0
0.0 3.882087923 0.0987676609889 0.0
0.0 3.883439155 0.0986790973855 0.0
0.0 3.884790386 0.098590276058 0.0
0.0 3.886141618 0.0985005644155 0.0
0.0 3.887492849 0.098412576005 0.0
0.0 3.888844081 0.0983264611029 0.0
0.0 3.890195312 0.0982416753337 0.0
0.0 3.891546543 0.098156951924 0.0
0.0 3.892897775 0.0980717034869 0.0
0.0 3.894249006 0.0979875735696 0.0
0.0 3.895600238 0.0979010594663 0.0
0.0 3.896951469 0.0978152422678 0.0
0.0 3.898302701 0.0977299059407 0.0
0.0 3.899653932 0.0976460970574 0.0
0.0 3.901005163 0.097563990804 0.0
0.0 3.902356395 0.097482505397 0.0
0.0 3.903707626 0.0974009836648 0.0
0.0 3.905058858 0.0973188306565 0.0
0.0 3.906410089 0.0972366051289 0.0
0.0 3.907761321 0.0971561296076 0.0
0.0 3.909112552 0.09707719919 0.0
0.0 3.910463784 0.0969993531641 0.0
0.0 3.911815015 0.0969217198899 0.0
0.0 3.913166246 0.0968430690417 0.0
0.0 3.914517478 0.0967647585252 0.0
0.0 3.915868709 0.0966858600764 0.0
0.0 3.917219941 0.0966069261838 0.0
0.0 3.918571172 0.0965305016228 0.0
0.0 3.919922404 0.0964563236604 0.0
0.0 3.921273635 0.0963828637986 0.0
0.0 3.922624866 0.0963065474951 0.0
0.0 3.923976098 0.0962299364035 0.0
0.0 3.925327329 0.0961553457133 0.0
0.0 3.926678561 0.0960829261533 0.0
0.0 3.928029792 0.0960122578087 0.0
0.0 3.929381024 0.0959410161577 0.0
0.0 3.930732255 0.0958700264571 0.0
0.0 3.932083487 0.0958002013816 0.0
0.0 3.933434718 0.0957275898674 0.0
0.0 3.934785949 0.0956541589076 0.0
0.0 3.936137181 0.0955840306071 0.0
0.0 3.937488412 0.0955164822338 0.0
0.0 3.938839644 0.0954491761832 0.0
0.0 3.940190875 0.0953798910177 0.0
0.0 3.941542107 0.0953079261003 0.0
0.0 3.942893338 0.0952392876419 0.0
0.0 3.944244569 0.0951734535885 0.0
0.0 3.945595801 0.0951118653964 0.0
0.0 3.946947032 0.0950481587202 0.0
0.0 3.948298264 0.0949819909048 0.0
0.0 3.949649495 0.0949157690222 0.0
0.0 3.951000727 0.0948497776368 0.0
0.0 3.952351958 0.0947835227043 0.0
0.0 3.95370319 0.0947177983604 0.0
0.0 3.955054421 0.0946528065911 0.0
0.0 3.956405652 0.0945882349929 0.0
0.0 3.957756884 0.0945234778316 0.0
0.0 3.959108115 0.0944610247298 0.0
0.0 3.960459347 0.0944003815084 0.0
0.0 3.961810578 0.0943402689644 0.0
0.0 3.96316181 0.0942806873943 0.0
0.0 3.964513041 0.0942216379465 0.0
0.0 3.965864273 0.094163121598 0.0
0.0 3.967215504 0.0941051394967 0.0
0.0 3.968566735 0.0940476926606 0.0
0.0 3.969917967 0.093990782118 0.0
0.0 3.971269198 0.0939344090025 0.0
0.0 3.97262043 0.0938785742989 0.0
0.0 3.973971661 0.0938235055054 0.0
0.0 3.975322893 0.0937705999154 0.0
0.0 3.976674124 0.0937180880222 0.0
0.0 3.978025355 0.0936661040766 0.0
0.0 3.979376587 0.0936143589007 0.0
0.0 3.980727818 0.0935617343824 0.0
0.0 3.98207905 0.0935083345575 0.0
0.0 3.983430281 0.0934563749071 0.0
0.0 3.984781513 0.0934073346744 0.0
0.0 3.986132744 0.0933591134772 0.0
0.0 3.987483976 0.0933104371032 0.0
0.0 3.988835207 0.0932615505035 0.0
0.0 3.990186438 0.0932126571225 0.0
0.0 3.99153767 0.0931635851859 0.0
0.0 3.992888901 0.0931140367634 0.0
0.0 3.994240133 0.093066167403 0.0
0.0 3.995591364 0.0930207654416 0.0
0.0 3.996942596 0.0929765530296 0.0
0.0 3.998293827 0.0929328914446 0.0
0.0 3.999645058 0.0928879240935 0.0
0.0 4.00099629 0.0928413415393 0.0
0.0 4.002347521 0.0927976716757 0.0
0.0 4.003698753 0.0927544637913 0.0
0.0 4.005049984 0.0927132489226 0.0
0.0 4.006401216 0.0926717797586 0.0
0.0 4.007752447 0.092631716768 0.0
0.0 4.009103679 0.0925922263747 0.0
0.0 4.01045491 0.0925525548337 0.0
0.0 4.011806141 0.0925128291008 0.0
0.0 4.013157373 0.0924735908895 0.0
0.0 4.014508604 0.0924346737552 0.0
0.0 4.015859836 0.092396124262 0.0
0.0 4.017211067 0.0923593836507 0.0
0.0 4.018562299 0.0923236634332 0.0
0.0 4.01991353 0.0922879397972 0.0
0.0 4.021264761 0.0922518639248 0.0
0.0 4.022615993 0.0922159962344 0.0
0.0 4.023967224 0.0921813719705 0.0
0.0 4.025318456 0.0921489626561 0.0
0.0 4.026669687 0.0921164934039 0.0
0.0 4.028020919 0.0920819641169 0.0
0.0 4.02937215 0.0920484088559 0.0
0.0 4.030723382 0.0920173406747 0.0
0.0 4.032074613 0.0919882124733 0.0
0.0 4.033425844 0.0919596379655 0.0
0.0 4.034777076 0.0919312871927 0.0
0.0 4.036128307 0.0919029241836 0.0
0.0 4.037479539 0.091873715255 0.0
0.0 4.03883077 0.0918456607019 0.0
0.0 4.040182002 0.0918191988569 0.0
0.0 4.041533233 0.0917939992111 0.0
0.0 4.042884465 0.0917691891841 0.0
0.0 4.044235696 0.0917464704611 0.0
0.0 4.045586927 0.0917216833048 0.0
0.0 4.046938159 0.0916947853276 0.0
0.0 4.04828939 0.0916711889421 0.0
0.0 4.049640622 0.0916506257103 0.0
0.0 4.050991853 0.091632612716 0.0
0.0 4.052343085 0.0916158458069 0.0
0.0 4.053694316 0.0916011536983 0.0
0.0 4.055045547 0.0915861105267 0.0
0.0 4.056396779 0.0915683134446 0.0
0.0 4.05774801 0.0915499851947 0.0
0.0 4.059099242 0.0915317551669 0.0
0.0 4.060450473 0.09151425123 0.0
0.0 4.061801705 0.0914985400988 0.0
0.0 4.063152936 0.0914863397713 0.0
0.0 4.064504168 0.0914729673361 0.0
0.0 4.065855399 0.0914560375503 0.0
0.0 4.06720663 0.0914411837777 0.0
0.0 4.068557862 0.0914315176929 0.0
0.0 4.069909093 0.0914271447071 0.0
0.0 4.071260325 0.0914248565127 0.0
0.0 4.072611556 0.0914219882522 0.0
0.0 4.073962788 0.0914187108875 0.0
0.0 4.075314019 0.0914171120686 0.0
0.0 4.07666525 0.0914182709142 0.0
0.0 4.078016482 0.0914218254602 0.0
0.0 4.079367713 0.0914265295865 0.0
0.0 4.080718945 0.0914323713267 0.0
0.0 4.082070176 0.09144304284 0.0
0.0 4.083421408 0.0914574922079 0.0
0.0 4.084772639 0.0914740537596 0.0
0.0 4.086123871 0.0914926624675 0.0
0.0 4.087475102 0.091514260742 0.0
0.0 4.088826333 0.0915399579601 0.0
0.0 4.090177565 0.0915693178459 0.0
0.0 4.091528796 0.0916021390059 0.0
0.0 4.092880028 0.0916391385812 0.0
0.0 4.094231259 0.0916811483634 0.0
0.0 4.095582491 0.0917288339625 0.0
0.0 4.096933722 0.0917825583853 0.0
0.0 4.098284953 0.0918425803282 0.0
0.0 4.099636185 0.0919100206124 0.0
0.0 4.100987416 0.0919848698549 0.0
0.0 4.102338648 0.0920669825724 0.0
0.0 4.103689879 0.092158101307 0.0
0.0 4.105041111 0.0922602581012 0.0
0.0 4.106392342 0.0923799741612 0.0
0.0 4.107743574 0.0925182245604 0.0
0.0 4.109094805 0.0926729074532 0.0
0.0 4.110446036 0.0928444361811 0.0
0.0 4.111797268 0.0930348934867 0.0
0.0 4.113148499 0.0932480076495 0.0
0.0 4.114499731 0.0934887038147 0.0
0.0 4.115850962 0.0937623733897 0.0
0.0 4.117202194 0.0940743048387 0.0
0.0 4.118553425 0.0944313317573 0.0
0.0 4.119904657 0.0948365436866 0.0
0.0 4.121255888 0.0952943306942 0.0
0.0 4.122607119 0.095816535592 0.0
0.0 4.123958351 0.096411405859 0.0
0.0 4.125309582 0.0970898592129 0.0
0.0 4.126660814 0.0978641448926 0.0
0.0 4.128012045 0.0987483267769 0.0
0.0 4.129363277 0.0997603847897 0.0
0.0 4.130714508 0.100925931021 0.0
0.0 4.132065739 0.102267246449 0.0
0.0 4.133416971 0.103811550324 0.0
0.0 4.134768202 0.105590864905 0.0
0.0 4.136119434 0.107644485103 0.0
0.0 4.137470665 0.11002243075 0.0
0.0 4.138821897 0.112770194526 0.0
0.0 4.140173128 0.115949207845 0.0
0.0 4.14152436 0.119635100504 0.0
0.0 4.142875591 0.123901939908 0.0
0.0 4.144226822 0.128838311462 0.0
0.0 4.145578054 0.134548819429 0.0
0.0 4.146929285 0.141134887705 0.0
0.0 4.148280517 0.148778923546 0.0
0.0 4.149631748 0.15748884775 0.0
0.0 4.15098298 0.167455561201 0.0
0.0 4.152334211 0.1787679782 0.0
0.0 4.153685442 0.191547283481 0.0
0.0 4.155036674 0.205910614394 0.0
0.0 4.156387905 0.221946413065 0.0
0.0 4.157739137 0.239708619821 0.0
0.0 4.159090368 0.259071379506 0.0
0.0 4.1604416 0.280040332091 0.0
0.0 4.161792831 0.302504624852 0.0
0.0 4.163144063 0.326101999083 0.0
0.0 4.164495294 0.350688240832 0.0
0.0 4.165846525 0.375717906965 0.0
0.0 4.167197757 0.400461353542 0.0
0.0 4.168548988 0.424871120779 0.0
0.0 4.16990022 0.448547590541 0.0
0.0 4.171251451 0.471091223027 0.0
0.0 4.172602683 0.491927530675 0.0
0.0 4.173953914 0.510296056164 0.0
0.0 4.175305146 0.526770661727 0.0
0.0 4.176656377 0.541262070581 0.0
0.0 4.178007608 0.553767180356 0.0
0.0 4.17935884 0.564318671532 0.0
0.0 4.180710071 0.572677267366 0.0
0.0 4.182061303 0.579579106494 0.0
0.0 4.183412534 0.585210987943 0.0
0.0 4.184763766 0.589751251687 0.0
0.0 4.186114997 0.593328928739 0.0
0.0 4.187466228 0.595927770063 0.0
0.0 4.18881746 0.598006161822 0.0
0.0 4.190168691 0.599642794912 0.0
0.0 4.191519923 0.600904136922 0.0
0.0 4.192871154 0.601852732219 0.0
0.0 4.194222386 0.603179544368 0.0
0.0 4.195573617 0.603787642745 0.0
0.0 4.196924849 0.604289845144 0.0
0.0 4.19827608 0.604725722211 0.0
0.0 4.199627311 0.605154712535 0.0
0.0 4.200978543 0.605535378837 0.0
0.0 4.202329774 0.605898996304 0.0
0.0 4.203681006 0.606659207419 0.0
0.0 4.205032237 0.607232811197 0.0
0.0 4.206383469 0.607594728921 0.0
0.0 4.2077347 0.607948773769 0.0
0.0 4.209085931 0.608317055028 0.0
0.0 4.210437163 0.608679517719 0.0
0.0 4.211788394 0.609019246249 0.0
0.0 4.213139626 0.609353561276 0.0
0.0 4.214490857 0.609689611225 0.0
0.0 4.215842089 0.609983586908 0.0
0.0 4.21719332 0.61024213305 0.0
0.0 4.218544552 0.610495038837 0.0
0.0 4.219895783 0.610739254134 0.0
0.0 4.221247014 0.610905712478 0.0
0.0 4.222598246 0.611039509164 0.0
0.0 4.223949477 0.611154421851 0.0
0.0 4.225300709 0.611240895754 0.0
0.0 4.22665194 0.61125183528 0.0
0.0 4.228003172 0.611250428623 0.0
0.0 4.229354403 0.611224385063 0.0
0.0 4.230705634 0.611160480356 0.0
0.0 4.232056866 0.611031650637 0.0
0.0 4.233408097 0.610900697228 0.0
0.0 4.234759329 0.610740761994 0.0
0.0 4.23611056 0.610544816754 0.0
0.0 4.237461792 0.610316546385 0.0
0.0 4.238813023 0.610121710355 0.0
0.0 4.240164255 0.609901835527 0.0
0.0 4.241515486 0.609652101412 0.0
0.0 4.242866717 0.609901671316 0.0
0.0 4.244217949 0.609741916876 0.0
0.0 4.24556918 0.609453402126 0.0
0.0 4.246920412 0.60913631215 0.0
0.0 4.248271643 0.609370038361 0.0
0.0 4.249622875 0.60903636711 0.0
0.0 4.250974106 0.608612880458 0.0
0.0 4.252325338 0.608157343227 0.0
0.0 4.253676569 0.607673490329 0.0
0.0 4.2550278 0.607152029489 0.0
0.0 4.256379032 0.606512891883 0.0
0.0 4.257730263 0.605787790648 0.0
0.0 4.259081495 0.604973698513 0.0
0.0 4.260432726 0.603734857017 0.0
0.0 4.261783958 0.601672871523 0.0
0.0 4.263135189 0.599391492796 0.0
0.0 4.26448642 0.596883976361 0.0
0.0 4.265837652 0.594083551029 0.0
0.0 4.267188883 0.590928394117 0.0
0.0 4.268540115 0.58721434882 0.0
0.0 4.269891346 0.582943021749 0.0
0.0 4.271242578 0.577819456909 0.0
0.0 4.272593809 0.572435888552 0.0
0.0 4.273945041 0.567411988857 0.0
0.0 4.275296272 0.564183814782 0.0
0.0 4.276647503 0.563265634356 0.0
0.0 4.277998735 0.56479390083 0.0
0.0 4.279349966 0.568849340599 0.0
0.0 4.280701198 0.575433304216 0.0
0.0 4.282052429 0.582727963811 0.0
0.0 4.283403661 0.588629622346 0.0
0.0 4.284754892 0.592930770623 0.0
0.0 4.286106123 0.595746558764 0.0
0.0 4.287457355 0.598178680638 0.0
0.0 4.288808586 0.600413572601 0.0
0.0 4.290159818 0.602331479835 0.0
0.0 4.291511049 0.60223304582 0.0
0.0 4.292862281 0.602139485843 0.0
0.0 4.294213512 0.602740201787 0.0
0.0 4.295564744 0.60312937529 0.0
0.0 4.296915975 0.603036117419 0.0
0.0 4.298267206 0.602960950788 0.0
0.0 4.299618438 0.602909928679 0.0
0.0 4.300969669 0.602814672637 0.0
0.0 4.302320901 0.602668743174 0.0
0.0 4.303672132 0.602550749883 0.0
0.0 4.305023364 0.602459464421 0.0
0.0 4.306374595 0.602387616758 0.0
0.0 4.307725826 0.602312624611 0.0
0.0 4.309077058 0.602297389792 0.0
0.0 4.310428289 0.602309785071 0.0
0.0 4.311779521 0.602331242649 0.0
0.0 4.313130752 0.602338998594 0.0
0.0 4.314481984 0.602393975937 0.0
0.0 4.315833215 0.602458648276 0.0
0.0 4.317184447 0.602520298663 0.0
0.0 4.318535678 0.602561914912 0.0
0.0 4.319886909 0.602645491893 0.0
0.0 4.321238141 0.602739248406 0.0
0.0 4.322589372 0.602820638714 0.0
0.0 4.323940604 0.602878329706 0.0
0.0 4.325291835 0.602956632968 0.0
0.0 4.326643067 0.603005002555 0.0
0.0 4.327994298 0.603020327478 0.0
0.0 4.32934553 0.602999130308 0.0
0.0 4.330696761 0.602981682464 0.0
0.0 4.332047992 0.602920897302 0.0
0.0 4.333399224 0.60281621882 0.0
0.0 4.334750455 0.602669216545 0.0
0.0 4.336101687 0.602506424652 0.0
0.0 4.337452918 0.602288263092 0.0
0.0 4.33880415 0.602014065947 0.0
0.0 4.340155381 0.601693655612 0.0
0.0 4.341506612 0.601343246858 0.0
0.0 4.342857844 0.600938224876 0.0
0.0 4.344209075 0.600480598611 0.0
0.0 4.345560307 0.600297217433 0.0
0.0 4.346911538 0.600023071014 0.0
0.0 4.34826277 0.599465026323 0.0
0.0 4.349614001 0.598857317683 0.0
0.0 4.350965233 0.598252726086 0.0
0.0 4.352316464 0.598215238364 0.0
0.0 4.353667695 0.59760254452 0.0
0.0 4.355018927 0.596976334819 0.0
0.0 4.356370158 0.596398894024 0.0
0.0 4.35772139 0.595839930923 0.0
0.0 4.359072621 0.595284243881 0.0
0.0 4.360423853 0.594725495934 0.0
0.0 4.361775084 0.594221622105 0.0
0.0 4.363126315 0.593698643274 0.0
0.0 4.364477547 0.59314121107 0.0
0.0 4.365828778 0.592519628894 0.0
0.0 4.36718001 0.591801985978 0.0
0.0 4.368531241 0.590925782933 0.0
0.0 4.369882473 0.589855661454 0.0
0.0 4.371233704 0.588472936942 0.0
0.0 4.372584936 0.586668738029 0.0
0.0 4.373936167 0.584420717209 0.0
0.0 4.375287398 0.581671582024 0.0
0.0 4.37663863 0.578070550335 0.0
0.0 4.377989861 0.573620225889 0.0
0.0 4.379341093 0.568350579427 0.0
0.0 4.380692324 0.562212875792 0.0
0.0 4.382043556 0.554483808137 0.0
0.0 4.383394787 0.545670764584 0.0
0.0 4.384746018 0.535766658003 0.0
0.0 4.38609725 0.524499762841 0.0
0.0 4.387448481 0.511479615125 0.0
0.0 4.388799713 0.497360343733 0.0
0.0 4.390150944 0.48222809675 0.0
0.0 4.391502176 0.46552590693 0.0
0.0 4.392853407 0.447636013498 0.0
0.0 4.394204639 0.429106766713 0.0
0.0 4.39555587 0.410116314974 0.0
0.0 4.396907101 0.389968059439 0.0
0.0 4.398258333 0.369859274986 0.0
0.0 4.399609564 0.350011647416 0.0
0.0 4.400960796 0.330376898368 0.0
0.0 4.402312027 0.311002722214 0.0
0.0 4.403663259 0.292538529615 0.0
0.0 4.40501449 0.275088125749 0.0
0.0 4.406365722 0.258633726029 0.0
0.0 4.407716953 0.243185877685 0.0
0.0 4.409068184 0.229033308671 0.0
0.0 4.410419416 0.216128686548 0.0
0.0 4.411770647 0.204379206755 0.0
0.0 4.413121879 0.193868623403 0.0
0.0 4.41447311 0.184551780678 0.0
0.0 4.415824342 0.176189430481 0.0
0.0 4.417175573 0.168792478884 0.0
0.0 4.418526804 0.16227236145 0.0
0.0 4.419878036 0.156534559713 0.0
0.0 4.421229267 0.151513876743 0.0
0.0 4.422580499 0.147115237508 0.0
0.0 4.42393173 0.143264559524 0.0
0.0 4.425282962 0.139905441611 0.0
0.0 4.426634193 0.136984749791 0.0
0.0 4.427985425 0.134437057978 0.0
0.0 4.429336656 0.132215190425 0.0
0.0 4.430687887 0.130291664112 0.0
0.0 4.432039119 0.128616597003 0.0
0.0 4.43339035 0.127158279834 0.0
0.0 4.434741582 0.12589229771 0.0
0.0 4.436092813 0.124797298513 0.0
0.0 4.437444045 0.123850210975 0.0
0.0 4.438795276 0.123034266549 0.0
0.0 4.440146507 0.122336047575 0.0
0.0 4.441497739 0.121734628835 0.0
0.0 4.44284897 0.121219318648 0.0
0.0 4.444200202 0.120783656185 0.0
0.0 4.445551433 0.120417905712 0.0
0.0 4.446902665 0.12011315364 0.0
0.0 4.448253896 0.119863521593 0.0
0.0 4.449605128 0.119663643858 0.0
0.0 4.450956359 0.119503097103 0.0
0.0 4.45230759 0.11937797529 0.0
0.0 4.453658822 0.119286583789 0.0
0.0 4.455010053 0.119225418532 0.0
0.0 4.456361285 0.119190470445 0.0
0.0 4.457712516 0.119179004533 0.0
0.0 4.459063748 0.119191574551 0.0
0.0 4.460414979 0.119224789038 0.0
0.0 4.461766211 0.119276506212 0.0
0.0 4.463117442 0.119342363298 0.0
0.0 4.464468673 0.11942042609 0.0
0.0 4.465819905 0.119510532266 0.0
0.0 4.467171136 0.119613756595 0.0
0.0 4.468522368 0.119730086292 0.0
0.0 4.469873599 0.119856734863 0.0
0.0 4.471224831 0.119992533158 0.0
0.0 4.472576062 0.120134992703 0.0
0.0 4.473927293 0.120284179405 0.0
0.0 4.475278525 0.120439746155 0.0
0.0 4.476629756 0.120602938537 0.0
0.0 4.477980988 0.120770991098 0.0
0.0 4.479332219 0.120943443822 0.0
0.0 4.480683451 0.121120052352 0.0
0.0 4.482034682 0.121301040958 0.0
0.0 4.483385914 0.121486414957 0.0
0.0 4.484737145 0.121676611875 0.0
0.0 4.486088376 0.121871945763 0.0
0.0 4.487439608 0.12207042447 0.0
0.0 4.488790839 0.122271788198 0.0
0.0 4.490142071 0.122473986341 0.0
0.0 4.491493302 0.122678693704 0.0
0.0 4.492844534 0.122885734978 0.0
0.0 4.494195765 0.123094401171 0.0
0.0 4.495546996 0.123305795133 0.0
0.0 4.496898228 0.123520830363 0.0
0.0 4.498249459 0.123741329197 0.0
0.0 4.499600691 0.123964259075 0.0
0.0 4.500951922 0.124188017016 0.0
0.0 4.502303154 0.124411833704 0.0
0.0 4.503654385 0.124640085235 0.0
0.0 4.505005617 0.124871794436 0.0
0.0 4.506356848 0.125106647866 0.0
0.0 4.507708079 0.125341218377 0.0
0.0 4.509059311 0.125576052812 0.0
0.0 4.510410542 0.125811413725 0.0
0.0 4.511761774 0.126047590449 0.0
0.0 4.513113005 0.126285026421 0.0
0.0 4.514464237 0.126523789865 0.0
0.0 4.515815468 0.126764076401 0.0
0.0 4.517166699 0.12700533386 0.0
0.0 4.518517931 0.127248239713 0.0
0.0 4.519869162 0.12749339337 0.0
0.0 4.521220394 0.127740497944 0.0
0.0 4.522571625 0.127987239047 0.0
0.0 4.523922857 0.128232789097 0.0
0.0 4.525274088 0.128477372163 0.0
0.0 4.52662532 0.128724049243 0.0
0.0 4.527976551 0.128972885231 0.0
0.0 4.529327782 0.129222784154 0.0
0.0 4.530679014 0.12947416732 0.0
0.0 4.532030245 0.12972726559 0.0
0.0 4.533381477 0.129980729424 0.0
0.0 4.534732708 0.130233609505 0.0
0.0 4.53608394 0.13048764116 0.0
0.0 4.537435171 0.130745132831 0.0
0.0 4.538786403 0.131007059576 0.0
0.0 4.540137634 0.131270974655 0.0
0.0 4.541488865 0.131535516221 0.0
0.0 4.542840097 0.131801320516 0.0
0.0 4.544191328 0.132068180918 0.0
0.0 4.54554256 0.132335879731 0.0
0.0 4.546893791 0.132601861469 0.0
0.0 4.548245023 0.132870393242 0.0
0.0 4.549596254 0.133139389958 0.0
0.0 4.550947485 0.133409571985 0.0
0.0 4.552298717 0.133682752954 0.0
0.0 4.553649948 0.133956986164 0.0
0.0 4.55500118 0.134232399073 0.0
0.0 4.556352411 0.134508951111 0.0
0.0 4.557703643 0.134785788392 0.0
0.0 4.559054874 0.135061544655 0.0
0.0 4.560406106 0.135340074588 0.0
0.0 4.561757337 0.135620053456 0.0
0.0 4.563108568 0.135900585391 0.0
0.0 4.5644598 0.136182902329 0.0
0.0 4.565811031 0.13646729136 0.0
0.0 4.567162263 0.136753675286 0.0
0.0 4.568513494 0.137039766762 0.0
0.0 4.569864726 0.137325098438 0.0
0.0 4.571215957 0.137609435942 0.0
0.0 4.572567188 0.137895919532 0.0
0.0 4.57391842 0.138184258557 0.0
0.0 4.575269651 0.138473754287 0.0
0.0 4.576620883 0.138763889331 0.0
0.0 4.577972114 0.139054810924 0.0
0.0 4.579323346 0.139347913683 0.0
0.0 4.580674577 0.139642071207 0.0
0.0 4.582025809 0.139937288851 0.0
0.0 4.58337704 0.140233365371 0.0
0.0 4.584728271 0.140530829308 0.0
0.0 4.586079503 0.140829669135 0.0
0.0 4.587430734 0.141128881165 0.0
0.0 4.588781966 0.141428391382 0.0
0.0 4.590133197 0.14172846405 0.0
0.0 4.591484429 0.142029056541 0.0
0.0 4.59283566 0.142331101475 0.0
0.0 4.594186891 0.142634631516 0.0
0.0 4.595538123 0.142941115942 0.0
0.0 4.596889354 0.143249476138 0.0
0.0 4.598240586 0.143560689783 0.0
0.0 4.599591817 0.143871844783 0.0
0.0 4.600943049 0.144184048846 0.0
0.0 4.60229428 0.144496148845 0.0
0.0 4.603645512 0.144808709224 0.0
0.0 4.604996743 0.145121946615 0.0
0.0 4.606347974 0.145435767092 0.0
0.0 4.607699206 0.14575122772 0.0
0.0 4.609050437 0.146067379303 0.0
0.0 4.610401669 0.146383849449 0.0
0.0 4.6117529 0.146697788116 0.0
0.0 4.613104132 0.147012755819 0.0
0.0 4.614455363 0.1473308597 0.0
0.0 4.615806595 0.147652669899 0.0
0.0 4.617157826 0.147975863784 0.0
0.0 4.618509057 0.148300236481 0.0
0.0 4.619860289 0.148626146801 0.0
0.0 4.62121152 0.148952322747 0.0
0.0 4.622562752 0.149278545096 0.0
0.0 4.623913983 0.149603982766 0.0
0.0 4.625265215 0.149932621266 0.0
0.0 4.626616446 0.150262295509 0.0
0.0 4.627967677 0.150592988779 0.0
0.0 4.629318909 0.150924811891 0.0
0.0 4.63067014 0.151258197524 0.0
0.0 4.632021372 0.151592980231 0.0
0.0 4.633372603 0.151928138427 0.0
0.0 4.634723835 0.152262665048 0.0
0.0 4.636075066 0.152598086753 0.0
0.0 4.637426298 0.152935721115 0.0
0.0 4.638777529 0.153276103299 0.0
0.0 4.64012876 0.153617461219 0.0
0.0 4.641479992 0.153959761565 0.0
0.0 4.642831223 0.154301456049 0.0
0.0 4.644182455 0.154644308949 0.0
0.0 4.645533686 0.154988876229 0.0
0.0 4.646884918 0.155335556535 0.0
0.0 4.648236149 0.155683113696 0.0
0.0 4.64958738 0.156030582888 0.0
0.0 4.650938612 0.156377198793 0.0
0.0 4.652289843 0.156727261543 0.0
0.0 4.653641075 0.157079279202 0.0
0.0 4.654992306 0.157433456862 0.0
0.0 4.656343538 0.157790469136 0.0
0.0 4.657694769 0.1581481809 0.0
0.0 4.659046001 0.158504377299 0.0
0.0 4.660397232 0.158859627393 0.0
0.0 4.661748463 0.159215597574 0.0
0.0 4.663099695 0.15957418454 0.0
0.0 4.664450926 0.159935080679 0.0
0.0 4.665802158 0.160296689406 0.0
0.0 4.667153389 0.160659258611 0.0
0.0 4.668504621 0.161022513996 0.0
0.0 4.669855852 0.16138700064 0.0
0.0 4.671207083 0.161752656861 0.0
0.0 4.672558315 0.162119426052 0.0
0.0 4.673909546 0.162487134446 0.0
0.0 4.675260778 0.1628560968 0.0
0.0 4.676612009 0.16322526245 0.0
0.0 4.677963241 0.163595195145 0.0
0.0 4.679314472 0.163966199006 0.0
0.0 4.680665704 0.164338827726 0.0
0.0 4.682016935 0.164712196768 0.0
0.0 4.683368166 0.165086682262 0.0
0.0 4.684719398 0.165461921107 0.0
0.0 4.686070629 0.165839486728 0.0
0.0 4.687421861 0.166218363127 0.0
0.0 4.688773092 0.166596654069 0.0
0.0 4.690124324 0.166975747882 0.0
0.0 4.691475555 0.16735485471 0.0
0.0 4.692826787 0.167736107456 0.0
0.0 4.694178018 0.168118714327 0.0
0.0 4.695529249 0.168502502446 0.0
0.0 4.696880481 0.16888769477 0.0
0.0 4.698231712 0.169274811902 0.0
0.0 4.699582944 0.169663796738 0.0
0.0 4.700934175 0.17005372844 0.0
0.0 4.702285407 0.170444445717 0.0
0.0 4.703636638 0.170835422286 0.0
0.0 4.704987869 0.171227413774 0.0
0.0 4.706339101 0.171620794518 0.0
0.0 4.707690332 0.172014908377 0.0
0.0 4.709041564 0.1724099236 0.0
0.0 4.710392795 0.172805718938 0.0
0.0 4.711744027 0.173203419275 0.0
0.0 4.713095258 0.17360302169 0.0
0.0 4.71444649 0.174003850859 0.0
0.0 4.715797721 0.174405486683 0.0
0.0 4.717148952 0.174807539268 0.0
0.0 4.718500184 0.175210913878 0.0
0.0 4.719851415 0.175615427395 0.0
0.0 4.721202647 0.176020737918 0.0
0.0 4.722553878 0.176426518429 0.0
0.0 4.72390511 0.176832978329 0.0
0.0 4.725256341 0.177240800077 0.0
0.0 4.726607572 0.17765011983 0.0
0.0 4.727958804 0.178061088464 0.0
0.0 4.729310035 0.178473785661 0.0
0.0 4.730661267 0.178887962119 0.0
0.0 4.732012498 0.179304099562 0.0
0.0 4.73336373 0.179721293881 0.0
0.0 4.734714961 0.180139590843 0.0
0.0 4.736066193 0.180557391342 0.0
0.0 4.737417424 0.180975866087 0.0
0.0 4.738768655 0.181394848938 0.0
0.0 4.740119887 0.181815457911 0.0
0.0 4.741471118 0.182237517823 0.0
0.0 4.74282235 0.18266145524 0.0
0.0 4.744173581 0.183086387146 0.0
0.0 4.745524813 0.183512355374 0.0
0.0 4.746876044 0.183939340453 0.0
0.0 4.748227276 0.184367824165 0.0
0.0 4.749578507 0.184798098818 0.0
0.0 4.750929738 0.185229692038 0.0
0.0 4.75228097 0.185662360033 0.0
0.0 4.753632201 0.186095185333 0.0
0.0 4.754983433 0.186528875458 0.0
0.0 4.756334664 0.186963480085 0.0
0.0 4.757685896 0.187400127365 0.0
0.0 4.759037127 0.187838355919 0.0
0.0 4.760388358 0.188278607568 0.0
0.0 4.76173959 0.188719670939 0.0
0.0 4.763090821 0.189161621046 0.0
0.0 4.764442053 0.189603098936 0.0
0.0 4.765793284 0.190045699221 0.0
0.0 4.767144516 0.190489411125 0.0
0.0 4.768495747 0.190935039869 0.0
0.0 4.769846979 0.191381904546 0.0
0.0 4.77119821 0.191829555835 0.0
0.0 4.772549441 0.1922781962 0.0
0.0 4.773900673 0.192727894194 0.0
0.0 4.775251904 0.193179601001 0.0
0.0 4.776603136 0.193632387854 0.0
0.0 4.777954367 0.194086048172 0.0
0.0 4.779305599 0.194540255215 0.0
0.0 4.78065683 0.19499553668 0.0
0.0 4.782008061 0.195453779407 0.0
0.0 4.783359293 0.19591400793 0.0
0.0 4.784710524 0.196376769461 0.0
0.0 4.786061756 0.196839356738 0.0
0.0 4.787412987 0.197302305576 0.0
0.0 4.788764219 0.19776417616 0.0
0.0 4.79011545 0.19822754219 0.0
0.0 4.791466682 0.198692345272 0.0
0.0 4.792817913 0.199159829428 0.0
0.0 4.794169144 0.199628722389 0.0
0.0 4.795520376 0.200098846391 0.0
0.0 4.796871607 0.200569866818 0.0
0.0 4.798222839 0.201041872783 0.0
0.0 4.79957407 0.201514901997 0.0
0.0 4.800925302 0.201988945958 0.0
0.0 4.802276533 0.202463821413 0.0
0.0 4.803627764 0.202939506217 0.0
0.0 4.804978996 0.203416240047 0.0
0.0 4.806330227 0.203894310432 0.0
0.0 4.807681459 0.204373877998 0.0
0.0 4.80903269 0.204855109976 0.0
0.0 4.810383922 0.20533776201 0.0
0.0 4.811735153 0.20582166587 0.0
0.0 4.813086385 0.206306255386 0.0
0.0 4.814437616 0.206791959901 0.0
0.0 4.815788847 0.207278753249 0.0
0.0 4.817140079 0.207767127115 0.0
0.0 4.81849131 0.208256787589 0.0
0.0 4.819842542 0.208747408853 0.0
0.0 4.821193773 0.209238935024 0.0
0.0 4.822545005 0.209731340838 0.0
0.0 4.823896236 0.21022512244 0.0
0.0 4.825247468 0.21072026422 0.0
0.0 4.826598699 0.211217173282 0.0
0.0 4.82794993 0.211715688086 0.0
0.0 4.829301162 0.212215901956 0.0
0.0 4.830652393 0.212717625383 0.0
0.0 4.832003625 0.21322055049 0.0
0.0 4.833354856 0.213723671392 0.0
0.0 4.834706088 0.214227528163 0.0
0.0 4.836057319 0.21473210153 0.0
0.0 4.83740855 0.215238380033 0.0
0.0 4.838759782 0.215746060084 0.0
0.0 4.840111013 0.21625538537 0.0
0.0 4.841462245 0.216765588546 0.0
0.0 4.842813476 0.217276623581 0.0
0.0 4.844164708 0.217787935177 0.0
0.0 4.845515939 0.218300375831 0.0
0.0 4.846867171 0.218813997545 0.0
0.0 4.848218402 0.219329741171 0.0
0.0 4.849569633 0.219847611174 0.0
0.0 4.850920865 0.22036755106 0.0
0.0 4.852272096 0.220889123493 0.0
0.0 4.853623328 0.221411584565 0.0
0.0 4.854974559 0.221935226202 0.0
0.0 4.856325791 0.222459931518 0.0
0.0 4.857677022 0.222985333128 0.0
0.0 4.859028253 0.223511699429 0.0
0.0 4.860379485 0.224038018415 0.0
0.0 4.861730716 0.224565660379 0.0
0.0 4.863081948 0.225094603688 0.0
0.0 4.864433179 0.225625213648 0.0
0.0 4.865784411 0.226157269728 0.0
0.0 4.867135642 0.226690787317 0.0
0.0 4.868486874 0.227225775 0.0
0.0 4.869838105 0.227762588909 0.0
0.0 4.871189336 0.228300715447 0.0
0.0 4.872540568 0.228840154676 0.0
0.0 4.873891799 0.229380107237 0.0
0.0 4.875243031 0.229921212321 0.0
0.0 4.876594262 0.230463557084 0.0
0.0 4.877945494 0.231007144852 0.0
0.0 4.879296725 0.231551969561 0.0
0.0 4.880647956 0.232097767833 0.0
0.0 4.881999188 0.232644788774 0.0
0.0 4.883350419 0.233193230501 0.0
0.0 4.884701651 0.233742911168 0.0
0.0 4.886052882 0.234293820447 0.0
0.0 4.887404114 0.23484625215 0.0
0.0 4.888755345 0.235400054596 0.0
0.0 4.890106577 0.235956143864 0.0
0.0 4.891457808 0.236513481366 0.0
0.0 4.892809039 0.237071766312 0.0
0.0 4.894160271 0.237630783245 0.0
0.0 4.895511502 0.238190647736 0.0
0.0 4.896862734 0.238751444381 0.0
0.0 4.898213965 0.239313198328 0.0
0.0 4.899565197 0.239874964171 0.0
0.0 4.900916428 0.240437549621 0.0
0.0 4.90226766 0.241001599849 0.0
0.0 4.903618891 0.241568680357 0.0
0.0 4.904970122 0.242137436252 0.0
0.0 4.906321354 0.242708877317 0.0
0.0 4.907672585 0.243281791593 0.0
0.0 4.909023817 0.243855125653 0.0
0.0 4.910375048 0.244428873421 0.0
0.0 4.91172628 0.245003353396 0.0
0.0 4.913077511 0.24557841914 0.0
0.0 4.914428742 0.246155268855 0.0
0.0 4.915779974 0.246733845365 0.0
0.0 4.917131205 0.247314131625 0.0
0.0 4.918482437 0.247896093347 0.0
0.0 4.919833668 0.248479319647 0.0
0.0 4.9211849 0.249063828152 0.0
0.0 4.922536131 0.249649798853 0.0
0.0 4.923887363 0.250237027029 0.0
0.0 4.925238594 0.250825088386 0.0
0.0 4.926589825 0.251412686757 0.0
0.0 4.927941057 0.252003151248 0.0
0.0 4.929292288 0.252595172191 0.0
0.0 4.93064352 0.253188487998 0.0
0.0 4.931994751 0.253783096084 0.0
0.0 4.933345983 0.254378998389 0.0
0.0 4.934697214 0.254976195096 0.0
0.0 4.936048445 0.255574687708 0.0
0.0 4.937399677 0.25617447773 0.0
0.0 4.938750908 0.256775565338 0.0
0.0 4.94010214 0.257377952482 0.0
0.0 4.941453371 0.257981639337 0.0
0.0 4.942804603 0.258586627857 0.0
0.0 4.944155834 0.259192918205 0.0
0.0 4.945507066 0.259800512343 0.0
0.0 4.946858297 0.260409410435 0.0
0.0 4.948209528 0.261019636263 0.0
0.0 4.94956076 0.261631609701 0.0
0.0 4.950911991 0.262244794808 0.0
0.0 4.952263223 0.262858407037 0.0
0.0 4.953614454 0.263473510962 0.0
0.0 4.954965686 0.264090252309 0.0
0.0 4.956316917 0.26470831097 0.0
0.0 4.957668148 0.265327682531 0.0
0.0 4.95901938 0.265948368517 0.0
0.0 4.960370611 0.26657036907 0.0
0.0 4.961721843 0.267193686173 0.0
0.0 4.963073074 0.267818319967 0.0
0.0 4.964424306 0.268444272437 0.0
0.0 4.965775537 0.269071543721 0.0
0.0 4.967126769 0.269700135807 0.0
0.0 4.968478 0.270330049144 0.0
0.0 4.969829231 0.27096137619 0.0
0.0 4.971180463 0.271595528475 0.0
0.0 4.972531694 0.27223002942 0.0
0.0 4.973882926 0.272864163303 0.0
0.0 4.975234157 0.273499746564 0.0
0.0 4.976585389 0.274137378448 0.0
0.0 4.97793662 0.274777134044 0.0
0.0 4.979287852 0.275418433142 0.0
0.0 4.980639083 0.276061365331 0.0
0.0 4.981990314 0.276704128058 0.0
0.0 4.983341546 0.27734837098 0.0
0.0 4.984692777 0.277994068297 0.0
0.0 4.986044009 0.278641225006 0.0
0.0 4.98739524 0.279289773355 0.0
0.0 4.988746472 0.279938769143 0.0
0.0 4.990097703 0.280589534514 0.0
0.0 4.991448934 0.281241874042 0.0
0.0 4.992800166 0.281895737773 0.0
0.0 4.994151397 0.282551271201 0.0
0.0 4.995502629 0.283208375358 0.0
0.0 4.99685386 0.283866630085 0.0
0.0 4.998205092 0.284526387663 0.0
0.0 4.999556323 0.285187700233 0.0
0.0 5.000907555 0.285849450738 0.0
0.0 5.002258786 0.286512255348 0.0
0.0 5.003610017 0.287175889083 0.0
0.0 5.004961249 0.287841738416 0.0
0.0 5.00631248 0.288509655395 0.0
0.0 5.007663712 0.289179104753 0.0
0.0 5.009014943 0.289850113879 0.0
0.0 5.010366175 0.290520944684 0.0
0.0 5.011717406 0.291193018527 0.0
0.0 5.013068637 0.29186635947 0.0
0.0 5.014419869 0.292541526692 0.0
0.0 5.0157711 0.293218467261 0.0
0.0 5.017122332 0.29389609042 0.0
0.0 5.018473563 0.294575495034 0.0
0.0 5.019824795 0.295256405866 0.0
0.0 5.021176026 0.295938682146 0.0
0.0 5.022527258 0.296622322827 0.0
0.0 5.023878489 0.297307327959 0.0
0.0 5.02522972 0.29799369911 0.0
0.0 5.026580952 0.298681439629 0.0
0.0 5.027932183 0.299370604509 0.0
0.0 5.029283415 0.300061428889 0.0
0.0 5.030634646 0.300753681295 0.0
0.0 5.031985878 0.30144747782 0.0
0.0 5.033337109 0.302142876913 0.0
0.0 5.034688341 0.302839591909 0.0
0.0 5.036039572 0.303537781053 0.0
0.0 5.037390803 0.304236489413 0.0
0.0 5.038742035 0.304936509994 0.0
0.0 5.040093266 0.305637708247 0.0
0.0 5.041444498 0.306340502353 0.0
0.0 5.042795729 0.307044962351 0.0
0.0 5.044146961 0.307750766778 0.0
0.0 5.045498192 0.308457927466 0.0
0.0 5.046849423 0.309166346341 0.0
0.0 5.048200655 0.309876115606 0.0
0.0 5.049551886 0.310587449204 0.0
0.0 5.050903118 0.31130017935 0.0
0.0 5.052254349 0.312014279512 0.0
0.0 5.053605581 0.312729714372 0.0
0.0 5.054956812 0.313446416128 0.0
0.0 5.056308044 0.314164273339 0.0
0.0 5.057659275 0.314883325547 0.0
0.0 5.059010506 0.315603621031 0.0
0.0 5.060361738 0.316325317005 0.0
0.0 5.061712969 0.317049193395 0.0
0.0 5.063064201 0.317774638289 0.0
0.0 5.064415432 0.318502014933 0.0
0.0 5.065766664 0.31923075435 0.0
0.0 5.067117895 0.319959889087 0.0
0.0 5.068469126 0.320689668414 0.0
0.0 5.069820358 0.321420095739 0.0
0.0 5.071171589 0.322151537639 0.0
0.0 5.072522821 0.322885670592 0.0
0.0 5.073874052 0.323622027045 0.0
0.0 5.075225284 0.324360674367 0.0
0.0 5.076576515 0.325100914699 0.0
0.0 5.077927747 0.325842938228 0.0
0.0 5.079278978 0.32658436275 0.0
0.0 5.080630209 0.32732709836 0.0
0.0 5.081981441 0.328070817724 0.0
0.0 5.083332672 0.328816567664 0.0
0.0 5.084683904 0.329564434377 0.0
0.0 5.086035135 0.33031373328 0.0
0.0 5.087386367 0.331064449058 0.0
0.0 5.088737598 0.331816211109 0.0
0.0 5.090088829 0.332569180003 0.0
0.0 5.091440061 0.333323932637 0.0
0.0 5.092791292 0.33408021732 0.0
0.0 5.094142524 0.334838089418 0.0
0.0 5.095493755 0.3355973974 0.0
0.0 5.096844987 0.33635757344 0.0
0.0 5.098196218 0.337119116108 0.0
0.0 5.09954745 0.337881915459 0.0
