0.0 2.00368257 1.0 0.0
0.0 2.005290662 1.0 0.0
0.0 2.006898754 1.0 0.0
0.0 2.008506846 1.0 0.0
0.0 2.010114938 1.0 0.0
0.0 2.01172303 1.0 0.0
0.0 2.013331122 1.0 0.0
0.0 2.014939214 1.0 0.0
0.0 2.016547306 1.0 0.0
0.0 2.018155398 1.0 0.0
0.0 2.01976349 1.0 0.0
0.0 2.021371582 1.0 0.0
0.0 2.022979674 1.0 0.0
0.0 2.024587766 1.0 0.0
0.0 2.026195858 1.0 0.0
0.0 2.027803949 1.0 0.0
0.0 2.029412041 1.0 0.0
0.0 2.031020133 1.0 0.0
0.0 2.032628225 1.0 0.0
0.0 2.034236317 1.0 0.0
0.0 2.035844409 1.0 0.0
0.0 2.037452501 1.0 0.0
0.0 2.039060593 1.0 0.0
0.0 2.040668685 1.0 0.0
0.0 2.042276777 1.0 0.0
0.0 2.043884869 1.0 0.0
0.0 2.045492961 1.0 0.0
0.0 2.047101053 1.0 0.0
0.0 2.048709145 1.0 0.0
0.0 2.050317237 1.0 0.0
0.0 2.051925329 1.0 0.0
0.0 2.053533421 1.0 0.0
0.0 2.055141513 1.0 0.0
0.0 2.056749605 1.0 0.0
0.0 2.058357697 1.0 0.0
0.0 2.059965788 1.0 0.0
0.0 2.06157388 1.0 0.0
0.0 2.063181972 1.0 0.0
0.0 2.064790064 1.0 0.0
0.0 2.066398156 1.0 0.0
0.0 2.068006248 1.0 0.0
0.0 2.06961434 1.0 0.0
0.0 2.071222432 1.0 0.0
0.0 2.072830524 1.0 0.0
0.0 2.074438616 1.0 0.0
0.0 2.076046708 1.0 0.0
0.0 2.0776548 1.0 0.0
0.0 2.079262892 1.0 0.0
0.0 2.080870984 1.0 0.0
0.0 2.082479076 1.0 0.0
0.0 2.084087168 1.0 0.0
0.0 2.08569526 1.0 0.0
0.0 2.087303352 1.0 0.0
0.0 2.088911444 1.0 0.0
0.0 2.090519536 1.0 0.0
0.0 2.092127627 1.0 0.0
0.0 2.093735719 1.0 0.0
0.0 2.095343811 1.0 0.0
0.0 2.096951903 1.0 0.0
0.0 2.098559995 1.0 0.0
0.0 2.100168087 1.0 0.0
0.0 2.101776179 1.0 0.0
0.0 2.103384271 1.0 0.0
0.0 2.104992363 1.0 0.0
0.0 2.106600455 1.0 0.0
0.0 2.108208547 1.0 0.0
0.0 2.109816639 1.0 0.0
0.0 2.111424731 1.0 0.0
0.0 2.113032823 1.0 0.0
0.0 2.114640915 1.0 0.0
0.0 2.116249007 1.0 0.0
0.0 2.117857099 1.0 0.0
0.0 2.119465191 1.0 0.0
0.0 2.121073283 1.0 0.0
0.0 2.122681375 1.0 0.0
0.0 2.124289466 1.0 0.0
0.0 2.125897558 1.0 0.0
0.0 2.12750565 1.0 0.0
0.0 2.129113742 1.0 0.0
0.0 2.130721834 1.0 0.0
0.0 2.132329926 1.0 0.0
0.0 2.133938018 1.0 0.0
0.0 2.13554611 1.0 0.0
0.0 2.137154202 1.0 0.0
0.0 2.138762294 1.0 0.0
0.0 2.140370386 1.0 0.0
0.0 2.141978478 1.0 0.0
0.0 2.14358657 1.0 0.0
0.0 2.145194662 1.0 0.0
0.0 2.146802754 1.0 0.0
0.0 2.148410846 1.0 0.0
0.0 2.150018938 1.0 0.0
0.0 2.15162703 1.0 0.0
0.0 2.153235122 1.0 0.0
0.0 2.154843214 1.0 0.0
0.0 2.156451305 1.0 0.0
0.0 2.158059397 1.0 0.0
0.0 2.159667489 1.0 0.0
0.0 2.161275581 1.0 0.0
0.0 2.162883673 1.0 0.0
0.0 2.164491765 1.0 0.0
0.0 2.166099857 1.0 0.0
0.0 2.167707949 1.0 0.0
0.0 2.169316041 1.0 0.0
0.0 2.170924133 1.0 0.0
0.0 2.172532225 1.0 0.0
0.0 2.174140317 1.0 0.0
0.0 2.175748409 1.0 0.0
0.0 2.177356501 1.0 0.0
0.0 2.178964593 1.0 0.0
0.0 2.180572685 1.0 0.0
0.0 2.182180777 1.0 0.0
0.0 2.183788869 1.0 0.0
0.0 2.185396961 1.0 0.0
0.0 2.187005053 1.0 0.0
0.0 2.188613145 1.0 0.0
0.0 2.190221236 1.0 0.0
0.0 2.191829328 1.0 0.0
0.0 2.19343742 1.0 0.0
0.0 2.195045512 1.0 0.0
0.0 2.196653604 1.0 0.0
0.0 2.198261696 1.0 0.0
0.0 2.199869788 1.0 0.0
0.0 2.20147788 1.0 0.0
0.0 2.203085972 1.0 0.0
0.0 2.204694064 1.0 0.0
0.0 2.206302156 1.0 0.0
0.0 2.207910248 1.0 0.0
0.0 2.20951834 1.0 0.0
0.0 2.211126432 1.0 0.0
0.0 2.212734524 1.0 0.0
0.0 2.214342616 1.0 0.0
0.0 2.215950708 1.0 0.0
0.0 2.2175588 1.0 0.0
0.0 2.219166892 1.0 0.0
0.0 2.220774984 1.0 0.0
0.0 2.222383075 1.0 0.0
0.0 2.223991167 1.0 0.0
0.0 2.225599259 1.0 0.0
0.0 2.227207351 1.0 0.0
0.0 2.228815443 1.0 0.0
0.0 2.230423535 1.0 0.0
0.0 2.232031627 1.0 0.0
0.0 2.233639719 1.0 0.0
0.0 2.235247811 1.0 0.0
0.0 2.236855903 1.0 0.0
0.0 2.238463995 1.0 0.0
0.0 2.240072087 1.0 0.0
0.0 2.241680179 1.0 0.0
0.0 2.243288271 1.0 0.0
0.0 2.244896363 1.0 0.0
0.0 2.246504455 1.0 0.0
0.0 2.248112547 1.0 0.0
0.0 2.249720639 1.0 0.0
0.0 2.251328731 1.0 0.0
0.0 2.252936823 1.0 0.0
0.0 2.254544914 1.0 0.0
0.0 2.256153006 1.0 0.0
0.0 2.257761098 1.0 0.0
0.0 2.25936919 1.0 0.0
0.0 2.260977282 1.0 0.0
0.0 2.262585374 1.0 0.0
0.0 2.264193466 1.0 0.0
0.0 2.265801558 1.0 0.0
0.0 2.26740965 1.0 0.0
0.0 2.269017742 1.0 0.0
0.0 2.270625834 1.0 0.0
0.0 2.272233926 1.0 0.0
0.0 2.273842018 1.0 0.0
0.0 2.27545011 1.0 0.0
0.0 2.277058202 1.0 0.0
0.0 2.278666294 1.0 0.0
0.0 2.280274386 1.0 0.0
0.0 2.281882478 1.0 0.0
0.0 2.28349057 1.0 0.0
0.0 2.285098662 1.0 0.0
0.0 2.286706753 1.0 0.0
0.0 2.288314845 1.0 0.0
0.0 2.289922937 1.0 0.0
0.0 2.291531029 1.0 0.0
0.0 2.293139121 1.0 0.0
0.0 2.294747213 1.0 0.0
0.0 2.296355305 1.0 0.0
0.0 2.297963397 1.0 0.0
0.0 2.299571489 1.0 0.0
0.0 2.301179581 1.0 0.0
0.0 2.302787673 1.0 0.0
0.0 2.304395765 1.0 0.0
0.0 2.306003857 1.0 0.0
0.0 2.307611949 1.0 0.0
0.0 2.309220041 1.0 0.0
0.0 2.310828133 1.0 0.0
0.0 2.312436225 1.0 0.0
0.0 2.314044317 1.0 0.0
0.0 2.315652409 1.0 0.0
0.0 2.317260501 1.0 0.0
0.0 2.318868592 1.0 0.0
0.0 2.320476684 1.0 0.0
0.0 2.322084776 1.0 0.0
0.0 2.323692868 1.0 0.0
0.0 2.32530096 1.0 0.0
0.0 2.326909052 1.0 0.0
0.0 2.328517144 1.0 0.0
0.0 2.330125236 1.0 0.0
0.0 2.331733328 1.0 0.0
0.0 2.33334142 1.0 0.0
0.0 2.334949512 1.0 0.0
0.0 2.336557604 1.0 0.0
0.0 2.338165696 1.0 0.0
0.0 2.339773788 1.0 0.0
0.0 2.34138188 1.0 0.0
0.0 2.342989972 1.0 0.0
0.0 2.344598064 1.0 0.0
0.0 2.346206156 1.0 0.0
0.0 2.347814248 1.0 0.0
0.0 2.34942234 1.0 0.0
0.0 2.351030431 1.0 0.0
0.0 2.352638523 1.0 0.0
0.0 2.354246615 1.0 0.0
0.0 2.355854707 1.0 0.0
0.0 2.357462799 1.0 0.0
0.0 2.359070891 1.0 0.0
0.0 2.360678983 1.0 0.0
0.0 2.362287075 1.0 0.0
0.0 2.363895167 1.0 0.0
0.0 2.365503259 1.0 0.0
0.0 2.367111351 1.0 0.0
0.0 2.368719443 1.0 0.0
0.0 2.370327535 1.0 0.0
0.0 2.371935627 1.0 0.0
0.0 2.373543719 1.0 0.0
0.0 2.375151811 1.0 0.0
0.0 2.376759903 1.0 0.0
0.0 2.378367995 1.0 0.0
0.0 2.379976087 1.0 0.0
0.0 2.381584179 1.0 0.0
0.0 2.383192271 1.0 0.0
0.0 2.384800362 1.0 0.0
0.0 2.386408454 1.0 0.0
0.0 2.388016546 1.0 0.0
0.0 2.389624638 1.0 0.0
0.0 2.39123273 1.0 0.0
0.0 2.392840822 1.0 0.0
0.0 2.394448914 1.0 0.0
0.0 2.396057006 1.0 0.0
0.0 2.397665098 1.0 0.0
0.0 2.39927319 1.0 0.0
0.0 2.400881282 1.0 0.0
0.0 2.402489374 1.0 0.0
0.0 2.404097466 1.0 0.0
0.0 2.405705558 1.0 0.0
0.0 2.40731365 1.0 0.0
0.0 2.408921742 1.0 0.0
0.0 2.410529834 1.0 0.0
0.0 2.412137926 1.0 0.0
0.0 2.413746018 1.0 0.0
0.0 2.41535411 1.0 0.0
0.0 2.416962201 1.0 0.0
0.0 2.418570293 1.0 0.0
0.0 2.420178385 1.0 0.0
0.0 2.421786477 1.0 0.0
0.0 2.423394569 1.0 0.0
0.0 2.425002661 1.0 0.0
0.0 2.426610753 1.0 0.0
0.0 2.428218845 1.0 0.0
0.0 2.429826937 1.0 0.0
0.0 2.431435029 1.0 0.0
0.0 2.433043121 1.0 0.0
0.0 2.434651213 1.0 0.0
0.0 2.436259305 1.0 0.0
0.0 2.437867397 1.0 0.0
0.0 2.439475489 1.0 0.0
0.0 2.441083581 1.0 0.0
0.0 2.442691673 1.0 0.0
0.0 2.444299765 1.0 0.0
0.0 2.445907857 1.0 0.0
0.0 2.447515949 1.0 0.0
0.0 2.44912404 1.0 0.0
0.0 2.450732132 1.0 0.0
0.0 2.452340224 1.0 0.0
0.0 2.453948316 1.0 0.0
0.0 2.455556408 1.0 0.0
0.0 2.4571645 1.0 0.0
0.0 2.458772592 1.0 0.0
0.0 2.460380684 1.0 0.0
0.0 2.461988776 1.0 0.0
0.0 2.463596868 1.0 0.0
0.0 2.46520496 1.0 0.0
0.0 2.466813052 1.0 0.0
0.0 2.468421144 1.0 0.0
0.0 2.470029236 1.0 0.0
0.0 2.471637328 1.0 0.0
0.0 2.47324542 1.0 0.0
0.0 2.474853512 1.0 0.0
0.0 2.476461604 1.0 0.0
0.0 2.478069696 1.0 0.0
0.0 2.479677788 1.0 0.0
0.0 2.481285879 1.0 0.0
0.0 2.482893971 1.0 0.0
0.0 2.484502063 1.0 0.0
0.0 2.486110155 1.0 0.0
0.0 2.487718247 1.0 0.0
0.0 2.489326339 1.0 0.0
0.0 2.490934431 1.0 0.0
0.0 2.492542523 1.0 0.0
0.0 2.494150615 1.0 0.0
0.0 2.495758707 1.0 0.0
0.0 2.497366799 1.0 0.0
0.0 2.498974891 1.0 0.0
0.0 2.499778162 1.0 0.0
0.0 2.501129393 1.0 0.0
0.0 2.502480624 1.0 0.0
0.0 2.503831856 1.0 0.0
0.0 2.505183087 1.0 0.0
0.0 2.506534319 1.0 0.0
0.0 2.50788555 1.0 0.0
0.0 2.509236782 1.0 0.0
0.0 2.510588013 1.0 0.0
0.0 2.511939244 1.0 0.0
0.0 2.513290476 1.0 0.0
0.0 2.514641707 1.0 0.0
0.0 2.515992939 1.0 0.0
0.0 2.51734417 1.0 0.0
0.0 2.518695402 1.0 0.0
0.0 2.520046633 1.0 0.0
0.0 2.521397865 1.0 0.0
0.0 2.522749096 1.0 0.0
0.0 2.524100327 1.0 0.0
0.0 2.525451559 1.0 0.0
0.0 2.52680279 1.0 0.0
0.0 2.528154022 1.0 0.0
0.0 2.529505253 1.0 0.0
0.0 2.530856485 1.0 0.0
0.0 2.532207716 1.0 0.0
0.0 2.533558948 1.0 0.0
0.0 2.534910179 1.0 0.0
0.0 2.53626141 1.0 0.0
0.0 2.537612642 1.0 0.0
0.0 2.538963873 1.0 0.0
0.0 2.540315105 1.0 0.0
0.0 2.541666336 1.0 0.0
0.0 2.543017568 1.0 0.0
0.0 2.544368799 1.0 0.0
0.0 2.54572003 1.0 0.0
0.0 2.547071262 1.0 0.0
0.0 2.548422493 1.0 0.0
0.0 2.549773725 1.0 0.0
0.0 2.551124956 1.0 0.0
0.0 2.552476188 1.0 0.0
0.0 2.553827419 1.0 0.0
0.0 2.555178651 1.0 0.0
0.0 2.556529882 1.0 0.0
0.0 2.557881113 1.0 0.0
0.0 2.559232345 1.0 0.0
0.0 2.560583576 1.0 0.0
0.0 2.561934808 1.0 0.0
0.0 2.563286039 1.0 0.0
0.0 2.564637271 1.0 0.0
0.0 2.565988502 1.0 0.0
0.0 2.567339733 1.0 0.0
0.0 2.568690965 1.0 0.0
0.0 2.570042196 1.0 0.0
0.0 2.571393428 1.0 0.0
0.0 2.572744659 1.0 0.0
0.0 2.574095891 1.0 0.0
0.0 2.575447122 1.0 0.0
0.0 2.576798354 1.0 0.0
0.0 2.578149585 1.0 0.0
0.0 2.579500816 1.0 0.0
0.0 2.580852048 1.0 0.0
0.0 2.582203279 1.0 0.0
0.0 2.583554511 1.0 0.0
0.0 2.584905742 1.0 0.0
0.0 2.586256974 1.0 0.0
0.0 2.587608205 1.0 0.0
0.0 2.588959437 1.0 0.0
0.0 2.590310668 1.0 0.0
0.0 2.591661899 1.0 0.0
0.0 2.593013131 1.0 0.0
0.0 2.594364362 1.0 0.0
0.0 2.595715594 1.0 0.0
0.0 2.597066825 1.0 0.0
0.0 2.598418057 1.0 0.0
0.0 2.599769288 1.0 0.0
0.0 2.601120519 1.0 0.0
0.0 2.602471751 1.0 0.0
0.0 2.603822982 1.0 0.0
0.0 2.605174214 1.0 0.0
0.0 2.606525445 1.0 0.0
0.0 2.607876677 1.0 0.0
0.0 2.609227908 1.0 0.0
0.0 2.61057914 1.0 0.0
0.0 2.611930371 1.0 0.0
0.0 2.613281602 1.0 0.0
0.0 2.614632834 1.0 0.0
0.0 2.615984065 1.0 0.0
0.0 2.617335297 1.0 0.0
0.0 2.618686528 1.0 0.0
0.0 2.62003776 1.0 0.0
0.0 2.621388991 1.0 0.0
0.0 2.622740222 1.0 0.0
0.0 2.624091454 1.0 0.0
0.0 2.625442685 1.0 0.0
0.0 2.626793917 1.0 0.0
0.0 2.628145148 1.0 0.0
0.0 2.62949638 1.0 0.0
0.0 2.630847611 1.0 0.0
0.0 2.632198843 1.0 0.0
0.0 2.633550074 1.0 0.0
0.0 2.634901305 1.0 0.0
0.0 2.636252537 1.0 0.0
0.0 2.637603768 1.0 0.0
0.0 2.638955 1.0 0.0
0.0 2.640306231 1.0 0.0
0.0 2.641657463 1.0 0.0
0.0 2.643008694 1.0 0.0
0.0 2.644359925 1.0 0.0
0.0 2.645711157 1.0 0.0
0.0 2.647062388 1.0 0.0
0.0 2.64841362 1.0 0.0
0.0 2.649764851 1.0 0.0
0.0 2.651116083 1.0 0.0
0.0 2.652467314 1.0 0.0
0.0 2.653818546 1.0 0.0
0.0 2.655169777 1.0 0.0
0.0 2.656521008 1.0 0.0
0.0 2.65787224 1.0 0.0
0.0 2.659223471 1.0 0.0
0.0 2.660574703 1.0 0.0
0.0 2.661925934 1.0 0.0
0.0 2.663277166 1.0 0.0
0.0 2.664628397 1.0 0.0
0.0 2.665979629 1.0 0.0
0.0 2.66733086 1.0 0.0
0.0 2.668682091 1.0 0.0
0.0 2.670033323 1.0 0.0
0.0 2.671384554 1.0 0.0
0.0 2.672735786 1.0 0.0
0.0 2.674087017 1.0 0.0
0.0 2.675438249 1.0 0.0
0.0 2.67678948 1.0 0.0
0.0 2.678140711 1.0 0.0
0.0 2.679491943 1.0 0.0
0.0 2.680843174 1.0 0.0
0.0 2.682194406 1.0 0.0
0.0 2.683545637 1.0 0.0
0.0 2.684896869 1.0 0.0
0.0 2.6862481 1.0 0.0
0.0 2.687599332 1.0 0.0
0.0 2.688950563 1.0 0.0
0.0 2.690301794 1.0 0.0
0.0 2.691653026 1.0 0.0
0.0 2.693004257 1.0 0.0
0.0 2.694355489 1.0 0.0
0.0 2.69570672 1.0 0.0
0.0 2.697057952 1.0 0.0
0.0 2.698409183 1.0 0.0
0.0 2.699760414 1.0 0.0
0.0 2.701111646 1.0 0.0
0.0 2.702462877 1.0 0.0
0.0 2.703814109 1.0 0.0
0.0 2.70516534 1.0 0.0
0.0 2.706516572 1.0 0.0
0.0 2.707867803 1.0 0.0
0.0 2.709219035 1.0 0.0
0.0 2.710570266 1.0 0.0
0.0 2.711921497 1.0 0.0
0.0 2.713272729 1.0 0.0
0.0 2.71462396 1.0 0.0
0.0 2.715975192 1.0 0.0
0.0 2.717326423 1.0 0.0
0.0 2.718677655 1.0 0.0
0.0 2.720028886 1.0 0.0
0.0 2.721380117 1.0 0.0
0.0 2.722731349 1.0 0.0
0.0 2.72408258 1.0 0.0
0.0 2.725433812 1.0 0.0
0.0 2.726785043 1.0 0.0
0.0 2.728136275 1.0 0.0
0.0 2.729487506 1.0 0.0
0.0 2.730838738 1.0 0.0
0.0 2.732189969 1.0 0.0
0.0 2.7335412 1.0 0.0
0.0 2.734892432 1.0 0.0
0.0 2.736243663 1.0 0.0
0.0 2.737594895 1.0 0.0
0.0 2.738946126 1.0 0.0
0.0 2.740297358 1.0 0.0
0.0 2.741648589 1.0 0.0
0.0 2.742999821 1.0 0.0
0.0 2.744351052 1.0 0.0
0.0 2.745702283 1.0 0.0
0.0 2.747053515 1.0 0.0
0.0 2.748404746 1.0 0.0
0.0 2.749755978 1.0 0.0
0.0 2.751107209 1.0 0.0
0.0 2.752458441 1.0 0.0
0.0 2.753809672 1.0 0.0
0.0 2.755160903 1.0 0.0
0.0 2.756512135 1.0 0.0
0.0 2.757863366 1.0 0.0
0.0 2.759214598 1.0 0.0
0.0 2.760565829 1.0 0.0
0.0 2.761917061 1.0 0.0
0.0 2.763268292 1.0 0.0
0.0 2.764619524 1.0 0.0
0.0 2.765970755 1.0 0.0
0.0 2.767321986 1.0 0.0
0.0 2.768673218 1.0 0.0
0.0 2.770024449 1.0 0.0
0.0 2.771375681 1.0 0.0
0.0 2.772726912 1.0 0.0
0.0 2.774078144 1.0 0.0
0.0 2.775429375 1.0 0.0
0.0 2.776780606 1.0 0.0
0.0 2.778131838 1.0 0.0
0.0 2.779483069 1.0 0.0
0.0 2.780834301 1.0 0.0
0.0 2.782185532 1.0 0.0
0.0 2.783536764 1.0 0.0
0.0 2.784887995 1.0 0.0
0.0 2.786239227 1.0 0.0
0.0 2.787590458 1.0 0.0
0.0 2.788941689 1.0 0.0
0.0 2.790292921 1.0 0.0
0.0 2.791644152 1.0 0.0
0.0 2.792995384 1.0 0.0
0.0 2.794346615 1.0 0.0
0.0 2.795697847 1.0 0.0
0.0 2.797049078 1.0 0.0
0.0 2.798400309 1.0 0.0
0.0 2.799751541 1.0 0.0
0.0 2.801102772 1.0 0.0
0.0 2.802454004 1.0 0.0
0.0 2.803805235 1.0 0.0
0.0 2.805156467 1.0 0.0
0.0 2.806507698 1.0 0.0
0.0 2.80785893 1.0 0.0
0.0 2.809210161 1.0 0.0
0.0 2.810561392 1.0 0.0
0.0 2.811912624 1.0 0.0
0.0 2.813263855 1.0 0.0
0.0 2.814615087 1.0 0.0
0.0 2.815966318 1.0 0.0
0.0 2.81731755 1.0 0.0
0.0 2.818668781 1.0 0.0
0.0 2.820020013 1.0 0.0
0.0 2.821371244 1.0 0.0
0.0 2.822722475 1.0 0.0
0.0 2.824073707 1.0 0.0
0.0 2.825424938 1.0 0.0
0.0 2.82677617 1.0 0.0
0.0 2.828127401 1.0 0.0
0.0 2.829478633 1.0 0.0
0.0 2.830829864 1.0 0.0
0.0 2.832181095 1.0 0.0
0.0 2.833532327 1.0 0.0
0.0 2.834883558 1.0 0.0
0.0 2.83623479 1.0 0.0
0.0 2.837586021 1.0 0.0
0.0 2.838937253 1.0 0.0
0.0 2.840288484 1.0 0.0
0.0 2.841639716 1.0 0.0
0.0 2.842990947 1.0 0.0
0.0 2.844342178 1.0 0.0
0.0 2.84569341 1.0 0.0
0.0 2.847044641 1.0 0.0
0.0 2.848395873 1.0 0.0
0.0 2.849747104 1.0 0.0
0.0 2.851098336 1.0 0.0
0.0 2.852449567 1.0 0.0
0.0 2.853800798 1.0 0.0
0.0 2.85515203 1.0 0.0
0.0 2.856503261 1.0 0.0
0.0 2.857854493 1.0 0.0
0.0 2.859205724 1.0 0.0
0.0 2.860556956 1.0 0.0
0.0 2.861908187 1.0 0.0
0.0 2.863259419 1.0 0.0
0.0 2.86461065 1.0 0.0
0.0 2.865961881 1.0 0.0
0.0 2.867313113 1.0 0.0
0.0 2.868664344 1.0 0.0
0.0 2.870015576 1.0 0.0
0.0 2.871366807 1.0 0.0
0.0 2.872718039 1.0 0.0
0.0 2.87406927 1.0 0.0
0.0 2.875420501 1.0 0.0
0.0 2.876771733 1.0 0.0
0.0 2.878122964 1.0 0.0
0.0 2.879474196 1.0 0.0
0.0 2.880825427 1.0 0.0
0.0 2.882176659 1.0 0.0
0.0 2.88352789 1.0 0.0
0.0 2.884879122 1.0 0.0
0.0 2.886230353 1.0 0.0
0.0 2.887581584 1.0 0.0
0.0 2.888932816 1.0 0.0
0.0 2.890284047 1.0 0.0
0.0 2.891635279 1.0 0.0
0.0 2.89298651 1.0 0.0
0.0 2.894337742 1.0 0.0
0.0 2.895688973 1.0 0.0
0.0 2.897040205 1.0 0.0
0.0 2.898391436 1.0 0.0
0.0 2.899742667 1.0 0.0
0.0 2.901093899 1.0 0.0
0.0 2.90244513 1.0 0.0
0.0 2.903796362 1.0 0.0
0.0 2.905147593 1.0 0.0
0.0 2.906498825 1.0 0.0
0.0 2.907850056 1.0 0.0
0.0 2.909201287 1.0 0.0
0.0 2.910552519 1.0 0.0
0.0 2.91190375 1.0 0.0
0.0 2.913254982 1.0 0.0
0.0 2.914606213 1.0 0.0
0.0 2.915957445 1.0 0.0
0.0 2.917308676 1.0 0.0
0.0 2.918659908 1.0 0.0
0.0 2.920011139 1.0 0.0
0.0 2.92136237 1.0 0.0
0.0 2.922713602 1.0 0.0
0.0 2.924064833 1.0 0.0
0.0 2.925416065 1.0 0.0
0.0 2.926767296 1.0 0.0
0.0 2.928118528 1.0 0.0
0.0 2.929469759 1.0 0.0
0.0 2.93082099 1.0 0.0
0.0 2.932172222 1.0 0.0
0.0 2.933523453 1.0 0.0
0.0 2.934874685 1.0 0.0
0.0 2.936225916 1.0 0.0
0.0 2.937577148 1.0 0.0
0.0 2.938928379 1.0 0.0
0.0 2.940279611 1.0 0.0
0.0 2.941630842 1.0 0.0
0.0 2.942982073 1.0 0.0
0.0 2.944333305 1.0 0.0
0.0 2.945684536 1.0 0.0
0.0 2.947035768 1.0 0.0
0.0 2.948386999 1.0 0.0
0.0 2.949738231 1.0 0.0
0.0 2.951089462 1.0 0.0
0.0 2.952440694 1.0 0.0
0.0 2.953791925 1.0 0.0
0.0 2.955143156 1.0 0.0
0.0 2.956494388 1.0 0.0
0.0 2.957845619 1.0 0.0
0.0 2.959196851 1.0 0.0
0.0 2.960548082 1.0 0.0
0.0 2.961899314 1.0 0.0
0.0 2.963250545 1.0 0.0
0.0 2.964601776 1.0 0.0
0.0 2.965953008 1.0 0.0
0.0 2.967304239 1.0 0.0
0.0 2.968655471 1.0 0.0
0.0 2.970006702 1.0 0.0
0.0 2.971357934 1.0 0.0
0.0 2.972709165 1.0 0.0
0.0 2.974060397 1.0 0.0
0.0 2.975411628 1.0 0.0
0.0 2.976762859 1.0 0.0
0.0 2.978114091 1.0 0.0
0.0 2.979465322 1.0 0.0
0.0 2.980816554 1.0 0.0
0.0 2.982167785 1.0 0.0
0.0 2.983519017 1.0 0.0
0.0 2.984870248 1.0 0.0
0.0 2.986221479 1.0 0.0
0.0 2.987572711 1.0 0.0
0.0 2.988923942 1.0 0.0
0.0 2.990275174 1.0 0.0
0.0 2.991626405 1.0 0.0
0.0 2.992977637 1.0 0.0
0.0 2.994328868 1.0 0.0
0.0 2.9956801 1.0 0.0
0.0 2.997031331 1.0 0.0
0.0 2.998382562 1.0 0.0
0.0 2.999733794 1.0 0.0
0.0 3.001085025 1.0 0.0
0.0 3.002436257 1.0 0.0
0.0 3.003787488 1.0 0.0
0.0 3.00513872 1.0 0.0
0.0 3.006489951 1.0 0.0
0.0 3.007841182 1.0 0.0
0.0 3.009192414 1.0 0.0
0.0 3.010543645 1.0 0.0
0.0 3.011894877 1.0 0.0
0.0 3.013246108 1.0 0.0
0.0 3.01459734 1.0 0.0
0.0 3.015948571 1.0 0.0
0.0 3.017299803 1.0 0.0
0.0 3.018651034 1.0 0.0
0.0 3.020002265 1.0 0.0
0.0 3.021353497 1.0 0.0
0.0 3.022704728 1.0 0.0
0.0 3.02405596 1.0 0.0
0.0 3.025407191 1.0 0.0
0.0 3.026758423 1.0 0.0
0.0 3.028109654 1.0 0.0
0.0 3.029460886 1.0 0.0
0.0 3.030812117 1.0 0.0
0.0 3.032163348 1.0 0.0
0.0 3.03351458 1.0 0.0
0.0 3.034865811 1.0 0.0
0.0 3.036217043 1.0 0.0
0.0 3.037568274 1.0 0.0
0.0 3.038919506 1.0 0.0
0.0 3.040270737 1.0 0.0
0.0 3.041621968 1.0 0.0
0.0 3.0429732 1.0 0.0
0.0 3.044324431 1.0 0.0
0.0 3.045675663 1.0 0.0
0.0 3.047026894 1.0 0.0
0.0 3.048378126 1.0 0.0
0.0 3.049729357 1.0 0.0
0.0 3.051080589 1.0 0.0
0.0 3.05243182 1.0 0.0
0.0 3.053783051 1.0 0.0
0.0 3.055134283 1.0 0.0
0.0 3.056485514 1.0 0.0
0.0 3.057836746 1.0 0.0
0.0 3.059187977 1.0 0.0
0.0 3.060539209 1.0 0.0
0.0 3.06189044 1.0 0.0
0.0 3.063241671 1.0 0.0
0.0 3.064592903 1.0 0.0
0.0 3.065944134 1.0 0.0
0.0 3.067295366 1.0 0.0
0.0 3.068646597 1.0 0.0
0.0 3.069997829 1.0 0.0
0.0 3.07134906 1.0 0.0
0.0 3.072700292 1.0 0.0
0.0 3.074051523 1.0 0.0
0.0 3.075402754 1.0 0.0
0.0 3.076753986 1.0 0.0
0.0 3.078105217 1.0 0.0
0.0 3.079456449 1.0 0.0
0.0 3.08080768 1.0 0.0
0.0 3.082158912 1.0 0.0
0.0 3.083510143 1.0 0.0
0.0 3.084861374 1.0 0.0
0.0 3.086212606 1.0 0.0
0.0 3.087563837 1.0 0.0
0.0 3.088915069 1.0 0.0
0.0 3.0902663 1.0 0.0
0.0 3.091617532 1.0 0.0
0.0 3.092968763 1.0 0.0
0.0 3.094319995 1.0 0.0
0.0 3.095671226 1.0 0.0
0.0 3.097022457 1.0 0.0
0.0 3.098373689 1.0 0.0
0.0 3.09972492 1.0 0.0
0.0 3.101076152 1.0 0.0
0.0 3.102427383 1.0 0.0
0.0 3.103778615 1.0 0.0
0.0 3.105129846 1.0 0.0
0.0 3.106481078 1.0 0.0
0.0 3.107832309 1.0 0.0
0.0 3.10918354 1.0 0.0
0.0 3.110534772 1.0 0.0
0.0 3.111886003 1.0 0.0
0.0 3.113237235 1.0 0.0
0.0 3.114588466 1.0 0.0
0.0 3.115939698 1.0 0.0
0.0 3.117290929 1.0 0.0
0.0 3.11864216 1.0 0.0
0.0 3.119993392 1.0 0.0
0.0 3.121344623 1.0 0.0
0.0 3.122695855 1.0 0.0
0.0 3.124047086 1.0 0.0
0.0 3.125398318 1.0 0.0
0.0 3.126749549 1.0 0.0
0.0 3.128100781 1.0 0.0
0.0 3.129452012 1.0 0.0
0.0 3.130803243 1.0 0.0
0.0 3.132154475 1.0 0.0
0.0 3.133505706 1.0 0.0
0.0 3.134856938 1.0 0.0
0.0 3.136208169 1.0 0.0
0.0 3.137559401 1.0 0.0
0.0 3.138910632 1.0 0.0
0.0 3.140261863 1.0 0.0
0.0 3.141613095 1.0 0.0
0.0 3.142964326 1.0 0.0
0.0 3.144315558 1.0 0.0
0.0 3.145666789 1.0 0.0
0.0 3.147018021 1.0 0.0
0.0 3.148369252 1.0 0.0
0.0 3.149720484 1.0 0.0
0.0 3.151071715 1.0 0.0
0.0 3.152422946 1.0 0.0
0.0 3.153774178 1.0 0.0
0.0 3.155125409 1.0 0.0
0.0 3.156476641 1.0 0.0
0.0 3.157827872 1.0 0.0
0.0 3.159179104 1.0 0.0
0.0 3.160530335 1.0 0.0
0.0 3.161881566 1.0 0.0
0.0 3.163232798 1.0 0.0
0.0 3.164584029 1.0 0.0
0.0 3.165935261 1.0 0.0
0.0 3.167286492 1.0 0.0
0.0 3.168637724 1.0 0.0
0.0 3.169988955 1.0 0.0
0.0 3.171340187 1.0 0.0
0.0 3.172691418 1.0 0.0
0.0 3.174042649 1.0 0.0
0.0 3.175393881 1.0 0.0
0.0 3.176745112 1.0 0.0
0.0 3.178096344 1.0 0.0
0.0 3.179447575 1.0 0.0
0.0 3.180798807 1.0 0.0
0.0 3.182150038 1.0 0.0
0.0 3.18350127 1.0 0.0
0.0 3.184852501 1.0 0.0
0.0 3.186203732 1.0 0.0
0.0 3.187554964 1.0 0.0
0.0 3.188906195 1.0 0.0
0.0 3.190257427 1.0 0.0
0.0 3.191608658 1.0 0.0
0.0 3.19295989 1.0 0.0
0.0 3.194311121 1.0 0.0
0.0 3.195662352 1.0 0.0
0.0 3.197013584 1.0 0.0
0.0 3.198364815 1.0 0.0
0.0 3.199716047 1.0 0.0
0.0 3.201067278 1.0 0.0
0.0 3.20241851 1.0 0.0
0.0 3.203769741 1.0 0.0
0.0 3.205120973 1.0 0.0
0.0 3.206472204 1.0 0.0
0.0 3.207823435 1.0 0.0
0.0 3.209174667 1.0 0.0
0.0 3.210525898 1.0 0.0
0.0 3.21187713 1.0 0.0
0.0 3.213228361 1.0 0.0
0.0 3.214579593 1.0 0.0
0.0 3.215930824 1.0 0.0
0.0 3.217282055 1.0 0.0
0.0 3.218633287 1.0 0.0
0.0 3.219984518 1.0 0.0
0.0 3.22133575 1.0 0.0
0.0 3.222686981 1.0 0.0
0.0 3.224038213 1.0 0.0
0.0 3.225389444 1.0 0.0
0.0 3.226740676 1.0 0.0
0.0 3.228091907 1.0 0.0
0.0 3.229443138 1.0 0.0
0.0 3.23079437 1.0 0.0
0.0 3.232145601 1.0 0.0
0.0 3.233496833 1.0 0.0
0.0 3.234848064 1.0 0.0
0.0 3.236199296 1.0 0.0
0.0 3.237550527 1.0 0.0
0.0 3.238901759 1.0 0.0
0.0 3.24025299 1.0 0.0
0.0 3.241604221 1.0 0.0
0.0 3.242955453 1.0 0.0
0.0 3.244306684 1.0 0.0
0.0 3.245657916 1.0 0.0
0.0 3.247009147 1.0 0.0
0.0 3.248360379 1.0 0.0
0.0 3.24971161 1.0 0.0
0.0 3.251062841 1.0 0.0
0.0 3.252414073 1.0 0.0
0.0 3.253765304 1.0 0.0
0.0 3.255116536 1.0 0.0
0.0 3.256467767 1.0 0.0
0.0 3.257818999 1.0 0.0
0.0 3.25917023 1.0 0.0
0.0 3.260521462 1.0 0.0
0.0 3.261872693 1.0 0.0
0.0 3.263223924 1.0 0.0
0.0 3.264575156 1.0 0.0
0.0 3.265926387 1.0 0.0
0.0 3.267277619 1.0 0.0
0.0 3.26862885 1.0 0.0
0.0 3.269980082 1.0 0.0
0.0 3.271331313 1.0 0.0
0.0 3.272682544 1.0 0.0
0.0 3.274033776 1.0 0.0
0.0 3.275385007 1.0 0.0
0.0 3.276736239 1.0 0.0
0.0 3.27808747 1.0 0.0
0.0 3.279438702 1.0 0.0
0.0 3.280789933 1.0 0.0
0.0 3.282141165 1.0 0.0
0.0 3.283492396 1.0 0.0
0.0 3.284843627 1.0 0.0
0.0 3.286194859 1.0 0.0
0.0 3.28754609 1.0 0.0
0.0 3.288897322 1.0 0.0
0.0 3.290248553 1.0 0.0
0.0 3.291599785 1.0 0.0
0.0 3.292951016 1.0 0.0
0.0 3.294302247 1.0 0.0
0.0 3.295653479 1.0 0.0
0.0 3.29700471 1.0 0.0
0.0 3.298355942 1.0 0.0
0.0 3.299707173 1.0 0.0
0.0 3.301058405 1.0 0.0
0.0 3.302409636 1.0 0.0
0.0 3.303760868 1.0 0.0
0.0 3.305112099 1.0 0.0
0.0 3.30646333 1.0 0.0
0.0 3.307814562 1.0 0.0
0.0 3.309165793 1.0 0.0
0.0 3.310517025 1.0 0.0
0.0 3.311868256 1.0 0.0
0.0 3.313219488 1.0 0.0
0.0 3.314570719 1.0 0.0
0.0 3.315921951 1.0 0.0
0.0 3.317273182 1.0 0.0
0.0 3.318624413 1.0 0.0
0.0 3.319975645 1.0 0.0
0.0 3.321326876 1.0 0.0
0.0 3.322678108 1.0 0.0
0.0 3.324029339 1.0 0.0
0.0 3.325380571 1.0 0.0
0.0 3.326731802 1.0 0.0
0.0 3.328083033 1.0 0.0
0.0 3.329434265 1.0 0.0
0.0 3.330785496 1.0 0.0
0.0 3.332136728 1.0 0.0
0.0 3.333487959 1.0 0.0
0.0 3.334839191 1.0 0.0
0.0 3.336190422 1.0 0.0
0.0 3.337541654 1.0 0.0
0.0 3.338892885 1.0 0.0
0.0 3.340244116 1.0 0.0
0.0 3.341595348 1.0 0.0
0.0 3.342946579 1.0 0.0
0.0 3.344297811 1.0 0.0
0.0 3.345649042 1.0 0.0
0.0 3.347000274 1.0 0.0
0.0 3.348351505 1.0 0.0
0.0 3.349702736 1.0 0.0
0.0 3.351053968 1.0 0.0
0.0 3.352405199 1.0 0.0
0.0 3.353756431 1.0 0.0
0.0 3.355107662 1.0 0.0
0.0 3.356458894 1.0 0.0
0.0 3.357810125 1.0 0.0
0.0 3.359161357 1.0 0.0
0.0 3.360512588 1.0 0.0
0.0 3.361863819 1.0 0.0
0.0 3.363215051 1.0 0.0
0.0 3.364566282 1.0 0.0
0.0 3.365917514 1.0 0.0
0.0 3.367268745 1.0 0.0
0.0 3.368619977 1.0 0.0
0.0 3.369971208 1.0 0.0
0.0 3.371322439 1.0 0.0
0.0 3.372673671 1.0 0.0
0.0 3.374024902 1.0 0.0
0.0 3.375376134 1.0 0.0
0.0 3.376727365 1.0 0.0
0.0 3.378078597 1.0 0.0
0.0 3.379429828 1.0 0.0
0.0 3.38078106 1.0 0.0
0.0 3.382132291 1.0 0.0
0.0 3.383483522 1.0 0.0
0.0 3.384834754 1.0 0.0
0.0 3.386185985 1.0 0.0
0.0 3.387537217 1.0 0.0
0.0 3.388888448 1.0 0.0
0.0 3.39023968 1.0 0.0
0.0 3.391590911 1.0 0.0
0.0 3.392942143 1.0 0.0
0.0 3.394293374 1.0 0.0
0.0 3.395644605 1.0 0.0
0.0 3.396995837 1.0 0.0
0.0 3.398347068 1.0 0.0
0.0 3.3996983 1.0 0.0
0.0 3.401049531 1.0 0.0
0.0 3.402400763 1.0 0.0
0.0 3.403751994 1.0 0.0
0.0 3.405103225 1.0 0.0
0.0 3.406454457 1.0 0.0
0.0 3.407805688 1.0 0.0
0.0 3.40915692 1.0 0.0
0.0 3.410508151 1.0 0.0
0.0 3.411859383 1.0 0.0
0.0 3.413210614 1.0 0.0
0.0 3.414561846 1.0 0.0
0.0 3.415913077 1.0 0.0
0.0 3.417264308 1.0 0.0
0.0 3.41861554 1.0 0.0
0.0 3.419966771 1.0 0.0
0.0 3.421318003 1.0 0.0
0.0 3.422669234 1.0 0.0
0.0 3.424020466 1.0 0.0
0.0 3.425371697 1.0 0.0
0.0 3.426722928 1.0 0.0
0.0 3.42807416 1.0 0.0
0.0 3.429425391 1.0 0.0
0.0 3.430776623 1.0 0.0
0.0 3.432127854 1.0 0.0
0.0 3.433479086 1.0 0.0
0.0 3.434830317 1.0 0.0
0.0 3.436181549 1.0 0.0
0.0 3.43753278 1.0 0.0
0.0 3.438884011 1.0 0.0
0.0 3.440235243 1.0 0.0
0.0 3.441586474 1.0 0.0
0.0 3.442937706 1.0 0.0
0.0 3.444288937 1.0 0.0
0.0 3.445640169 1.0 0.0
0.0 3.4469914 1.0 0.0
0.0 3.448342631 1.0 0.0
0.0 3.449693863 1.0 0.0
0.0 3.451045094 1.0 0.0
0.0 3.452396326 1.0 0.0
0.0 3.453747557 1.0 0.0
0.0 3.455098789 1.0 0.0
0.0 3.45645002 1.0 0.0
0.0 3.457801252 1.0 0.0
0.0 3.459152483 1.0 0.0
0.0 3.460503714 1.0 0.0
0.0 3.461854946 1.0 0.0
0.0 3.463206177 1.0 0.0
0.0 3.464557409 1.0 0.0
0.0 3.46590864 1.0 0.0
0.0 3.467259872 1.0 0.0
0.0 3.468611103 1.0 0.0
0.0 3.469962335 1.0 0.0
0.0 3.471313566 1.0 0.0
0.0 3.472664797 1.0 0.0
0.0 3.474016029 1.0 0.0
0.0 3.47536726 1.0 0.0
0.0 3.476718492 1.0 0.0
0.0 3.478069723 1.0 0.0
0.0 3.479420955 1.0 0.0
0.0 3.480772186 1.0 0.0
0.0 3.482123417 1.0 0.0
0.0 3.483474649 1.0 0.0
0.0 3.48482588 1.0 0.0
0.0 3.486177112 1.0 0.0
0.0 3.487528343 1.0 0.0
0.0 3.488879575 1.0 0.0
0.0 3.490230806 1.0 0.0
0.0 3.491582038 1.0 0.0
0.0 3.492933269 1.0 0.0
0.0 3.4942845 1.0 0.0
0.0 3.495635732 1.0 0.0
0.0 3.496986963 1.0 0.0
0.0 3.498338195 1.0 0.0
0.0 3.499689426 1.0 0.0
0.0 3.501040658 1.0 0.0
0.0 3.502391889 1.0 0.0
0.0 3.50374312 1.0 0.0
0.0 3.505094352 1.0 0.0
0.0 3.506445583 1.0 0.0
0.0 3.507796815 1.0 0.0
0.0 3.509148046 1.0 0.0
0.0 3.510499278 1.0 0.0
0.0 3.511850509 1.0 0.0
0.0 3.513201741 1.0 0.0
0.0 3.514552972 1.0 0.0
0.0 3.515904203 1.0 0.0
0.0 3.517255435 1.0 0.0
0.0 3.518606666 1.0 0.0
0.0 3.519957898 1.0 0.0
0.0 3.521309129 1.0 0.0
0.0 3.522660361 1.0 0.0
0.0 3.524011592 1.0 0.0
0.0 3.525362824 1.0 0.0
0.0 3.526714055 1.0 0.0
0.0 3.528065286 1.0 0.0
0.0 3.529416518 1.0 0.0
0.0 3.530767749 1.0 0.0
0.0 3.532118981 1.0 0.0
0.0 3.533470212 1.0 0.0
0.0 3.534821444 1.0 0.0
0.0 3.536172675 1.0 0.0
0.0 3.537523906 1.0 0.0
0.0 3.538875138 1.0 0.0
0.0 3.540226369 1.0 0.0
0.0 3.541577601 1.0 0.0
0.0 3.542928832 1.0 0.0
0.0 3.544280064 1.0 0.0
0.0 3.545631295 1.0 0.0
0.0 3.546982527 1.0 0.0
0.0 3.548333758 1.0 0.0
0.0 3.549684989 1.0 0.0
0.0 3.551036221 1.0 0.0
0.0 3.552387452 1.0 0.0
0.0 3.553738684 1.0 0.0
0.0 3.555089915 1.0 0.0
0.0 3.556441147 1.0 0.0
0.0 3.557792378 1.0 0.0
0.0 3.559143609 1.0 0.0
0.0 3.560494841 1.0 0.0
0.0 3.561846072 1.0 0.0
0.0 3.563197304 1.0 0.0
0.0 3.564548535 1.0 0.0
0.0 3.565899767 1.0 0.0
0.0 3.567250998 1.0 0.0
0.0 3.56860223 1.0 0.0
0.0 3.569953461 1.0 0.0
0.0 3.571304692 1.0 0.0
0.0 3.572655924 1.0 0.0
0.0 3.574007155 1.0 0.0
0.0 3.575358387 1.0 0.0
0.0 3.576709618 1.0 0.0
0.0 3.57806085 1.0 0.0
0.0 3.579412081 1.0 0.0
0.0 3.580763312 1.0 0.0
0.0 3.582114544 1.0 0.0
0.0 3.583465775 1.0 0.0
0.0 3.584817007 1.0 0.0
0.0 3.586168238 1.0 0.0
0.0 3.58751947 1.0 0.0
0.0 3.588870701 1.0 0.0
0.0 3.590221933 1.0 0.0
0.0 3.591573164 1.0 0.0
0.0 3.592924395 1.0 0.0
0.0 3.594275627 1.0 0.0
0.0 3.595626858 1.0 0.0
0.0 3.59697809 1.0 0.0
0.0 3.598329321 1.0 0.0
0.0 3.599680553 1.0 0.0
0.0 3.601031784 1.0 0.0
0.0 3.602383016 1.0 0.0
0.0 3.603734247 1.0 0.0
0.0 3.605085478 1.0 0.0
0.0 3.60643671 1.0 0.0
0.0 3.607787941 1.0 0.0
0.0 3.609139173 1.0 0.0
0.0 3.610490404 1.0 0.0
0.0 3.611841636 1.0 0.0
0.0 3.613192867 1.0 0.0
0.0 3.614544098 1.0 0.0
0.0 3.61589533 1.0 0.0
0.0 3.617246561 1.0 0.0
0.0 3.618597793 1.0 0.0
0.0 3.619949024 1.0 0.0
0.0 3.621300256 1.0 0.0
0.0 3.622651487 1.0 0.0
0.0 3.624002719 1.0 0.0
0.0 3.62535395 1.0 0.0
0.0 3.626705181 1.0 0.0
0.0 3.628056413 1.0 0.0
0.0 3.629407644 1.0 0.0
0.0 3.630758876 1.0 0.0
0.0 3.632110107 1.0 0.0
0.0 3.633461339 1.0 0.0
0.0 3.63481257 1.0 0.0
0.0 3.636163801 1.0 0.0
0.0 3.637515033 1.0 0.0
0.0 3.638866264 1.0 0.0
0.0 3.640217496 1.0 0.0
0.0 3.641568727 1.0 0.0
0.0 3.642919959 1.0 0.0
0.0 3.64427119 1.0 0.0
0.0 3.645622422 1.0 0.0
0.0 3.646973653 1.0 0.0
0.0 3.648324884 1.0 0.0
0.0 3.649676116 1.0 0.0
0.0 3.651027347 1.0 0.0
0.0 3.652378579 1.0 0.0
0.0 3.65372981 1.0 0.0
0.0 3.655081042 1.0 0.0
0.0 3.656432273 1.0 0.0
0.0 3.657783504 1.0 0.0
0.0 3.659134736 1.0 0.0
0.0 3.660485967 1.0 0.0
0.0 3.661837199 1.0 0.0
0.0 3.66318843 1.0 0.0
0.0 3.664539662 1.0 0.0
0.0 3.665890893 1.0 0.0
0.0 3.667242125 1.0 0.0
0.0 3.668593356 1.0 0.0
0.0 3.669944587 1.0 0.0
0.0 3.671295819 1.0 0.0
0.0 3.67264705 1.0 0.0
0.0 3.673998282 1.0 0.0
0.0 3.675349513 1.0 0.0
0.0 3.676700745 1.0 0.0
0.0 3.678051976 1.0 0.0
0.0 3.679403208 1.0 0.0
0.0 3.680754439 1.0 0.0
0.0 3.68210567 1.0 0.0
0.0 3.683456902 1.0 0.0
0.0 3.684808133 1.0 0.0
0.0 3.686159365 1.0 0.0
0.0 3.687510596 1.0 0.0
0.0 3.688861828 1.0 0.0
0.0 3.690213059 1.0 0.0
0.0 3.69156429 1.0 0.0
0.0 3.692915522 1.0 0.0
0.0 3.694266753 1.0 0.0
0.0 3.695617985 1.0 0.0
0.0 3.696969216 1.0 0.0
0.0 3.698320448 1.0 0.0
0.0 3.699671679 1.0 0.0
0.0 3.701022911 1.0 0.0
0.0 3.702374142 1.0 0.0
0.0 3.703725373 1.0 0.0
0.0 3.705076605 1.0 0.0
0.0 3.706427836 1.0 0.0
0.0 3.707779068 1.0 0.0
0.0 3.709130299 1.0 0.0
0.0 3.710481531 1.0 0.0
0.0 3.711832762 1.0 0.0
0.0 3.713183993 1.0 0.0
0.0 3.714535225 1.0 0.0
0.0 3.715886456 1.0 0.0
0.0 3.717237688 1.0 0.0
0.0 3.718588919 1.0 0.0
0.0 3.719940151 1.0 0.0
0.0 3.721291382 1.0 0.0
0.0 3.722642614 1.0 0.0
0.0 3.723993845 1.0 0.0
0.0 3.725345076 1.0 0.0
0.0 3.726696308 1.0 0.0
0.0 3.728047539 1.0 0.0
0.0 3.729398771 1.0 0.0
0.0 3.730750002 1.0 0.0
0.0 3.732101234 1.0 0.0
0.0 3.733452465 1.0 0.0
0.0 3.734803696 1.0 0.0
0.0 3.736154928 1.0 0.0
0.0 3.737506159 1.0 0.0
0.0 3.738857391 1.0 0.0
0.0 3.740208622 1.0 0.0
0.0 3.741559854 1.0 0.0
0.0 3.742911085 1.0 0.0
0.0 3.744262317 1.0 0.0
0.0 3.745613548 1.0 0.0
0.0 3.746964779 1.0 0.0
0.0 3.748316011 1.0 0.0
0.0 3.749667242 1.0 0.0
0.0 3.751018474 1.0 0.0
0.0 3.752369705 1.0 0.0
0.0 3.753720937 1.0 0.0
0.0 3.755072168 1.0 0.0
0.0 3.7564234 1.0 0.0
0.0 3.757774631 1.0 0.0
0.0 3.759125862 1.0 0.0
0.0 3.760477094 1.0 0.0
0.0 3.761828325 1.0 0.0
0.0 3.763179557 1.0 0.0
0.0 3.764530788 1.0 0.0
0.0 3.76588202 1.0 0.0
0.0 3.767233251 1.0 0.0
0.0 3.768584482 1.0 0.0
0.0 3.769935714 1.0 0.0
0.0 3.771286945 1.0 0.0
0.0 3.772638177 1.0 0.0
0.0 3.773989408 1.0 0.0
0.0 3.77534064 1.0 0.0
0.0 3.776691871 1.0 0.0
0.0 3.778043103 1.0 0.0
0.0 3.779394334 1.0 0.0
0.0 3.780745565 1.0 0.0
0.0 3.782096797 1.0 0.0
0.0 3.783448028 1.0 0.0
0.0 3.78479926 1.0 0.0
0.0 3.786150491 1.0 0.0
0.0 3.787501723 1.0 0.0
0.0 3.788852954 1.0 0.0
0.0 3.790204185 1.0 0.0
0.0 3.791555417 1.0 0.0
0.0 3.792906648 1.0 0.0
0.0 3.79425788 1.0 0.0
0.0 3.795609111 1.0 0.0
0.0 3.796960343 1.0 0.0
0.0 3.798311574 1.0 0.0
0.0 3.799662806 1.0 0.0
0.0 3.801014037 1.0 0.0
0.0 3.802365268 1.0 0.0
0.0 3.8037165 1.0 0.0
0.0 3.805067731 1.0 0.0
0.0 3.806418963 1.0 0.0
0.0 3.807770194 1.0 0.0
0.0 3.809121426 1.0 0.0
0.0 3.810472657 1.0 0.0
0.0 3.811823889 1.0 0.0
0.0 3.81317512 1.0 0.0
0.0 3.814526351 1.0 0.0
0.0 3.815877583 1.0 0.0
0.0 3.817228814 1.0 0.0
0.0 3.818580046 1.0 0.0
0.0 3.819931277 1.0 0.0
0.0 3.821282509 1.0 0.0
0.0 3.82263374 1.0 0.0
0.0 3.823984971 1.0 0.0
0.0 3.825336203 1.0 0.0
0.0 3.826687434 1.0 0.0
0.0 3.828038666 1.0 0.0
0.0 3.829389897 1.0 0.0
0.0 3.830741129 1.0 0.0
0.0 3.83209236 1.0 0.0
0.0 3.833443592 1.0 0.0
0.0 3.834794823 1.0 0.0
0.0 3.836146054 1.0 0.0
0.0 3.837497286 1.0 0.0
0.0 3.838848517 1.0 0.0
0.0 3.840199749 1.0 0.0
0.0 3.84155098 1.0 0.0
0.0 3.842902212 1.0 0.0
0.0 3.844253443 1.0 0.0
0.0 3.845604674 1.0 0.0
0.0 3.846955906 1.0 0.0
0.0 3.848307137 1.0 0.0
0.0 3.849658369 1.0 0.0
0.0 3.8510096 1.0 0.0
0.0 3.852360832 1.0 0.0
0.0 3.853712063 1.0 0.0
0.0 3.855063295 1.0 0.0
0.0 3.856414526 1.0 0.0
0.0 3.857765757 1.0 0.0
0.0 3.859116989 1.0 0.0
0.0 3.86046822 1.0 0.0
0.0 3.861819452 1.0 0.0
0.0 3.863170683 1.0 0.0
0.0 3.864521915 1.0 0.0
0.0 3.865873146 1.0 0.0
0.0 3.867224377 1.0 0.0
0.0 3.868575609 1.0 0.0
0.0 3.86992684 1.0 0.0
0.0 3.871278072 1.0 0.0
0.0 3.872629303 1.0 0.0
0.0 3.873980535 1.0 0.0
0.0 3.875331766 1.0 0.0
0.0 3.876682998 1.0 0.0
0.0 3.878034229 1.0 0.0
0.0 3.87938546 1.0 0.0
0.0 3.880736692 1.0 0.0
0.0 3.882087923 1.0 0.0
0.0 3.883439155 1.0 0.0
0.0 3.884790386 1.0 0.0
0.0 3.886141618 1.0 0.0
0.0 3.887492849 1.0 0.0
0.0 3.888844081 1.0 0.0
0.0 3.890195312 1.0 0.0
0.0 3.891546543 1.0 0.0
0.0 3.892897775 1.0 0.0
0.0 3.894249006 1.0 0.0
0.0 3.895600238 1.0 0.0
0.0 3.896951469 1.0 0.0
0.0 3.898302701 1.0 0.0
0.0 3.899653932 1.0 0.0
0.0 3.901005163 1.0 0.0
0.0 3.902356395 1.0 0.0
0.0 3.903707626 1.0 0.0
0.0 3.905058858 1.0 0.0
0.0 3.906410089 1.0 0.0
0.0 3.907761321 1.0 0.0
0.0 3.909112552 1.0 0.0
0.0 3.910463784 1.0 0.0
0.0 3.911815015 1.0 0.0
0.0 3.913166246 1.0 0.0
0.0 3.914517478 1.0 0.0
0.0 3.915868709 1.0 0.0
0.0 3.917219941 1.0 0.0
0.0 3.918571172 1.0 0.0
0.0 3.919922404 1.0 0.0
0.0 3.921273635 1.0 0.0
0.0 3.922624866 1.0 0.0
0.0 3.923976098 1.0 0.0
0.0 3.925327329 1.0 0.0
0.0 3.926678561 1.0 0.0
0.0 3.928029792 1.0 0.0
0.0 3.929381024 1.0 0.0
0.0 3.930732255 1.0 0.0
0.0 3.932083487 1.0 0.0
0.0 3.933434718 1.0 0.0
0.0 3.934785949 1.0 0.0
0.0 3.936137181 1.0 0.0
0.0 3.937488412 1.0 0.0
0.0 3.938839644 1.0 0.0
0.0 3.940190875 1.0 0.0
0.0 3.941542107 1.0 0.0
0.0 3.942893338 1.0 0.0
0.0 3.944244569 1.0 0.0
0.0 3.945595801 1.0 0.0
0.0 3.946947032 1.0 0.0
0.0 3.948298264 1.0 0.0
0.0 3.949649495 1.0 0.0
0.0 3.951000727 1.0 0.0
0.0 3.952351958 1.0 0.0
0.0 3.95370319 1.0 0.0
0.0 3.955054421 1.0 0.0
0.0 3.956405652 1.0 0.0
0.0 3.957756884 1.0 0.0
0.0 3.959108115 1.0 0.0
0.0 3.960459347 1.0 0.0
0.0 3.961810578 1.0 0.0
0.0 3.96316181 1.0 0.0
0.0 3.964513041 1.0 0.0
0.0 3.965864273 1.0 0.0
0.0 3.967215504 1.0 0.0
0.0 3.968566735 1.0 0.0
0.0 3.969917967 1.0 0.0
0.0 3.971269198 1.0 0.0
0.0 3.97262043 1.0 0.0
0.0 3.973971661 1.0 0.0
0.0 3.975322893 1.0 0.0
0.0 3.976674124 1.0 0.0
0.0 3.978025355 1.0 0.0
0.0 3.979376587 1.0 0.0
0.0 3.980727818 1.0 0.0
0.0 3.98207905 1.0 0.0
0.0 3.983430281 1.0 0.0
0.0 3.984781513 1.0 0.0
0.0 3.986132744 1.0 0.0
0.0 3.987483976 1.0 0.0
0.0 3.988835207 1.0 0.0
0.0 3.990186438 1.0 0.0
0.0 3.99153767 1.0 0.0
0.0 3.992888901 1.0 0.0
0.0 3.994240133 1.0 0.0
0.0 3.995591364 1.0 0.0
0.0 3.996942596 1.0 0.0
0.0 3.998293827 1.0 0.0
0.0 3.999645058 1.0 0.0
0.0 4.00099629 1.0 0.0
0.0 4.002347521 1.0 0.0
0.0 4.003698753 1.0 0.0
0.0 4.005049984 1.0 0.0
0.0 4.006401216 1.0 0.0
0.0 4.007752447 1.0 0.0
0.0 4.009103679 1.0 0.0
0.0 4.01045491 1.0 0.0
0.0 4.011806141 1.0 0.0
0.0 4.013157373 1.0 0.0
0.0 4.014508604 1.0 0.0
0.0 4.015859836 1.0 0.0
0.0 4.017211067 1.0 0.0
0.0 4.018562299 1.0 0.0
0.0 4.01991353 1.0 0.0
0.0 4.021264761 1.0 0.0
0.0 4.022615993 1.0 0.0
0.0 4.023967224 1.0 0.0
0.0 4.025318456 1.0 0.0
0.0 4.026669687 1.0 0.0
0.0 4.028020919 1.0 0.0
0.0 4.02937215 1.0 0.0
0.0 4.030723382 1.0 0.0
0.0 4.032074613 1.0 0.0
0.0 4.033425844 1.0 0.0
0.0 4.034777076 1.0 0.0
0.0 4.036128307 1.0 0.0
0.0 4.037479539 1.0 0.0
0.0 4.03883077 1.0 0.0
0.0 4.040182002 1.0 0.0
0.0 4.041533233 1.0 0.0
0.0 4.042884465 1.0 0.0
0.0 4.044235696 1.0 0.0
0.0 4.045586927 1.0 0.0
0.0 4.046938159 1.0 0.0
0.0 4.04828939 1.0 0.0
0.0 4.049640622 1.0 0.0
0.0 4.050991853 1.0 0.0
0.0 4.052343085 1.0 0.0
0.0 4.053694316 1.0 0.0
0.0 4.055045547 1.0 0.0
0.0 4.056396779 1.0 0.0
0.0 4.05774801 1.0 0.0
0.0 4.059099242 1.0 0.0
0.0 4.060450473 1.0 0.0
0.0 4.061801705 1.0 0.0
0.0 4.063152936 1.0 0.0
0.0 4.064504168 1.0 0.0
0.0 4.065855399 1.0 0.0
0.0 4.06720663 1.0 0.0
0.0 4.068557862 1.0 0.0
0.0 4.069909093 1.0 0.0
0.0 4.071260325 1.0 0.0
0.0 4.072611556 1.0 0.0
0.0 4.073962788 1.0 0.0
0.0 4.075314019 1.0 0.0
0.0 4.07666525 1.0 0.0
0.0 4.078016482 1.0 0.0
0.0 4.079367713 1.0 0.0
0.0 4.080718945 1.0 0.0
0.0 4.082070176 1.0 0.0
0.0 4.083421408 1.0 0.0
0.0 4.084772639 1.0 0.0
0.0 4.086123871 1.0 0.0
0.0 4.087475102 1.0 0.0
0.0 4.088826333 1.0 0.0
0.0 4.090177565 1.0 0.0
0.0 4.091528796 1.0 0.0
0.0 4.092880028 1.0 0.0
0.0 4.094231259 1.0 0.0
0.0 4.095582491 1.0 0.0
0.0 4.096933722 1.0 0.0
0.0 4.098284953 1.0 0.0
0.0 4.099636185 1.0 0.0
0.0 4.100987416 1.0 0.0
0.0 4.102338648 1.0 0.0
0.0 4.103689879 1.0 0.0
0.0 4.105041111 1.0 0.0
0.0 4.106392342 1.0 0.0
0.0 4.107743574 1.0 0.0
0.0 4.109094805 1.0 0.0
0.0 4.110446036 1.0 0.0
0.0 4.111797268 1.0 0.0
0.0 4.113148499 1.0 0.0
0.0 4.114499731 1.0 0.0
0.0 4.115850962 1.0 0.0
0.0 4.117202194 1.0 0.0
0.0 4.118553425 1.0 0.0
0.0 4.119904657 1.0 0.0
0.0 4.121255888 1.0 0.0
0.0 4.122607119 1.0 0.0
0.0 4.123958351 1.0 0.0
0.0 4.125309582 1.0 0.0
0.0 4.126660814 1.0 0.0
0.0 4.128012045 1.0 0.0
0.0 4.129363277 1.0 0.0
0.0 4.130714508 1.0 0.0
0.0 4.132065739 1.0 0.0
0.0 4.133416971 1.0 0.0
0.0 4.134768202 1.0 0.0
0.0 4.136119434 1.0 0.0
0.0 4.137470665 1.0 0.0
0.0 4.138821897 1.0 0.0
0.0 4.140173128 1.0 0.0
0.0 4.14152436 1.0 0.0
0.0 4.142875591 1.0 0.0
0.0 4.144226822 1.0 0.0
0.0 4.145578054 1.0 0.0
0.0 4.146929285 1.0 0.0
0.0 4.148280517 1.0 0.0
0.0 4.149631748 1.0 0.0
0.0 4.15098298 1.0 0.0
0.0 4.152334211 1.0 0.0
0.0 4.153685442 1.0 0.0
0.0 4.155036674 1.0 0.0
0.0 4.156387905 1.0 0.0
0.0 4.157739137 1.0 0.0
0.0 4.159090368 1.0 0.0
0.0 4.1604416 1.0 0.0
0.0 4.161792831 1.0 0.0
0.0 4.163144063 1.0 0.0
0.0 4.164495294 1.0 0.0
0.0 4.165846525 1.0 0.0
0.0 4.167197757 1.0 0.0
0.0 4.168548988 1.0 0.0
0.0 4.16990022 1.0 0.0
0.0 4.171251451 1.0 0.0
0.0 4.172602683 1.0 0.0
0.0 4.173953914 1.0 0.0
0.0 4.175305146 1.0 0.0
0.0 4.176656377 1.0 0.0
0.0 4.178007608 1.0 0.0
0.0 4.17935884 1.0 0.0
0.0 4.180710071 1.0 0.0
0.0 4.182061303 1.0 0.0
0.0 4.183412534 1.0 0.0
0.0 4.184763766 1.0 0.0
0.0 4.186114997 1.0 0.0
0.0 4.187466228 1.0 0.0
0.0 4.18881746 1.0 0.0
0.0 4.190168691 1.0 0.0
0.0 4.191519923 1.0 0.0
0.0 4.192871154 1.0 0.0
0.0 4.194222386 1.0 0.0
0.0 4.195573617 1.0 0.0
0.0 4.196924849 1.0 0.0
0.0 4.19827608 1.0 0.0
0.0 4.199627311 1.0 0.0
0.0 4.200978543 1.0 0.0
0.0 4.202329774 1.0 0.0
0.0 4.203681006 1.0 0.0
0.0 4.205032237 1.0 0.0
0.0 4.206383469 1.0 0.0
0.0 4.2077347 1.0 0.0
0.0 4.209085931 1.0 0.0
0.0 4.210437163 1.0 0.0
0.0 4.211788394 1.0 0.0
0.0 4.213139626 1.0 0.0
0.0 4.214490857 1.0 0.0
0.0 4.215842089 1.0 0.0
0.0 4.21719332 1.0 0.0
0.0 4.218544552 1.0 0.0
0.0 4.219895783 1.0 0.0
0.0 4.221247014 1.0 0.0
0.0 4.222598246 1.0 0.0
0.0 4.223949477 1.0 0.0
0.0 4.225300709 1.0 0.0
0.0 4.22665194 1.0 0.0
0.0 4.228003172 1.0 0.0
0.0 4.229354403 1.0 0.0
0.0 4.230705634 1.0 0.0
0.0 4.232056866 1.0 0.0
0.0 4.233408097 1.0 0.0
0.0 4.234759329 1.0 0.0
0.0 4.23611056 1.0 0.0
0.0 4.237461792 1.0 0.0
0.0 4.238813023 1.0 0.0
0.0 4.240164255 1.0 0.0
0.0 4.241515486 1.0 0.0
0.0 4.242866717 1.0 0.0
0.0 4.244217949 1.0 0.0
0.0 4.24556918 1.0 0.0
0.0 4.246920412 1.0 0.0
0.0 4.248271643 1.0 0.0
0.0 4.249622875 1.0 0.0
0.0 4.250974106 1.0 0.0
0.0 4.252325338 1.0 0.0
0.0 4.253676569 1.0 0.0
0.0 4.2550278 1.0 0.0
0.0 4.256379032 1.0 0.0
0.0 4.257730263 1.0 0.0
0.0 4.259081495 1.0 0.0
0.0 4.260432726 1.0 0.0
0.0 4.261783958 1.0 0.0
0.0 4.263135189 1.0 0.0
0.0 4.26448642 1.0 0.0
0.0 4.265837652 1.0 0.0
0.0 4.267188883 1.0 0.0
0.0 4.268540115 1.0 0.0
0.0 4.269891346 1.0 0.0
0.0 4.271242578 1.0 0.0
0.0 4.272593809 1.0 0.0
0.0 4.273945041 1.0 0.0
0.0 4.275296272 1.0 0.0
0.0 4.276647503 1.0 0.0
0.0 4.277998735 1.0 0.0
0.0 4.279349966 1.0 0.0
0.0 4.280701198 1.0 0.0
0.0 4.282052429 1.0 0.0
0.0 4.283403661 1.0 0.0
0.0 4.284754892 1.0 0.0
0.0 4.286106123 1.0 0.0
0.0 4.287457355 1.0 0.0
0.0 4.288808586 1.0 0.0
0.0 4.290159818 1.0 0.0
0.0 4.291511049 1.0 0.0
0.0 4.292862281 1.0 0.0
0.0 4.294213512 1.0 0.0
0.0 4.295564744 1.0 0.0
0.0 4.296915975 1.0 0.0
0.0 4.298267206 1.0 0.0
0.0 4.299618438 1.0 0.0
0.0 4.300969669 1.0 0.0
0.0 4.302320901 1.0 0.0
0.0 4.303672132 1.0 0.0
0.0 4.305023364 1.0 0.0
0.0 4.306374595 1.0 0.0
0.0 4.307725826 1.0 0.0
0.0 4.309077058 1.0 0.0
0.0 4.310428289 1.0 0.0
0.0 4.311779521 1.0 0.0
0.0 4.313130752 1.0 0.0
0.0 4.314481984 1.0 0.0
0.0 4.315833215 1.0 0.0
0.0 4.317184447 1.0 0.0
0.0 4.318535678 1.0 0.0
0.0 4.319886909 1.0 0.0
0.0 4.321238141 1.0 0.0
0.0 4.322589372 1.0 0.0
0.0 4.323940604 1.0 0.0
0.0 4.325291835 1.0 0.0
0.0 4.326643067 1.0 0.0
0.0 4.327994298 1.0 0.0
0.0 4.32934553 1.0 0.0
0.0 4.330696761 1.0 0.0
0.0 4.332047992 1.0 0.0
0.0 4.333399224 1.0 0.0
0.0 4.334750455 1.0 0.0
0.0 4.336101687 1.0 0.0
0.0 4.337452918 1.0 0.0
0.0 4.33880415 1.0 0.0
0.0 4.340155381 1.0 0.0
0.0 4.341506612 1.0 0.0
0.0 4.342857844 1.0 0.0
0.0 4.344209075 1.0 0.0
0.0 4.345560307 1.0 0.0
0.0 4.346911538 1.0 0.0
0.0 4.34826277 1.0 0.0
0.0 4.349614001 1.0 0.0
0.0 4.350965233 1.0 0.0
0.0 4.352316464 1.0 0.0
0.0 4.353667695 1.0 0.0
0.0 4.355018927 1.0 0.0
0.0 4.356370158 1.0 0.0
0.0 4.35772139 1.0 0.0
0.0 4.359072621 1.0 0.0
0.0 4.360423853 1.0 0.0
0.0 4.361775084 1.0 0.0
0.0 4.363126315 1.0 0.0
0.0 4.364477547 1.0 0.0
0.0 4.365828778 1.0 0.0
0.0 4.36718001 1.0 0.0
0.0 4.368531241 1.0 0.0
0.0 4.369882473 1.0 0.0
0.0 4.371233704 1.0 0.0
0.0 4.372584936 1.0 0.0
0.0 4.373936167 1.0 0.0
0.0 4.375287398 1.0 0.0
0.0 4.37663863 1.0 0.0
0.0 4.377989861 1.0 0.0
0.0 4.379341093 1.0 0.0
0.0 4.380692324 1.0 0.0
0.0 4.382043556 1.0 0.0
0.0 4.383394787 1.0 0.0
0.0 4.384746018 1.0 0.0
0.0 4.38609725 1.0 0.0
0.0 4.387448481 1.0 0.0
0.0 4.388799713 1.0 0.0
0.0 4.390150944 1.0 0.0
0.0 4.391502176 1.0 0.0
0.0 4.392853407 1.0 0.0
0.0 4.394204639 1.0 0.0
0.0 4.39555587 1.0 0.0
0.0 4.396907101 1.0 0.0
0.0 4.398258333 1.0 0.0
0.0 4.399609564 1.0 0.0
0.0 4.400960796 1.0 0.0
0.0 4.402312027 1.0 0.0
0.0 4.403663259 1.0 0.0
0.0 4.40501449 1.0 0.0
0.0 4.406365722 1.0 0.0
0.0 4.407716953 1.0 0.0
0.0 4.409068184 1.0 0.0
0.0 4.410419416 1.0 0.0
0.0 4.411770647 1.0 0.0
0.0 4.413121879 1.0 0.0
0.0 4.41447311 1.0 0.0
0.0 4.415824342 1.0 0.0
0.0 4.417175573 1.0 0.0
0.0 4.418526804 1.0 0.0
0.0 4.419878036 1.0 0.0
0.0 4.421229267 1.0 0.0
0.0 4.422580499 1.0 0.0
0.0 4.42393173 1.0 0.0
0.0 4.425282962 1.0 0.0
0.0 4.426634193 1.0 0.0
0.0 4.427985425 1.0 0.0
0.0 4.429336656 1.0 0.0
0.0 4.430687887 1.0 0.0
0.0 4.432039119 1.0 0.0
0.0 4.43339035 1.0 0.0
0.0 4.434741582 1.0 0.0
0.0 4.436092813 1.0 0.0
0.0 4.437444045 1.0 0.0
0.0 4.438795276 1.0 0.0
0.0 4.440146507 1.0 0.0
0.0 4.441497739 1.0 0.0
0.0 4.44284897 1.0 0.0
0.0 4.444200202 1.0 0.0
0.0 4.445551433 1.0 0.0
0.0 4.446902665 1.0 0.0
0.0 4.448253896 1.0 0.0
0.0 4.449605128 1.0 0.0
0.0 4.450956359 1.0 0.0
0.0 4.45230759 1.0 0.0
0.0 4.453658822 1.0 0.0
0.0 4.455010053 1.0 0.0
0.0 4.456361285 1.0 0.0
0.0 4.457712516 1.0 0.0
0.0 4.459063748 1.0 0.0
0.0 4.460414979 1.0 0.0
0.0 4.461766211 1.0 0.0
0.0 4.463117442 1.0 0.0
0.0 4.464468673 1.0 0.0
0.0 4.465819905 1.0 0.0
0.0 4.467171136 1.0 0.0
0.0 4.468522368 1.0 0.0
0.0 4.469873599 1.0 0.0
0.0 4.471224831 1.0 0.0
0.0 4.472576062 1.0 0.0
0.0 4.473927293 1.0 0.0
0.0 4.475278525 1.0 0.0
0.0 4.476629756 1.0 0.0
0.0 4.477980988 1.0 0.0
0.0 4.479332219 1.0 0.0
0.0 4.480683451 1.0 0.0
0.0 4.482034682 1.0 0.0
0.0 4.483385914 1.0 0.0
0.0 4.484737145 1.0 0.0
0.0 4.486088376 1.0 0.0
0.0 4.487439608 1.0 0.0
0.0 4.488790839 1.0 0.0
0.0 4.490142071 1.0 0.0
0.0 4.491493302 1.0 0.0
0.0 4.492844534 1.0 0.0
0.0 4.494195765 1.0 0.0
0.0 4.495546996 1.0 0.0
0.0 4.496898228 1.0 0.0
0.0 4.498249459 1.0 0.0
0.0 4.499600691 1.0 0.0
0.0 4.500951922 1.0 0.0
0.0 4.502303154 1.0 0.0
0.0 4.503654385 1.0 0.0
0.0 4.505005617 1.0 0.0
0.0 4.506356848 1.0 0.0
0.0 4.507708079 1.0 0.0
0.0 4.509059311 1.0 0.0
0.0 4.510410542 1.0 0.0
0.0 4.511761774 1.0 0.0
0.0 4.513113005 1.0 0.0
0.0 4.514464237 1.0 0.0
0.0 4.515815468 1.0 0.0
0.0 4.517166699 1.0 0.0
0.0 4.518517931 1.0 0.0
0.0 4.519869162 1.0 0.0
0.0 4.521220394 1.0 0.0
0.0 4.522571625 1.0 0.0
0.0 4.523922857 1.0 0.0
0.0 4.525274088 1.0 0.0
0.0 4.52662532 1.0 0.0
0.0 4.527976551 1.0 0.0
0.0 4.529327782 1.0 0.0
0.0 4.530679014 1.0 0.0
0.0 4.532030245 1.0 0.0
0.0 4.533381477 1.0 0.0
0.0 4.534732708 1.0 0.0
0.0 4.53608394 1.0 0.0
0.0 4.537435171 1.0 0.0
0.0 4.538786403 1.0 0.0
0.0 4.540137634 1.0 0.0
0.0 4.541488865 1.0 0.0
0.0 4.542840097 1.0 0.0
0.0 4.544191328 1.0 0.0
0.0 4.54554256 1.0 0.0
0.0 4.546893791 1.0 0.0
0.0 4.548245023 1.0 0.0
0.0 4.549596254 1.0 0.0
0.0 4.550947485 1.0 0.0
0.0 4.552298717 1.0 0.0
0.0 4.553649948 1.0 0.0
0.0 4.55500118 1.0 0.0
0.0 4.556352411 1.0 0.0
0.0 4.557703643 1.0 0.0
0.0 4.559054874 1.0 0.0
0.0 4.560406106 1.0 0.0
0.0 4.561757337 1.0 0.0
0.0 4.563108568 1.0 0.0
0.0 4.5644598 1.0 0.0
0.0 4.565811031 1.0 0.0
0.0 4.567162263 1.0 0.0
0.0 4.568513494 1.0 0.0
0.0 4.569864726 1.0 0.0
0.0 4.571215957 1.0 0.0
0.0 4.572567188 1.0 0.0
0.0 4.57391842 1.0 0.0
0.0 4.575269651 1.0 0.0
0.0 4.576620883 1.0 0.0
0.0 4.577972114 1.0 0.0
0.0 4.579323346 1.0 0.0
0.0 4.580674577 1.0 0.0
0.0 4.582025809 1.0 0.0
0.0 4.58337704 1.0 0.0
0.0 4.584728271 1.0 0.0
0.0 4.586079503 1.0 0.0
0.0 4.587430734 1.0 0.0
0.0 4.588781966 1.0 0.0
0.0 4.590133197 1.0 0.0
0.0 4.591484429 1.0 0.0
0.0 4.59283566 1.0 0.0
0.0 4.594186891 1.0 0.0
0.0 4.595538123 1.0 0.0
0.0 4.596889354 1.0 0.0
0.0 4.598240586 1.0 0.0
0.0 4.599591817 1.0 0.0
0.0 4.600943049 1.0 0.0
0.0 4.60229428 1.0 0.0
0.0 4.603645512 1.0 0.0
0.0 4.604996743 1.0 0.0
0.0 4.606347974 1.0 0.0
0.0 4.607699206 1.0 0.0
0.0 4.609050437 1.0 0.0
0.0 4.610401669 1.0 0.0
0.0 4.6117529 1.0 0.0
0.0 4.613104132 1.0 0.0
0.0 4.614455363 1.0 0.0
0.0 4.615806595 1.0 0.0
0.0 4.617157826 1.0 0.0
0.0 4.618509057 1.0 0.0
0.0 4.619860289 1.0 0.0
0.0 4.62121152 1.0 0.0
0.0 4.622562752 1.0 0.0
0.0 4.623913983 1.0 0.0
0.0 4.625265215 1.0 0.0
0.0 4.626616446 1.0 0.0
0.0 4.627967677 1.0 0.0
0.0 4.629318909 1.0 0.0
0.0 4.63067014 1.0 0.0
0.0 4.632021372 0.978683595445 0.0
0.0 4.633372603 0.952782208502 0.0
0.0 4.634723835 0.932262543497 0.0
0.0 4.636075066 0.915350847106 0.0
0.0 4.637426298 0.901567563078 0.0
0.0 4.638777529 0.894363067949 0.0
0.0 4.64012876 0.889640579527 0.0
0.0 4.641479992 0.887251647081 0.0
0.0 4.642831223 0.887388348512 0.0
0.0 4.644182455 0.887860192596 0.0
0.0 4.645533686 0.888716539229 0.0
0.0 4.646884918 0.889295690296 0.0
0.0 4.648236149 0.889591057235 0.0
0.0 4.64958738 0.889469780966 0.0
0.0 4.650938612 0.888993354822 0.0
0.0 4.652289843 0.888086492963 0.0
0.0 4.653641075 0.887542628058 0.0
0.0 4.654992306 0.887300313175 0.0
0.0 4.656343538 0.887304156008 0.0
0.0 4.657694769 0.887879866574 0.0
0.0 4.659046001 0.888894678062 0.0
0.0 4.660397232 0.890177024995 0.0
0.0 4.661748463 0.891796015208 0.0
0.0 4.663099695 0.893462958875 0.0
0.0 4.664450926 0.895165803609 0.0
0.0 4.665802158 0.896865994736 0.0
0.0 4.667153389 0.898834523422 0.0
0.0 4.668504621 0.901136215419 0.0
0.0 4.669855852 0.905484639743 0.0
0.0 4.671207083 0.91160545923 0.0
0.0 4.672558315 0.920666031669 0.0
0.0 4.673909546 0.934987446096 0.0
0.0 4.675260778 0.952000940364 0.0
0.0 4.676612009 0.974499018956 0.0
0.0 4.677963241 1.0 0.0
0.0 4.679314472 1.0 0.0
0.0 4.680665704 1.0 0.0
0.0 4.682016935 1.0 0.0
0.0 4.683368166 1.0 0.0
0.0 4.684719398 1.0 0.0
0.0 4.686070629 1.0 0.0
0.0 4.687421861 1.0 0.0
0.0 4.688773092 1.0 0.0
0.0 4.690124324 1.0 0.0
0.0 4.691475555 1.0 0.0
0.0 4.692826787 1.0 0.0
0.0 4.694178018 1.0 0.0
0.0 4.695529249 1.0 0.0
0.0 4.696880481 1.0 0.0
0.0 4.698231712 1.0 0.0
0.0 4.699582944 1.0 0.0
0.0 4.700934175 1.0 0.0
0.0 4.702285407 1.0 0.0
0.0 4.703636638 1.0 0.0
0.0 4.704987869 1.0 0.0
0.0 4.706339101 1.0 0.0
0.0 4.707690332 1.0 0.0
0.0 4.709041564 1.0 0.0
0.0 4.710392795 1.0 0.0
0.0 4.711744027 1.0 0.0
0.0 4.713095258 1.0 0.0
0.0 4.71444649 1.0 0.0
0.0 4.715797721 1.0 0.0
0.0 4.717148952 1.0 0.0
0.0 4.718500184 1.0 0.0
0.0 4.719851415 1.0 0.0
0.0 4.721202647 1.0 0.0
0.0 4.722553878 1.0 0.0
0.0 4.72390511 1.0 0.0
0.0 4.725256341 1.0 0.0
0.0 4.726607572 1.0 0.0
0.0 4.727958804 1.0 0.0
0.0 4.729310035 1.0 0.0
0.0 4.730661267 1.0 0.0
0.0 4.732012498 1.0 0.0
0.0 4.73336373 1.0 0.0
0.0 4.734714961 1.0 0.0
0.0 4.736066193 1.0 0.0
0.0 4.737417424 1.0 0.0
0.0 4.738768655 1.0 0.0
0.0 4.740119887 1.0 0.0
0.0 4.741471118 1.0 0.0
0.0 4.74282235 1.0 0.0
0.0 4.744173581 1.0 0.0
0.0 4.745524813 1.0 0.0
0.0 4.746876044 1.0 0.0
0.0 4.748227276 1.0 0.0
0.0 4.749578507 1.0 0.0
0.0 4.750929738 1.0 0.0
0.0 4.75228097 1.0 0.0
0.0 4.753632201 1.0 0.0
0.0 4.754983433 1.0 0.0
0.0 4.756334664 1.0 0.0
0.0 4.757685896 1.0 0.0
0.0 4.759037127 1.0 0.0
0.0 4.760388358 1.0 0.0
0.0 4.76173959 1.0 0.0
0.0 4.763090821 1.0 0.0
0.0 4.764442053 1.0 0.0
0.0 4.765793284 1.0 0.0
0.0 4.767144516 1.0 0.0
0.0 4.768495747 1.0 0.0
0.0 4.769846979 1.0 0.0
0.0 4.77119821 1.0 0.0
0.0 4.772549441 1.0 0.0
0.0 4.773900673 1.0 0.0
0.0 4.775251904 1.0 0.0
0.0 4.776603136 1.0 0.0
0.0 4.777954367 1.0 0.0
0.0 4.779305599 1.0 0.0
0.0 4.78065683 1.0 0.0
0.0 4.782008061 1.0 0.0
0.0 4.783359293 1.0 0.0
0.0 4.784710524 1.0 0.0
0.0 4.786061756 1.0 0.0
0.0 4.787412987 1.0 0.0
0.0 4.788764219 1.0 0.0
0.0 4.79011545 1.0 0.0
0.0 4.791466682 1.0 0.0
0.0 4.792817913 1.0 0.0
0.0 4.794169144 1.0 0.0
0.0 4.795520376 1.0 0.0
0.0 4.796871607 1.0 0.0
0.0 4.798222839 1.0 0.0
0.0 4.79957407 1.0 0.0
0.0 4.800925302 1.0 0.0
0.0 4.802276533 1.0 0.0
0.0 4.803627764 1.0 0.0
0.0 4.804978996 1.0 0.0
0.0 4.806330227 1.0 0.0
0.0 4.807681459 1.0 0.0
0.0 4.80903269 1.0 0.0
0.0 4.810383922 1.0 0.0
0.0 4.811735153 1.0 0.0
0.0 4.813086385 1.0 0.0
0.0 4.814437616 1.0 0.0
0.0 4.815788847 1.0 0.0
0.0 4.817140079 1.0 0.0
0.0 4.81849131 1.0 0.0
0.0 4.819842542 1.0 0.0
0.0 4.821193773 1.0 0.0
0.0 4.822545005 1.0 0.0
0.0 4.823896236 1.0 0.0
0.0 4.825247468 1.0 0.0
0.0 4.826598699 1.0 0.0
0.0 4.82794993 1.0 0.0
0.0 4.829301162 1.0 0.0
0.0 4.830652393 1.0 0.0
0.0 4.832003625 1.0 0.0
0.0 4.833354856 1.0 0.0
0.0 4.834706088 1.0 0.0
0.0 4.836057319 1.0 0.0
0.0 4.83740855 1.0 0.0
0.0 4.838759782 1.0 0.0
0.0 4.840111013 1.0 0.0
0.0 4.841462245 1.0 0.0
0.0 4.842813476 1.0 0.0
0.0 4.844164708 1.0 0.0
0.0 4.845515939 1.0 0.0
0.0 4.846867171 1.0 0.0
0.0 4.848218402 1.0 0.0
0.0 4.849569633 1.0 0.0
0.0 4.850920865 1.0 0.0
0.0 4.852272096 1.0 0.0
0.0 4.853623328 1.0 0.0
0.0 4.854974559 1.0 0.0
0.0 4.856325791 1.0 0.0
0.0 4.857677022 1.0 0.0
0.0 4.859028253 1.0 0.0
0.0 4.860379485 1.0 0.0
0.0 4.861730716 1.0 0.0
0.0 4.863081948 1.0 0.0
0.0 4.864433179 1.0 0.0
0.0 4.865784411 1.0 0.0
0.0 4.867135642 1.0 0.0
0.0 4.868486874 1.0 0.0
0.0 4.869838105 1.0 0.0
0.0 4.871189336 1.0 0.0
0.0 4.872540568 1.0 0.0
0.0 4.873891799 1.0 0.0
0.0 4.875243031 1.0 0.0
0.0 4.876594262 1.0 0.0
0.0 4.877945494 1.0 0.0
0.0 4.879296725 1.0 0.0
0.0 4.880647956 1.0 0.0
0.0 4.881999188 1.0 0.0
0.0 4.883350419 1.0 0.0
0.0 4.884701651 1.0 0.0
0.0 4.886052882 1.0 0.0
0.0 4.887404114 1.0 0.0
0.0 4.888755345 1.0 0.0
0.0 4.890106577 1.0 0.0
0.0 4.891457808 1.0 0.0
0.0 4.892809039 1.0 0.0
0.0 4.894160271 1.0 0.0
0.0 4.895511502 1.0 0.0
0.0 4.896862734 1.0 0.0
0.0 4.898213965 1.0 0.0
0.0 4.899565197 1.0 0.0
0.0 4.900916428 1.0 0.0
0.0 4.90226766 1.0 0.0
0.0 4.903618891 1.0 0.0
0.0 4.904970122 1.0 0.0
0.0 4.906321354 1.0 0.0
0.0 4.907672585 1.0 0.0
0.0 4.909023817 1.0 0.0
0.0 4.910375048 1.0 0.0
0.0 4.91172628 1.0 0.0
0.0 4.913077511 1.0 0.0
0.0 4.914428742 1.0 0.0
0.0 4.915779974 1.0 0.0
0.0 4.917131205 1.0 0.0
0.0 4.918482437 1.0 0.0
0.0 4.919833668 1.0 0.0
0.0 4.9211849 1.0 0.0
0.0 4.922536131 1.0 0.0
0.0 4.923887363 1.0 0.0
0.0 4.925238594 1.0 0.0
0.0 4.926589825 1.0 0.0
0.0 4.927941057 1.0 0.0
0.0 4.929292288 1.0 0.0
0.0 4.93064352 1.0 0.0
0.0 4.931994751 1.0 0.0
0.0 4.933345983 1.0 0.0
0.0 4.934697214 1.0 0.0
0.0 4.936048445 1.0 0.0
0.0 4.937399677 1.0 0.0
0.0 4.938750908 1.0 0.0
0.0 4.94010214 1.0 0.0
0.0 4.941453371 1.0 0.0
0.0 4.942804603 1.0 0.0
0.0 4.944155834 1.0 0.0
0.0 4.945507066 1.0 0.0
0.0 4.946858297 1.0 0.0
0.0 4.948209528 1.0 0.0
0.0 4.94956076 1.0 0.0
0.0 4.950911991 1.0 0.0
0.0 4.952263223 1.0 0.0
0.0 4.953614454 1.0 0.0
0.0 4.954965686 1.0 0.0
0.0 4.956316917 1.0 0.0
0.0 4.957668148 1.0 0.0
0.0 4.95901938 1.0 0.0
0.0 4.960370611 1.0 0.0
0.0 4.961721843 1.0 0.0
0.0 4.963073074 1.0 0.0
0.0 4.964424306 1.0 0.0
0.0 4.965775537 1.0 0.0
0.0 4.967126769 1.0 0.0
0.0 4.968478 1.0 0.0
0.0 4.969829231 1.0 0.0
0.0 4.971180463 1.0 0.0
0.0 4.972531694 1.0 0.0
0.0 4.973882926 1.0 0.0
0.0 4.975234157 1.0 0.0
0.0 4.976585389 1.0 0.0
0.0 4.97793662 1.0 0.0
0.0 4.979287852 1.0 0.0
0.0 4.980639083 1.0 0.0
0.0 4.981990314 1.0 0.0
0.0 4.983341546 1.0 0.0
0.0 4.984692777 1.0 0.0
0.0 4.986044009 1.0 0.0
0.0 4.98739524 1.0 0.0
0.0 4.988746472 1.0 0.0
0.0 4.990097703 1.0 0.0
0.0 4.991448934 1.0 0.0
0.0 4.992800166 1.0 0.0
0.0 4.994151397 1.0 0.0
0.0 4.995502629 1.0 0.0
0.0 4.99685386 1.0 0.0
0.0 4.998205092 1.0 0.0
0.0 4.999556323 1.0 0.0
0.0 5.000907555 1.0 0.0
0.0 5.002258786 1.0 0.0
0.0 5.003610017 1.0 0.0
0.0 5.004961249 1.0 0.0
0.0 5.00631248 1.0 0.0
0.0 5.007663712 1.0 0.0
0.0 5.009014943 1.0 0.0
0.0 5.010366175 1.0 0.0
0.0 5.011717406 1.0 0.0
0.0 5.013068637 1.0 0.0
0.0 5.014419869 1.0 0.0
0.0 5.0157711 1.0 0.0
0.0 5.017122332 1.0 0.0
0.0 5.018473563 1.0 0.0
0.0 5.019824795 1.0 0.0
0.0 5.021176026 1.0 0.0
0.0 5.022527258 1.0 0.0
0.0 5.023878489 1.0 0.0
0.0 5.02522972 1.0 0.0
0.0 5.026580952 1.0 0.0
0.0 5.027932183 1.0 0.0
0.0 5.029283415 1.0 0.0
0.0 5.030634646 1.0 0.0
0.0 5.031985878 1.0 0.0
0.0 5.033337109 1.0 0.0
0.0 5.034688341 1.0 0.0
0.0 5.036039572 1.0 0.0
0.0 5.037390803 1.0 0.0
0.0 5.038742035 1.0 0.0
0.0 5.040093266 1.0 0.0
0.0 5.041444498 1.0 0.0
0.0 5.042795729 1.0 0.0
0.0 5.044146961 1.0 0.0
0.0 5.045498192 1.0 0.0
0.0 5.046849423 1.0 0.0
0.0 5.048200655 1.0 0.0
0.0 5.049551886 1.0 0.0
0.0 5.050903118 1.0 0.0
0.0 5.052254349 1.0 0.0
0.0 5.053605581 1.0 0.0
0.0 5.054956812 1.0 0.0
0.0 5.056308044 1.0 0.0
0.0 5.057659275 1.0 0.0
0.0 5.059010506 1.0 0.0
0.0 5.060361738 1.0 0.0
0.0 5.061712969 1.0 0.0
0.0 5.063064201 1.0 0.0
0.0 5.064415432 1.0 0.0
0.0 5.065766664 1.0 0.0
0.0 5.067117895 1.0 0.0
0.0 5.068469126 1.0 0.0
0.0 5.069820358 1.0 0.0
0.0 5.071171589 1.0 0.0
0.0 5.072522821 1.0 0.0
0.0 5.073874052 1.0 0.0
0.0 5.075225284 1.0 0.0
0.0 5.076576515 1.0 0.0
0.0 5.077927747 1.0 0.0
0.0 5.079278978 1.0 0.0
0.0 5.080630209 1.0 0.0
0.0 5.081981441 1.0 0.0
0.0 5.083332672 1.0 0.0
0.0 5.084683904 1.0 0.0
0.0 5.086035135 1.0 0.0
0.0 5.087386367 1.0 0.0
0.0 5.088737598 1.0 0.0
0.0 5.090088829 1.0 0.0
0.0 5.091440061 1.0 0.0
0.0 5.092791292 1.0 0.0
0.0 5.094142524 1.0 0.0
0.0 5.095493755 1.0 0.0
0.0 5.096844987 1.0 0.0
0.0 5.098196218 1.0 0.0
0.0 5.09954745 1.0 0.0
