0.0 2.002074478 0.219864468683 0.0
0.0 2.00368257 0.219768326212 0.0
0.0 2.005290662 0.2196720118 0.0
0.0 2.006898754 0.219575525972 0.0
0.0 2.008506846 0.21947886925 0.0
0.0 2.010114938 0.21938204216 0.0
0.0 2.01172303 0.219285045225 0.0
0.0 2.013331122 0.21918787897 0.0
0.0 2.014939214 0.219090543919 0.0
0.0 2.016547306 0.218993040597 0.0
0.0 2.018155398 0.218895369529 0.0
0.0 2.01976349 0.21879753124 0.0
0.0 2.021371582 0.218699526253 0.0
0.0 2.022979674 0.218601355095 0.0
0.0 2.024587766 0.218503018291 0.0
0.0 2.026195858 0.218404516364 0.0
0.0 2.027803949 0.218305849904 0.0
0.0 2.029412041 0.218207019311 0.0
0.0 2.031020133 0.218108025172 0.0
0.0 2.032628225 0.218008868014 0.0
0.0 2.034236317 0.217909548361 0.0
0.0 2.035844409 0.21781006674 0.0
0.0 2.037452501 0.217710423675 0.0
0.0 2.039060593 0.217610619694 0.0
0.0 2.040668685 0.217510655321 0.0
0.0 2.042276777 0.217410531083 0.0
0.0 2.043884869 0.217310247505 0.0
0.0 2.045492961 0.217209805114 0.0
0.0 2.047101053 0.217109204436 0.0
0.0 2.048709145 0.217008445997 0.0
0.0 2.050317237 0.216907530323 0.0
0.0 2.051925329 0.216806457941 0.0
0.0 2.053533421 0.216705229376 0.0
0.0 2.055141513 0.216603845155 0.0
0.0 2.056749605 0.216502305804 0.0
0.0 2.058357697 0.216400611851 0.0
0.0 2.059965788 0.216298763884 0.0
0.0 2.06157388 0.216196762303 0.0
0.0 2.063181972 0.216094607699 0.0
0.0 2.064790064 0.215992300598 0.0
0.0 2.066398156 0.215889841526 0.0
0.0 2.068006248 0.215787231011 0.0
0.0 2.06961434 0.215684469578 0.0
0.0 2.071222432 0.215581557754 0.0
0.0 2.072830524 0.215478496066 0.0
0.0 2.074438616 0.215375285041 0.0
0.0 2.076046708 0.215271925206 0.0
0.0 2.0776548 0.215168417086 0.0
0.0 2.079262892 0.215064761209 0.0
0.0 2.080870984 0.214960958102 0.0
0.0 2.082479076 0.214857008291 0.0
0.0 2.084087168 0.214752912303 0.0
0.0 2.08569526 0.214648670664 0.0
0.0 2.087303352 0.214544283902 0.0
0.0 2.088911444 0.214439752543 0.0
0.0 2.090519536 0.214335077113 0.0
0.0 2.092127627 0.214230258205 0.0
0.0 2.093735719 0.214125296216 0.0
0.0 2.095343811 0.214020191735 0.0
0.0 2.096951903 0.213914945291 0.0
0.0 2.098559995 0.213809557411 0.0
0.0 2.100168087 0.213704028619 0.0
0.0 2.101776179 0.213598359444 0.0
0.0 2.103384271 0.213492550411 0.0
0.0 2.104992363 0.213386602048 0.0
0.0 2.106600455 0.21328051488 0.0
0.0 2.108208547 0.213174289435 0.0
0.0 2.109816639 0.213067926238 0.0
0.0 2.111424731 0.212961425815 0.0
0.0 2.113032823 0.212854788695 0.0
0.0 2.114640915 0.212748015401 0.0
0.0 2.116249007 0.212641106462 0.0
0.0 2.117857099 0.212534062402 0.0
0.0 2.119465191 0.212426883749 0.0
0.0 2.121073283 0.212319571028 0.0
0.0 2.122681375 0.212212124765 0.0
0.0 2.124289466 0.212104545553 0.0
0.0 2.125897558 0.211996833785 0.0
0.0 2.12750565 0.211888990053 0.0
0.0 2.129113742 0.211781014883 0.0
0.0 2.130721834 0.211672908801 0.0
0.0 2.132329926 0.211564672333 0.0
0.0 2.133938018 0.211456306003 0.0
0.0 2.13554611 0.211347810339 0.0
0.0 2.137154202 0.211239185864 0.0
0.0 2.138762294 0.211130433105 0.0
0.0 2.140370386 0.211021552587 0.0
0.0 2.141978478 0.210912544836 0.0
0.0 2.14358657 0.210803410376 0.0
0.0 2.145194662 0.210694149732 0.0
0.0 2.146802754 0.21058476343 0.0
0.0 2.148410846 0.210475251995 0.0
0.0 2.150018938 0.210365615952 0.0
0.0 2.15162703 0.210255855824 0.0
0.0 2.153235122 0.210145972138 0.0
0.0 2.154843214 0.210035965417 0.0
0.0 2.156451305 0.209925836255 0.0
0.0 2.158059397 0.20981558504 0.0
0.0 2.159667489 0.209705212363 0.0
0.0 2.161275581 0.209594718749 0.0
0.0 2.162883673 0.209484104722 0.0
0.0 2.164491765 0.209373370807 0.0
0.0 2.166099857 0.209262517527 0.0
0.0 2.167707949 0.209151545407 0.0
0.0 2.169316041 0.209040454969 0.0
0.0 2.170924133 0.208929246737 0.0
0.0 2.172532225 0.208817921236 0.0
0.0 2.174140317 0.208706478987 0.0
0.0 2.175748409 0.208594920516 0.0
0.0 2.177356501 0.208483246344 0.0
0.0 2.178964593 0.208371456995 0.0
0.0 2.180572685 0.208259552992 0.0
0.0 2.182180777 0.208147534857 0.0
0.0 2.183788869 0.208035403114 0.0
0.0 2.185396961 0.207923158284 0.0
0.0 2.187005053 0.207810800891 0.0
0.0 2.188613145 0.207698331456 0.0
0.0 2.190221236 0.207585750573 0.0
0.0 2.191829328 0.207473058622 0.0
0.0 2.19343742 0.207360256196 0.0
0.0 2.195045512 0.207247343816 0.0
0.0 2.196653604 0.207134322005 0.0
0.0 2.198261696 0.207021191284 0.0
0.0 2.199869788 0.206907952173 0.0
0.0 2.20147788 0.206794605196 0.0
0.0 2.203085972 0.206681150872 0.0
0.0 2.204694064 0.206567589722 0.0
0.0 2.206302156 0.206453922268 0.0
0.0 2.207910248 0.20634014903 0.0
0.0 2.20951834 0.206226270528 0.0
0.0 2.211126432 0.206112287284 0.0
0.0 2.212734524 0.205998199817 0.0
0.0 2.214342616 0.205884008647 0.0
0.0 2.215950708 0.205769714294 0.0
0.0 2.2175588 0.205655317279 0.0
0.0 2.219166892 0.20554081812 0.0
0.0 2.220774984 0.205426217338 0.0
0.0 2.222383075 0.205311515523 0.0
0.0 2.223991167 0.205196713051 0.0
0.0 2.225599259 0.205081810512 0.0
0.0 2.227207351 0.204966808427 0.0
0.0 2.228815443 0.204851707312 0.0
0.0 2.230423535 0.204736507688 0.0
0.0 2.232031627 0.204621210072 0.0
0.0 2.233639719 0.204505814982 0.0
0.0 2.235247811 0.204390322936 0.0
0.0 2.236855903 0.204274734453 0.0
0.0 2.238463995 0.204159050049 0.0
0.0 2.240072087 0.204043270243 0.0
0.0 2.241680179 0.203927395553 0.0
0.0 2.243288271 0.203811426493 0.0
0.0 2.244896363 0.203695363583 0.0
0.0 2.246504455 0.203579207339 0.0
0.0 2.248112547 0.203462958277 0.0
0.0 2.249720639 0.203346616915 0.0
0.0 2.251328731 0.203230183767 0.0
0.0 2.252936823 0.203113659351 0.0
0.0 2.254544914 0.202997044255 0.0
0.0 2.256153006 0.202880338848 0.0
0.0 2.257761098 0.202763543721 0.0
0.0 2.25936919 0.202646659387 0.0
0.0 2.260977282 0.202529686362 0.0
0.0 2.262585374 0.20241262516 0.0
0.0 2.264193466 0.202295476298 0.0
0.0 2.265801558 0.20217824029 0.0
0.0 2.26740965 0.20206091765 0.0
0.0 2.269017742 0.201943508897 0.0
0.0 2.270625834 0.201826014533 0.0
0.0 2.272233926 0.20170843508 0.0
0.0 2.273842018 0.201590771052 0.0
0.0 2.27545011 0.201473022963 0.0
0.0 2.277058202 0.201355191326 0.0
0.0 2.278666294 0.201237276646 0.0
0.0 2.280274386 0.201119279446 0.0
0.0 2.281882478 0.201001200234 0.0
0.0 2.28349057 0.200883039524 0.0
0.0 2.285098662 0.200764797827 0.0
0.0 2.286706753 0.200646475731 0.0
0.0 2.288314845 0.200528073599 0.0
0.0 2.289922937 0.200409592017 0.0
0.0 2.291531029 0.200291031494 0.0
0.0 2.293139121 0.200172392545 0.0
0.0 2.294747213 0.200053675679 0.0
0.0 2.296355305 0.199934881407 0.0
0.0 2.297963397 0.19981601024 0.0
0.0 2.299571489 0.199697062686 0.0
0.0 2.301179581 0.199578039259 0.0
0.0 2.302787673 0.199458940467 0.0
0.0 2.304395765 0.199339766823 0.0
0.0 2.306003857 0.199220518841 0.0
0.0 2.307611949 0.199101197009 0.0
0.0 2.309220041 0.198981801852 0.0
0.0 2.310828133 0.198862333873 0.0
0.0 2.312436225 0.198742793594 0.0
0.0 2.314044317 0.198623181535 0.0
0.0 2.315652409 0.198503498166 0.0
0.0 2.317260501 0.198383744015 0.0
0.0 2.318868592 0.198263919618 0.0
0.0 2.320476684 0.198144025406 0.0
0.0 2.322084776 0.198024061938 0.0
0.0 2.323692868 0.19790402972 0.0
0.0 2.32530096 0.197783929296 0.0
0.0 2.326909052 0.19766376115 0.0
0.0 2.328517144 0.197543525645 0.0
0.0 2.330125236 0.197423223448 0.0
0.0 2.331733328 0.197302855097 0.0
0.0 2.33334142 0.197182421138 0.0
0.0 2.334949512 0.197061922151 0.0
0.0 2.336557604 0.196941358296 0.0
0.0 2.338165696 0.196820730302 0.0
0.0 2.339773788 0.196700038765 0.0
0.0 2.34138188 0.196579284229 0.0
0.0 2.342989972 0.196458467196 0.0
0.0 2.344598064 0.196337587698 0.0
0.0 2.346206156 0.196216646586 0.0
0.0 2.347814248 0.196095644238 0.0
0.0 2.34942234 0.195974581118 0.0
0.0 2.351030431 0.195853457956 0.0
0.0 2.352638523 0.195732275051 0.0
0.0 2.354246615 0.195611033039 0.0
0.0 2.355854707 0.19548973229 0.0
0.0 2.357462799 0.195368372829 0.0
0.0 2.359070891 0.195246955734 0.0
0.0 2.360678983 0.195125481602 0.0
0.0 2.362287075 0.195003950894 0.0
0.0 2.363895167 0.194882364046 0.0
0.0 2.365503259 0.194760720943 0.0
0.0 2.367111351 0.194639022645 0.0
0.0 2.368719443 0.194517269752 0.0
0.0 2.370327535 0.194395462757 0.0
0.0 2.371935627 0.194273602159 0.0
0.0 2.373543719 0.194151688183 0.0
0.0 2.375151811 0.194029721499 0.0
0.0 2.376759903 0.193907702903 0.0
0.0 2.378367995 0.19378563262 0.0
0.0 2.379976087 0.193663511533 0.0
0.0 2.381584179 0.19354133991 0.0
0.0 2.383192271 0.193419118245 0.0
0.0 2.384800362 0.193296847007 0.0
0.0 2.386408454 0.193174526434 0.0
0.0 2.388016546 0.193052157256 0.0
0.0 2.389624638 0.192929739982 0.0
0.0 2.39123273 0.19280727509 0.0
0.0 2.392840822 0.192684763103 0.0
0.0 2.394448914 0.192562204794 0.0
0.0 2.396057006 0.192439599352 0.0
0.0 2.397665098 0.192316948712 0.0
0.0 2.39927319 0.192194252953 0.0
0.0 2.400881282 0.192071512526 0.0
0.0 2.402489374 0.191948727995 0.0
0.0 2.404097466 0.191825899927 0.0
0.0 2.405705558 0.19170302831 0.0
0.0 2.40731365 0.19158011405 0.0
0.0 2.408921742 0.191457157662 0.0
0.0 2.410529834 0.191334159615 0.0
0.0 2.412137926 0.191211120375 0.0
0.0 2.413746018 0.191088040334 0.0
0.0 2.41535411 0.190964920058 0.0
0.0 2.416962201 0.190841760153 0.0
0.0 2.418570293 0.190718560731 0.0
0.0 2.420178385 0.190595322701 0.0
0.0 2.421786477 0.190472046461 0.0
0.0 2.423394569 0.190348732529 0.0
0.0 2.425002661 0.190225381482 0.0
0.0 2.426610753 0.190101993668 0.0
0.0 2.428218845 0.189978569154 0.0
0.0 2.429826937 0.189855108938 0.0
0.0 2.431435029 0.18973161354 0.0
0.0 2.433043121 0.189608083416 0.0
0.0 2.434651213 0.189484519139 0.0
0.0 2.436259305 0.189360920501 0.0
0.0 2.437867397 0.189237288658 0.0
0.0 2.439475489 0.189113624054 0.0
0.0 2.441083581 0.188989927179 0.0
0.0 2.442691673 0.188866198461 0.0
0.0 2.444299765 0.188742438469 0.0
0.0 2.445907857 0.188618647453 0.0
0.0 2.447515949 0.188494826044 0.0
0.0 2.44912404 0.188370974709 0.0
0.0 2.450732132 0.188247093788 0.0
0.0 2.452340224 0.188123184043 0.0
0.0 2.453948316 0.187999245893 0.0
0.0 2.455556408 0.187875279829 0.0
0.0 2.4571645 0.187751286325 0.0
0.0 2.458772592 0.187627265705 0.0
0.0 2.460380684 0.187503218595 0.0
0.0 2.461988776 0.187379145539 0.0
0.0 2.463596868 0.18725504697 0.0
0.0 2.46520496 0.187130923376 0.0
0.0 2.466813052 0.187006775317 0.0
0.0 2.468421144 0.186882603141 0.0
0.0 2.470029236 0.186758407302 0.0
0.0 2.471637328 0.186634188395 0.0
0.0 2.47324542 0.186509946925 0.0
0.0 2.474853512 0.18638568337 0.0
0.0 2.476461604 0.186261398307 0.0
0.0 2.478069696 0.186137091907 0.0
0.0 2.479677788 0.186012764775 0.0
0.0 2.481285879 0.185888417565 0.0
0.0 2.482893971 0.185764050606 0.0
0.0 2.484502063 0.18563966446 0.0
0.0 2.486110155 0.185515259598 0.0
0.0 2.487718247 0.185390836515 0.0
0.0 2.489326339 0.185266395693 0.0
0.0 2.490934431 0.185141937685 0.0
0.0 2.492542523 0.185017462388 0.0
0.0 2.494150615 0.184892976907 0.0
0.0 2.495758707 0.184768467554 0.0
0.0 2.497366799 0.184643947516 0.0
0.0 2.498974891 0.18451941528 0.0
0.0 2.499778162 0.184457221367 0.0
0.0 2.500582983 0.184394873932 0.0
0.0 2.501129393 0.184352545761 0.0
0.0 2.502191075 0.184270306308 0.0
0.0 2.502480624 0.184247871594 0.0
0.0 2.503831856 0.184143197907 0.0
0.0 2.505183087 0.184038488547 0.0
0.0 2.506534319 0.183933786096 0.0
0.0 2.50788555 0.183829078057 0.0
0.0 2.509236782 0.183724363271 0.0
0.0 2.510588013 0.183619641668 0.0
0.0 2.511939244 0.183514908861 0.0
0.0 2.513290476 0.183410166732 0.0
0.0 2.514641707 0.183305420344 0.0
0.0 2.515992939 0.183200668808 0.0
0.0 2.51734417 0.183095909615 0.0
0.0 2.518695402 0.182991142533 0.0
0.0 2.520046633 0.182886370497 0.0
0.0 2.521397865 0.182781592317 0.0
0.0 2.522749096 0.182676809165 0.0
0.0 2.524100327 0.182572019976 0.0
0.0 2.525451559 0.182467226861 0.0
0.0 2.52680279 0.182362429089 0.0
0.0 2.528154022 0.182257626861 0.0
0.0 2.529505253 0.182152820705 0.0
0.0 2.530856485 0.182048011275 0.0
0.0 2.532207716 0.181943197471 0.0
0.0 2.533558948 0.181838381165 0.0
0.0 2.534910179 0.181733561572 0.0
0.0 2.53626141 0.181628739476 0.0
0.0 2.537612642 0.181523915462 0.0
0.0 2.538963873 0.181419088718 0.0
0.0 2.540315105 0.181314260453 0.0
0.0 2.541666336 0.181209430973 0.0
0.0 2.543017568 0.181104600013 0.0
0.0 2.544368799 0.180999768337 0.0
0.0 2.54572003 0.180894935993 0.0
0.0 2.547071262 0.180790103267 0.0
0.0 2.548422493 0.180685270453 0.0
0.0 2.549773725 0.180580437943 0.0
0.0 2.551124956 0.18047560581 0.0
0.0 2.552476188 0.180370774454 0.0
0.0 2.553827419 0.180265944255 0.0
0.0 2.555178651 0.180161115363 0.0
0.0 2.556529882 0.180056288119 0.0
0.0 2.557881113 0.179951462736 0.0
0.0 2.559232345 0.179846639482 0.0
0.0 2.560583576 0.179741818751 0.0
0.0 2.561934808 0.179637000687 0.0
0.0 2.563286039 0.179532185746 0.0
0.0 2.564637271 0.179427374034 0.0
0.0 2.565988502 0.179322565986 0.0
0.0 2.567339733 0.179217761801 0.0
0.0 2.568690965 0.179112961669 0.0
0.0 2.570042196 0.179008166035 0.0
0.0 2.571393428 0.178903375049 0.0
0.0 2.572744659 0.178798589118 0.0
0.0 2.574095891 0.178693808372 0.0
0.0 2.575447122 0.178589033253 0.0
0.0 2.576798354 0.178484263874 0.0
0.0 2.578149585 0.178379500685 0.0
0.0 2.579500816 0.178274743881 0.0
0.0 2.580852048 0.178169993638 0.0
0.0 2.582203279 0.178065250432 0.0
0.0 2.583554511 0.17796051435 0.0
0.0 2.584905742 0.177855785869 0.0
0.0 2.586256974 0.177751065096 0.0
0.0 2.587608205 0.177646352434 0.0
0.0 2.588959437 0.177541648038 0.0
0.0 2.590310668 0.177436952355 0.0
0.0 2.591661899 0.177332265528 0.0
0.0 2.593013131 0.17722758781 0.0
0.0 2.594364362 0.177122919621 0.0
0.0 2.595715594 0.177018261098 0.0
0.0 2.597066825 0.176913612633 0.0
0.0 2.598418057 0.176808974391 0.0
0.0 2.599769288 0.176704346807 0.0
0.0 2.601120519 0.176599730062 0.0
0.0 2.602471751 0.176495124335 0.0
0.0 2.603822982 0.176390530082 0.0
0.0 2.605174214 0.176285947448 0.0
0.0 2.606525445 0.176181376839 0.0
0.0 2.607876677 0.17607681837 0.0
0.0 2.609227908 0.175972272498 0.0
0.0 2.61057914 0.175867739341 0.0
0.0 2.611930371 0.175763219333 0.0
0.0 2.613281602 0.175658712626 0.0
0.0 2.614632834 0.175554219481 0.0
0.0 2.615984065 0.175449740289 0.0
0.0 2.617335297 0.175345275208 0.0
0.0 2.618686528 0.175240824658 0.0
0.0 2.62003776 0.175136388759 0.0
0.0 2.621388991 0.17503196793 0.0
0.0 2.622740222 0.174927562383 0.0
0.0 2.624091454 0.174823172306 0.0
0.0 2.625442685 0.174718798151 0.0
0.0 2.626793917 0.174614440017 0.0
0.0 2.628145148 0.174510098341 0.0
0.0 2.62949638 0.174405773248 0.0
0.0 2.630847611 0.174301465177 0.0
0.0 2.632198843 0.174197174251 0.0
0.0 2.633550074 0.174092900887 0.0
0.0 2.634901305 0.17398864528 0.0
0.0 2.636252537 0.173884407643 0.0
0.0 2.637603768 0.173780188406 0.0
0.0 2.638955 0.173675987683 0.0
0.0 2.640306231 0.173571805902 0.0
0.0 2.641657463 0.173467643186 0.0
0.0 2.643008694 0.173363499975 0.0
0.0 2.644359925 0.173259376463 0.0
0.0 2.645711157 0.173155272848 0.0
0.0 2.647062388 0.173051189546 0.0
0.0 2.64841362 0.172947126682 0.0
0.0 2.649764851 0.172843084705 0.0
0.0 2.651116083 0.172739063727 0.0
0.0 2.652467314 0.172635064167 0.0
0.0 2.653818546 0.172531086163 0.0
0.0 2.655169777 0.172427130138 0.0
0.0 2.656521008 0.172323196271 0.0
0.0 2.65787224 0.172219284786 0.0
0.0 2.659223471 0.172115396092 0.0
0.0 2.660574703 0.172011530318 0.0
0.0 2.661925934 0.171907687902 0.0
0.0 2.663277166 0.17180386897 0.0
0.0 2.664628397 0.171700073913 0.0
0.0 2.665979629 0.171596302867 0.0
0.0 2.66733086 0.171492556293 0.0
0.0 2.668682091 0.171388834361 0.0
0.0 2.670033323 0.171285137264 0.0
0.0 2.671384554 0.171181465435 0.0
0.0 2.672735786 0.171077819003 0.0
0.0 2.674087017 0.170974198402 0.0
0.0 2.675438249 0.170870603738 0.0
0.0 2.67678948 0.170767035434 0.0
0.0 2.678140711 0.170663493686 0.0
0.0 2.679491943 0.170559978719 0.0
0.0 2.680843174 0.170456490934 0.0
0.0 2.682194406 0.17035303046 0.0
0.0 2.683545637 0.170249597733 0.0
0.0 2.684896869 0.170146192865 0.0
0.0 2.6862481 0.170042816276 0.0
0.0 2.687599332 0.169939468083 0.0
0.0 2.688950563 0.169836148744 0.0
0.0 2.690301794 0.169732858428 0.0
0.0 2.691653026 0.169629597327 0.0
0.0 2.693004257 0.16952636589 0.0
0.0 2.694355489 0.169423164229 0.0
0.0 2.69570672 0.169319992767 0.0
0.0 2.697057952 0.169216851628 0.0
0.0 2.698409183 0.169113741238 0.0
0.0 2.699760414 0.169010661788 0.0
0.0 2.701111646 0.168907613482 0.0
0.0 2.702462877 0.168804596747 0.0
0.0 2.703814109 0.1687016117 0.0
0.0 2.70516534 0.16859865877 0.0
0.0 2.706516572 0.168495738067 0.0
0.0 2.707867803 0.16839285003 0.0
0.0 2.709219035 0.168289994775 0.0
0.0 2.710570266 0.168187172727 0.0
0.0 2.711921497 0.168084384089 0.0
0.0 2.713272729 0.167981629046 0.0
0.0 2.71462396 0.167878908028 0.0
0.0 2.715975192 0.16777622116 0.0
0.0 2.717326423 0.167673568863 0.0
0.0 2.718677655 0.167570951256 0.0
0.0 2.720028886 0.167468368771 0.0
0.0 2.721380117 0.167365821602 0.0
0.0 2.722731349 0.167263309951 0.0
0.0 2.72408258 0.167160834225 0.0
0.0 2.725433812 0.167058394566 0.0
0.0 2.726785043 0.166955991382 0.0
0.0 2.728136275 0.166853624811 0.0
0.0 2.729487506 0.166751295252 0.0
0.0 2.730838738 0.166649002853 0.0
0.0 2.732189969 0.166546748031 0.0
0.0 2.7335412 0.166444530975 0.0
0.0 2.734892432 0.166342351879 0.0
0.0 2.736243663 0.166240211179 0.0
0.0 2.737594895 0.166138108995 0.0
0.0 2.738946126 0.166036045749 0.0
0.0 2.740297358 0.165934021562 0.0
0.0 2.741648589 0.165832036845 0.0
0.0 2.742999821 0.165730091747 0.0
0.0 2.744351052 0.165628186669 0.0
0.0 2.745702283 0.165526321809 0.0
0.0 2.747053515 0.165424497378 0.0
0.0 2.748404746 0.165322713807 0.0
0.0 2.749755978 0.165220971178 0.0
0.0 2.751107209 0.165119269941 0.0
0.0 2.752458441 0.165017610229 0.0
0.0 2.753809672 0.164915992447 0.0
0.0 2.755160903 0.164814416795 0.0
0.0 2.756512135 0.164712883472 0.0
0.0 2.757863366 0.164611392904 0.0
0.0 2.759214598 0.164509945217 0.0
0.0 2.760565829 0.164408540822 0.0
0.0 2.761917061 0.164307179849 0.0
0.0 2.763268292 0.164205862719 0.0
0.0 2.764619524 0.164104589557 0.0
0.0 2.765970755 0.164003360773 0.0
0.0 2.767321986 0.163902176583 0.0
0.0 2.768673218 0.163801037176 0.0
0.0 2.770024449 0.16369994298 0.0
0.0 2.771375681 0.163598894111 0.0
0.0 2.772726912 0.163497890989 0.0
0.0 2.774078144 0.163396933744 0.0
0.0 2.775429375 0.16329602279 0.0
0.0 2.776780606 0.163195158344 0.0
0.0 2.778131838 0.163094340573 0.0
0.0 2.779483069 0.162993569917 0.0
0.0 2.780834301 0.162892846506 0.0
0.0 2.782185532 0.162792170762 0.0
0.0 2.783536764 0.162691542793 0.0
0.0 2.784887995 0.162590963026 0.0
0.0 2.786239227 0.162490431595 0.0
0.0 2.787590458 0.162389948918 0.0
0.0 2.788941689 0.162289515195 0.0
0.0 2.790292921 0.162189130603 0.0
0.0 2.791644152 0.162088795586 0.0
0.0 2.792995384 0.161988510263 0.0
0.0 2.794346615 0.16188827506 0.0
0.0 2.795697847 0.161788090096 0.0
0.0 2.797049078 0.161687955792 0.0
0.0 2.798400309 0.161587872348 0.0
0.0 2.799751541 0.161487839966 0.0
0.0 2.801102772 0.161387859067 0.0
0.0 2.802454004 0.161287929773 0.0
0.0 2.803805235 0.161188052508 0.0
0.0 2.805156467 0.161088227384 0.0
0.0 2.806507698 0.160988454841 0.0
0.0 2.80785893 0.160888735001 0.0
0.0 2.809210161 0.160789068264 0.0
0.0 2.810561392 0.16068945485 0.0
0.0 2.811912624 0.160589894955 0.0
0.0 2.813263855 0.160490389017 0.0
0.0 2.814615087 0.160390937122 0.0
0.0 2.815966318 0.160291539727 0.0
0.0 2.81731755 0.160192196952 0.0
0.0 2.818668781 0.160092909203 0.0
0.0 2.820020013 0.159993676611 0.0
0.0 2.821371244 0.159894499597 0.0
0.0 2.822722475 0.159795378374 0.0
0.0 2.824073707 0.159696313128 0.0
0.0 2.825424938 0.159597304289 0.0
0.0 2.82677617 0.15949835199 0.0
0.0 2.828127401 0.159399456618 0.0
0.0 2.829478633 0.159300618335 0.0
0.0 2.830829864 0.159201837551 0.0
0.0 2.832181095 0.159103114466 0.0
0.0 2.833532327 0.159004449284 0.0
0.0 2.834883558 0.158905842422 0.0
0.0 2.83623479 0.158807294012 0.0
0.0 2.837586021 0.158708804468 0.0
0.0 2.838937253 0.158610373924 0.0
0.0 2.840288484 0.1585120028 0.0
0.0 2.841639716 0.158413691223 0.0
0.0 2.842990947 0.158315439615 0.0
0.0 2.844342178 0.158217248176 0.0
0.0 2.84569341 0.15811911711 0.0
0.0 2.847044641 0.158021046845 0.0
0.0 2.848395873 0.157923037488 0.0
0.0 2.849747104 0.157825089477 0.0
0.0 2.851098336 0.157727202942 0.0
0.0 2.852449567 0.157629378307 0.0
0.0 2.853800798 0.157531615755 0.0
0.0 2.85515203 0.157433915503 0.0
0.0 2.856503261 0.15733627797 0.0
0.0 2.857854493 0.157238703288 0.0
0.0 2.859205724 0.157141191873 0.0
0.0 2.860556956 0.157043743862 0.0
0.0 2.861908187 0.156946359672 0.0
0.0 2.863259419 0.156849039435 0.0
0.0 2.86461065 0.156751783571 0.0
0.0 2.865961881 0.156654592285 0.0
0.0 2.867313113 0.156557465777 0.0
0.0 2.868664344 0.156460404474 0.0
0.0 2.870015576 0.156363408496 0.0
0.0 2.871366807 0.156266478277 0.0
0.0 2.872718039 0.156169613944 0.0
0.0 2.87406927 0.156072815918 0.0
0.0 2.875420501 0.155976084406 0.0
0.0 2.876771733 0.155879419608 0.0
0.0 2.878122964 0.155782821948 0.0
0.0 2.879474196 0.155686291559 0.0
0.0 2.880825427 0.155589828855 0.0
0.0 2.882176659 0.155493433981 0.0
0.0 2.88352789 0.155397107352 0.0
0.0 2.884879122 0.155300849103 0.0
0.0 2.886230353 0.155204659655 0.0
0.0 2.887581584 0.155108539212 0.0
0.0 2.888932816 0.155012487983 0.0
0.0 2.890284047 0.154916506387 0.0
0.0 2.891635279 0.15482059456 0.0
0.0 2.89298651 0.154724752924 0.0
0.0 2.894337742 0.154628981611 0.0
0.0 2.895688973 0.154533281043 0.0
0.0 2.897040205 0.154437651358 0.0
0.0 2.898391436 0.154342092977 0.0
0.0 2.899742667 0.154246606106 0.0
0.0 2.901093899 0.154151190952 0.0
0.0 2.90244513 0.154055847938 0.0
0.0 2.903796362 0.153960577201 0.0
0.0 2.905147593 0.153865379161 0.0
0.0 2.906498825 0.153770253955 0.0
0.0 2.907850056 0.153675202006 0.0
0.0 2.909201287 0.15358022352 0.0
0.0 2.910552519 0.153485318716 0.0
0.0 2.91190375 0.153390487993 0.0
0.0 2.913254982 0.153295731511 0.0
0.0 2.914606213 0.153201049683 0.0
0.0 2.915957445 0.153106442658 0.0
0.0 2.917308676 0.153011910835 0.0
0.0 2.918659908 0.152917454374 0.0
0.0 2.920011139 0.152823073689 0.0
0.0 2.92136237 0.152728768991 0.0
0.0 2.922713602 0.152634540495 0.0
0.0 2.924064833 0.152540388625 0.0
0.0 2.925416065 0.152446313505 0.0
0.0 2.926767296 0.152352315551 0.0
0.0 2.928118528 0.152258394939 0.0
0.0 2.929469759 0.152164552066 0.0
0.0 2.93082099 0.152070787161 0.0
0.0 2.932172222 0.151977100414 0.0
0.0 2.933523453 0.151883492263 0.0
0.0 2.934874685 0.151789962856 0.0
0.0 2.936225916 0.151696512586 0.0
0.0 2.937577148 0.151603141626 0.0
0.0 2.938928379 0.151509850398 0.0
0.0 2.940279611 0.151416639018 0.0
0.0 2.941630842 0.151323507927 0.0
0.0 2.942982073 0.151230457341 0.0
0.0 2.944333305 0.151137487469 0.0
0.0 2.945684536 0.151044598735 0.0
0.0 2.947035768 0.150951791285 0.0
0.0 2.948386999 0.150859065542 0.0
0.0 2.949738231 0.150766421651 0.0
0.0 2.951089462 0.150673860033 0.0
0.0 2.952440694 0.150581380852 0.0
0.0 2.953791925 0.150488984498 0.0
0.0 2.955143156 0.150396671198 0.0
0.0 2.956494388 0.150304441184 0.0
0.0 2.957845619 0.150212294873 0.0
0.0 2.959196851 0.15012023241 0.0
0.0 2.960548082 0.150028254193 0.0
0.0 2.961899314 0.149936360409 0.0
0.0 2.963250545 0.14984455146 0.0
0.0 2.964601776 0.149752827578 0.0
0.0 2.965953008 0.149661188966 0.0
0.0 2.967304239 0.149569636048 0.0
0.0 2.968655471 0.14947816899 0.0
0.0 2.970006702 0.149386788217 0.0
0.0 2.971357934 0.14929549385 0.0
0.0 2.972709165 0.14920428634 0.0
0.0 2.974060397 0.149113165831 0.0
0.0 2.975411628 0.149022132751 0.0
0.0 2.976762859 0.148931187312 0.0
0.0 2.978114091 0.148840329739 0.0
0.0 2.979465322 0.14874956045 0.0
0.0 2.980816554 0.148658879602 0.0
0.0 2.982167785 0.14856828763 0.0
0.0 2.983519017 0.148477784657 0.0
0.0 2.984870248 0.148387371146 0.0
0.0 2.986221479 0.148297047293 0.0
0.0 2.987572711 0.148206813336 0.0
0.0 2.988923942 0.148116669689 0.0
0.0 2.990275174 0.148026616507 0.0
0.0 2.991626405 0.147936654221 0.0
0.0 2.992977637 0.147846782991 0.0
0.0 2.994328868 0.14775700323 0.0
0.0 2.9956801 0.147667315116 0.0
0.0 2.997031331 0.147577719049 0.0
0.0 2.998382562 0.147488215258 0.0
0.0 2.999733794 0.147398803972 0.0
0.0 3.001085025 0.147309485625 0.0
0.0 3.002436257 0.147220260378 0.0
0.0 3.003787488 0.147131128642 0.0
0.0 3.00513872 0.147042090565 0.0
0.0 3.006489951 0.146953146597 0.0
0.0 3.007841182 0.146864296967 0.0
0.0 3.009192414 0.1467755419 0.0
0.0 3.010543645 0.146686881804 0.0
0.0 3.011894877 0.146598316864 0.0
0.0 3.013246108 0.146509847487 0.0
0.0 3.01459734 0.146421473849 0.0
0.0 3.015948571 0.146333196367 0.0
0.0 3.017299803 0.146245015211 0.0
0.0 3.018651034 0.146156930813 0.0
0.0 3.020002265 0.146068943385 0.0
0.0 3.021353497 0.145981053169 0.0
0.0 3.022704728 0.145893260588 0.0
0.0 3.02405596 0.145805565818 0.0
0.0 3.025407191 0.145717969273 0.0
0.0 3.026758423 0.145630471115 0.0
0.0 3.028109654 0.145543071786 0.0
0.0 3.029460886 0.145455771454 0.0
0.0 3.030812117 0.145368570533 0.0
0.0 3.032163348 0.145281469265 0.0
0.0 3.03351458 0.145194467887 0.0
0.0 3.034865811 0.145107566817 0.0
0.0 3.036217043 0.145020766231 0.0
0.0 3.037568274 0.144934066555 0.0
0.0 3.038919506 0.144847467962 0.0
0.0 3.040270737 0.144760970875 0.0
0.0 3.041621968 0.144674575536 0.0
0.0 3.0429732 0.144588282184 0.0
0.0 3.044324431 0.144502091233 0.0
0.0 3.045675663 0.144416002856 0.0
0.0 3.047026894 0.1443300175 0.0
0.0 3.048378126 0.144244135333 0.0
0.0 3.049729357 0.144158356772 0.0
0.0 3.051080589 0.144072682004 0.0
0.0 3.05243182 0.143987111457 0.0
0.0 3.053783051 0.14390164535 0.0
0.0 3.055134283 0.143816283955 0.0
0.0 3.056485514 0.143731027688 0.0
0.0 3.057836746 0.143645876717 0.0
0.0 3.059187977 0.143560831479 0.0
0.0 3.060539209 0.143475892151 0.0
0.0 3.06189044 0.143391059166 0.0
0.0 3.063241671 0.143306332769 0.0
0.0 3.064592903 0.143221713202 0.0
0.0 3.065944134 0.143137200884 0.0
0.0 3.067295366 0.143052795995 0.0
0.0 3.068646597 0.142968498975 0.0
0.0 3.069997829 0.142884310011 0.0
0.0 3.07134906 0.142800229528 0.0
0.0 3.072700292 0.142716257706 0.0
0.0 3.074051523 0.142632394982 0.0
0.0 3.075402754 0.142548641596 0.0
0.0 3.076753986 0.142464997799 0.0
0.0 3.078105217 0.142381464019 0.0
0.0 3.079456449 0.142298040442 0.0
0.0 3.08080768 0.142214727501 0.0
0.0 3.082158912 0.142131525383 0.0
0.0 3.083510143 0.142048434519 0.0
0.0 3.084861374 0.141965455155 0.0
0.0 3.086212606 0.141882587548 0.0
0.0 3.087563837 0.141799832126 0.0
0.0 3.088915069 0.141717189082 0.0
0.0 3.0902663 0.14163465884 0.0
0.0 3.091617532 0.141552241595 0.0
0.0 3.092968763 0.141469937786 0.0
0.0 3.094319995 0.141387747595 0.0
0.0 3.095671226 0.141305671463 0.0
0.0 3.097022457 0.141223709641 0.0
0.0 3.098373689 0.141141862381 0.0
0.0 3.09972492 0.141060130119 0.0
0.0 3.101076152 0.140978513048 0.0
0.0 3.102427383 0.140897011603 0.0
0.0 3.103778615 0.140815625979 0.0
0.0 3.105129846 0.140734356612 0.0
0.0 3.106481078 0.140653203698 0.0
0.0 3.107832309 0.140572167671 0.0
0.0 3.10918354 0.140491248789 0.0
0.0 3.110534772 0.140410447309 0.0
0.0 3.111886003 0.140329763669 0.0
0.0 3.113237235 0.140249198066 0.0
0.0 3.114588466 0.140168750938 0.0
0.0 3.115939698 0.140088422485 0.0
0.0 3.117290929 0.140008213143 0.0
0.0 3.11864216 0.139928123173 0.0
0.0 3.119993392 0.139848152836 0.0
0.0 3.121344623 0.139768302569 0.0
0.0 3.122695855 0.139688572576 0.0
0.0 3.124047086 0.139608963295 0.0
0.0 3.125398318 0.139529474929 0.0
0.0 3.126749549 0.139450107918 0.0
0.0 3.128100781 0.139370862468 0.0
0.0 3.129452012 0.139291739015 0.0
0.0 3.130803243 0.139212737828 0.0
0.0 3.132154475 0.139133859172 0.0
0.0 3.133505706 0.139055103481 0.0
0.0 3.134856938 0.138976470965 0.0
0.0 3.136208169 0.138897962065 0.0
0.0 3.137559401 0.138819576994 0.0
0.0 3.138910632 0.138741316192 0.0
0.0 3.140261863 0.138663179926 0.0
0.0 3.141613095 0.138585168463 0.0
0.0 3.142964326 0.138507282248 0.0
0.0 3.144315558 0.138429521491 0.0
0.0 3.145666789 0.138351886639 0.0
0.0 3.147018021 0.138274377898 0.0
0.0 3.148369252 0.138196995712 0.0
0.0 3.149720484 0.138119740301 0.0
0.0 3.151071715 0.138042612109 0.0
0.0 3.152422946 0.137965611405 0.0
0.0 3.153774178 0.137888738449 0.0
0.0 3.155125409 0.137811993707 0.0
0.0 3.156476641 0.13773537739 0.0
0.0 3.157827872 0.137658889948 0.0
0.0 3.159179104 0.137582531602 0.0
0.0 3.160530335 0.137506302774 0.0
0.0 3.161881566 0.137430203744 0.0
0.0 3.163232798 0.137354234808 0.0
0.0 3.164584029 0.137278396408 0.0
0.0 3.165935261 0.137202688765 0.0
0.0 3.167286492 0.137127112324 0.0
0.0 3.168637724 0.137051667308 0.0
0.0 3.169988955 0.136976354166 0.0
0.0 3.171340187 0.136901173121 0.0
0.0 3.172691418 0.136826124623 0.0
0.0 3.174042649 0.136751208952 0.0
0.0 3.175393881 0.13667642639 0.0
0.0 3.176745112 0.136601777388 0.0
0.0 3.178096344 0.136527262172 0.0
0.0 3.179447575 0.136452881192 0.0
0.0 3.180798807 0.136378634678 0.0
0.0 3.182150038 0.136304523081 0.0
0.0 3.18350127 0.13623054663 0.0
0.0 3.184852501 0.136156705776 0.0
0.0 3.186203732 0.136083000806 0.0
0.0 3.187554964 0.136009432009 0.0
0.0 3.188906195 0.135935999835 0.0
0.0 3.190257427 0.135862704519 0.0
0.0 3.191608658 0.135789546513 0.0
0.0 3.19295989 0.135716526053 0.0
0.0 3.194311121 0.135643643592 0.0
0.0 3.195662352 0.13557089942 0.0
0.0 3.197013584 0.135498293832 0.0
0.0 3.198364815 0.135425827277 0.0
0.0 3.199716047 0.135353499997 0.0
0.0 3.201067278 0.135281312447 0.0
0.0 3.20241851 0.135209264868 0.0
0.0 3.203769741 0.135137357712 0.0
0.0 3.205120973 0.135065591225 0.0
0.0 3.206472204 0.134993965862 0.0
0.0 3.207823435 0.134922481918 0.0
0.0 3.209174667 0.13485113969 0.0
0.0 3.210525898 0.134779939638 0.0
0.0 3.21187713 0.134708882006 0.0
0.0 3.213228361 0.134637967251 0.0
0.0 3.214579593 0.134567195625 0.0
0.0 3.215930824 0.134496567585 0.0
0.0 3.217282055 0.134426083425 0.0
0.0 3.218633287 0.134355743444 0.0
0.0 3.219984518 0.134285548108 0.0
0.0 3.22133575 0.134215497675 0.0
0.0 3.222686981 0.134145592599 0.0
0.0 3.224038213 0.134075833134 0.0
0.0 3.225389444 0.134006219736 0.0
0.0 3.226740676 0.133936752665 0.0
0.0 3.228091907 0.133867432378 0.0
0.0 3.229443138 0.133798259184 0.0
0.0 3.23079437 0.133729233391 0.0
0.0 3.232145601 0.133660355462 0.0
0.0 3.233496833 0.133591625654 0.0
0.0 3.234848064 0.133523044432 0.0
0.0 3.236199296 0.133454612054 0.0
0.0 3.237550527 0.133386328984 0.0
0.0 3.238901759 0.133318195482 0.0
0.0 3.24025299 0.133250212017 0.0
0.0 3.241604221 0.133182378898 0.0
0.0 3.242955453 0.133114696445 0.0
0.0 3.244306684 0.133047165114 0.0
0.0 3.245657916 0.132979785178 0.0
0.0 3.247009147 0.132912557103 0.0
0.0 3.248360379 0.132845481156 0.0
0.0 3.24971161 0.132778557802 0.0
0.0 3.251062841 0.132711787364 0.0
0.0 3.252414073 0.132645170164 0.0
0.0 3.253765304 0.132578706666 0.0
0.0 3.255116536 0.132512397106 0.0
0.0 3.256467767 0.132446242005 0.0
0.0 3.257818999 0.132380241621 0.0
0.0 3.25917023 0.132314396433 0.0
0.0 3.260521462 0.132248706687 0.0
0.0 3.261872693 0.132183172889 0.0
0.0 3.263223924 0.132117795328 0.0
0.0 3.264575156 0.132052574339 0.0
0.0 3.265926387 0.131987510412 0.0
0.0 3.267277619 0.131922603813 0.0
0.0 3.26862885 0.131857855015 0.0
0.0 3.269980082 0.131793264309 0.0
0.0 3.271331313 0.13172883216 0.0
0.0 3.272682544 0.131664558898 0.0
0.0 3.274033776 0.131600444856 0.0
0.0 3.275385007 0.131536490507 0.0
0.0 3.276736239 0.131472696139 0.0
0.0 3.27808747 0.131409062228 0.0
0.0 3.279438702 0.131345589065 0.0
0.0 3.280789933 0.13128227711 0.0
0.0 3.282141165 0.131219126667 0.0
0.0 3.283492396 0.131156138206 0.0
0.0 3.284843627 0.131093312069 0.0
0.0 3.286194859 0.131030648594 0.0
0.0 3.28754609 0.130968148256 0.0
0.0 3.288897322 0.130905811352 0.0
0.0 3.290248553 0.130843638359 0.0
0.0 3.291599785 0.130781629574 0.0
0.0 3.292951016 0.130719785476 0.0
0.0 3.294302247 0.130658106408 0.0
0.0 3.295653479 0.130596592715 0.0
0.0 3.29700471 0.130535244879 0.0
0.0 3.298355942 0.130474063198 0.0
0.0 3.299707173 0.130413048153 0.0
0.0 3.301058405 0.13035220005 0.0
0.0 3.302409636 0.130291519372 0.0
0.0 3.303760868 0.130231006419 0.0
0.0 3.305112099 0.130170661679 0.0
0.0 3.30646333 0.130110485502 0.0
0.0 3.307814562 0.13005047824 0.0
0.0 3.309165793 0.129990640377 0.0
0.0 3.310517025 0.129930972218 0.0
0.0 3.311868256 0.129871474253 0.0
0.0 3.313219488 0.129812146793 0.0
0.0 3.314570719 0.129752990322 0.0
0.0 3.315921951 0.129694005161 0.0
0.0 3.317273182 0.12963519179 0.0
0.0 3.318624413 0.129576550572 0.0
0.0 3.319975645 0.129518081866 0.0
0.0 3.321326876 0.129459786158 0.0
0.0 3.322678108 0.129401663768 0.0
0.0 3.324029339 0.129343715187 0.0
0.0 3.325380571 0.129285940733 0.0
0.0 3.326731802 0.1292283409 0.0
0.0 3.328083033 0.12917091605 0.0
0.0 3.329434265 0.129113666549 0.0
0.0 3.330785496 0.12905659289 0.0
0.0 3.332136728 0.128999695399 0.0
0.0 3.333487959 0.128942974568 0.0
0.0 3.334839191 0.128886430725 0.0
0.0 3.336190422 0.128830064367 0.0
0.0 3.337541654 0.128773875818 0.0
0.0 3.338892885 0.128717865576 0.0
0.0 3.340244116 0.128662034016 0.0
0.0 3.341595348 0.128606381509 0.0
0.0 3.342946579 0.128550908552 0.0
0.0 3.344297811 0.128495615481 0.0
0.0 3.345649042 0.128440502793 0.0
0.0 3.347000274 0.128385570826 0.0
0.0 3.348351505 0.128330820077 0.0
0.0 3.349702736 0.128276250927 0.0
0.0 3.351053968 0.128221863755 0.0
0.0 3.352405199 0.128167659062 0.0
0.0 3.353756431 0.128113637189 0.0
0.0 3.355107662 0.12805979864 0.0
0.0 3.356458894 0.128006143757 0.0
0.0 3.357810125 0.127952673044 0.0
0.0 3.359161357 0.127899386847 0.0
0.0 3.360512588 0.12784628567 0.0
0.0 3.361863819 0.1277933699 0.0
0.0 3.363215051 0.127740639926 0.0
0.0 3.364566282 0.127688096254 0.0
0.0 3.365917514 0.127635739235 0.0
0.0 3.367268745 0.127583569374 0.0
0.0 3.368619977 0.127531587028 0.0
0.0 3.369971208 0.127479792704 0.0
0.0 3.371322439 0.127428186796 0.0
0.0 3.372673671 0.127376769698 0.0
0.0 3.374024902 0.127325541921 0.0
0.0 3.375376134 0.127274503826 0.0
0.0 3.376727365 0.127223655918 0.0
0.0 3.378078597 0.127172998565 0.0
0.0 3.379429828 0.127122532273 0.0
0.0 3.38078106 0.127072257411 0.0
0.0 3.382132291 0.127022174491 0.0
0.0 3.383483522 0.126972283915 0.0
0.0 3.384834754 0.126922586086 0.0
0.0 3.386185985 0.126873081519 0.0
0.0 3.387537217 0.126823770584 0.0
0.0 3.388888448 0.126774653799 0.0
0.0 3.39023968 0.126725731534 0.0
0.0 3.391590911 0.126677004307 0.0
0.0 3.392942143 0.126628472492 0.0
0.0 3.394293374 0.126580136607 0.0
0.0 3.395644605 0.126531997064 0.0
0.0 3.396995837 0.126484054275 0.0
0.0 3.398347068 0.126436308763 0.0
0.0 3.3996983 0.12638876091 0.0
0.0 3.401049531 0.126341411228 0.0
0.0 3.402400763 0.126294260106 0.0
0.0 3.403751994 0.126247308066 0.0
0.0 3.405103225 0.126200555537 0.0
0.0 3.406454457 0.126154002926 0.0
0.0 3.407805688 0.126107650756 0.0
0.0 3.40915692 0.126061499416 0.0
0.0 3.410508151 0.126015549435 0.0
0.0 3.411859383 0.125969801215 0.0
0.0 3.413210614 0.125924255271 0.0
0.0 3.414561846 0.125878911993 0.0
0.0 3.415913077 0.125833771915 0.0
0.0 3.417264308 0.125788835467 0.0
0.0 3.41861554 0.12574410308 0.0
0.0 3.419966771 0.125699575286 0.0
0.0 3.421318003 0.125655252476 0.0
0.0 3.422669234 0.125611135179 0.0
0.0 3.424020466 0.125567223806 0.0
0.0 3.425371697 0.125523518889 0.0
0.0 3.426722928 0.125480020863 0.0
0.0 3.42807416 0.125436730166 0.0
0.0 3.429425391 0.125393647329 0.0
0.0 3.430776623 0.125350772765 0.0
0.0 3.432127854 0.125308107009 0.0
0.0 3.433479086 0.125265650469 0.0
0.0 3.434830317 0.125223403685 0.0
0.0 3.436181549 0.125181367069 0.0
0.0 3.43753278 0.125139541158 0.0
0.0 3.438884011 0.1250979264 0.0
0.0 3.440235243 0.125056523251 0.0
0.0 3.441586474 0.125015332233 0.0
0.0 3.442937706 0.124974353768 0.0
0.0 3.444288937 0.12493358843 0.0
0.0 3.445640169 0.124893036606 0.0
0.0 3.4469914 0.124852698836 0.0
0.0 3.448342631 0.124812575597 0.0
0.0 3.449693863 0.124772667342 0.0
0.0 3.451045094 0.124732974611 0.0
0.0 3.452396326 0.124693497833 0.0
0.0 3.453747557 0.124654237557 0.0
0.0 3.455098789 0.124615194212 0.0
0.0 3.45645002 0.124576368348 0.0
0.0 3.457801252 0.124537760389 0.0
0.0 3.459152483 0.124499370897 0.0
0.0 3.460503714 0.124461200335 0.0
0.0 3.461854946 0.124423249169 0.0
0.0 3.463206177 0.124385517946 0.0
0.0 3.464557409 0.12434800711 0.0
0.0 3.46590864 0.124310717214 0.0
0.0 3.467259872 0.124273648702 0.0
0.0 3.468611103 0.124236802128 0.0
0.0 3.469962335 0.12420017794 0.0
0.0 3.471313566 0.124163776692 0.0
0.0 3.472664797 0.124127598855 0.0
0.0 3.474016029 0.124091644915 0.0
0.0 3.47536726 0.124055915426 0.0
0.0 3.476718492 0.124020410847 0.0
0.0 3.478069723 0.12398513173 0.0
0.0 3.479420955 0.123950078524 0.0
0.0 3.480772186 0.123915251801 0.0
0.0 3.482123417 0.123880652046 0.0
0.0 3.483474649 0.123846279743 0.0
0.0 3.48482588 0.123812135454 0.0
0.0 3.486177112 0.123778219642 0.0
0.0 3.487528343 0.123744532873 0.0
0.0 3.488879575 0.123711075613 0.0
0.0 3.490230806 0.12367784843 0.0
0.0 3.491582038 0.123644851785 0.0
0.0 3.492933269 0.123612086246 0.0
0.0 3.4942845 0.12357955232 0.0
0.0 3.495635732 0.1235472505 0.0
0.0 3.496986963 0.123515181347 0.0
0.0 3.498338195 0.123483345339 0.0
0.0 3.499689426 0.123451743056 0.0
0.0 3.501040658 0.123420374971 0.0
0.0 3.502391889 0.123389241655 0.0
0.0 3.50374312 0.123358343622 0.0
0.0 3.505094352 0.123327681372 0.0
0.0 3.506445583 0.123297255482 0.0
0.0 3.507796815 0.123267066438 0.0
0.0 3.509148046 0.12323711481 0.0
0.0 3.510499278 0.123207401095 0.0
0.0 3.511850509 0.123177925873 0.0
0.0 3.513201741 0.123148689636 0.0
0.0 3.514552972 0.123119692949 0.0
0.0 3.515904203 0.123090936341 0.0
0.0 3.517255435 0.123062420335 0.0
0.0 3.518606666 0.123034145508 0.0
0.0 3.519957898 0.123006112358 0.0
0.0 3.521309129 0.122978321466 0.0
0.0 3.522660361 0.122950773341 0.0
0.0 3.524011592 0.122923468569 0.0
0.0 3.525362824 0.122896407648 0.0
0.0 3.526714055 0.122869591169 0.0
0.0 3.528065286 0.122843019662 0.0
0.0 3.529416518 0.12281669366 0.0
0.0 3.530767749 0.122790613752 0.0
0.0 3.532118981 0.122764780448 0.0
0.0 3.533470212 0.122739194337 0.0
0.0 3.534821444 0.122713855939 0.0
0.0 3.536172675 0.12268876585 0.0
0.0 3.537523906 0.122663924604 0.0
0.0 3.538875138 0.122639332741 0.0
0.0 3.540226369 0.122614990856 0.0
0.0 3.541577601 0.122590899476 0.0
0.0 3.542928832 0.122567059197 0.0
0.0 3.544280064 0.122543470546 0.0
0.0 3.545631295 0.122520134122 0.0
0.0 3.546982527 0.122497050457 0.0
0.0 3.548333758 0.122474220149 0.0
0.0 3.549684989 0.122451643753 0.0
0.0 3.551036221 0.122429321814 0.0
0.0 3.552387452 0.122407254941 0.0
0.0 3.553738684 0.122385443673 0.0
0.0 3.555089915 0.12236388861 0.0
0.0 3.556441147 0.122342590299 0.0
0.0 3.557792378 0.122321549345 0.0
0.0 3.559143609 0.122300766314 0.0
0.0 3.560494841 0.122280241755 0.0
0.0 3.561846072 0.122259976284 0.0
0.0 3.563197304 0.122239970457 0.0
0.0 3.564548535 0.122220224879 0.0
0.0 3.565899767 0.122200740102 0.0
0.0 3.567250998 0.122181516742 0.0
0.0 3.56860223 0.122162555347 0.0
0.0 3.569953461 0.122143856547 0.0
0.0 3.571304692 0.122125420908 0.0
0.0 3.572655924 0.122107249005 0.0
0.0 3.574007155 0.122089341458 0.0
0.0 3.575358387 0.122071698825 0.0
0.0 3.576709618 0.122054321732 0.0
0.0 3.57806085 0.122037210745 0.0
0.0 3.579412081 0.122020366486 0.0
0.0 3.580763312 0.122003789538 0.0
0.0 3.582114544 0.121987480498 0.0
0.0 3.583465775 0.121971439968 0.0
0.0 3.584817007 0.121955668529 0.0
0.0 3.586168238 0.121940166816 0.0
0.0 3.58751947 0.121924935406 0.0
0.0 3.588870701 0.121909974927 0.0
0.0 3.590221933 0.121895285975 0.0
0.0 3.591573164 0.121880869153 0.0
0.0 3.592924395 0.121866725073 0.0
0.0 3.594275627 0.121852854327 0.0
0.0 3.595626858 0.121839257559 0.0
0.0 3.59697809 0.121825935382 0.0
0.0 3.598329321 0.121812888381 0.0
0.0 3.599680553 0.121800117163 0.0
0.0 3.601031784 0.121787622371 0.0
0.0 3.602383016 0.121775404634 0.0
0.0 3.603734247 0.121763464557 0.0
0.0 3.605085478 0.121751802739 0.0
0.0 3.60643671 0.121740419821 0.0
0.0 3.607787941 0.121729316457 0.0
0.0 3.609139173 0.121718493244 0.0
0.0 3.610490404 0.121707950756 0.0
0.0 3.611841636 0.121697689688 0.0
0.0 3.613192867 0.12168771069 0.0
0.0 3.614544098 0.121678014334 0.0
0.0 3.61589533 0.121668601246 0.0
0.0 3.617246561 0.12165947211 0.0
0.0 3.618597793 0.121650627544 0.0
0.0 3.619949024 0.121642068154 0.0
0.0 3.621300256 0.121633794609 0.0
0.0 3.622651487 0.121625807571 0.0
0.0 3.624002719 0.121618107633 0.0
0.0 3.62535395 0.121610695412 0.0
0.0 3.626705181 0.121603571615 0.0
0.0 3.628056413 0.121596736856 0.0
0.0 3.629407644 0.121590191765 0.0
0.0 3.630758876 0.121583937045 0.0
0.0 3.632110107 0.121577973327 0.0
0.0 3.633461339 0.121572301216 0.0
0.0 3.63481257 0.121566921386 0.0
0.0 3.636163801 0.121561834494 0.0
0.0 3.637515033 0.121557041192 0.0
0.0 3.638866264 0.121552542141 0.0
0.0 3.640217496 0.121548337991 0.0
0.0 3.641568727 0.121544429438 0.0
0.0 3.642919959 0.121540817122 0.0
0.0 3.64427119 0.12153750166 0.0
0.0 3.645622422 0.12153448368 0.0
0.0 3.646973653 0.121531763984 0.0
0.0 3.648324884 0.121529343174 0.0
0.0 3.649676116 0.121527221921 0.0
0.0 3.651027347 0.121525400902 0.0
0.0 3.652378579 0.121523880759 0.0
0.0 3.65372981 0.121522662185 0.0
0.0 3.655081042 0.121521745862 0.0
0.0 3.656432273 0.121521132405 0.0
0.0 3.657783504 0.121520822503 0.0
0.0 3.659134736 0.121520816873 0.0
0.0 3.660485967 0.121521116199 0.0
0.0 3.661837199 0.121521721217 0.0
0.0 3.66318843 0.121522632475 0.0
0.0 3.664539662 0.12152385078 0.0
0.0 3.665890893 0.121525376711 0.0
0.0 3.667242125 0.121527211099 0.0
0.0 3.668593356 0.121529354548 0.0
0.0 3.669944587 0.121531807633 0.0
0.0 3.671295819 0.121534571111 0.0
0.0 3.67264705 0.121537645683 0.0
0.0 3.673998282 0.121541032107 0.0
0.0 3.675349513 0.121544731052 0.0
0.0 3.676700745 0.121548743322 0.0
0.0 3.678051976 0.121553069482 0.0
0.0 3.679403208 0.121557710372 0.0
0.0 3.680754439 0.121562666591 0.0
0.0 3.68210567 0.121567938674 0.0
0.0 3.683456902 0.121573527274 0.0
0.0 3.684808133 0.121579433403 0.0
0.0 3.686159365 0.121585657825 0.0
0.0 3.687510596 0.121592200996 0.0
0.0 3.688861828 0.121599063762 0.0
0.0 3.690213059 0.12160624685 0.0
0.0 3.69156429 0.121613750933 0.0
0.0 3.692915522 0.121621576832 0.0
0.0 3.694266753 0.121629725099 0.0
0.0 3.695617985 0.121638196353 0.0
0.0 3.696969216 0.121646991577 0.0
0.0 3.698320448 0.121656111421 0.0
0.0 3.699671679 0.121665556745 0.0
0.0 3.701022911 0.121675328213 0.0
0.0 3.702374142 0.121685426066 0.0
0.0 3.703725373 0.121695851396 0.0
0.0 3.705076605 0.121706605061 0.0
0.0 3.706427836 0.121717687749 0.0
0.0 3.707779068 0.121729100112 0.0
0.0 3.709130299 0.121740843312 0.0
0.0 3.710481531 0.121752917718 0.0
0.0 3.711832762 0.121765323867 0.0
0.0 3.713183993 0.121778062302 0.0
0.0 3.714535225 0.121791133718 0.0
0.0 3.715886456 0.121804539317 0.0
0.0 3.717237688 0.121818280259 0.0
0.0 3.718588919 0.121832356864 0.0
0.0 3.719940151 0.121846769863 0.0
0.0 3.721291382 0.121861519991 0.0
0.0 3.722642614 0.121876608143 0.0
0.0 3.723993845 0.121892035086 0.0
0.0 3.725345076 0.121907801708 0.0
0.0 3.726696308 0.12192390731 0.0
0.0 3.728047539 0.12194035404 0.0
0.0 3.729398771 0.121957142963 0.0
0.0 3.730750002 0.121974276563 0.0
0.0 3.732101234 0.121991751863 0.0
0.0 3.733452465 0.122009569711 0.0
0.0 3.734803696 0.122027731941 0.0
0.0 3.736154928 0.122046240353 0.0
0.0 3.737506159 0.1220650953 0.0
0.0 3.738857391 0.12208429737 0.0
0.0 3.740208622 0.122103847333 0.0
0.0 3.741559854 0.122123745531 0.0
0.0 3.742911085 0.122143993815 0.0
0.0 3.744262317 0.122164592083 0.0
0.0 3.745613548 0.122185540834 0.0
0.0 3.746964779 0.122206843019 0.0
0.0 3.748316011 0.122228498577 0.0
0.0 3.749667242 0.122250504005 0.0
0.0 3.751018474 0.122272861778 0.0
0.0 3.752369705 0.122295577843 0.0
0.0 3.753720937 0.122318651572 0.0
0.0 3.755072168 0.122342079329 0.0
0.0 3.7564234 0.122365861103 0.0
0.0 3.757774631 0.122390009312 0.0
0.0 3.759125862 0.122414511321 0.0
0.0 3.760477094 0.122439367591 0.0
0.0 3.761828325 0.122464587677 0.0
0.0 3.763179557 0.122490167637 0.0
0.0 3.764530788 0.122516112864 0.0
0.0 3.76588202 0.122542427556 0.0
0.0 3.767233251 0.122569102859 0.0
0.0 3.768584482 0.122596138624 0.0
0.0 3.769935714 0.122623537057 0.0
0.0 3.771286945 0.12265130041 0.0
0.0 3.772638177 0.12267943162 0.0
0.0 3.773989408 0.122707933817 0.0
0.0 3.77534064 0.122736808806 0.0
0.0 3.776691871 0.122766052714 0.0
0.0 3.778043103 0.122795658107 0.0
0.0 3.779394334 0.122825636785 0.0
0.0 3.780745565 0.12285599314 0.0
0.0 3.782096797 0.122886725143 0.0
0.0 3.783448028 0.12291783285 0.0
0.0 3.78479926 0.122949304735 0.0
0.0 3.786150491 0.12298115457 0.0
0.0 3.787501723 0.12301337758 0.0
0.0 3.788852954 0.123045980165 0.0
0.0 3.790204185 0.12307895602 0.0
0.0 3.791555417 0.123112314255 0.0
0.0 3.792906648 0.123146052724 0.0
0.0 3.79425788 0.12318017579 0.0
0.0 3.795609111 0.123214707845 0.0
0.0 3.796960343 0.123249589375 0.0
0.0 3.798311574 0.12328483899 0.0
0.0 3.799662806 0.123320477082 0.0
0.0 3.801014037 0.123356502809 0.0
0.0 3.802365268 0.123392914798 0.0
0.0 3.8037165 0.12342971809 0.0
0.0 3.805067731 0.123466925858 0.0
0.0 3.806418963 0.123504545879 0.0
0.0 3.807770194 0.12354254768 0.0
0.0 3.809121426 0.123580876037 0.0
0.0 3.810472657 0.123619547468 0.0
0.0 3.811823889 0.123658686575 0.0
0.0 3.81317512 0.12369821876 0.0
0.0 3.814526351 0.123738146797 0.0
0.0 3.815877583 0.123778468443 0.0
0.0 3.817228814 0.123819194335 0.0
0.0 3.818580046 0.123860365576 0.0
0.0 3.819931277 0.123901834899 0.0
0.0 3.821282509 0.123943740791 0.0
0.0 3.82263374 0.123986053224 0.0
0.0 3.823984971 0.124028769962 0.0
0.0 3.825336203 0.124071849969 0.0
0.0 3.826687434 0.124115308626 0.0
0.0 3.828038666 0.124159209716 0.0
0.0 3.829389897 0.124203517863 0.0
0.0 3.830741129 0.124248231615 0.0
0.0 3.83209236 0.124293376175 0.0
0.0 3.833443592 0.124338869702 0.0
0.0 3.834794823 0.124384797578 0.0
0.0 3.836146054 0.124431133866 0.0
0.0 3.837497286 0.124477878547 0.0
0.0 3.838848517 0.124525032461 0.0
0.0 3.840199749 0.124572676468 0.0
0.0 3.84155098 0.124620899086 0.0
0.0 3.842902212 0.124669425025 0.0
0.0 3.844253443 0.124718298779 0.0
0.0 3.845604674 0.124767404334 0.0
0.0 3.846955906 0.124816909135 0.0
0.0 3.848307137 0.124866837006 0.0
0.0 3.849658369 0.124917161745 0.0
0.0 3.8510096 0.124968082375 0.0
0.0 3.852360832 0.125019563193 0.0
0.0 3.853712063 0.125071396661 0.0
0.0 3.855063295 0.125123475954 0.0
0.0 3.856414526 0.125175966209 0.0
0.0 3.857765757 0.125229028516 0.0
0.0 3.859116989 0.125282600906 0.0
0.0 3.86046822 0.125336662058 0.0
0.0 3.861819452 0.125391480037 0.0
0.0 3.863170683 0.125446224684 0.0
0.0 3.864521915 0.125501795041 0.0
0.0 3.865873146 0.125557989724 0.0
0.0 3.867224377 0.125614145292 0.0
0.0 3.868575609 0.125670210685 0.0
0.0 3.86992684 0.125726847351 0.0
0.0 3.871278072 0.125783797384 0.0
0.0 3.872629303 0.125840693207 0.0
0.0 3.873980535 0.125898343496 0.0
0.0 3.875331766 0.125958191986 0.0
0.0 3.876682998 0.12601905428 0.0
0.0 3.878034229 0.126077063186 0.0
0.0 3.87938546 0.126135932548 0.0
0.0 3.880736692 0.126196586691 0.0
0.0 3.882087923 0.12625839337 0.0
0.0 3.883439155 0.126319424713 0.0
0.0 3.884790386 0.126379888207 0.0
0.0 3.886141618 0.126441035874 0.0
0.0 3.887492849 0.126503239402 0.0
0.0 3.888844081 0.126565957298 0.0
0.0 3.890195312 0.126629351778 0.0
0.0 3.891546543 0.126693242557 0.0
0.0 3.892897775 0.126758979622 0.0
0.0 3.894249006 0.126824332027 0.0
0.0 3.895600238 0.126888791538 0.0
0.0 3.896951469 0.126953292125 0.0
0.0 3.898302701 0.127019167439 0.0
0.0 3.899653932 0.12708634885 0.0
0.0 3.901005163 0.127153807476 0.0
0.0 3.902356395 0.127221814229 0.0
0.0 3.903707626 0.127291432165 0.0
0.0 3.905058858 0.127360556111 0.0
0.0 3.906410089 0.1274284605 0.0
0.0 3.907761321 0.127496572694 0.0
0.0 3.909112552 0.127565440679 0.0
0.0 3.910463784 0.127635097368 0.0
0.0 3.911815015 0.12770574027 0.0
0.0 3.913166246 0.127778781913 0.0
0.0 3.914517478 0.127853912391 0.0
0.0 3.915868709 0.127927428508 0.0
0.0 3.917219941 0.127996771762 0.0
0.0 3.918571172 0.128066118748 0.0
0.0 3.919922404 0.128139464473 0.0
0.0 3.921273635 0.128212816901 0.0
0.0 3.922624866 0.128287201162 0.0
0.0 3.923976098 0.128362138664 0.0
0.0 3.925327329 0.128438985347 0.0
0.0 3.926678561 0.128514333144 0.0
0.0 3.928029792 0.128589647746 0.0
0.0 3.929381024 0.128666250732 0.0
0.0 3.930732255 0.128744121656 0.0
0.0 3.932083487 0.128822116246 0.0
0.0 3.933434718 0.128900604328 0.0
0.0 3.934785949 0.128978994675 0.0
0.0 3.936137181 0.129058027773 0.0
0.0 3.937488412 0.129137235821 0.0
0.0 3.938839644 0.129216961825 0.0
0.0 3.940190875 0.129297537053 0.0
0.0 3.941542107 0.129378617753 0.0
0.0 3.942893338 0.129460186153 0.0
0.0 3.944244569 0.129542327139 0.0
0.0 3.945595801 0.129624778422 0.0
0.0 3.946947032 0.129707963884 0.0
0.0 3.948298264 0.129792163325 0.0
0.0 3.949649495 0.129876578636 0.0
0.0 3.951000727 0.129961071238 0.0
0.0 3.952351958 0.130044888537 0.0
0.0 3.95370319 0.130130362893 0.0
0.0 3.955054421 0.130218417155 0.0
0.0 3.956405652 0.13030544513 0.0
0.0 3.957756884 0.130390726165 0.0
0.0 3.959108115 0.130477262357 0.0
0.0 3.960459347 0.13056528343 0.0
0.0 3.961810578 0.130654199537 0.0
0.0 3.96316181 0.130743613274 0.0
0.0 3.964513041 0.13083533742 0.0
0.0 3.965864273 0.130925659479 0.0
0.0 3.967215504 0.131017790939 0.0
0.0 3.968566735 0.131108310112 0.0
0.0 3.969917967 0.131197465687 0.0
0.0 3.971269198 0.131287651687 0.0
0.0 3.97262043 0.131380606915 0.0
0.0 3.973971661 0.131474667613 0.0
0.0 3.975322893 0.13156851551 0.0
0.0 3.976674124 0.131662272963 0.0
0.0 3.978025355 0.13175606836 0.0
0.0 3.979376587 0.131853676467 0.0
0.0 3.980727818 0.131950539459 0.0
0.0 3.98207905 0.132047466721 0.0
0.0 3.983430281 0.132144667157 0.0
0.0 3.984781513 0.132241423945 0.0
0.0 3.986132744 0.132337155648 0.0
0.0 3.987483976 0.132432418123 0.0
0.0 3.988835207 0.132531486261 0.0
0.0 3.990186438 0.132631032016 0.0
0.0 3.99153767 0.132730401693 0.0
0.0 3.992888901 0.13283164016 0.0
0.0 3.994240133 0.132932827625 0.0
0.0 3.995591364 0.133032338202 0.0
0.0 3.996942596 0.133133785339 0.0
0.0 3.998293827 0.133236272646 0.0
0.0 3.999645058 0.133340021378 0.0
0.0 4.00099629 0.133443932213 0.0
0.0 4.002347521 0.133546987142 0.0
0.0 4.003698753 0.133651312113 0.0
0.0 4.005049984 0.133758099812 0.0
0.0 4.006401216 0.133863939653 0.0
0.0 4.007752447 0.133970180101 0.0
0.0 4.009103679 0.134077223873 0.0
0.0 4.01045491 0.134184904106 0.0
0.0 4.011806141 0.134294609342 0.0
0.0 4.013157373 0.134402844134 0.0
0.0 4.014508604 0.134508641712 0.0
0.0 4.015859836 0.134616849023 0.0
0.0 4.017211067 0.134726857487 0.0
0.0 4.018562299 0.134837416697 0.0
0.0 4.01991353 0.134948526923 0.0
0.0 4.021264761 0.135060218738 0.0
0.0 4.022615993 0.135173705757 0.0
0.0 4.023967224 0.13528699563 0.0
0.0 4.025318456 0.135400956002 0.0
0.0 4.026669687 0.13551533779 0.0
0.0 4.028020919 0.135630231544 0.0
0.0 4.02937215 0.135747483544 0.0
0.0 4.030723382 0.135862701366 0.0
0.0 4.032074613 0.135975768333 0.0
0.0 4.033425844 0.136090435367 0.0
0.0 4.034777076 0.136207463792 0.0
0.0 4.036128307 0.136325573273 0.0
0.0 4.037479539 0.136444121932 0.0
0.0 4.03883077 0.136564214723 0.0
0.0 4.040182002 0.136684647432 0.0
0.0 4.041533233 0.136802907494 0.0
0.0 4.042884465 0.136923428325 0.0
0.0 4.044235696 0.137047597496 0.0
0.0 4.045586927 0.137171078475 0.0
0.0 4.046938159 0.137294025685 0.0
0.0 4.04828939 0.137417302369 0.0
0.0 4.049640622 0.137540315273 0.0
0.0 4.050991853 0.137663431845 0.0
0.0 4.052343085 0.137787336834 0.0
0.0 4.053694316 0.137913235305 0.0
0.0 4.055045547 0.138039741701 0.0
0.0 4.056396779 0.13816482853 0.0
0.0 4.05774801 0.138290745895 0.0
0.0 4.059099242 0.138418623739 0.0
0.0 4.060450473 0.138548208501 0.0
0.0 4.061801705 0.13867849875 0.0
0.0 4.063152936 0.13880910735 0.0
0.0 4.064504168 0.138938699717 0.0
0.0 4.065855399 0.139066919076 0.0
0.0 4.06720663 0.139196784378 0.0
0.0 4.068557862 0.139329904574 0.0
0.0 4.069909093 0.139463277338 0.0
0.0 4.071260325 0.139594312393 0.0
0.0 4.072611556 0.139726730605 0.0
0.0 4.073962788 0.13986117886 0.0
0.0 4.075314019 0.139995506089 0.0
0.0 4.07666525 0.140130132514 0.0
0.0 4.078016482 0.140265927988 0.0
0.0 4.079367713 0.140403658632 0.0
0.0 4.080718945 0.140542109759 0.0
0.0 4.082070176 0.140680040071 0.0
0.0 4.083421408 0.140819808136 0.0
0.0 4.084772639 0.140959805685 0.0
0.0 4.086123871 0.141099463945 0.0
0.0 4.087475102 0.141238556103 0.0
0.0 4.088826333 0.141378522278 0.0
0.0 4.090177565 0.141519688063 0.0
0.0 4.091528796 0.141661574626 0.0
0.0 4.092880028 0.141803697031 0.0
0.0 4.094231259 0.141945457266 0.0
0.0 4.095582491 0.142090518072 0.0
0.0 4.096933722 0.142234970006 0.0
0.0 4.098284953 0.142379570462 0.0
0.0 4.099636185 0.14252608087 0.0
0.0 4.100987416 0.142673252508 0.0
0.0 4.102338648 0.142820314149 0.0
0.0 4.103689879 0.142966452803 0.0
0.0 4.105041111 0.143115312167 0.0
0.0 4.106392342 0.14326598703 0.0
0.0 4.107743574 0.143417319799 0.0
0.0 4.109094805 0.143567523046 0.0
0.0 4.110446036 0.143716374625 0.0
0.0 4.111797268 0.143866733881 0.0
0.0 4.113148499 0.144019746096 0.0
0.0 4.114499731 0.144175898818 0.0
0.0 4.115850962 0.144331872789 0.0
0.0 4.117202194 0.144485145936 0.0
0.0 4.118553425 0.144636932514 0.0
0.0 4.119904657 0.144790770169 0.0
0.0 4.121255888 0.144947570573 0.0
0.0 4.122607119 0.145106556282 0.0
0.0 4.123958351 0.145264990213 0.0
0.0 4.125309582 0.145422411233 0.0
0.0 4.126660814 0.145579404276 0.0
0.0 4.128012045 0.14573675361 0.0
0.0 4.129363277 0.145895879696 0.0
0.0 4.130714508 0.146056312228 0.0
0.0 4.132065739 0.14621766715 0.0
0.0 4.133416971 0.146379689047 0.0
0.0 4.134768202 0.146542380472 0.0
0.0 4.136119434 0.146706729771 0.0
0.0 4.137470665 0.146871819565 0.0
0.0 4.138821897 0.147036402534 0.0
0.0 4.140173128 0.147199849112 0.0
0.0 4.14152436 0.147365825082 0.0
0.0 4.142875591 0.14753252886 0.0
0.0 4.144226822 0.147699907368 0.0
0.0 4.145578054 0.147868346608 0.0
0.0 4.146929285 0.14803881026 0.0
0.0 4.148280517 0.148207251802 0.0
0.0 4.149631748 0.148377053968 0.0
0.0 4.15098298 0.148547251117 0.0
0.0 4.152334211 0.148719003516 0.0
0.0 4.153685442 0.14889342024 0.0
0.0 4.155036674 0.149065367615 0.0
0.0 4.156387905 0.149237123592 0.0
0.0 4.157739137 0.149411130949 0.0
0.0 4.159090368 0.149586616049 0.0
0.0 4.1604416 0.149763729535 0.0
0.0 4.161792831 0.149941149002 0.0
0.0 4.163144063 0.150119026591 0.0
0.0 4.164495294 0.15029691765 0.0
0.0 4.165846525 0.150474303637 0.0
0.0 4.167197757 0.150652361959 0.0
0.0 4.168548988 0.150832563738 0.0
0.0 4.16990022 0.15101256405 0.0
0.0 4.171251451 0.151193474309 0.0
0.0 4.172602683 0.151376311116 0.0
0.0 4.173953914 0.151560531763 0.0
0.0 4.175305146 0.151744317486 0.0
0.0 4.176656377 0.151929644312 0.0
0.0 4.178007608 0.152113427927 0.0
0.0 4.17935884 0.152298753527 0.0
0.0 4.180710071 0.152484018324 0.0
0.0 4.182061303 0.152669765556 0.0
0.0 4.183412534 0.152856933088 0.0
0.0 4.184763766 0.153045320066 0.0
0.0 4.186114997 0.153234678022 0.0
0.0 4.187466228 0.153425186189 0.0
0.0 4.18881746 0.15361658502 0.0
0.0 4.190168691 0.15380855406 0.0
0.0 4.191519923 0.154001013717 0.0
0.0 4.192871154 0.154194545039 0.0
0.0 4.194222386 0.154389318099 0.0
0.0 4.195573617 0.154584146892 0.0
0.0 4.196924849 0.154779413262 0.0
0.0 4.19827608 0.154975839935 0.0
0.0 4.199627311 0.15517339572 0.0
0.0 4.200978543 0.155370833199 0.0
0.0 4.202329774 0.155568554062 0.0
0.0 4.203681006 0.155768325051 0.0
0.0 4.205032237 0.155968248519 0.0
0.0 4.206383469 0.156168278386 0.0
0.0 4.2077347 0.156368461379 0.0
0.0 4.209085931 0.156569621905 0.0
0.0 4.210437163 0.15677123113 0.0
0.0 4.211788394 0.156972604915 0.0
0.0 4.213139626 0.157176279195 0.0
0.0 4.214490857 0.157382987328 0.0
0.0 4.215842089 0.157589419837 0.0
0.0 4.21719332 0.157796596162 0.0
0.0 4.218544552 0.158002262476 0.0
0.0 4.219895783 0.158206151611 0.0
0.0 4.221247014 0.15841364763 0.0
0.0 4.222598246 0.158623324068 0.0
0.0 4.223949477 0.158835412561 0.0
0.0 4.225300709 0.159048075094 0.0
0.0 4.22665194 0.159258488818 0.0
0.0 4.228003172 0.159468667876 0.0
0.0 4.229354403 0.159680299823 0.0
0.0 4.230705634 0.159891612456 0.0
0.0 4.232056866 0.160104264405 0.0
0.0 4.233408097 0.160318749477 0.0
0.0 4.234759329 0.160534464281 0.0
0.0 4.23611056 0.160750875496 0.0
0.0 4.237461792 0.160968055382 0.0
0.0 4.238813023 0.161185337525 0.0
0.0 4.240164255 0.161404330508 0.0
0.0 4.241515486 0.161623765026 0.0
0.0 4.242866717 0.161844526832 0.0
0.0 4.244217949 0.162066682858 0.0
0.0 4.24556918 0.162290743281 0.0
0.0 4.246920412 0.162515181245 0.0
0.0 4.248271643 0.16273799298 0.0
0.0 4.249622875 0.162961998751 0.0
0.0 4.250974106 0.163186413517 0.0
0.0 4.252325338 0.163412609903 0.0
0.0 4.253676569 0.163639815034 0.0
0.0 4.2550278 0.163867836713 0.0
0.0 4.256379032 0.164096666686 0.0
0.0 4.257730263 0.164326306358 0.0
0.0 4.259081495 0.164556757819 0.0
0.0 4.260432726 0.164788025089 0.0
0.0 4.261783958 0.165020301632 0.0
0.0 4.263135189 0.165254000654 0.0
0.0 4.26448642 0.165488370266 0.0
0.0 4.265837652 0.165722833777 0.0
0.0 4.267188883 0.165957057386 0.0
0.0 4.268540115 0.16619279354 0.0
0.0 4.269891346 0.166429797939 0.0
0.0 4.271242578 0.166667634984 0.0
0.0 4.272593809 0.166906318632 0.0
0.0 4.273945041 0.167146627266 0.0
0.0 4.275296272 0.167386549945 0.0
0.0 4.276647503 0.167627311623 0.0
0.0 4.277998735 0.167869284637 0.0
0.0 4.279349966 0.168112122474 0.0
0.0 4.280701198 0.168355812887 0.0
0.0 4.282052429 0.168600421064 0.0
0.0 4.283403661 0.168846013272 0.0
0.0 4.284754892 0.169092164607 0.0
0.0 4.286106123 0.169338953307 0.0
0.0 4.287457355 0.169586855362 0.0
0.0 4.288808586 0.169835611907 0.0
0.0 4.290159818 0.170085221451 0.0
0.0 4.291511049 0.170335685441 0.0
0.0 4.292862281 0.170587006104 0.0
0.0 4.294213512 0.170839197712 0.0
0.0 4.295564744 0.171093340628 0.0
0.0 4.296915975 0.171347746291 0.0
0.0 4.298267206 0.171600912343 0.0
0.0 4.299618438 0.17185652074 0.0
0.0 4.300969669 0.172113018924 0.0
0.0 4.302320901 0.172370386745 0.0
0.0 4.303672132 0.17262863301 0.0
0.0 4.305023364 0.172887849785 0.0
0.0 4.306374595 0.173149046605 0.0
0.0 4.307725826 0.173410379602 0.0
0.0 4.309077058 0.173671084647 0.0
0.0 4.310428289 0.173932998367 0.0
0.0 4.311779521 0.174196462509 0.0
0.0 4.313130752 0.174460853212 0.0
0.0 4.314481984 0.174726265979 0.0
0.0 4.315833215 0.174993653609 0.0
0.0 4.317184447 0.1752610331 0.0
0.0 4.318535678 0.175528628769 0.0
0.0 4.319886909 0.175796829756 0.0
0.0 4.321238141 0.176065918211 0.0
0.0 4.322589372 0.1763365138 0.0
0.0 4.323940604 0.176608049072 0.0
0.0 4.325291835 0.176880485813 0.0
0.0 4.326643067 0.177153826353 0.0
0.0 4.327994298 0.177428072221 0.0
0.0 4.32934553 0.177703225758 0.0
0.0 4.330696761 0.177979530221 0.0
0.0 4.332047992 0.17825894518 0.0
0.0 4.333399224 0.178538509943 0.0
0.0 4.334750455 0.178817092266 0.0
0.0 4.336101687 0.179096209668 0.0
0.0 4.337452918 0.179375916517 0.0
0.0 4.33880415 0.179655574109 0.0
0.0 4.340155381 0.179937358303 0.0
0.0 4.341506612 0.180220763595 0.0
0.0 4.342857844 0.180505115626 0.0
0.0 4.344209075 0.180791158715 0.0
0.0 4.345560307 0.18107695305 0.0
0.0 4.346911538 0.181363723874 0.0
0.0 4.34826277 0.181651974607 0.0
0.0 4.349614001 0.181940997131 0.0
0.0 4.350965233 0.18223069256 0.0
0.0 4.352316464 0.182521570182 0.0
0.0 4.353667695 0.182813393216 0.0
0.0 4.355018927 0.183106162017 0.0
0.0 4.356370158 0.183400080533 0.0
0.0 4.35772139 0.183694568359 0.0
0.0 4.359072621 0.183990155561 0.0
0.0 4.360423853 0.184286723787 0.0
0.0 4.361775084 0.184584246854 0.0
0.0 4.363126315 0.184882727012 0.0
0.0 4.364477547 0.185182166516 0.0
0.0 4.365828778 0.185482566963 0.0
0.0 4.36718001 0.185783930841 0.0
0.0 4.368531241 0.186086259748 0.0
0.0 4.369882473 0.186389558065 0.0
0.0 4.371233704 0.186693981477 0.0
0.0 4.372584936 0.186999828422 0.0
0.0 4.373936167 0.187306907709 0.0
0.0 4.375287398 0.187614576531 0.0
0.0 4.37663863 0.187922034578 0.0
0.0 4.377989861 0.188229794699 0.0
0.0 4.379341093 0.188539887884 0.0
0.0 4.380692324 0.188850996802 0.0
0.0 4.382043556 0.189163091883 0.0
0.0 4.383394787 0.189476174755 0.0
0.0 4.384746018 0.18979024774 0.0
0.0 4.38609725 0.190105313173 0.0
0.0 4.387448481 0.190421372686 0.0
0.0 4.388799713 0.190738428852 0.0
0.0 4.390150944 0.191056483313 0.0
0.0 4.391502176 0.191375538652 0.0
0.0 4.392853407 0.191695596514 0.0
0.0 4.394204639 0.192016659494 0.0
0.0 4.39555587 0.192338729242 0.0
0.0 4.396907101 0.192661808126 0.0
0.0 4.398258333 0.192985898517 0.0
0.0 4.399609564 0.193311002076 0.0
0.0 4.400960796 0.193637121422 0.0
0.0 4.402312027 0.193964258219 0.0
0.0 4.403663259 0.194292415102 0.0
0.0 4.40501449 0.194621593736 0.0
0.0 4.406365722 0.194951796773 0.0
0.0 4.407716953 0.195283025875 0.0
0.0 4.409068184 0.195615283457 0.0
0.0 4.410419416 0.195948571934 0.0
0.0 4.411770647 0.196282892989 0.0
0.0 4.413121879 0.196618249293 0.0
0.0 4.41447311 0.196954642535 0.0
0.0 4.415824342 0.197292075392 0.0
0.0 4.417175573 0.197630549559 0.0
0.0 4.418526804 0.197970067478 0.0
0.0 4.419878036 0.1983106316 0.0
0.0 4.421229267 0.198652317928 0.0
0.0 4.422580499 0.198995532668 0.0
0.0 4.42393173 0.199339818549 0.0
0.0 4.425282962 0.199684384501 0.0
0.0 4.426634193 0.20002995947 0.0
0.0 4.427985425 0.20037621433 0.0
0.0 4.429336656 0.200724051612 0.0
0.0 4.430687887 0.201073062716 0.0
0.0 4.432039119 0.201423160014 0.0
0.0 4.43339035 0.201774594536 0.0
0.0 4.434741582 0.202126503354 0.0
0.0 4.436092813 0.2024797893 0.0
0.0 4.437444045 0.202834152713 0.0
0.0 4.438795276 0.203189593024 0.0
0.0 4.440146507 0.20354632988 0.0
0.0 4.441497739 0.20390567422 0.0
0.0 4.44284897 0.204266391876 0.0
0.0 4.444200202 0.204626504255 0.0
0.0 4.445551433 0.20498582994 0.0
0.0 4.446902665 0.205345442142 0.0
0.0 4.448253896 0.205708028336 0.0
0.0 4.449605128 0.206072166473 0.0
0.0 4.450956359 0.206437403448 0.0
0.0 4.45230759 0.206803740375 0.0
0.0 4.453658822 0.207171179832 0.0
0.0 4.455010053 0.207539723579 0.0
0.0 4.456361285 0.207909374474 0.0
0.0 4.457712516 0.208280134285 0.0
0.0 4.459063748 0.208652005881 0.0
0.0 4.460414979 0.209024991033 0.0
0.0 4.461766211 0.209399092625 0.0
0.0 4.463117442 0.209774312434 0.0
0.0 4.464468673 0.210150653072 0.0
0.0 4.465819905 0.21052811716 0.0
0.0 4.467171136 0.210906706488 0.0
0.0 4.468522368 0.211286472841 0.0
0.0 4.469873599 0.211668246951 0.0
0.0 4.471224831 0.212049968476 0.0
0.0 4.472576062 0.212433113178 0.0
0.0 4.473927293 0.212818632673 0.0
0.0 4.475278525 0.213204264048 0.0
0.0 4.476629756 0.213589946312 0.0
0.0 4.477980988 0.213978134297 0.0
0.0 4.479332219 0.214366278459 0.0
0.0 4.480683451 0.214755426865 0.0
0.0 4.482034682 0.215146167301 0.0
0.0 4.483385914 0.215538430051 0.0
0.0 4.484737145 0.215931866497 0.0
0.0 4.486088376 0.216326461746 0.0
0.0 4.487439608 0.216722218504 0.0
0.0 4.488790839 0.217119138603 0.0
0.0 4.490142071 0.217517225046 0.0
0.0 4.491493302 0.217916479672 0.0
0.0 4.492844534 0.218316905498 0.0
0.0 4.494195765 0.218718504364 0.0
0.0 4.495546996 0.219121279003 0.0
0.0 4.496898228 0.219525232156 0.0
0.0 4.498249459 0.219930365672 0.0
0.0 4.499600691 0.220336682599 0.0
0.0 4.500951922 0.220744187093 0.0
0.0 4.502303154 0.221152923776 0.0
0.0 4.503654385 0.221562760532 0.0
0.0 4.505005617 0.221973829989 0.0
0.0 4.506356848 0.222386099084 0.0
0.0 4.507708079 0.222799566086 0.0
0.0 4.509059311 0.223214233784 0.0
0.0 4.510410542 0.223630105114 0.0
0.0 4.511761774 0.224047449601 0.0
0.0 4.513113005 0.224467190691 0.0
0.0 4.514464237 0.224887406506 0.0
0.0 4.515815468 0.225308313446 0.0
0.0 4.517166699 0.225730329931 0.0
0.0 4.518517931 0.226153397436 0.0
0.0 4.519869162 0.226577409283 0.0
0.0 4.521220394 0.227001102449 0.0
0.0 4.522571625 0.227427518138 0.0
0.0 4.523922857 0.227855516989 0.0
0.0 4.525274088 0.22828478384 0.0
0.0 4.52662532 0.228715284487 0.0
0.0 4.527976551 0.22914702042 0.0
0.0 4.529327782 0.22957999451 0.0
0.0 4.530679014 0.230014209631 0.0
0.0 4.532030245 0.23044966804 0.0
0.0 4.533381477 0.230886409842 0.0
0.0 4.534732708 0.231324344094 0.0
0.0 4.53608394 0.231763527826 0.0
0.0 4.537435171 0.23220398465 0.0
0.0 4.538786403 0.232645697934 0.0
0.0 4.540137634 0.233088669609 0.0
0.0 4.541488865 0.233532902594 0.0
0.0 4.542840097 0.233978399813 0.0
0.0 4.544191328 0.234425163207 0.0
0.0 4.54554256 0.234873196046 0.0
0.0 4.546893791 0.235322500271 0.0
0.0 4.548245023 0.235773079166 0.0
0.0 4.549596254 0.236224934681 0.0
0.0 4.550947485 0.236678069772 0.0
0.0 4.552298717 0.237132494415 0.0
0.0 4.553649948 0.237589551688 0.0
0.0 4.55500118 0.238049076545 0.0
0.0 4.556352411 0.238508442351 0.0
0.0 4.557703643 0.238967878254 0.0
0.0 4.559054874 0.239427471008 0.0
0.0 4.560406106 0.239888085859 0.0
0.0 4.561757337 0.240350357556 0.0
0.0 4.563108568 0.240814316874 0.0
0.0 4.5644598 0.241280379705 0.0
0.0 4.565811031 0.241747764651 0.0
0.0 4.567162263 0.242216461372 0.0
0.0 4.568513494 0.242686471858 0.0
0.0 4.569864726 0.243157799496 0.0
0.0 4.571215957 0.243630446284 0.0
0.0 4.572567188 0.24410441527 0.0
0.0 4.57391842 0.244579709503 0.0
0.0 4.575269651 0.245056442598 0.0
0.0 4.576620883 0.245535764242 0.0
0.0 4.577972114 0.246019826626 0.0
0.0 4.579323346 0.246501081674 0.0
0.0 4.580674577 0.246982448258 0.0
0.0 4.582025809 0.247465549998 0.0
0.0 4.58337704 0.247951348353 0.0
0.0 4.584728271 0.248438134543 0.0
0.0 4.586079503 0.24892580053 0.0
0.0 4.587430734 0.249411961331 0.0
0.0 4.588781966 0.249896480296 0.0
0.0 4.590133197 0.250387570908 0.0
0.0 4.591484429 0.250880337107 0.0
0.0 4.59283566 0.251374466204 0.0
0.0 4.594186891 0.251869961338 0.0
0.0 4.595538123 0.252366836031 0.0
0.0 4.596889354 0.252865171252 0.0
0.0 4.598240586 0.25336589278 0.0
0.0 4.599591817 0.253867585262 0.0
0.0 4.600943049 0.254370829489 0.0
0.0 4.60229428 0.254877440842 0.0
0.0 4.603645512 0.255385968467 0.0
0.0 4.604996743 0.255899399282 0.0
0.0 4.606347974 0.256414843659 0.0
0.0 4.607699206 0.256929746402 0.0
0.0 4.609050437 0.257445247256 0.0
0.0 4.610401669 0.257960680871 0.0
0.0 4.6117529 0.258478251554 0.0
0.0 4.613104132 0.258997582956 0.0
0.0 4.614455363 0.259518021261 0.0
0.0 4.615806595 0.260039554321 0.0
0.0 4.617157826 0.26056353459 0.0
0.0 4.618509057 0.261091148566 0.0
0.0 4.619860289 0.26162108367 0.0
0.0 4.62121152 0.2621532326 0.0
0.0 4.622562752 0.262687051476 0.0
0.0 4.623913983 0.263222917382 0.0
0.0 4.625265215 0.263760693932 0.0
0.0 4.626616446 0.264299628701 0.0
0.0 4.627967677 0.264841838093 0.0
0.0 4.629318909 0.265387123596 0.0
0.0 4.63067014 0.265935599072 0.0
0.0 4.632021372 0.266484239769 0.0
0.0 4.633372603 0.267033940797 0.0
0.0 4.634723835 0.267585756633 0.0
0.0 4.636075066 0.268142222012 0.0
0.0 4.637426298 0.268703462591 0.0
0.0 4.638777529 0.269272672014 0.0
0.0 4.64012876 0.269850913422 0.0
0.0 4.641479992 0.270439689973 0.0
0.0 4.642831223 0.271041551271 0.0
0.0 4.644182455 0.27165428291 0.0
0.0 4.645533686 0.272279652908 0.0
0.0 4.646884918 0.272922656292 0.0
0.0 4.648236149 0.27358261586 0.0
0.0 4.64958738 0.274261210336 0.0
0.0 4.650938612 0.274959337099 0.0
0.0 4.652289843 0.275684040475 0.0
0.0 4.653641075 0.276439495799 0.0
0.0 4.654992306 0.277230947978 0.0
0.0 4.656343538 0.27806511685 0.0
0.0 4.657694769 0.278954967517 0.0
0.0 4.659046001 0.279920111911 0.0
0.0 4.660397232 0.280972954029 0.0
0.0 4.661748463 0.282146683742 0.0
0.0 4.663099695 0.283463035714 0.0
0.0 4.664450926 0.284953822394 0.0
0.0 4.665802158 0.286710907011 0.0
0.0 4.667153389 0.288771717986 0.0
0.0 4.668504621 0.291233929996 0.0
0.0 4.669855852 0.294282632371 0.0
0.0 4.671207083 0.298044935293 0.0
0.0 4.672558315 0.302815618876 0.0
0.0 4.673909546 0.308979053492 0.0
0.0 4.675260778 0.31688857417 0.0
0.0 4.676612009 0.32725423451 0.0
0.0 4.677963241 0.340630585075 0.0
0.0 4.679314472 0.357832967341 0.0
0.0 4.680665704 0.379032903507 0.0
0.0 4.682016935 0.404263479164 0.0
0.0 4.683368166 0.433985893571 0.0
0.0 4.684719398 0.463021446919 0.0
0.0 4.686070629 0.49280835297 0.0
0.0 4.687421861 0.519883884571 0.0
0.0 4.688773092 0.539647897348 0.0
0.0 4.690124324 0.556033137426 0.0
0.0 4.691475555 0.565577131692 0.0
0.0 4.692826787 0.570981311486 0.0
0.0 4.694178018 0.574152273177 0.0
0.0 4.695529249 0.574883589314 0.0
0.0 4.696880481 0.575311734608 0.0
0.0 4.698231712 0.575807678194 0.0
0.0 4.699582944 0.576250925549 0.0
0.0 4.700934175 0.57681785096 0.0
0.0 4.702285407 0.577555363521 0.0
0.0 4.703636638 0.578229985365 0.0
0.0 4.704987869 0.578765748143 0.0
0.0 4.706339101 0.578904305878 0.0
0.0 4.707690332 0.57857321761 0.0
0.0 4.709041564 0.577961983624 0.0
0.0 4.710392795 0.576846007602 0.0
0.0 4.711744027 0.575674462326 0.0
0.0 4.713095258 0.574423170637 0.0
0.0 4.71444649 0.573534886308 0.0
0.0 4.715797721 0.572979137778 0.0
0.0 4.717148952 0.573025529939 0.0
0.0 4.718500184 0.573733849918 0.0
0.0 4.719851415 0.574697184887 0.0
0.0 4.721202647 0.575711867923 0.0
0.0 4.722553878 0.575668467872 0.0
0.0 4.72390511 0.574788391363 0.0
0.0 4.725256341 0.569274152563 0.0
0.0 4.726607572 0.560907026142 0.0
0.0 4.727958804 0.54827533283 0.0
0.0 4.729310035 0.529505570151 0.0
0.0 4.730661267 0.508947574037 0.0
0.0 4.732012498 0.484018673252 0.0
0.0 4.73336373 0.458652956672 0.0
0.0 4.734714961 0.43504984041 0.0
0.0 4.736066193 0.411838080729 0.0
0.0 4.737417424 0.392445951795 0.0
0.0 4.738768655 0.376167292862 0.0
0.0 4.740119887 0.36310999523 0.0
0.0 4.741471118 0.352977678414 0.0
0.0 4.74282235 0.345247422222 0.0
0.0 4.744173581 0.339463349667 0.0
0.0 4.745524813 0.335135379443 0.0
0.0 4.746876044 0.332032366869 0.0
0.0 4.748227276 0.329760765712 0.0
0.0 4.749578507 0.328157804876 0.0
0.0 4.750929738 0.327068458412 0.0
0.0 4.75228097 0.326340366942 0.0
0.0 4.753632201 0.325924287905 0.0
0.0 4.754983433 0.325725424138 0.0
0.0 4.756334664 0.325696225507 0.0
0.0 4.757685896 0.325811566356 0.0
0.0 4.759037127 0.326027700829 0.0
0.0 4.760388358 0.326332491636 0.0
0.0 4.76173959 0.326705877805 0.0
0.0 4.763090821 0.327131240158 0.0
0.0 4.764442053 0.32760354982 0.0
0.0 4.765793284 0.328111611816 0.0
0.0 4.767144516 0.328650634594 0.0
0.0 4.768495747 0.329214344704 0.0
0.0 4.769846979 0.329797280003 0.0
0.0 4.77119821 0.330395868439 0.0
0.0 4.772549441 0.33101025727 0.0
0.0 4.773900673 0.331638295563 0.0
0.0 4.775251904 0.33227917956 0.0
0.0 4.776603136 0.332930998642 0.0
0.0 4.777954367 0.33359316989 0.0
0.0 4.779305599 0.334267319753 0.0
0.0 4.78065683 0.334949340327 0.0
0.0 4.782008061 0.335639956529 0.0
0.0 4.783359293 0.336334607453 0.0
0.0 4.784710524 0.337033104692 0.0
0.0 4.786061756 0.337734981337 0.0
0.0 4.787412987 0.338440037634 0.0
0.0 4.788764219 0.33914747379 0.0
0.0 4.79011545 0.339858135453 0.0
0.0 4.791466682 0.340571924144 0.0
0.0 4.792817913 0.341288475706 0.0
0.0 4.794169144 0.342007529303 0.0
0.0 4.795520376 0.342728178121 0.0
0.0 4.796871607 0.343452942359 0.0
0.0 4.798222839 0.344181132903 0.0
0.0 4.79957407 0.344913872176 0.0
0.0 4.800925302 0.34564797651 0.0
0.0 4.802276533 0.346382517577 0.0
0.0 4.803627764 0.347118556364 0.0
0.0 4.804978996 0.347857134513 0.0
0.0 4.806330227 0.348600124476 0.0
0.0 4.807681459 0.3493457267 0.0
0.0 4.80903269 0.350093985271 0.0
0.0 4.810383922 0.350844340809 0.0
0.0 4.811735153 0.351597030334 0.0
0.0 4.813086385 0.352351406794 0.0
0.0 4.814437616 0.353107460978 0.0
0.0 4.815788847 0.353865260829 0.0
0.0 4.817140079 0.354624755354 0.0
0.0 4.81849131 0.355386584181 0.0
0.0 4.819842542 0.356150071337 0.0
0.0 4.821193773 0.35691617708 0.0
0.0 4.822545005 0.357685493037 0.0
0.0 4.823896236 0.358456629956 0.0
0.0 4.825247468 0.359230867485 0.0
0.0 4.826598699 0.36000706847 0.0
0.0 4.82794993 0.360785194675 0.0
0.0 4.829301162 0.361565250398 0.0
0.0 4.830652393 0.362347238212 0.0
0.0 4.832003625 0.363131163007 0.0
0.0 4.833354856 0.363917027363 0.0
0.0 4.834706088 0.364704836189 0.0
0.0 4.836057319 0.36549459207 0.0
0.0 4.83740855 0.366286299345 0.0
0.0 4.838759782 0.367079963331 0.0
0.0 4.840111013 0.367875763262 0.0
0.0 4.841462245 0.368675369968 0.0
0.0 4.842813476 0.369475560365 0.0
0.0 4.844164708 0.370277200562 0.0
0.0 4.845515939 0.371080622057 0.0
0.0 4.846867171 0.371885848942 0.0
0.0 4.848218402 0.372693234945 0.0
0.0 4.849569633 0.373502820942 0.0
0.0 4.850920865 0.3743144538 0.0
0.0 4.852272096 0.375128071203 0.0
0.0 4.853623328 0.375942849107 0.0
0.0 4.854974559 0.376759078008 0.0
0.0 4.856325791 0.377577562722 0.0
0.0 4.857677022 0.378398677579 0.0
0.0 4.859028253 0.37922209942 0.0
0.0 4.860379485 0.380047566389 0.0
0.0 4.861730716 0.380875071796 0.0
0.0 4.863081948 0.381704721141 0.0
0.0 4.864433179 0.382536463688 0.0
0.0 4.865784411 0.383370746471 0.0
0.0 4.867135642 0.384206005802 0.0
0.0 4.868486874 0.385043153832 0.0
0.0 4.869838105 0.385882580071 0.0
0.0 4.871189336 0.386724316466 0.0
0.0 4.872540568 0.387568589102 0.0
0.0 4.873891799 0.388414298859 0.0
0.0 4.875243031 0.389261931929 0.0
0.0 4.876594262 0.390111788393 0.0
0.0 4.877945494 0.39096381157 0.0
0.0 4.879296725 0.391817909138 0.0
0.0 4.880647956 0.392674081576 0.0
0.0 4.881999188 0.393532333481 0.0
0.0 4.883350419 0.394392667549 0.0
0.0 4.884701651 0.395255089027 0.0
0.0 4.886052882 0.396119600619 0.0
0.0 4.887404114 0.39698620759 0.0
0.0 4.888755345 0.39785491265 0.0
0.0 4.890106577 0.398725721084 0.0
0.0 4.891457808 0.399598635607 0.0
0.0 4.892809039 0.400473660876 0.0
0.0 4.894160271 0.401350801558 0.0
0.0 4.895511502 0.402230060379 0.0
0.0 4.896862734 0.403111442669 0.0
0.0 4.898213965 0.403994951163 0.0
0.0 4.899565197 0.40488059121 0.0
0.0 4.900916428 0.40576836555 0.0
0.0 4.90226766 0.406658279552 0.0
0.0 4.903618891 0.407550335962 0.0
0.0 4.904970122 0.408444539506 0.0
0.0 4.906321354 0.409340894923 0.0
0.0 4.907672585 0.410239404969 0.0
0.0 4.909023817 0.41114007506 0.0
0.0 4.910375048 0.41204290796 0.0
0.0 4.91172628 0.412947909104 0.0
0.0 4.913077511 0.41385508126 0.0
0.0 4.914428742 0.41476442921 0.0
0.0 4.915779974 0.415675957752 0.0
0.0 4.917131205 0.416589669661 0.0
0.0 4.918482437 0.417505570424 0.0
0.0 4.919833668 0.418423662824 0.0
0.0 4.9211849 0.419343952366 0.0
0.0 4.922536131 0.420266441841 0.0
0.0 4.923887363 0.421191136772 0.0
0.0 4.925238594 0.422118039958 0.0
0.0 4.926589825 0.423047156253 0.0
0.0 4.927941057 0.423978490526 0.0
0.0 4.929292288 0.424912045584 0.0
0.0 4.93064352 0.425847827 0.0
0.0 4.931994751 0.426785837586 0.0
0.0 4.933345983 0.427726082936 0.0
0.0 4.934697214 0.42866856587 0.0
0.0 4.936048445 0.4296132913 0.0
0.0 4.937399677 0.430560264153 0.0
0.0 4.938750908 0.431509487258 0.0
0.0 4.94010214 0.432460966256 0.0
0.0 4.941453371 0.433414703986 0.0
0.0 4.942804603 0.434370706109 0.0
0.0 4.944155834 0.435328975463 0.0
0.0 4.945507066 0.436289517735 0.0
0.0 4.946858297 0.437252335774 0.0
0.0 4.948209528 0.438217434564 0.0
0.0 4.94956076 0.439184819108 0.0
0.0 4.950911991 0.440154492264 0.0
0.0 4.952263223 0.441126459765 0.0
0.0 4.953614454 0.442100724476 0.0
0.0 4.954965686 0.443077292148 0.0
0.0 4.956316917 0.444056165654 0.0
0.0 4.957668148 0.445037350041 0.0
0.0 4.95901938 0.446020850365 0.0
0.0 4.960370611 0.44700666951 0.0
0.0 4.961721843 0.447994813278 0.0
0.0 4.963073074 0.448985284557 0.0
0.0 4.964424306 0.449978089172 0.0
0.0 4.965775537 0.450973230015 0.0
0.0 4.967126769 0.451970712931 0.0
0.0 4.968478 0.452970540822 0.0
0.0 4.969829231 0.453972718809 0.0
0.0 4.971180463 0.454977252026 0.0
0.0 4.972531694 0.455984143386 0.0
0.0 4.973882926 0.456993398784 0.0
0.0 4.975234157 0.458005021135 0.0
0.0 4.976585389 0.459019016357 0.0
0.0 4.97793662 0.460035387373 0.0
0.0 4.979287852 0.461054140119 0.0
0.0 4.980639083 0.462075277526 0.0
0.0 4.981990314 0.463098804792 0.0
0.0 4.983341546 0.46412472713 0.0
0.0 4.984692777 0.465153047479 0.0
0.0 4.986044009 0.466183771829 0.0
0.0 4.98739524 0.467216903125 0.0
0.0 4.988746472 0.468252447376 0.0
0.0 4.990097703 0.469290407535 0.0
0.0 4.991448934 0.470330788864 0.0
0.0 4.992800166 0.471373596631 0.0
0.0 4.994151397 0.472418833803 0.0
0.0 4.995502629 0.473466506438 0.0
0.0 4.99685386 0.474516617507 0.0
0.0 4.998205092 0.475569173093 0.0
0.0 4.999556323 0.476624176172 0.0
0.0 5.000907555 0.477681632845 0.0
0.0 5.002258786 0.478741546098 0.0
0.0 5.003610017 0.479803921265 0.0
0.0 5.004961249 0.480868763699 0.0
0.0 5.00631248 0.481936076392 0.0
0.0 5.007663712 0.4830058655 0.0
0.0 5.009014943 0.484078134023 0.0
0.0 5.010366175 0.485152888137 0.0
0.0 5.011717406 0.486230130848 0.0
0.0 5.013068637 0.487309867555 0.0
0.0 5.014419869 0.488392103669 0.0
0.0 5.0157711 0.489476842208 0.0
0.0 5.017122332 0.490564089402 0.0
0.0 5.018473563 0.491653848273 0.0
0.0 5.019824795 0.492746125072 0.0
0.0 5.021176026 0.49384092283 0.0
0.0 5.022527258 0.494938247818 0.0
0.0 5.023878489 0.496038103073 0.0
0.0 5.02522972 0.497140494074 0.0
0.0 5.026580952 0.498245426311 0.0
0.0 5.027932183 0.499352902833 0.0
0.0 5.029283415 0.500462931735 0.0
0.0 5.030634646 0.501575592929 0.0
0.0 5.031985878 0.502690957857 0.0
0.0 5.033337109 0.503808681773 0.0
0.0 5.034688341 0.504928801452 0.0
0.0 5.036039572 0.506051548752 0.0
0.0 5.037390803 0.507176900712 0.0
0.0 5.038742035 0.508304906001 0.0
0.0 5.040093266 0.509435500244 0.0
0.0 5.041444498 0.510568687627 0.0
0.0 5.042795729 0.51170447123 0.0
0.0 5.044146961 0.512842857504 0.0
0.0 5.045498192 0.513983849534 0.0
0.0 5.046849423 0.515127452945 0.0
0.0 5.048200655 0.516273673372 0.0
0.0 5.049551886 0.517422513915 0.0
0.0 5.050903118 0.518573981075 0.0
0.0 5.052254349 0.519728077959 0.0
0.0 5.053605581 0.520884811334 0.0
0.0 5.054956812 0.522044195598 0.0
0.0 5.056308044 0.523206267037 0.0
0.0 5.057659275 0.524370927463 0.0
0.0 5.059010506 0.525538245036 0.0
0.0 5.060361738 0.526708224122 0.0
0.0 5.061712969 0.527880877685 0.0
0.0 5.063064201 0.529056205242 0.0
0.0 5.064415432 0.53023423038 0.0
0.0 5.065766664 0.531414947037 0.0
0.0 5.067117895 0.532598332805 0.0
0.0 5.068469126 0.533784381427 0.0
0.0 5.069820358 0.534973076674 0.0
0.0 5.071171589 0.536164434889 0.0
0.0 5.072522821 0.537358523356 0.0
0.0 5.073874052 0.538555346594 0.0
0.0 5.075225284 0.539754905216 0.0
0.0 5.076576515 0.540957184353 0.0
0.0 5.077927747 0.542162249877 0.0
0.0 5.079278978 0.543369974303 0.0
0.0 5.080630209 0.544580425364 0.0
0.0 5.081981441 0.545793599682 0.0
0.0 5.083332672 0.547009527279 0.0
0.0 5.084683904 0.54822821674 0.0
0.0 5.086035135 0.54944966211 0.0
0.0 5.087386367 0.550673866675 0.0
0.0 5.088737598 0.551900833509 0.0
0.0 5.090088829 0.553130568529 0.0
0.0 5.091440061 0.554363077671 0.0
0.0 5.092791292 0.555598364138 0.0
0.0 5.094142524 0.556836434795 0.0
0.0 5.095493755 0.558077292854 0.0
0.0 5.096844987 0.559320945202 0.0
0.0 5.098196218 0.560567395055 0.0
0.0 5.09954745 0.561816649325 0.0
