0.3   1.58744196197
0.301   1.58679803905
0.302   1.5861648322
0.303   1.58554205581
0.304   1.58492943516
0.305   1.58432670593
0.306   1.58373361362
0.307   1.58314991311
0.308   1.58257536821
0.309   1.5820097512
0.31   1.58145284249
0.311   1.58090443018
0.312   1.58036430974
0.313   1.57983228368
0.314   1.57930816119
0.315   1.57879175791
0.316   1.57828289558
0.317   1.5777814018
0.318   1.57728710981
0.319   1.57679985817
0.32   1.57631949063
0.321   1.57584585583
0.322   1.57537880715
0.323   1.5749182025
0.324   1.57446390413
0.325   1.57401577845
0.326   1.5735736959
0.327   1.57313753074
0.328   1.57270716095
0.329   1.57228246804
0.33   1.57186333696
0.331   1.57144965593
0.332   1.57104131636
0.333   1.57063821267
0.334   1.57024024224
0.335   1.56984730528
0.336   1.56945930471
0.337   1.56907614609
0.338   1.5686977375
0.339   1.56832398949
0.34   1.56795481493
0.341   1.56759012901
0.342   1.56722984909
0.343   1.56687389466
0.344   1.56652218728
0.345   1.56617465047
0.346   1.56583120969
0.347   1.56549179223
0.348   1.5651563272
0.349   1.56482474544
0.35   1.56449697946
0.351   1.5641729634
0.352   1.563852633
0.353   1.56353592548
0.354   1.5632227796
0.355   1.56291313549
0.356   1.56260693471
0.357   1.56230412017
0.358   1.56200463606
0.359   1.56170842785
0.36   1.56141544226
0.361   1.56112562717
0.362   1.56083893163
0.363   1.56055530584
0.364   1.56027470106
0.365   1.55999706962
0.366   1.55972236491
0.367   1.55945054127
0.368   1.55918155406
0.369   1.55891535957
0.37   1.558651915
0.371   1.55839117847
0.372   1.55813310895
0.373   1.55787766627
0.374   1.55762481109
0.375   1.55737450484
0.376   1.55712670978
0.377   1.5568813889
0.378   1.55663850594
0.379   1.55639802536
0.38   1.55615991232
0.381   1.55592413267
0.382   1.55569065293
0.383   1.55545944026
0.384   1.55523046248
0.385   1.555003688
0.386   1.55477908584
0.387   1.55455662562
0.388   1.55433627752
0.389   1.5541180123
0.39   1.55390180124
0.391   1.55368761617
0.392   1.55347542944
0.393   1.5532652139
0.394   1.55305694291
0.395   1.55285059029
0.396   1.55264613035
0.397   1.55244353787
0.398   1.55224278807
0.399   1.55204385661
0.4   1.55184671957
0.401   1.55165135348
0.402   1.55145773525
0.403   1.55126584222
0.404   1.55107565211
0.405   1.55088714302
0.406   1.55070029342
0.407   1.55051508218
0.408   1.55033148849
0.409   1.55014949192
0.41   1.54996907237
0.411   1.54979021008
0.412   1.54961288562
0.413   1.54943707988
0.414   1.54926277407
0.415   1.54908994971
0.416   1.54891858861
0.417   1.5487486729
0.418   1.54858018497
0.419   1.54841310751
0.42   1.5482474235
0.421   1.54808311617
0.422   1.54792016903
0.423   1.54775856584
0.424   1.54759829064
0.425   1.54743932769
0.426   1.54728166152
0.427   1.54712527689
0.428   1.5469701588
0.429   1.54681629247
0.43   1.54666366337
0.431   1.54651225717
0.432   1.54636205978
0.433   1.5462130573
0.434   1.54606523606
0.435   1.54591858259
0.436   1.54577308361
0.437   1.54562872606
0.438   1.54548549706
0.439   1.54534338391
0.44   1.54520237413
0.441   1.54506245539
0.442   1.54492361556
0.443   1.54478584269
0.444   1.54464912498
0.445   1.54451345083
0.446   1.54437880878
0.447   1.54424518755
0.448   1.54411257603
0.449   1.54398096324
0.45   1.54385033839
0.451   1.54372069081
0.452   1.54359201001
0.453   1.54346428562
0.454   1.54333750743
0.455   1.54321166537
0.456   1.54308674951
0.457   1.54296275006
0.458   1.54283965736
0.459   1.54271746188
0.46   1.54259615423
0.461   1.54247572514
0.462   1.54235616547
0.463   1.5422374662
0.464   1.54211961843
0.465   1.54200261339
0.466   1.54188644241
0.467   1.54177109695
0.468   1.54165656859
0.469   1.541542849
0.47   1.54142992998
0.471   1.54131780341
0.472   1.54120646132
0.473   1.5410958958
0.474   1.54098609907
0.475   1.54087706345
0.476   1.54076878134
0.477   1.54066124526
0.478   1.54055444781
0.479   1.5404483817
0.48   1.54034303972
0.481   1.54023841476
0.482   1.54013449979
0.483   1.54003128788
0.484   1.53992877218
0.485   1.53982694593
0.486   1.53972580246
0.487   1.53962533517
0.488   1.53952553755
0.489   1.53942640318
0.49   1.53932792569
0.491   1.53923009882
0.492   1.53913291637
0.493   1.53903637223
0.494   1.53894046034
0.495   1.53884517474
0.496   1.53875050953
0.497   1.53865645887
0.498   1.53856301703
0.499   1.5384701783
0.5   1.53837793706
0.501   1.53828628777
0.502   1.53819522494
0.503   1.53810474315
0.504   1.53801483703
0.505   1.53792550131
0.506   1.53783673074
0.507   1.53774852015
0.508   1.53766086445
0.509   1.53757375857
0.51   1.53748719753
0.511   1.5374011764
0.512   1.53731569029
0.513   1.5372307344
0.514   1.53714630395
0.515   1.53706239424
0.516   1.53697900062
0.517   1.53689611847
0.518   1.53681374326
0.519   1.53673187047
0.52   1.53665049568
0.521   1.53656961447
0.522   1.53648922251
0.523   1.53640931549
0.524   1.53632988916
0.525   1.53625093933
0.526   1.53617246183
0.527   1.53609445255
0.528   1.53601690743
0.529   1.53593982246
0.53   1.53586319365
0.531   1.53578701707
0.532   1.53571128884
0.533   1.53563600511
0.534   1.53556116207
0.535   1.53548675597
0.536   1.53541278308
0.537   1.53533923972
0.538   1.53526612225
0.539   1.53519342706
0.54   1.53512115059
0.541   1.53504928932
0.542   1.53497783976
0.543   1.53490679845
0.544   1.53483616199
0.545   1.53476592698
0.546   1.5346960901
0.547   1.53462664804
0.548   1.53455759751
0.549   1.53448893529
0.55   1.53442065817
0.551   1.53435276298
0.552   1.53428524657
0.553   1.53421810585
0.554   1.53415133775
0.555   1.53408493922
0.556   1.53401890724
0.557   1.53395323886
0.558   1.5338879311
0.559   1.53382298106
0.56   1.53375838585
0.561   1.53369414261
0.562   1.5336302485
0.563   1.53356670074
0.564   1.53350349653
0.565   1.53344063315
0.566   1.53337810787
0.567   1.533315918
0.568   1.53325406089
0.569   1.53319253388
0.57   1.53313133438
0.571   1.5330704598
0.572   1.53300990758
0.573   1.53294967518
0.574   1.53288976011
0.575   1.53283015987
0.576   1.53277087201
0.577   1.53271189408
0.578   1.53265322369
0.579   1.53259485845
0.58   1.53253679598
0.581   1.53247903395
0.582   1.53242157004
0.583   1.53236440195
0.584   1.53230752741
0.585   1.53225094417
0.586   1.53219465
0.587   1.53213864268
0.588   1.53208292004
0.589   1.53202747989
0.59   1.53197232011
0.591   1.53191743856
0.592   1.53186283313
0.593   1.53180850174
0.594   1.53175444233
0.595   1.53170065284
0.596   1.53164713125
0.597   1.53159387556
0.598   1.53154088377
0.599   1.53148815391
0.6   1.53143568402
0.601   1.53138347219
0.602   1.53133151648
0.603   1.53127981499
0.604   1.53122836586
0.605   1.53117716722
0.606   1.53112621721
0.607   1.531075514
0.608   1.5310250558
0.609   1.53097484079
0.61   1.53092486721
0.611   1.53087513328
0.612   1.53082563725
0.613   1.53077637741
0.614   1.53072735202
0.615   1.5306785594
0.616   1.53062999785
0.617   1.5305816657
0.618   1.5305335613
0.619   1.53048568302
0.62   1.53043802921
0.621   1.53039059828
0.622   1.53034338863
0.623   1.53029639867
0.624   1.53024962683
0.625   1.53020307156
0.626   1.53015673133
0.627   1.53011060459
0.628   1.53006468985
0.629   1.53001898559
0.63   1.52997349033
0.631   1.5299282026
0.632   1.52988312093
0.633   1.52983824388
0.634   1.52979357001
0.635   1.5297490979
0.636   1.52970482612
0.637   1.5296607533
0.638   1.52961687803
0.639   1.52957319895
0.64   1.52952971468
0.641   1.52948642389
0.642   1.52944332522
0.643   1.52940041735
0.644   1.52935769896
0.645   1.52931516875
0.646   1.52927282542
0.647   1.52923066769
0.648   1.52918869428
0.649   1.52914690394
0.65   1.5291052954
0.651   1.52906386743
0.652   1.5290226188
0.653   1.52898154829
0.654   1.52894065468
0.655   1.52889993678
0.656   1.5288593934
0.657   1.52881902335
0.658   1.52877882547
0.659   1.5287387986
0.66   1.52869894158
0.661   1.52865925327
0.662   1.52861973255
0.663   1.52858037828
0.664   1.52854118935
0.665   1.52850216467
0.666   1.52846330313
0.667   1.52842460364
0.668   1.52838606514
0.669   1.52834768655
0.67   1.5283094668
0.671   1.52827140486
0.672   1.52823349967
0.673   1.52819575021
0.674   1.52815815543
0.675   1.52812071434
0.676   1.52808342591
0.677   1.52804628915
0.678   1.52800930306
0.679   1.52797246665
0.68   1.52793577895
0.681   1.52789923899
0.682   1.5278628458
0.683   1.52782659844
0.684   1.52779049594
0.685   1.52775453738
0.686   1.52771872182
0.687   1.52768304834
0.688   1.52764751601
0.689   1.52761212393
0.69   1.5275768712
0.691   1.52754175691
0.692   1.52750678019
0.693   1.52747194013
0.694   1.52743723588
0.695   1.52740266656
0.696   1.52736823132
0.697   1.52733392928
0.698   1.52729975961
0.699   1.52726572147
0.7   1.52723181402
0.701   1.52719803642
0.702   1.52716438786
0.703   1.52713086752
0.704   1.52709747459
0.705   1.52706420827
0.706   1.52703106776
0.707   1.52699805226
0.708   1.52696516099
0.709   1.52693239317
0.71   1.52689974802
0.711   1.52686722479
0.712   1.5268348227
0.713   1.526802541
0.714   1.52677037894
0.715   1.52673833577
0.716   1.52670641076
0.717   1.52667460317
0.718   1.52664291226
0.719   1.52661133733
0.72   1.52657987764
0.721   1.5265485325
0.722   1.52651730118
0.723   1.52648618299
0.724   1.52645517724
0.725   1.52642428322
0.726   1.52639350026
0.727   1.52636282767
0.728   1.52633226478
0.729   1.52630181091
0.73   1.5262714654
0.731   1.52624122759
0.732   1.52621109682
0.733   1.52618107243
0.734   1.52615115379
0.735   1.52612134025
0.736   1.52609163116
0.737   1.5260620259
0.738   1.52603252385
0.739   1.52600312436
0.74   1.52597382683
0.741   1.52594463064
0.742   1.52591553518
0.743   1.52588653985
0.744   1.52585764403
0.745   1.52582884714
0.746   1.52580014858
0.747   1.52577154775
0.748   1.52574304409
0.749   1.52571463699
0.75   1.5256863259
0.751   1.52565811023
0.752   1.52562998942
0.753   1.5256019629
0.754   1.52557403012
0.755   1.52554619051
0.756   1.52551844352
0.757   1.52549078861
0.758   1.52546322522
0.759   1.52543575283
0.76   1.52540837088
0.761   1.52538107885
0.762   1.52535387621
0.763   1.52532676243
0.764   1.52529973699
0.765   1.52527279937
0.766   1.52524594905
0.767   1.52521918553
0.768   1.52519250829
0.769   1.52516591683
0.77   1.52513941065
0.771   1.52511298926
0.772   1.52508665214
0.773   1.52506039883
0.774   1.52503422882
0.775   1.52500814164
0.776   1.5249821368
0.777   1.52495621382
0.778   1.52493037224
0.779   1.52490461157
0.78   1.52487893136
0.781   1.52485333114
0.782   1.52482781044
0.783   1.5248023688
0.784   1.52477700578
0.785   1.52475172092
0.786   1.52472651377
0.787   1.52470138388
0.788   1.52467633081
0.789   1.52465135412
0.79   1.52462645337
0.791   1.52460162813
0.792   1.52457687797
0.793   1.52455220245
0.794   1.52452760115
0.795   1.52450307366
0.796   1.52447861954
0.797   1.52445423838
0.798   1.52442992977
0.799   1.52440569329
0.8   1.52438152854
0.801   1.5243574351
0.802   1.52433341258
0.803   1.52430946057
0.804   1.52428557868
0.805   1.5242617665
0.806   1.52423802365
0.807   1.52421434974
0.808   1.52419074437
0.809   1.52416720716
0.81   1.52414373772
0.811   1.52412033569
0.812   1.52409700067
0.813   1.52407373229
0.814   1.52405053018
0.815   1.52402739397
0.816   1.52400432328
0.817   1.52398131776
0.818   1.52395837704
0.819   1.52393550075
0.82   1.52391268854
0.821   1.52388994005
0.822   1.52386725493
0.823   1.52384463282
0.824   1.52382207337
0.825   1.52379957624
0.826   1.52377714108
0.827   1.52375476754
0.828   1.52373245529
0.829   1.52371020399
0.83   1.52368801329
0.831   1.52366588287
0.832   1.52364381238
0.833   1.52362180151
0.834   1.52359984991
0.835   1.52357795727
0.836   1.52355612326
0.837   1.52353434756
0.838   1.52351262985
0.839   1.5234909698
0.84   1.5234693671
0.841   1.52344782144
0.842   1.52342633251
0.843   1.52340489999
0.844   1.52338352357
0.845   1.52336220295
0.846   1.52334093783
0.847   1.52331972789
0.848   1.52329857285
0.849   1.52327747239
0.85   1.52325642623
0.851   1.52323543406
0.852   1.52321449559
0.853   1.52319361054
0.854   1.5231727786
0.855   1.5231519995
0.856   1.52313127294
0.857   1.52311059864
0.858   1.52308997632
0.859   1.52306940569
0.86   1.52304888648
0.861   1.5230284184
0.862   1.52300800119
0.863   1.52298763456
0.864   1.52296731824
0.865   1.52294705196
0.866   1.52292683546
0.867   1.52290666845
0.868   1.52288655069
0.869   1.52286648189
0.87   1.5228464618
0.871   1.52282649016
0.872   1.5228065667
0.873   1.52278669118
0.874   1.52276686331
0.875   1.52274708287
0.876   1.52272734958
0.877   1.5227076632
0.878   1.52268802348
0.879   1.52266843016
0.88   1.522648883
0.881   1.52262938174
0.882   1.52260992616
0.883   1.522590516
0.884   1.52257115101
0.885   1.52255183097
0.886   1.52253255562
0.887   1.52251332474
0.888   1.52249413807
0.889   1.5224749954
0.89   1.52245589648
0.891   1.52243684108
0.892   1.52241782898
0.893   1.52239885993
0.894   1.52237993371
0.895   1.5223610501
0.896   1.52234220887
0.897   1.52232340979
0.898   1.52230465264
0.899   1.52228593719
0.9   1.52226726324
0.901   1.52224863055
0.902   1.52223003891
0.903   1.52221148811
0.904   1.52219297791
0.905   1.52217450813
0.906   1.52215607853
0.907   1.5221376889
0.908   1.52211933904
0.909   1.52210102874
0.91   1.52208275778
0.911   1.52206452596
0.912   1.52204633308
0.913   1.52202817892
0.914   1.52201006329
0.915   1.52199198598
0.916   1.52197394679
0.917   1.52195594552
0.918   1.52193798197
0.919   1.52192005594
0.92   1.52190216723
0.921   1.52188431566
0.922   1.52186650102
0.923   1.52184872312
0.924   1.52183098176
0.925   1.52181327677
0.926   1.52179560793
0.927   1.52177797508
0.928   1.52176037801
0.929   1.52174281654
0.93   1.52172529048
0.931   1.52170779966
0.932   1.52169034387
0.933   1.52167292295
0.934   1.52165553671
0.935   1.52163818496
0.936   1.52162086753
0.937   1.52160358423
0.938   1.5215863349
0.939   1.52156911934
0.94   1.5215519374
0.941   1.52153478888
0.942   1.52151767362
0.943   1.52150059143
0.944   1.52148354216
0.945   1.52146652563
0.946   1.52144954166
0.947   1.52143259009
0.948   1.52141567075
0.949   1.52139878347
0.95   1.52138192808
0.951   1.52136510442
0.952   1.52134831232
0.953   1.52133155162
0.954   1.52131482215
0.955   1.52129812376
0.956   1.52128145627
0.957   1.52126481954
0.958   1.52124821339
0.959   1.52123163767
0.96   1.52121509223
0.961   1.5211985769
0.962   1.52118209152
0.963   1.52116563595
0.964   1.52114921003
0.965   1.5211328136
0.966   1.5211164465
0.967   1.5211001086
0.968   1.52108379973
0.969   1.52106751974
0.97   1.52105126849
0.971   1.52103504583
0.972   1.5210188516
0.973   1.52100268566
0.974   1.52098654786
0.975   1.52097043806
0.976   1.5209543561
0.977   1.52093830186
0.978   1.52092227517
0.979   1.52090627591
0.98   1.52089030392
0.981   1.52087435906
0.982   1.5208584412
0.983   1.52084255019
0.984   1.5208266859
0.985   1.52081084818
0.986   1.5207950369
0.987   1.52077925192
0.988   1.5207634931
0.989   1.52074776031
0.99   1.52073205341
0.991   1.52071637227
0.992   1.52070071675
0.993   1.52068508672
0.994   1.52066948205
0.995   1.52065390261
0.996   1.52063834826
0.997   1.52062281888
0.998   1.52060731433
0.999   1.52059183449
1.0   1.52057637923
1.001   1.52056094842
1.002   1.52054554193
1.003   1.52053015963
1.004   1.52051480141
1.005   1.52049946713
1.006   1.52048415667
1.007   1.52046886991
1.008   1.52045360672
1.009   1.52043836698
1.01   1.52042315057
1.011   1.52040795737
1.012   1.52039278725
1.013   1.5203776401
1.014   1.5203625158
1.015   1.52034741422
1.016   1.52033233525
1.017   1.52031727877
1.018   1.52030224467
1.019   1.52028723282
1.02   1.52027224311
1.021   1.52025727543
1.022   1.52024232965
1.023   1.52022740568
1.024   1.52021250338
1.025   1.52019762265
1.026   1.52018276338
1.027   1.52016792545
1.028   1.52015310875
1.029   1.52013831318
1.03   1.52012353861
1.031   1.52010878495
1.032   1.52009405207
1.033   1.52007933988
1.034   1.52006464826
1.035   1.52004997711
1.036   1.52003532631
1.037   1.52002069577
1.038   1.52000608537
1.039   1.51999149501
1.04   1.51997692458
1.041   1.51996237398
1.042   1.51994784311
1.043   1.51993333186
1.044   1.51991884013
1.045   1.51990436782
1.046   1.51988991481
1.047   1.51987548102
1.048   1.51986106634
1.049   1.51984667067
1.05   1.51983229391
1.051   1.51981793596
1.052   1.51980359671
1.053   1.51978927608
1.054   1.51977497396
1.055   1.51976069026
1.056   1.51974642487
1.057   1.5197321777
1.058   1.51971794866
1.059   1.51970373765
1.06   1.51968954456
1.061   1.51967536932
1.062   1.51966121182
1.063   1.51964707196
1.064   1.51963294966
1.065   1.51961884482
1.066   1.51960475735
1.067   1.51959068715
1.068   1.51957663414
1.069   1.51956259822
1.07   1.5195485793
1.071   1.51953457728
1.072   1.51952059209
1.073   1.51950662363
1.074   1.51949267181
1.075   1.51947873654
1.076   1.51946481773
1.077   1.51945091529
1.078   1.51943702914
1.079   1.51942315919
1.08   1.51940930535
1.081   1.51939546754
1.082   1.51938164566
1.083   1.51936783964
1.084   1.51935404938
1.085   1.51934027481
1.086   1.51932651583
1.087   1.51931277237
1.088   1.51929904434
1.089   1.51928533165
1.09   1.51927163423
1.091   1.51925795198
1.092   1.51924428484
1.093   1.51923063271
1.094   1.51921699551
1.095   1.51920337317
1.096   1.5191897656
1.097   1.51917617272
1.098   1.51916259445
1.099   1.51914903071
1.1   1.51913548143
1.101   1.51912194651
1.102   1.5191084259
1.103   1.5190949195
1.104   1.51908142723
1.105   1.51906794903
1.106   1.51905448481
1.107   1.5190410345
1.108   1.51902759802
1.109   1.51901417529
1.11   1.51900076623
1.111   1.51898737078
1.112   1.51897398886
1.113   1.51896062039
1.114   1.51894726529
1.115   1.5189339235
1.116   1.51892059494
1.117   1.51890727953
1.118   1.5188939772
1.119   1.51888068789
1.12   1.51886741151
1.121   1.51885414799
1.122   1.51884089727
1.123   1.51882765927
1.124   1.51881443391
1.125   1.51880122114
1.126   1.51878802087
1.127   1.51877483304
1.128   1.51876165758
1.129   1.51874849442
1.13   1.51873534348
1.131   1.5187222047
1.132   1.51870907801
1.133   1.51869596334
1.134   1.51868286063
1.135   1.5186697698
1.136   1.51865669079
1.137   1.51864362352
1.138   1.51863056794
1.139   1.51861752398
1.14   1.51860449157
1.141   1.51859147064
1.142   1.51857846112
1.143   1.51856546296
1.144   1.51855247608
1.145   1.51853950043
1.146   1.51852653593
1.147   1.51851358252
1.148   1.51850064015
1.149   1.51848770873
1.15   1.51847478821
1.151   1.51846187854
1.152   1.51844897963
1.153   1.51843609143
1.154   1.51842321388
1.155   1.51841034692
1.156   1.51839749048
1.157   1.5183846445
1.158   1.51837180892
1.159   1.51835898368
1.16   1.51834616872
1.161   1.51833336397
1.162   1.51832056938
1.163   1.51830778489
1.164   1.51829501043
1.165   1.51828224594
1.166   1.51826949138
1.167   1.51825674666
1.168   1.51824401175
1.169   1.51823128658
1.17   1.51821857109
1.171   1.51820586521
1.172   1.51819316891
1.173   1.51818048211
1.174   1.51816780476
1.175   1.5181551368
1.176   1.51814247817
1.177   1.51812982882
1.178   1.51811718869
1.179   1.51810455773
1.18   1.51809193587
1.181   1.51807932307
1.182   1.51806671927
1.183   1.5180541244
1.184   1.51804153842
1.185   1.51802896127
1.186   1.5180163929
1.187   1.51800383325
1.188   1.51799128226
1.189   1.51797873989
1.19   1.51796620608
1.191   1.51795368077
1.192   1.51794116392
1.193   1.51792865546
1.194   1.51791615535
1.195   1.51790366353
1.196   1.51789117996
1.197   1.51787870457
1.198   1.51786623731
1.199   1.51785377814
1.2   1.517841327
1.201   1.51782888384
1.202   1.51781644861
1.203   1.51780402126
1.204   1.51779160173
1.205   1.51777918998
1.206   1.51776678596
1.207   1.51775438961
1.208   1.51774200089
1.209   1.51772961974
1.21   1.51771724611
1.211   1.51770487996
1.212   1.51769252124
1.213   1.5176801699
1.214   1.51766782588
1.215   1.51765548915
1.216   1.51764315964
1.217   1.51763083732
1.218   1.51761852213
1.219   1.51760621403
1.22   1.51759391297
1.221   1.5175816189
1.222   1.51756933177
1.223   1.51755705154
1.224   1.51754477815
1.225   1.51753251157
1.226   1.51752025175
1.227   1.51750799864
1.228   1.51749575218
1.229   1.51748351235
1.23   1.51747127908
1.231   1.51745905235
1.232   1.51744683209
1.233   1.51743461826
1.234   1.51742241082
1.235   1.51741020973
1.236   1.51739801494
1.237   1.5173858264
1.238   1.51737364406
1.239   1.5173614679
1.24   1.51734929785
1.241   1.51733713388
1.242   1.51732497595
1.243   1.517312824
1.244   1.517300678
1.245   1.5172885379
1.246   1.51727640366
1.247   1.51726427524
1.248   1.51725215259
1.249   1.51724003567
1.25   1.51722792443
1.251   1.51721581885
1.252   1.51720371886
1.253   1.51719162444
1.254   1.51717953553
1.255   1.51716745211
1.256   1.51715537411
1.257   1.51714330152
1.258   1.51713123427
1.259   1.51711917234
1.26   1.51710711568
1.261   1.51709506425
1.262   1.517083018
1.263   1.51707097691
1.264   1.51705894092
1.265   1.51704691
1.266   1.51703488412
1.267   1.51702286321
1.268   1.51701084726
1.269   1.51699883622
1.27   1.51698683004
1.271   1.51697482869
1.272   1.51696283214
1.273   1.51695084034
1.274   1.51693885324
1.275   1.51692687083
1.276   1.51691489305
1.277   1.51690291986
1.278   1.51689095123
1.279   1.51687898713
1.28   1.5168670275
1.281   1.51685507232
1.282   1.51684312155
1.283   1.51683117514
1.284   1.51681923307
1.285   1.51680729529
1.286   1.51679536176
1.287   1.51678343246
1.288   1.51677150734
1.289   1.51675958636
1.29   1.5167476695
1.291   1.5167357567
1.292   1.51672384794
1.293   1.51671194318
1.294   1.51670004239
1.295   1.51668814552
1.296   1.51667625254
1.297   1.51666436342
1.298   1.51665247812
1.299   1.5166405966
1.3   1.51662871884
