# approximate data for optimizations for each filter configuration (column 1)
# column 2 is the nominal wavelength of each band (microns)
# column 3 is the approximate plate scale (microns per degree)
# columns 4 5 6 are the x y z coordinates of the center of the image plane (microns)
# columns 7 8 9 are the Euler rotations of the image plane (degrees)
0   2.50  1.02979737783e6  0.0 0.0 0.0 0.0 0.0 0.0
1   2.50  1.02979737783e6  0.0 0.0 0.0 0.0 0.0 0.0
2   2.50  1.02979737783e6  0.0 0.0 0.0 0.0 0.0 0.0
3   2.77  1.02979737783e6  0.0 0.0 0.0 0.0 0.0 0.0
4   2.77  1.02979737783e6  0.0 0.0 0.0 0.0 0.0 0.0
5   2.77  1.02979737783e6  0.0 0.0 0.0 0.0 0.0 0.0
6   3.00  1.02979737783e6  0.0 0.0 0.0 0.0 0.0 0.0
7   3.00  1.02979737783e6  0.0 0.0 0.0 0.0 0.0 0.0
8   3.00  1.02979737783e6  0.0 0.0 0.0 0.0 0.0 0.0
9   3.22  1.02979737783e6  0.0 0.0 0.0 0.0 0.0 0.0
10  3.22  1.02979737783e6  0.0 0.0 0.0 0.0 0.0 0.0
11  3.22  1.02979737783e6  0.0 0.0 0.0 0.0 0.0 0.0
12  3.23  1.02979737783e6  0.0 0.0 0.0 0.0 0.0 0.0
13  3.23  1.02979737783e6  0.0 0.0 0.0 0.0 0.0 0.0
14  3.23  1.02979737783e6  0.0 0.0 0.0 0.0 0.0 0.0
15  3.35  1.02979737783e6  0.0 0.0 0.0 0.0 0.0 0.0
16  3.35  1.02979737783e6  0.0 0.0 0.0 0.0 0.0 0.0
17  3.35  1.02979737783e6  0.0 0.0 0.0 0.0 0.0 0.0
18  3.56  1.02979737783e6  0.0 0.0 0.0 0.0 0.0 0.0
19  3.56  1.02979737783e6  0.0 0.0 0.0 0.0 0.0 0.0
20  3.56  1.02979737783e6  0.0 0.0 0.0 0.0 0.0 0.0
21  3.60  1.02979737783e6  0.0 0.0 0.0 0.0 0.0 0.0
22  3.60  1.02979737783e6  0.0 0.0 0.0 0.0 0.0 0.0
23  3.60  1.02979737783e6  0.0 0.0 0.0 0.0 0.0 0.0
24  4.05  1.02979737783e6  0.0 0.0 0.0 0.0 0.0 0.0
25  4.05  1.02979737783e6  0.0 0.0 0.0 0.0 0.0 0.0
26  4.05  1.02979737783e6  0.0 0.0 0.0 0.0 0.0 0.0
27  4.10  1.02979737783e6  0.0 0.0 0.0 0.0 0.0 0.0
28  4.10  1.02979737783e6  0.0 0.0 0.0 0.0 0.0 0.0
29  4.10  1.02979737783e6  0.0 0.0 0.0 0.0 0.0 0.0
30  4.30  1.02979737783e6  0.0 0.0 0.0 0.0 0.0 0.0
31  4.30  1.02979737783e6  0.0 0.0 0.0 0.0 0.0 0.0
32  4.30  1.02979737783e6  0.0 0.0 0.0 0.0 0.0 0.0
33  4.44  1.02979737783e6  0.0 0.0 0.0 0.0 0.0 0.0
34  4.44  1.02979737783e6  0.0 0.0 0.0 0.0 0.0 0.0
35  4.44  1.02979737783e6  0.0 0.0 0.0 0.0 0.0 0.0
36  4.60  1.02979737783e6  0.0 0.0 0.0 0.0 0.0 0.0
37  4.60  1.02979737783e6  0.0 0.0 0.0 0.0 0.0 0.0
38  4.60  1.02979737783e6  0.0 0.0 0.0 0.0 0.0 0.0
39  4.66  1.02979737783e6  0.0 0.0 0.0 0.0 0.0 0.0
40  4.66  1.02979737783e6  0.0 0.0 0.0 0.0 0.0 0.0
41  4.66  1.02979737783e6  0.0 0.0 0.0 0.0 0.0 0.0
42  4.70  1.02979737783e6  0.0 0.0 0.0 0.0 0.0 0.0
43  4.70  1.02979737783e6  0.0 0.0 0.0 0.0 0.0 0.0
44  4.70  1.02979737783e6  0.0 0.0 0.0 0.0 0.0 0.0
45  4.80  1.02979737783e6  0.0 0.0 0.0 0.0 0.0 0.0
46  4.80  1.02979737783e6  0.0 0.0 0.0 0.0 0.0 0.0
47  4.80  1.02979737783e6  0.0 0.0 0.0 0.0 0.0 0.0