0.0 0.551400024414 0.309178084506 0.0
0.0 0.552400024414 0.309028713181 0.0
0.0 0.553400024414 0.308879107008 0.0
0.0 0.554400024414 0.308729266488 0.0
0.0 0.555400024414 0.308579192123 0.0
0.0 0.556400024414 0.308428884414 0.0
0.0 0.557400024414 0.30827834386 0.0
0.0 0.558400024414 0.308127570963 0.0
0.0 0.559400024414 0.307976566227 0.0
0.0 0.560400024414 0.307825330149 0.0
0.0 0.561400024414 0.30767386323 0.0
0.0 0.562400024414 0.307522165973 0.0
0.0 0.563400024414 0.307370238881 0.0
0.0 0.564400024414 0.307218082448 0.0
0.0 0.565400024414 0.307065697184 0.0
0.0 0.566400024414 0.306913083582 0.0
0.0 0.567400024414 0.306760242147 0.0
0.0 0.568400024414 0.306607173381 0.0
0.0 0.569400024414 0.306453877781 0.0
0.0 0.570400024414 0.306300355853 0.0
0.0 0.571400024414 0.306146608093 0.0
0.0 0.572400024414 0.305992635006 0.0
0.0 0.573400024414 0.305838437092 0.0
0.0 0.574400024414 0.30568401485 0.0
0.0 0.575400024414 0.305529368783 0.0
0.0 0.576400024414 0.305374499392 0.0
0.0 0.577400024414 0.305219407176 0.0
0.0 0.578400024414 0.305064092643 0.0
0.0 0.579400024414 0.304908556278 0.0
0.0 0.580400024414 0.304752798599 0.0
0.0 0.581400024414 0.304596820099 0.0
0.0 0.582400024414 0.304440621287 0.0
0.0 0.583400024414 0.304284202645 0.0
0.0 0.584400024414 0.304127564702 0.0
0.0 0.585400024414 0.303970707924 0.0
0.0 0.586400024414 0.303813632855 0.0
0.0 0.587400024414 0.303656339947 0.0
0.0 0.588400024414 0.303498829737 0.0
0.0 0.589400024414 0.303341102717 0.0
0.0 0.590400024414 0.303183159386 0.0
0.0 0.591400024414 0.303025000245 0.0
0.0 0.592400024414 0.302866625796 0.0
0.0 0.593400024414 0.302708036545 0.0
0.0 0.594400024414 0.302549232976 0.0
0.0 0.595400024414 0.302390215608 0.0
0.0 0.596400024414 0.302230984935 0.0
0.0 0.597400024414 0.302071541457 0.0
0.0 0.598400024414 0.301911885679 0.0
0.0 0.599400024414 0.301752018096 0.0
0.0 0.600400024414 0.301591939216 0.0
0.0 0.601400024414 0.301431649533 0.0
0.0 0.602400024414 0.301271149555 0.0
0.0 0.603400024414 0.301110439777 0.0
0.0 0.604400024414 0.300949520702 0.0
0.0 0.605400024414 0.300788392832 0.0
0.0 0.606400024414 0.300627056668 0.0
0.0 0.607400024414 0.30046551271 0.0
0.0 0.608400024414 0.300303761459 0.0
0.0 0.609400024414 0.300141803417 0.0
0.0 0.610400024414 0.299979639086 0.0
0.0 0.611400024414 0.299817268963 0.0
0.0 0.612400024414 0.299654693552 0.0
0.0 0.613400024414 0.299491913354 0.0
0.0 0.614400024414 0.299328928868 0.0
0.0 0.615400024414 0.299165740597 0.0
0.0 0.616400024414 0.299002349042 0.0
0.0 0.617400024414 0.298838754704 0.0
0.0 0.618400024414 0.298674958082 0.0
0.0 0.619400024414 0.29851095968 0.0
0.0 0.620400024414 0.298346759998 0.0
0.0 0.621400024414 0.298182359533 0.0
0.0 0.622400024414 0.298017758791 0.0
0.0 0.623400024414 0.297852958272 0.0
0.0 0.624400024414 0.297687958476 0.0
0.0 0.625400024414 0.297522759904 0.0
0.0 0.626400024414 0.297357363058 0.0
0.0 0.627400024414 0.297191768439 0.0
0.0 0.628400024414 0.297025976546 0.0
0.0 0.629400024414 0.296859987883 0.0
0.0 0.630400024414 0.296693802948 0.0
0.0 0.631400024414 0.296527422244 0.0
0.0 0.632400024414 0.296360846272 0.0
0.0 0.633400024414 0.296194075531 0.0
0.0 0.634400024414 0.296027110525 0.0
0.0 0.635400024414 0.295859951752 0.0
0.0 0.636400024414 0.295692599715 0.0
0.0 0.637400024414 0.295525054915 0.0
0.0 0.638400024414 0.295357317853 0.0
0.0 0.639400024414 0.295189389027 0.0
0.0 0.640400024414 0.295021268942 0.0
0.0 0.641400024414 0.294852958097 0.0
0.0 0.642400024414 0.294684456993 0.0
0.0 0.643400024414 0.294515766136 0.0
0.0 0.644400024414 0.294346886015 0.0
0.0 0.645400024414 0.294177817141 0.0
0.0 0.646400024414 0.294008560014 0.0
0.0 0.647400024414 0.293839115132 0.0
0.0 0.648400024414 0.293669482998 0.0
0.0 0.649400024414 0.293499664113 0.0
0.0 0.650400024414 0.293329658977 0.0
0.0 0.651400024414 0.293159468091 0.0
0.0 0.652400024414 0.292989091956 0.0
0.0 0.653400024414 0.292818531077 0.0
0.0 0.654400024414 0.292647785946 0.0
0.0 0.655400024414 0.292476857072 0.0
0.0 0.656400024414 0.292305744953 0.0
0.0 0.657400024414 0.292134450091 0.0
0.0 0.658400024414 0.291962972986 0.0
0.0 0.659400024414 0.291791314144 0.0
0.0 0.660400024414 0.291619474054 0.0
0.0 0.661400024414 0.291447453233 0.0
0.0 0.662400024414 0.291275252167 0.0
0.0 0.663400024414 0.291102871358 0.0
0.0 0.664400024414 0.290930311326 0.0
0.0 0.665400024414 0.29075757255 0.0
0.0 0.666400024414 0.290584655534 0.0
0.0 0.667400024414 0.290411560791 0.0
0.0 0.668400024414 0.290238288815 0.0
0.0 0.669400024414 0.290064840115 0.0
0.0 0.670400024414 0.28989121517 0.0
0.0 0.671400024414 0.289717414504 0.0
0.0 0.672400024414 0.289543438606 0.0
0.0 0.673400024414 0.289369287983 0.0
0.0 0.674400024414 0.289194963138 0.0
0.0 0.675400024414 0.289020464557 0.0
0.0 0.676400024414 0.288845792761 0.0
0.0 0.677400024414 0.288670948232 0.0
0.0 0.678400024414 0.288495931485 0.0
0.0 0.679400024414 0.288320743017 0.0
0.0 0.680400024414 0.288145383328 0.0
0.0 0.681400024414 0.28796985292 0.0
0.0 0.682400024414 0.287794152295 0.0
0.0 0.683400024414 0.287618281949 0.0
0.0 0.684400024414 0.287442242387 0.0
0.0 0.685400024414 0.287266034114 0.0
0.0 0.686400024414 0.287089657623 0.0
0.0 0.687400024414 0.286913113414 0.0
0.0 0.688400024414 0.286736401997 0.0
0.0 0.689400024414 0.286559523868 0.0
0.0 0.690400024414 0.286382479533 0.0
0.0 0.691400024414 0.286205269479 0.0
0.0 0.692400024414 0.286027894222 0.0
0.0 0.693400024414 0.285850354269 0.0
0.0 0.694400024414 0.2856726501 0.0
0.0 0.695400024414 0.285494782206 0.0
0.0 0.696400024414 0.285316751128 0.0
0.0 0.697400024414 0.285138557338 0.0
0.0 0.698400024414 0.28496020135 0.0
0.0 0.699400024414 0.284781683661 0.0
0.0 0.700400024414 0.284603004769 0.0
0.0 0.701400024414 0.284424165179 0.0
0.0 0.702400024414 0.284245165391 0.0
0.0 0.703400024414 0.284066005904 0.0
0.0 0.704400024414 0.283886687221 0.0
0.0 0.705400024414 0.283707209849 0.0
0.0 0.706400024414 0.283527574269 0.0
0.0 0.707400024414 0.283347781003 0.0
0.0 0.708400024414 0.283167830544 0.0
0.0 0.709400024414 0.282987723427 0.0
0.0 0.710400024414 0.282807460057 0.0
0.0 0.711400024414 0.28262704102 0.0
0.0 0.712400024414 0.282446466801 0.0
0.0 0.713400024414 0.282265737893 0.0
0.0 0.714400024414 0.282084854879 0.0
0.0 0.715400024414 0.281903818052 0.0
0.0 0.716400024414 0.281722628056 0.0
0.0 0.717400024414 0.281541285409 0.0
0.0 0.718400024414 0.281359790619 0.0
0.0 0.719400024414 0.281178144132 0.0
0.0 0.720400024414 0.280996346377 0.0
0.0 0.721400024414 0.280814398042 0.0
0.0 0.722400024414 0.280632299457 0.0
0.0 0.723400024414 0.280450051224 0.0
0.0 0.724400024414 0.280267653865 0.0
0.0 0.725400024414 0.280085107752 0.0
0.0 0.726400024414 0.279902413494 0.0
0.0 0.727400024414 0.279719571556 0.0
0.0 0.728400024414 0.279536582461 0.0
0.0 0.729400024414 0.27935344669 0.0
0.0 0.730400024414 0.27917016475 0.0
0.0 0.731400024414 0.278986737132 0.0
0.0 0.732400024414 0.278803164346 0.0
0.0 0.733400024414 0.278619446902 0.0
0.0 0.734400024414 0.278435585281 0.0
0.0 0.735400024414 0.27825158 0.0
0.0 0.736400024414 0.278067431562 0.0
0.0 0.737400024414 0.277883140456 0.0
0.0 0.738400024414 0.277698707178 0.0
0.0 0.739400024414 0.277514132253 0.0
0.0 0.740400024414 0.277329416148 0.0
0.0 0.741400024414 0.277144559397 0.0
0.0 0.742400024414 0.276959562479 0.0
0.0 0.743400024414 0.276774425915 0.0
0.0 0.744400024414 0.276589150229 0.0
0.0 0.745400024414 0.276403735801 0.0
0.0 0.746400024414 0.276218183297 0.0
0.0 0.747400024414 0.27603249313 0.0
0.0 0.748400024414 0.27584666585 0.0
0.0 0.749400024414 0.275660701895 0.0
0.0 0.750400024414 0.275474601592 0.0
0.0 0.751400024414 0.275288365802 0.0
0.0 0.752400024414 0.275101995026 0.0
0.0 0.753400024414 0.274915489499 0.0
0.0 0.754400024414 0.274728849661 0.0
0.0 0.755400024414 0.274542076546 0.0
0.0 0.756400024414 0.274355170227 0.0
0.0 0.757400024414 0.274168130465 0.0
0.0 0.758400024414 0.273980959228 0.0
0.0 0.759400024414 0.273793656176 0.0
0.0 0.760400024414 0.273606222114 0.0
0.0 0.761400024414 0.273418657351 0.0
0.0 0.762400024414 0.273230962474 0.0
0.0 0.763400024414 0.27304313796 0.0
0.0 0.764400024414 0.272855184313 0.0
0.0 0.765400024414 0.272667102028 0.0
0.0 0.766400024414 0.272478891611 0.0
0.0 0.767400024414 0.272290553565 0.0
0.0 0.768400024414 0.272102088373 0.0
0.0 0.769400024414 0.271913496557 0.0
0.0 0.770400024414 0.271724778611 0.0
0.0 0.771400024414 0.271535935035 0.0
0.0 0.772400024414 0.271346966331 0.0
0.0 0.773400024414 0.271157872997 0.0
0.0 0.774400024414 0.270968655539 0.0
0.0 0.775400024414 0.270779314453 0.0
0.0 0.776400024414 0.270589850247 0.0
0.0 0.777400024414 0.270400263412 0.0
0.0 0.778400024414 0.270210554455 0.0
0.0 0.779400024414 0.27002072388 0.0
0.0 0.780400024414 0.269830772181 0.0
0.0 0.781400024414 0.269640699864 0.0
0.0 0.782400024414 0.26945050743 0.0
0.0 0.783400024414 0.269260195375 0.0
0.0 0.784400024414 0.269069764209 0.0
0.0 0.785400024414 0.268879214419 0.0
0.0 0.786400024414 0.268688546519 0.0
0.0 0.787400024414 0.268497761011 0.0
0.0 0.788400024414 0.268306858379 0.0
0.0 0.789400024414 0.268115839166 0.0
0.0 0.790400024414 0.267924703793 0.0
0.0 0.791400024414 0.267733452879 0.0
0.0 0.792400024414 0.26754208677 0.0
0.0 0.793400024414 0.267350606121 0.0
0.0 0.794400024414 0.26715901133 0.0
0.0 0.795400024414 0.266967302927 0.0
0.0 0.796400024414 0.266775481436 0.0
0.0 0.797400024414 0.266583547356 0.0
0.0 0.798400024414 0.266391501173 0.0
0.0 0.799400024414 0.266199344275 0.0
0.0 0.800400024414 0.266007074552 0.0
0.0 0.801400024414 0.265814694947 0.0
0.0 0.802400024414 0.265622205754 0.0
0.0 0.803400024414 0.265429606561 0.0
0.0 0.804400024414 0.265236898146 0.0
0.0 0.805400024414 0.265044080986 0.0
0.0 0.806400024414 0.264851156117 0.0
0.0 0.807400024414 0.264658123553 0.0
0.0 0.808400024414 0.264464984183 0.0
0.0 0.809400024414 0.264271737495 0.0
0.0 0.810400024414 0.26407838514 0.0
0.0 0.811400024414 0.263884927402 0.0
0.0 0.812400024414 0.263691364172 0.0
0.0 0.813400024414 0.263497696754 0.0
0.0 0.814400024414 0.263303924958 0.0
0.0 0.815400024414 0.263110049566 0.0
0.0 0.816400024414 0.262916071264 0.0
0.0 0.817400024414 0.262721990236 0.0
0.0 0.818400024414 0.262527807213 0.0
0.0 0.819400024414 0.262333522643 0.0
0.0 0.820400024414 0.262139137192 0.0
0.0 0.821400024414 0.261944650595 0.0
0.0 0.822400024414 0.261750064359 0.0
0.0 0.823400024414 0.261555378322 0.0
0.0 0.824400024414 0.261360593286 0.0
0.0 0.825400024414 0.261165709697 0.0
0.0 0.826400024414 0.260970728033 0.0
0.0 0.827400024414 0.260775648796 0.0
0.0 0.828400024414 0.260580472486 0.0
0.0 0.829400024414 0.260385199614 0.0
0.0 0.830400024414 0.260189830777 0.0
0.0 0.831400024414 0.259994366302 0.0
0.0 0.832400024414 0.259798806684 0.0
0.0 0.833400024414 0.259603152428 0.0
0.0 0.834400024414 0.259407404159 0.0
0.0 0.835400024414 0.259211562494 0.0
0.0 0.836400024414 0.259015627884 0.0
0.0 0.837400024414 0.258819600254 0.0
0.0 0.838400024414 0.258623480738 0.0
0.0 0.839400024414 0.258427269574 0.0
0.0 0.840400024414 0.258230967471 0.0
0.0 0.841400024414 0.258034574808 0.0
0.0 0.842400024414 0.257838092419 0.0
0.0 0.843400024414 0.257641520217 0.0
0.0 0.844400024414 0.257444858618 0.0
0.0 0.845400024414 0.257248108598 0.0
0.0 0.846400024414 0.257051270638 0.0
0.0 0.847400024414 0.256854345474 0.0
0.0 0.848400024414 0.256657332587 0.0
0.0 0.849400024414 0.256460233484 0.0
0.0 0.850400024414 0.256263048385 0.0
0.0 0.851400024414 0.256065777627 0.0
0.0 0.852400024414 0.255868421982 0.0
0.0 0.853400024414 0.255670981576 0.0
0.0 0.854400024414 0.255473457552 0.0
0.0 0.855400024414 0.255275849338 0.0
0.0 0.856400024414 0.25507815848 0.0
0.0 0.857400024414 0.254880384922 0.0
0.0 0.858400024414 0.254682529661 0.0
0.0 0.859400024414 0.254484592499 0.0
0.0 0.860400024414 0.254286574522 0.0
0.0 0.861400024414 0.254088476083 0.0
0.0 0.862400024414 0.253890296904 0.0
0.0 0.863400024414 0.253692039041 0.0
0.0 0.864400024414 0.253493701426 0.0
0.0 0.865400024414 0.253295285634 0.0
0.0 0.866400024414 0.253096792226 0.0
0.0 0.867400024414 0.252898220446 0.0
0.0 0.868400024414 0.252699573329 0.0
0.0 0.869400024414 0.252500847128 0.0
0.0 0.870400024414 0.252302046172 0.0
0.0 0.871400024414 0.252103170285 0.0
0.0 0.872400024414 0.251904218361 0.0
0.0 0.873400024414 0.251705193492 0.0
0.0 0.874400024414 0.251506092065 0.0
0.0 0.875400024414 0.251306918471 0.0
0.0 0.876400024414 0.251107672858 0.0
0.0 0.877400024414 0.250908352712 0.0
0.0 0.878400024414 0.250708962402 0.0
0.0 0.879400024414 0.250509498862 0.0
0.0 0.880400024414 0.250309966629 0.0
0.0 0.881400024414 0.25011036093 0.0
0.0 0.882400024414 0.249910689478 0.0
0.0 0.883400024414 0.249710942923 0.0
0.0 0.884400024414 0.249511130144 0.0
0.0 0.885400024414 0.24931125147 0.0
0.0 0.886400024414 0.249111299541 0.0
0.0 0.887400024414 0.248911282944 0.0
0.0 0.888400024414 0.248711198884 0.0
0.0 0.889400024414 0.248511048537 0.0
0.0 0.890400024414 0.24831083218 0.0
0.0 0.891400024414 0.24811055127 0.0
0.0 0.892400024414 0.247910206821 0.0
0.0 0.893400024414 0.247709792478 0.0
0.0 0.894400024414 0.247509320228 0.0
0.0 0.895400024414 0.247308781379 0.0
0.0 0.896400024414 0.24710817587 0.0
0.0 0.897400024414 0.246907516453 0.0
0.0 0.898400024414 0.246706792303 0.0
0.0 0.899400024414 0.246505997153 0.0
0.0 0.900400024414 0.24630514834 0.0
0.0 0.901400024414 0.246104238906 0.0
0.0 0.902400024414 0.245903269734 0.0
0.0 0.903400024414 0.245702240534 0.0
0.0 0.904400024414 0.24550115278 0.0
0.0 0.905400024414 0.245300006321 0.0
0.0 0.906400024414 0.245098801951 0.0
0.0 0.907400024414 0.24489754012 0.0
0.0 0.908400024414 0.244696221084 0.0
0.0 0.909400024414 0.244494845772 0.0
0.0 0.910400024414 0.244293414352 0.0
0.0 0.911400024414 0.24409192755 0.0
0.0 0.912400024414 0.243890385695 0.0
0.0 0.913400024414 0.243688789403 0.0
0.0 0.914400024414 0.243487139123 0.0
0.0 0.915400024414 0.243285435334 0.0
0.0 0.916400024414 0.24308367851 0.0
0.0 0.917400024414 0.242881869304 0.0
0.0 0.918400024414 0.242680008051 0.0
0.0 0.919400024414 0.242478095363 0.0
0.0 0.920400024414 0.242276131707 0.0
0.0 0.921400024414 0.242074117481 0.0
0.0 0.922400024414 0.2418720534 0.0
0.0 0.923400024414 0.241669939697 0.0
0.0 0.924400024414 0.241467777204 0.0
0.0 0.925400024414 0.241265566068 0.0
0.0 0.926400024414 0.241063306907 0.0
0.0 0.927400024414 0.24086100032 0.0
0.0 0.928400024414 0.240658646865 0.0
0.0 0.929400024414 0.240456246801 0.0
0.0 0.930400024414 0.240253800926 0.0
0.0 0.931400024414 0.240051309436 0.0
0.0 0.932400024414 0.239848773071 0.0
0.0 0.933400024414 0.239646192589 0.0
0.0 0.934400024414 0.239443567545 0.0
0.0 0.935400024414 0.239240899293 0.0
0.0 0.936400024414 0.239038188237 0.0
0.0 0.937400024414 0.238835434758 0.0
0.0 0.938400024414 0.238632638827 0.0
0.0 0.939400024414 0.238429802114 0.0
0.0 0.940400024414 0.238226924253 0.0
0.0 0.941400024414 0.23802400578 0.0
0.0 0.942400024414 0.237821047433 0.0
0.0 0.943400024414 0.237618049698 0.0
0.0 0.944400024414 0.237415012765 0.0
0.0 0.945400024414 0.237211937517 0.0
0.0 0.946400024414 0.237008823839 0.0
0.0 0.947400024414 0.23680567283 0.0
0.0 0.948400024414 0.236602484847 0.0
0.0 0.949400024414 0.236399259988 0.0
0.0 0.950400024414 0.236195999877 0.0
0.0 0.951400024414 0.235992704223 0.0
0.0 0.952400024414 0.235789373136 0.0
0.0 0.953400024414 0.235586008279 0.0
0.0 0.954400024414 0.235382609275 0.0
0.0 0.955400024414 0.235179176767 0.0
0.0 0.956400024414 0.234975711665 0.0
0.0 0.957400024414 0.234772213596 0.0
0.0 0.958400024414 0.234568683853 0.0
0.0 0.959400024414 0.234365122753 0.0
0.0 0.960400024414 0.234161530945 0.0
0.0 0.961400024414 0.233957908611 0.0
0.0 0.962400024414 0.23375425601 0.0
0.0 0.963400024414 0.233550574353 0.0
0.0 0.964400024414 0.233346863893 0.0
0.0 0.965400024414 0.233143124622 0.0
0.0 0.966400024414 0.232939357435 0.0
0.0 0.967400024414 0.232735563362 0.0
0.0 0.968400024414 0.232531741427 0.0
0.0 0.969400024414 0.232327893466 0.0
0.0 0.970400024414 0.232124018594 0.0
0.0 0.971400024414 0.231920119958 0.0
0.0 0.972400024414 0.23171619574 0.0
0.0 0.973400024414 0.231512246766 0.0
0.0 0.974400024414 0.231308273887 0.0
0.0 0.975400024414 0.231104278475 0.0
0.0 0.976400024414 0.230900259847 0.0
0.0 0.977400024414 0.230696217354 0.0
0.0 0.978400024414 0.230492154854 0.0
0.0 0.979400024414 0.230288070638 0.0
0.0 0.980400024414 0.230083967435 0.0
0.0 0.981400024414 0.229879840837 0.0
0.0 0.982400024414 0.229675696993 0.0
0.0 0.983400024414 0.229471528539 0.0
0.0 0.984400024414 0.229267346237 0.0
0.0 0.985400024414 0.229063144365 0.0
0.0 0.986400024414 0.228858921417 0.0
0.0 0.987400024414 0.228654685908 0.0
0.0 0.988400024414 0.228450436817 0.0
0.0 0.989400024414 0.22824616822 0.0
0.0 0.990400024414 0.228041881595 0.0
0.0 0.991400024414 0.227837566879 0.0
0.0 0.992400024414 0.227633267654 0.0
0.0 0.993400024414 0.227428935179 0.0
0.0 0.994400024414 0.227224606597 0.0
0.0 0.995400024414 0.227020257611 0.0
0.0 0.996400024414 0.226815897305 0.0
0.0 0.997400024414 0.226611528557 0.0
0.0 0.998400024414 0.226407116334 0.0
0.0 0.999400024414 0.226202756402 0.0
0.0 1.00040002441 0.225998314641 0.0
0.0 1.00140002441 0.225793925314 0.0
0.0 1.00240002441 0.225589533357 0.0
0.0 1.00340002441 0.225385180035 0.0
0.0 1.00440002441 0.225180550747 0.0
0.0 1.00540002441 0.22497598563 0.0
0.0 1.00640002441 0.224771792997 0.0
0.0 1.00740002441 0.224567500755 0.0
0.0 1.00840002441 0.224362554369 0.0
0.0 1.00940002441 0.224158551314 0.0
0.0 1.01040002441 0.223953547711 0.0
0.0 1.01140002441 0.223749173172 0.0
0.0 1.01240002441 0.223544531309 0.0
0.0 1.01340002441 0.223340834195 0.0
0.0 1.01440002441 0.223135991588 0.0
0.0 1.01540002441 0.222931224232 0.0
0.0 1.01640002441 0.222727088558 0.0
0.0 1.01740002441 0.22252206102 0.0
0.0 1.01840002441 0.222317532158 0.0
0.0 1.01940002441 0.222112861994 0.0
0.0 1.02040002441 0.221908388803 0.0
0.0 1.02140002441 0.221704788499 0.0
0.0 1.02240002441 0.221499266201 0.0
0.0 1.02340002441 0.221296064018 0.0
0.0 1.02440002441 0.221090204616 0.0
0.0 1.02540002441 0.220886306608 0.0
0.0 1.02640002441 0.220682125903 0.0
0.0 1.02740002441 0.220476904005 0.0
0.0 1.02840002441 0.220273406317 0.0
0.0 1.02940002441 0.220067587848 0.0
0.0 1.03040002441 0.219863626891 0.0
0.0 1.03140002441 0.219659508451 0.0
0.0 1.03240002441 0.219454482926 0.0
0.0 1.03340002441 0.219249943518 0.0
0.0 1.03440002441 0.21904533472 0.0
0.0 1.03540002441 0.218840649858 0.0
0.0 1.03640002441 0.218636418156 0.0
0.0 1.03740002441 0.218431732641 0.0
0.0 1.03840002441 0.218227690338 0.0
0.0 1.03940002441 0.218022891143 0.0
0.0 1.04040002441 0.217818728273 0.0
0.0 1.04140002441 0.217614682625 0.0
0.0 1.04240002441 0.217409423703 0.0
0.0 1.04340002441 0.217205359108 0.0
0.0 1.04440002441 0.217001159534 0.0
0.0 1.04540002441 0.216796256049 0.0
0.0 1.04640002441 0.216592090425 0.0
0.0 1.04740002441 0.21638749804 0.0
0.0 1.04840002441 0.216183118697 0.0
0.0 1.04940002441 0.215979269058 0.0
0.0 1.05040002441 0.215774986474 0.0
0.0 1.05140002441 0.215570541515 0.0
0.0 1.05240002441 0.215366075126 0.0
0.0 1.05340002441 0.215161739963 0.0
0.0 1.05440002441 0.214957465478 0.0
0.0 1.05540002441 0.214753140495 0.0
0.0 1.05640002441 0.214548938971 0.0
0.0 1.05740002441 0.214344616274 0.0
0.0 1.05840002441 0.214140652589 0.0
0.0 1.05940002441 0.213936438863 0.0
0.0 1.06040002441 0.213732108897 0.0
0.0 1.06140002441 0.213527954468 0.0
0.0 1.06240002441 0.213324055384 0.0
0.0 1.06340002441 0.213120592234 0.0
0.0 1.06440002441 0.212916625921 0.0
0.0 1.06540002441 0.212711615246 0.0
0.0 1.06640002441 0.212507781297 0.0
0.0 1.06740002441 0.21230418675 0.0
0.0 1.06840002441 0.212099867131 0.0
0.0 1.06940002441 0.21189563067 0.0
0.0 1.07040002441 0.211692361457 0.0
0.0 1.07140002441 0.211487881893 0.0
0.0 1.07240002441 0.211283894264 0.0
0.0 1.07340002441 0.211080409622 0.0
0.0 1.07440002441 0.210876205712 0.0
0.0 1.07540002441 0.210672453475 0.0
0.0 1.07640002441 0.210468634036 0.0
0.0 1.07740002441 0.210265048618 0.0
0.0 1.07840002441 0.210061339708 0.0
0.0 1.07940002441 0.209857635447 0.0
0.0 1.08040002441 0.209653770158 0.0
0.0 1.08140002441 0.209450575969 0.0
0.0 1.08240002441 0.20924683427 0.0
0.0 1.08340002441 0.209043439645 0.0
0.0 1.08440002441 0.208839430872 0.0
0.0 1.08540002441 0.208635880112 0.0
0.0 1.08640002441 0.208432674813 0.0
0.0 1.08740002441 0.208229200737 0.0
0.0 1.08840002441 0.208025644475 0.0
0.0 1.08940002441 0.207822160333 0.0
0.0 1.09040002441 0.207619136509 0.0
0.0 1.09140002441 0.207415487671 0.0
0.0 1.09240002441 0.207212296225 0.0
0.0 1.09340002441 0.207009363714 0.0
0.0 1.09440002441 0.206805806925 0.0
0.0 1.09540002441 0.206603306856 0.0
0.0 1.09640002441 0.206400040576 0.0
0.0 1.09740002441 0.206196362119 0.0
0.0 1.09840002441 0.205993864054 0.0
0.0 1.09940002441 0.205790838514 0.0
0.0 1.10040002441 0.205587774424 0.0
0.0 1.10140002441 0.205385280283 0.0
0.0 1.10240002441 0.205181469996 0.0
0.0 1.10340002441 0.2049788635 0.0
0.0 1.10440002441 0.204775966386 0.0
0.0 1.10540002441 0.204573457947 0.0
0.0 1.10640002441 0.204370771787 0.0
0.0 1.10740002441 0.204168156466 0.0
0.0 1.10840002441 0.203965184987 0.0
0.0 1.10940002441 0.203762421953 0.0
0.0 1.11040002441 0.203559885932 0.0
0.0 1.11140002441 0.203357559584 0.0
0.0 1.11240002441 0.203154870877 0.0
0.0 1.11340002441 0.202952599762 0.0
0.0 1.11440002441 0.202750238476 0.0
0.0 1.11540002441 0.202548003427 0.0
0.0 1.11640002441 0.202345574803 0.0
0.0 1.11740002441 0.202143325139 0.0
0.0 1.11840002441 0.201941185202 0.0
0.0 1.11940002441 0.201739539162 0.0
0.0 1.12040002441 0.201536733149 0.0
0.0 1.12140002441 0.201335137196 0.0
0.0 1.12240002441 0.201133091909 0.0
0.0 1.12340002441 0.200930799517 0.0
0.0 1.12440002441 0.200728955362 0.0
0.0 1.12540002441 0.20052732835 0.0
0.0 1.12640002441 0.200325533755 0.0
0.0 1.12740002441 0.200123858908 0.0
0.0 1.12840002441 0.199922044061 0.0
0.0 1.12940002441 0.199720903295 0.0
0.0 1.13040002441 0.199518983582 0.0
0.0 1.13140002441 0.199317602756 0.0
0.0 1.13240002441 0.199116107236 0.0
0.0 1.13340002441 0.198914273615 0.0
0.0 1.13440002441 0.198712925564 0.0
0.0 1.13540002441 0.198513103345 0.0
0.0 1.13640002441 0.198310400167 0.0
0.0 1.13740002441 0.198110287496 0.0
0.0 1.13840002441 0.197908760206 0.0
0.0 1.13940002441 0.197707701591 0.0
0.0 1.14040002441 0.197506091752 0.0
0.0 1.14140002441 0.197305323857 0.0
0.0 1.14240002441 0.197104352413 0.0
0.0 1.14340002441 0.196903634839 0.0
0.0 1.14440002441 0.196703073501 0.0
0.0 1.14540002441 0.196502058394 0.0
0.0 1.14640002441 0.196301379871 0.0
0.0 1.14740002441 0.196101251951 0.0
0.0 1.14840002441 0.195900327706 0.0
0.0 1.14940002441 0.195699899012 0.0
0.0 1.15040002441 0.195499798814 0.0
0.0 1.15140002441 0.195299703193 0.0
0.0 1.15240002441 0.195099658861 0.0
0.0 1.15340002441 0.194898767578 0.0
0.0 1.15440002441 0.194698617669 0.0
0.0 1.15540002441 0.19449853073 0.0
0.0 1.15640002441 0.194298749282 0.0
0.0 1.15740002441 0.194098593122 0.0
0.0 1.15840002441 0.193899503066 0.0
0.0 1.15940002441 0.193699578143 0.0
0.0 1.16040002441 0.193500141605 0.0
0.0 1.16140002441 0.193299989864 0.0
0.0 1.16240002441 0.193100270289 0.0
0.0 1.16340002441 0.192900842872 0.0
0.0 1.16440002441 0.192701249577 0.0
0.0 1.16540002441 0.192501872768 0.0
0.0 1.16640002441 0.192302787029 0.0
0.0 1.16740002441 0.192103701232 0.0
0.0 1.16840002441 0.191904347676 0.0
0.0 1.16940002441 0.191705977024 0.0
0.0 1.17040002441 0.191506073631 0.0
0.0 1.17140002441 0.19130764454 0.0
0.0 1.17240002441 0.191108481767 0.0
0.0 1.17340002441 0.190909861846 0.0
0.0 1.17440002441 0.190711113846 0.0
0.0 1.17540002441 0.190512468942 0.0
0.0 1.17640002441 0.190313886158 0.0
0.0 1.17740002441 0.190115499714 0.0
0.0 1.17840002441 0.189916962657 0.0
0.0 1.17940002441 0.189719225293 0.0
0.0 1.18040002441 0.189521203626 0.0
0.0 1.18140002441 0.189323037482 0.0
0.0 1.18240002441 0.189124882944 0.0
0.0 1.18340002441 0.188926346299 0.0
0.0 1.18440002441 0.188728930339 0.0
0.0 1.18540002441 0.188530542454 0.0
0.0 1.18640002441 0.188333072746 0.0
0.0 1.18740002441 0.188135233437 0.0
0.0 1.18840002441 0.187937718141 0.0
0.0 1.18940002441 0.187740475559 0.0
0.0 1.19040002441 0.187543052576 0.0
0.0 1.19140002441 0.187346142644 0.0
0.0 1.19240002441 0.187148098205 0.0
0.0 1.19340002441 0.186950954695 0.0
0.0 1.19440002441 0.186754489502 0.0
0.0 1.19540002441 0.186557128779 0.0
0.0 1.19640002441 0.186360434277 0.0
0.0 1.19740002441 0.186163542778 0.0
0.0 1.19840002441 0.185966541566 0.0
0.0 1.19940002441 0.185770421501 0.0
0.0 1.20040002441 0.185573563732 0.0
0.0 1.20140002441 0.185377049481 0.0
0.0 1.20240002441 0.185181227793 0.0
0.0 1.20340002441 0.184984692408 0.0
0.0 1.20440002441 0.184788519822 0.0
0.0 1.20540002441 0.184592147281 0.0
0.0 1.20640002441 0.18439612414 0.0
0.0 1.20740002441 0.184200882158 0.0
0.0 1.20840002441 0.184004731241 0.0
0.0 1.20940002441 0.183808964779 0.0
0.0 1.21040002441 0.183613349293 0.0
0.0 1.21140002441 0.18341798158 0.0
0.0 1.21240002441 0.18322256707 0.0
0.0 1.21340002441 0.183027533533 0.0
0.0 1.21440002441 0.182831763857 0.0
0.0 1.21540002441 0.182636517005 0.0
0.0 1.21640002441 0.182442180583 0.0
0.0 1.21740002441 0.182247058456 0.0
0.0 1.21840002441 0.182051862121 0.0
0.0 1.21940002441 0.18185770081 0.0
0.0 1.22040002441 0.181662429914 0.0
0.0 1.22140002441 0.18146837055 0.0
0.0 1.22240002441 0.181273465392 0.0
0.0 1.22340002441 0.18107992616 0.0
0.0 1.22440002441 0.180884890139 0.0
0.0 1.22540002441 0.180690658788 0.0
0.0 1.22640002441 0.180497021562 0.0
0.0 1.22740002441 0.180303636026 0.0
0.0 1.22840002441 0.180109006452 0.0
0.0 1.22940002441 0.179915168752 0.0
0.0 1.23040002441 0.179721972937 0.0
0.0 1.23140002441 0.179528709289 0.0
0.0 1.23240002441 0.179334723696 0.0
0.0 1.23340002441 0.179141502006 0.0
0.0 1.23440002441 0.178948157154 0.0
0.0 1.23540002441 0.17875503311 0.0
0.0 1.23640002441 0.178562071305 0.0
0.0 1.23740002441 0.178370085877 0.0
0.0 1.23840002441 0.17817722311 0.0
0.0 1.23940002441 0.177983760174 0.0
0.0 1.24040002441 0.177792470668 0.0
0.0 1.24140002441 0.177599489112 0.0
0.0 1.24240002441 0.177407003049 0.0
0.0 1.24340002441 0.177214665432 0.0
0.0 1.24440002441 0.177023121931 0.0
0.0 1.24540002441 0.176830829335 0.0
0.0 1.24640002441 0.176638718701 0.0
0.0 1.24740002441 0.176447056589 0.0
0.0 1.24840002441 0.176255089904 0.0
0.0 1.24940002441 0.176063895681 0.0
0.0 1.25040002441 0.175872324438 0.0
0.0 1.25140002441 0.175680791944 0.0
0.0 1.25240002441 0.175489787712 0.0
0.0 1.25340002441 0.175298459746 0.0
0.0 1.25440002441 0.175108584958 0.0
0.0 1.25540002441 0.174916697396 0.0
0.0 1.25640002441 0.174726578842 0.0
0.0 1.25740002441 0.174535674388 0.0
0.0 1.25840002441 0.174344936755 0.0
0.0 1.25940002441 0.174154293837 0.0
0.0 1.26040002441 0.173964744242 0.0
0.0 1.26140002441 0.173774367937 0.0
0.0 1.26240002441 0.17358416694 0.0
0.0 1.26340002441 0.173394606844 0.0
0.0 1.26440002441 0.173204856401 0.0
0.0 1.26540002441 0.173014561321 0.0
0.0 1.26640002441 0.172825670646 0.0
0.0 1.26740002441 0.172636538379 0.0
0.0 1.26840002441 0.17244637366 0.0
0.0 1.26940002441 0.172259033155 0.0
0.0 1.27040002441 0.172068823682 0.0
0.0 1.27140002441 0.171879383539 0.0
0.0 1.27240002441 0.171691335083 0.0
0.0 1.27340002441 0.171501907682 0.0
0.0 1.27440002441 0.171314240545 0.0
0.0 1.27540002441 0.171124977849 0.0
0.0 1.27640002441 0.170937302919 0.0
0.0 1.27740002441 0.170748451178 0.0
0.0 1.27840002441 0.170560570062 0.0
0.0 1.27940002441 0.170373788703 0.0
0.0 1.28040002441 0.170185381194 0.0
0.0 1.28140002441 0.169997165568 0.0
0.0 1.28240002441 0.169809649726 0.0
0.0 1.28340002441 0.16962336491 0.0
0.0 1.28440002441 0.169435571912 0.0
0.0 1.28540002441 0.169248178739 0.0
0.0 1.28640002441 0.169061931518 0.0
0.0 1.28740002441 0.168874371292 0.0
0.0 1.28840002441 0.168688159075 0.0
0.0 1.28940002441 0.168501860999 0.0
0.0 1.29040002441 0.168314425827 0.0
0.0 1.29140002441 0.168128634437 0.0
0.0 1.29240002441 0.167942477859 0.0
0.0 1.29340002441 0.167755897135 0.0
0.0 1.29440002441 0.167570641936 0.0
0.0 1.29540002441 0.167384324813 0.0
0.0 1.29640002441 0.167199341086 0.0
0.0 1.29740002441 0.167013653359 0.0
0.0 1.29840002441 0.166827838478 0.0
0.0 1.29940002441 0.166643030293 0.0
0.0 1.30040002441 0.166458410174 0.0
0.0 1.30140002441 0.166272555662 0.0
0.0 1.30240002441 0.16608776702 0.0
0.0 1.30340002441 0.165903969746 0.0
0.0 1.30440002441 0.165719020763 0.0
0.0 1.30540002441 0.165534654891 0.0
0.0 1.30640002441 0.165350077537 0.0
0.0 1.30740002441 0.165166261508 0.0
0.0 1.30840002441 0.164982286084 0.0
0.0 1.30940002441 0.164799111232 0.0
0.0 1.31040002441 0.164614920689 0.0
0.0 1.31140002441 0.164431481486 0.0
0.0 1.31240002441 0.164247885656 0.0
0.0 1.31340002441 0.164065061133 0.0
0.0 1.31440002441 0.16388233774 0.0
0.0 1.31540002441 0.163698519166 0.0
0.0 1.31640002441 0.163516232026 0.0
0.0 1.31740002441 0.163333230821 0.0
0.0 1.31840002441 0.163150898667 0.0
0.0 1.31940002441 0.162968899346 0.0
0.0 1.32040002441 0.162786282487 0.0
0.0 1.32140002441 0.162604313335 0.0
0.0 1.32240002441 0.162422250029 0.0
0.0 1.32340002441 0.162241160062 0.0
0.0 1.32440002441 0.162059307255 0.0
0.0 1.32540002441 0.161877531359 0.0
0.0 1.32640002441 0.161697478874 0.0
0.0 1.32740002441 0.16151514687 0.0
0.0 1.32840002441 0.161335233713 0.0
0.0 1.32940002441 0.161153620522 0.0
0.0 1.33040002441 0.160972999268 0.0
0.0 1.33140002441 0.160792619281 0.0
0.0 1.33240002441 0.160612399079 0.0
0.0 1.33340002441 0.160432015825 0.0
0.0 1.33440002441 0.160252353361 0.0
0.0 1.33540002441 0.160072737855 0.0
0.0 1.33640002441 0.159892260691 0.0
0.0 1.33740002441 0.159712510233 0.0
0.0 1.33840002441 0.159533598682 0.0
0.0 1.33940002441 0.159354144346 0.0
0.0 1.34040002441 0.159174897508 0.0
0.0 1.34140002441 0.158995863769 0.0
0.0 1.34240002441 0.158817284707 0.0
0.0 1.34340002441 0.158639308126 0.0
0.0 1.34440002441 0.158460577166 0.0
0.0 1.34540002441 0.15828317045 0.0
0.0 1.34640002441 0.158103827162 0.0
0.0 1.34740002441 0.157925873284 0.0
0.0 1.34840002441 0.157748553002 0.0
0.0 1.34940002441 0.157570606423 0.0
0.0 1.35040002441 0.15739364865 0.0
0.0 1.35140002441 0.157215626849 0.0
0.0 1.35240002441 0.157040242904 0.0
0.0 1.35340002441 0.156861455009 0.0
0.0 1.35440002441 0.156684915106 0.0
0.0 1.35540002441 0.156508911003 0.0
0.0 1.35640002441 0.156332268495 0.0
0.0 1.35740002441 0.156155810501 0.0
0.0 1.35840002441 0.155979957538 0.0
0.0 1.35940002441 0.155804270606 0.0
0.0 1.36040002441 0.155628047593 0.0
0.0 1.36140002441 0.155452604215 0.0
0.0 1.36240002441 0.155276963144 0.0
0.0 1.36340002441 0.155101525999 0.0
0.0 1.36440002441 0.154926512296 0.0
0.0 1.36540002441 0.154751637277 0.0
0.0 1.36640002441 0.154576617408 0.0
0.0 1.36740002441 0.154402641719 0.0
0.0 1.36840002441 0.154228007387 0.0
0.0 1.36940002441 0.154054022931 0.0
0.0 1.37040002441 0.153879869377 0.0
0.0 1.37140002441 0.153705117439 0.0
0.0 1.37240002441 0.153531369275 0.0
0.0 1.37340002441 0.153359205434 0.0
0.0 1.37440002441 0.153184934028 0.0
0.0 1.37540002441 0.153012062174 0.0
0.0 1.37640002441 0.152838680076 0.0
0.0 1.37740002441 0.152666059871 0.0
0.0 1.37840002441 0.152493475221 0.0
0.0 1.37940002441 0.152321113683 0.0
0.0 1.38040002441 0.152149573945 0.0
0.0 1.38140002441 0.151976649427 0.0
0.0 1.38240002441 0.151805099962 0.0
0.0 1.38340002441 0.151633229125 0.0
0.0 1.38440002441 0.151461706583 0.0
0.0 1.38540002441 0.151289846574 0.0
0.0 1.38640002441 0.151118561013 0.0
0.0 1.38740002441 0.15094778558 0.0
0.0 1.38840002441 0.150777632084 0.0
0.0 1.38940002441 0.150605784533 0.0
0.0 1.39040002441 0.150435350738 0.0
0.0 1.39140002441 0.15026584033 0.0
0.0 1.39240002441 0.150095553767 0.0
0.0 1.39340002441 0.1499249441 0.0
0.0 1.39440002441 0.14975513515 0.0
0.0 1.39540002441 0.149585853196 0.0
0.0 1.39640002441 0.149417183112 0.0
0.0 1.39740002441 0.149247589254 0.0
0.0 1.39840002441 0.149078779484 0.0
0.0 1.39940002441 0.148909312042 0.0
0.0 1.40040002441 0.148741441498 0.0
0.0 1.40140002441 0.148573326196 0.0
0.0 1.40240002441 0.14840530679 0.0
0.0 1.40340002441 0.148235924267 0.0
0.0 1.40440002441 0.14806862957 0.0
0.0 1.40540002441 0.147902279055 0.0
0.0 1.40640002441 0.147734246822 0.0
0.0 1.40740002441 0.14756573452 0.0
0.0 1.40840002441 0.147399704063 0.0
0.0 1.40940002441 0.147233080279 0.0
0.0 1.41040002441 0.147065860407 0.0
0.0 1.41140002441 0.146899069401 0.0
0.0 1.41240002441 0.146733213548 0.0
0.0 1.41340002441 0.146567052157 0.0
0.0 1.41440002441 0.146401324955 0.0
0.0 1.41540002441 0.14623519312 0.0
0.0 1.41640002441 0.146071069316 0.0
0.0 1.41740002441 0.145903875811 0.0
0.0 1.41840002441 0.145739947446 0.0
0.0 1.41940002441 0.145574437806 0.0
0.0 1.42040002441 0.145409880667 0.0
0.0 1.42140002441 0.145245562117 0.0
0.0 1.42240002441 0.145081394193 0.0
0.0 1.42340002441 0.144916257358 0.0
0.0 1.42440002441 0.144752561134 0.0
0.0 1.42540002441 0.144589188344 0.0
0.0 1.42640002441 0.144425685718 0.0
0.0 1.42740002441 0.144262328175 0.0
0.0 1.42840002441 0.144099391007 0.0
0.0 1.42940002441 0.143936673054 0.0
0.0 1.43040002441 0.143774037795 0.0
0.0 1.43140002441 0.143612125551 0.0
0.0 1.43240002441 0.143448987976 0.0
0.0 1.43340002441 0.14328740824 0.0
0.0 1.43440002441 0.143124590344 0.0
0.0 1.43540002441 0.14296401795 0.0
0.0 1.43640002441 0.142802237784 0.0
0.0 1.43740002441 0.142640522463 0.0
0.0 1.43840002441 0.142480254127 0.0
0.0 1.43940002441 0.142318937338 0.0
0.0 1.44040002441 0.142157762027 0.0
0.0 1.44140002441 0.14199798478 0.0
0.0 1.44240002441 0.141837790971 0.0
0.0 1.44340002441 0.141677302356 0.0
0.0 1.44440002441 0.141518139308 0.0
0.0 1.44540002441 0.141358025081 0.0
0.0 1.44640002441 0.141198544458 0.0
0.0 1.44740002441 0.141039467399 0.0
0.0 1.44840002441 0.140881317593 0.0
0.0 1.44940002441 0.140722546894 0.0
0.0 1.45040002441 0.140563503165 0.0
0.0 1.45140002441 0.140405437785 0.0
0.0 1.45240002441 0.140247207888 0.0
0.0 1.45340002441 0.140089416788 0.0
0.0 1.45440002441 0.139932193493 0.0
0.0 1.45540002441 0.139774404119 0.0
0.0 1.45640002441 0.139617661926 0.0
0.0 1.45740002441 0.139460791795 0.0
0.0 1.45840002441 0.139303329882 0.0
0.0 1.45940002441 0.13914687305 0.0
0.0 1.46040002441 0.13899056781 0.0
0.0 1.46140002441 0.138834704856 0.0
0.0 1.46240002441 0.138678856458 0.0
0.0 1.46340002441 0.138522759623 0.0
0.0 1.46440002441 0.138367519993 0.0
0.0 1.46540002441 0.138212519158 0.0
0.0 1.46640002441 0.138057139591 0.0
0.0 1.46740002441 0.137902669004 0.0
0.0 1.46840002441 0.137748986165 0.0
0.0 1.46940002441 0.137593541983 0.0
0.0 1.47040002441 0.137440699818 0.0
0.0 1.47140002441 0.137285646241 0.0
0.0 1.47240002441 0.137132149787 0.0
0.0 1.47340002441 0.136979929006 0.0
0.0 1.47440002441 0.136825530609 0.0
0.0 1.47540002441 0.136673251849 0.0
0.0 1.47640002441 0.136520387739 0.0
0.0 1.47740002441 0.136368331155 0.0
0.0 1.47840002441 0.136216263952 0.0
0.0 1.47940002441 0.136063143464 0.0
0.0 1.48040002441 0.135911078867 0.0
0.0 1.48140002441 0.135761623665 0.0
0.0 1.48240002441 0.13560899196 0.0
0.0 1.48340002441 0.135457202742 0.0
0.0 1.48440002441 0.135306801034 0.0
0.0 1.48540002441 0.135156199589 0.0
0.0 1.48640002441 0.135005932988 0.0
0.0 1.48740002441 0.134856106255 0.0
0.0 1.48840002441 0.134705564181 0.0
0.0 1.48940002441 0.134556333157 0.0
0.0 1.49040002441 0.134406442081 0.0
0.0 1.49140002441 0.134256919631 0.0
0.0 1.49240002441 0.1341081316 0.0
0.0 1.49340002441 0.133958761314 0.0
0.0 1.49440002441 0.13381114464 0.0
0.0 1.49540002441 0.133662320559 0.0
0.0 1.49640002441 0.13351377406 0.0
0.0 1.49740002441 0.133366164149 0.0
0.0 1.49840002441 0.133219742941 0.0
0.0 1.49940002441 0.133070931234 0.0
0.0 1.50040002441 0.132924111401 0.0
0.0 1.50140002441 0.132777686455 0.0
0.0 1.50240002441 0.13263190516 0.0
0.0 1.50340002441 0.132483763376 0.0
0.0 1.50440002441 0.132338453101 0.0
0.0 1.50540002441 0.132191694374 0.0
0.0 1.50640002441 0.132046668092 0.0
0.0 1.50740002441 0.131900905745 0.0
0.0 1.50840002441 0.131756296979 0.0
0.0 1.50940002441 0.131611438402 0.0
0.0 1.51040002441 0.131467057953 0.0
0.0 1.51140002441 0.131321459406 0.0
0.0 1.51240002441 0.131177518284 0.0
0.0 1.51340002441 0.131033963923 0.0
0.0 1.51440002441 0.130889756397 0.0
0.0 1.51540002441 0.130746609947 0.0
0.0 1.51640002441 0.130604194009 0.0
0.0 1.51740002441 0.13046049 0.0
0.0 1.51840002441 0.130317506393 0.0
0.0 1.51940002441 0.130175274779 0.0
0.0 1.52040002441 0.130033423477 0.0
0.0 1.52140002441 0.12989116186 0.0
0.0 1.52240002441 0.129749153355 0.0
0.0 1.52340002441 0.129607668453 0.0
0.0 1.52440002441 0.129466780164 0.0
0.0 1.52540002441 0.129325735124 0.0
0.0 1.52640002441 0.129184562654 0.0
0.0 1.52740002441 0.129044151246 0.0
0.0 1.52840002441 0.12890494383 0.0
0.0 1.52940002441 0.128765060474 0.0
0.0 1.53040002441 0.128624035941 0.0
0.0 1.53140002441 0.128484712376 0.0
0.0 1.53240002441 0.128345912496 0.0
0.0 1.53340002441 0.128206701143 0.0
0.0 1.53440002441 0.128068394724 0.0
0.0 1.53540002441 0.127930706788 0.0
0.0 1.53640002441 0.127791609631 0.0
0.0 1.53740002441 0.127653839298 0.0
0.0 1.53840002441 0.127516596143 0.0
0.0 1.53940002441 0.127378685295 0.0
0.0 1.54040002441 0.127241142221 0.0
0.0 1.54140002441 0.127104937462 0.0
0.0 1.54240002441 0.126969599142 0.0
0.0 1.54340002441 0.126833299146 0.0
0.0 1.54440002441 0.126696295045 0.0
0.0 1.54540002441 0.12656006545 0.0
0.0 1.54640002441 0.126424877029 0.0
0.0 1.54740002441 0.126290117725 0.0
0.0 1.54840002441 0.12615412557 0.0
0.0 1.54940002441 0.126019678053 0.0
0.0 1.55040002441 0.125884560697 0.0
0.0 1.55140002441 0.125750737388 0.0
0.0 1.55240002441 0.125617403872 0.0
0.0 1.55340002441 0.125482518186 0.0
0.0 1.55440002441 0.125349066698 0.0
0.0 1.55540002441 0.125216607082 0.0
0.0 1.55640002441 0.125083458476 0.0
0.0 1.55740002441 0.124950334556 0.0
0.0 1.55840002441 0.124818754776 0.0
0.0 1.55940002441 0.124686038231 0.0
0.0 1.56040002441 0.124554458889 0.0
0.0 1.56140002441 0.124424119898 0.0
0.0 1.56240002441 0.12429176867 0.0
0.0 1.56340002441 0.124160880588 0.0
0.0 1.56440002441 0.124029356701 0.0
0.0 1.56540002441 0.123899538702 0.0
0.0 1.56640002441 0.123771829922 0.0
0.0 1.56740002441 0.123639140654 0.0
0.0 1.56840002441 0.123509845401 0.0
0.0 1.56940002441 0.123380450459 0.0
0.0 1.57040002441 0.12325182574 0.0
0.0 1.57140002441 0.123122688852 0.0
0.0 1.57240002441 0.122994801943 0.0
0.0 1.57340002441 0.12286526213 0.0
0.0 1.57440002441 0.12273725734 0.0
0.0 1.57540002441 0.122610575238 0.0
0.0 1.57640002441 0.122482948664 0.0
0.0 1.57740002441 0.122355794916 0.0
0.0 1.57840002441 0.122228193605 0.0
0.0 1.57940002441 0.122102516146 0.0
0.0 1.58040002441 0.121975560205 0.0
0.0 1.58140002441 0.121850435562 0.0
0.0 1.58240002441 0.12172419876 0.0
0.0 1.58340002441 0.12159753123 0.0
0.0 1.58440002441 0.121473867952 0.0
0.0 1.58540002441 0.121347682613 0.0
0.0 1.58640002441 0.121223011445 0.0
0.0 1.58740002441 0.121099942119 0.0
0.0 1.58840002441 0.120976435618 0.0
0.0 1.58940002441 0.120852061342 0.0
0.0 1.59040002441 0.120728753519 0.0
0.0 1.59140002441 0.120606352353 0.0
0.0 1.59240002441 0.120483425405 0.0
0.0 1.59340002441 0.120361378447 0.0
0.0 1.59440002441 0.120239808509 0.0
0.0 1.59540002441 0.120121361671 0.0
0.0 1.59640002441 0.119999882526 0.0
0.0 1.59740002441 0.119880306869 0.0
0.0 1.59840002441 0.119760533483 0.0
0.0 1.59940002441 0.119643894174 0.0
0.0 1.60040002441 0.119525577437 0.0
0.0 1.60140002441 0.119407543499 0.0
0.0 1.60240002441 0.119293530548 0.0
0.0 1.60340002441 0.119180637946 0.0
0.0 1.60440002441 0.119068082086 0.0
0.0 1.60540002441 0.118958900295 0.0
0.0 1.60640002441 0.11885308928 0.0
0.0 1.60740002441 0.118754159228 0.0
0.0 1.60840002441 0.118661422749 0.0
0.0 1.60940002441 0.11858469658 0.0
0.0 1.61040002441 0.118524143889 0.0
0.0 1.61140002441 0.118526093019 0.0
0.0 1.61240002441 0.118538783374 0.0
0.0 1.61340002441 0.118707293946 0.0
0.0 1.61440002441 0.119059187616 0.0
0.0 1.61540002441 0.119840080463 0.0
0.0 1.61640002441 0.121027639289 0.0
0.0 1.61740002441 0.123005823109 0.0
0.0 1.61840002441 0.126447554361 0.0
0.0 1.61940002441 0.129020955008 0.0
0.0 1.62040002441 0.130430720834 0.0
0.0 1.62140002441 0.132420446596 0.0
0.0 1.62240002441 0.13564653147 0.0
0.0 1.62340002441 0.137495386429 0.0
0.0 1.62440002441 0.137487376349 0.0
0.0 1.62540002441 0.14215198011 0.0
0.0 1.62640002441 0.145453715322 0.0
0.0 1.62740002441 0.152412728936 0.0
0.0 1.62840002441 0.154367252617 0.0
0.0 1.62940002441 0.165015212904 0.0
0.0 1.63040002441 0.178170034404 0.0
0.0 1.63140002441 0.189818513357 0.0
0.0 1.63240002441 0.211032984171 0.0
0.0 1.63340002441 0.240085148481 0.0
0.0 1.63440002441 0.283081844191 0.0
0.0 1.63540002441 0.33706269173 0.0
0.0 1.63640002441 0.397195160499 0.0
0.0 1.63740002441 0.458272178516 0.0
0.0 1.63840002441 0.488929983281 0.0
0.0 1.63940002441 0.51459802412 0.0
0.0 1.64040002441 0.534778757361 0.0
0.0 1.64140002441 0.532882288738 0.0
0.0 1.64240002441 0.53522124949 0.0
0.0 1.64340002441 0.529555095978 0.0
0.0 1.64440002441 0.535036820311 0.0
0.0 1.64540002441 0.547418579823 0.0
0.0 1.64640002441 0.540996195301 0.0
0.0 1.64740002441 0.534235630433 0.0
0.0 1.64840002441 0.536623240105 0.0
0.0 1.64940002441 0.500111453526 0.0
0.0 1.65040002441 0.477937845481 0.0
0.0 1.65140002441 0.429535004441 0.0
0.0 1.65240002441 0.378130185609 0.0
0.0 1.65340002441 0.3160352082 0.0
0.0 1.65440002441 0.272785869701 0.0
0.0 1.65540002441 0.239333613224 0.0
0.0 1.65640002441 0.209203017617 0.0
0.0 1.65740002441 0.192222801282 0.0
0.0 1.65840002441 0.176858706317 0.0
0.0 1.65940002441 0.167368924853 0.0
0.0 1.66040002441 0.161958629009 0.0
0.0 1.66140002441 0.154816822011 0.0
0.0 1.66240002441 0.14671933588 0.0
0.0 1.66340002441 0.141413167351 0.0
0.0 1.66440002441 0.141224563786 0.0
0.0 1.66540002441 0.136702785936 0.0
0.0 1.66640002441 0.13391351158 0.0
0.0 1.66740002441 0.129668924387 0.0
0.0 1.66840002441 0.124468505149 0.0
0.0 1.66940002441 0.121778841024 0.0
0.0 1.67040002441 0.118302436692 0.0
0.0 1.67140002441 0.116206815415 0.0
0.0 1.67240002441 0.114222429686 0.0
0.0 1.67340002441 0.113092581667 0.0
0.0 1.67440002441 0.112365406296 0.0
0.0 1.67540002441 0.111864195263 0.0
0.0 1.67640002441 0.111601280152 0.0
0.0 1.67740002441 0.111381935411 0.0
0.0 1.67840002441 0.111225787973 0.0
0.0 1.67940002441 0.111073798751 0.0
0.0 1.68040002441 0.110946440852 0.0
0.0 1.68140002441 0.110827960384 0.0
0.0 1.68240002441 0.110715589829 0.0
0.0 1.68340002441 0.11060907831 0.0
0.0 1.68440002441 0.110500647895 0.0
0.0 1.68540002441 0.110400524552 0.0
0.0 1.68640002441 0.110299596343 0.0
0.0 1.68740002441 0.110200086865 0.0
0.0 1.68840002441 0.110104440189 0.0
0.0 1.68940002441 0.110007572123 0.0
0.0 1.69040002441 0.109908899349 0.0
0.0 1.69140002441 0.109815671122 0.0
0.0 1.69240002441 0.109724569486 0.0
0.0 1.69340002441 0.109630050986 0.0
0.0 1.69440002441 0.109539257873 0.0
0.0 1.69540002441 0.109445796112 0.0
0.0 1.69640002441 0.109356486255 0.0
0.0 1.69740002441 0.109262948968 0.0
0.0 1.69840002441 0.109174702054 0.0
0.0 1.69940002441 0.109084956428 0.0
0.0 1.70040002441 0.108997127543 0.0
0.0 1.70140002441 0.108906627136 0.0
0.0 1.70240002441 0.108818350329 0.0
0.0 1.70340002441 0.10873049916 0.0
0.0 1.70440002441 0.108644538088 0.0
0.0 1.70540002441 0.108554284106 0.0
0.0 1.70640002441 0.108466717967 0.0
0.0 1.70740002441 0.108381934757 0.0
0.0 1.70840002441 0.108294097322 0.0
0.0 1.70940002441 0.108207451109 0.0
0.0 1.71040002441 0.108123022287 0.0
0.0 1.71140002441 0.108036692612 0.0
0.0 1.71240002441 0.107953141028 0.0
0.0 1.71340002441 0.107868682424 0.0
0.0 1.71440002441 0.107785319701 0.0
0.0 1.71540002441 0.107698377969 0.0
0.0 1.71640002441 0.107617245217 0.0
0.0 1.71740002441 0.107532179463 0.0
0.0 1.71840002441 0.107451235027 0.0
0.0 1.71940002441 0.107366485926 0.0
0.0 1.72040002441 0.107284332339 0.0
0.0 1.72140002441 0.10720174791 0.0
0.0 1.72240002441 0.107121927786 0.0
0.0 1.72340002441 0.107038857523 0.0
0.0 1.72440002441 0.106959954881 0.0
0.0 1.72540002441 0.106879084151 0.0
0.0 1.72640002441 0.106797857958 0.0
0.0 1.72740002441 0.106717908093 0.0
0.0 1.72840002441 0.106640005986 0.0
0.0 1.72940002441 0.106560331916 0.0
0.0 1.73040002441 0.106481597856 0.0
0.0 1.73140002441 0.106402605438 0.0
0.0 1.73240002441 0.106325145843 0.0
0.0 1.73340002441 0.106246844593 0.0
0.0 1.73440002441 0.106171054529 0.0
0.0 1.73540002441 0.106094639692 0.0
0.0 1.73640002441 0.106016573873 0.0
0.0 1.73740002441 0.105940335817 0.0
0.0 1.73840002441 0.105863727155 0.0
0.0 1.73940002441 0.10578947317 0.0
0.0 1.74040002441 0.105713114952 0.0
0.0 1.74140002441 0.105641759138 0.0
0.0 1.74240002441 0.105564012467 0.0
0.0 1.74340002441 0.105491594529 0.0
0.0 1.74440002441 0.105417709428 0.0
0.0 1.74540002441 0.105344641772 0.0
0.0 1.74640002441 0.105273886939 0.0
0.0 1.74740002441 0.105197535028 0.0
0.0 1.74840002441 0.105126508911 0.0
0.0 1.74940002441 0.105054496725 0.0
0.0 1.75040002441 0.10498299602 0.0
0.0 1.75140002441 0.10491177366 0.0
0.0 1.75240002441 0.104840010359 0.0
0.0 1.75340002441 0.104770796132 0.0
0.0 1.75440002441 0.104700597443 0.0
0.0 1.75540002441 0.104630353914 0.0
0.0 1.75640002441 0.104561486482 0.0
0.0 1.75740002441 0.104493183705 0.0
0.0 1.75840002441 0.104424122039 0.0
0.0 1.75940002441 0.104355819643 0.0
0.0 1.76040002441 0.104287647198 0.0
0.0 1.76140002441 0.10422133921 0.0
0.0 1.76240002441 0.10415663988 0.0
0.0 1.76340002441 0.104086349595 0.0
0.0 1.76440002441 0.104020368046 0.0
0.0 1.76540002441 0.103953993868 0.0
0.0 1.76640002441 0.103887867275 0.0
0.0 1.76740002441 0.103825475774 0.0
0.0 1.76840002441 0.103762102065 0.0
0.0 1.76940002441 0.103694890857 0.0
0.0 1.77040002441 0.103630693793 0.0
0.0 1.77140002441 0.103568193045 0.0
0.0 1.77240002441 0.103504460387 0.0
0.0 1.77340002441 0.103441560064 0.0
0.0 1.77440002441 0.103376649988 0.0
0.0 1.77540002441 0.103315514511 0.0
0.0 1.77640002441 0.103256190724 0.0
0.0 1.77740002441 0.103192309254 0.0
0.0 1.77840002441 0.103130355326 0.0
0.0 1.77940002441 0.103070778355 0.0
0.0 1.78040002441 0.10301147801 0.0
0.0 1.78140002441 0.102949593193 0.0
0.0 1.78240002441 0.102889385549 0.0
0.0 1.78340002441 0.102833983151 0.0
0.0 1.78440002441 0.102775654116 0.0
0.0 1.78540002441 0.102714085041 0.0
0.0 1.78640002441 0.102656262108 0.0
0.0 1.78740002441 0.102600496214 0.0
0.0 1.78840002441 0.102540573256 0.0
0.0 1.78940002441 0.102483474688 0.0
0.0 1.79040002441 0.102430124577 0.0
0.0 1.79140002441 0.102372403884 0.0
0.0 1.79240002441 0.102314839011 0.0
0.0 1.79340002441 0.102261402209 0.0
0.0 1.79440002441 0.102207303869 0.0
0.0 1.79540002441 0.102152497356 0.0
0.0 1.79640002441 0.102098559213 0.0
0.0 1.79740002441 0.102046375522 0.0
0.0 1.79840002441 0.101989895381 0.0
0.0 1.79940002441 0.101935909778 0.0
0.0 1.80040002441 0.101888742579 0.0
0.0 1.80140002441 0.101831220038 0.0
0.0 1.80240002441 0.101781936933 0.0
0.0 1.80340002441 0.101730582896 0.0
0.0 1.80440002441 0.101678451835 0.0
0.0 1.80540002441 0.101629320599 0.0
0.0 1.80640002441 0.10157637782 0.0
0.0 1.80740002441 0.1015283459 0.0
0.0 1.80840002441 0.101477991779 0.0
0.0 1.80940002441 0.101428938267 0.0
0.0 1.81040002441 0.101381484197 0.0
0.0 1.81140002441 0.101332491802 0.0
0.0 1.81240002441 0.101283644698 0.0
0.0 1.81340002441 0.101236214665 0.0
0.0 1.81440002441 0.10118887406 0.0
0.0 1.81540002441 0.101145764742 0.0
0.0 1.81640002441 0.101095914402 0.0
0.0 1.81740002441 0.101051142317 0.0
0.0 1.81840002441 0.101007630759 0.0
0.0 1.81940002441 0.100958951978 0.0
0.0 1.82040002441 0.100914939674 0.0
0.0 1.82140002441 0.100869185068 0.0
0.0 1.82240002441 0.100825799874 0.0
0.0 1.82340002441 0.100784686246 0.0
0.0 1.82440002441 0.100740068838 0.0
0.0 1.82540002441 0.100697903936 0.0
0.0 1.82640002441 0.100658574684 0.0
0.0 1.82740002441 0.100618969508 0.0
0.0 1.82840002441 0.100569999569 0.0
0.0 1.82940002441 0.100535696879 0.0
0.0 1.83040002441 0.10048821656 0.0
0.0 1.83140002441 0.1004515802 0.0
0.0 1.83240002441 0.100409770274 0.0
0.0 1.83340002441 0.100370341822 0.0
0.0 1.83440002441 0.100330173581 0.0
0.0 1.83540002441 0.100292145724 0.0
0.0 1.83640002441 0.100255979064 0.0
0.0 1.83740002441 0.100216025165 0.0
0.0 1.83840002441 0.100179541642 0.0
0.0 1.83940002441 0.100142116189 0.0
0.0 1.84040002441 0.100104554512 0.0
0.0 1.84140002441 0.100072603851 0.0
0.0 1.84240002441 0.100034610889 0.0
0.0 1.84340002441 0.100000312117 0.0
0.0 1.84440002441 0.0999621318955 0.0
0.0 1.84540002441 0.099926813175 0.0
0.0 1.84640002441 0.0998968423799 0.0
0.0 1.84740002441 0.0998636732221 0.0
0.0 1.84840002441 0.0998262289288 0.0
0.0 1.84940002441 0.0997947781379 0.0
0.0 1.85040002441 0.0997624566404 0.0
0.0 1.85140002441 0.0997322587764 0.0
0.0 1.85240002441 0.0997006806767 0.0
0.0 1.85340002441 0.0996652814645 0.0
0.0 1.85440002441 0.0996431907596 0.0
0.0 1.85540002441 0.0996041496992 0.0
0.0 1.85640002441 0.0995764972542 0.0
0.0 1.85740002441 0.0995467126666 0.0
0.0 1.85840002441 0.0995192550044 0.0
0.0 1.85940002441 0.0994900934456 0.0
0.0 1.86040002441 0.0994609993263 0.0
0.0 1.86140002441 0.0994320282243 0.0
0.0 1.86240002441 0.0994074349448 0.0
0.0 1.86340002441 0.0993766814897 0.0
0.0 1.86440002441 0.0993517201489 0.0
0.0 1.86540002441 0.0993241415446 0.0
0.0 1.86640002441 0.0992983396488 0.0
0.0 1.86740002441 0.0992762920933 0.0
0.0 1.86840002441 0.0992507578712 0.0
0.0 1.86940002441 0.0992229319776 0.0
0.0 1.87040002441 0.0992004689283 0.0
0.0 1.87140002441 0.0991799312185 0.0
0.0 1.87240002441 0.0991551282491 0.0
0.0 1.87340002441 0.0991289943471 0.0
0.0 1.87440002441 0.0991075693305 0.0
0.0 1.87540002441 0.0990855301623 0.0
0.0 1.87640002441 0.0990677590845 0.0
0.0 1.87740002441 0.0990427082932 0.0
0.0 1.87840002441 0.0990272558532 0.0
0.0 1.87940002441 0.0990013812047 0.0
0.0 1.88040002441 0.0989830395666 0.0
0.0 1.88140002441 0.0989627872069 0.0
0.0 1.88240002441 0.0989458224206 0.0
0.0 1.88340002441 0.0989274901537 0.0
0.0 1.88440002441 0.0989062163122 0.0
0.0 1.88540002441 0.0988905971162 0.0
0.0 1.88640002441 0.0988728001315 0.0
0.0 1.88740002441 0.0988594915573 0.0
0.0 1.88840002441 0.0988395156315 0.0
0.0 1.88940002441 0.0988267890711 0.0
0.0 1.89040002441 0.0988068428211 0.0
0.0 1.89140002441 0.0987960367855 0.0
0.0 1.89240002441 0.0987780678343 0.0
0.0 1.89340002441 0.0987631675576 0.0
0.0 1.89440002441 0.0987499095972 0.0
0.0 1.89540002441 0.0987385509253 0.0
0.0 1.89640002441 0.0987265833748 0.0
0.0 1.89740002441 0.0987119973176 0.0
0.0 1.89840002441 0.098701735127 0.0
0.0 1.89940002441 0.0986905165387 0.0
0.0 1.90040002441 0.0986772039148 0.0
0.0 1.90140002441 0.0986690799423 0.0
0.0 1.90240002441 0.0986552379993 0.0
0.0 1.90340002441 0.0986474501336 0.0
0.0 1.90440002441 0.0986371078774 0.0
0.0 1.90540002441 0.0986282135906 0.0
0.0 1.90640002441 0.0986226964642 0.0
0.0 1.90740002441 0.0986121965322 0.0
0.0 1.90840002441 0.0986059490706 0.0
0.0 1.90940002441 0.0985962507785 0.0
0.0 1.91040002441 0.0985903466187 0.0
0.0 1.91140002441 0.0985833093534 0.0
0.0 1.91240002441 0.0985777287715 0.0
0.0 1.91340002441 0.0985736416409 0.0
0.0 1.91440002441 0.0985692690068 0.0
0.0 1.91540002441 0.0985647323752 0.0
0.0 1.91640002441 0.0985593287229 0.0
0.0 1.91740002441 0.098556178954 0.0
0.0 1.91840002441 0.0985524379506 0.0
0.0 1.91940002441 0.0985514568175 0.0
0.0 1.92040002441 0.0985480137039 0.0
0.0 1.92140002441 0.0985464743947 0.0
0.0 1.92240002441 0.0985488513579 0.0
0.0 1.92340002441 0.0985484565895 0.0
0.0 1.92440002441 0.0985430395325 0.0
0.0 1.92540002441 0.0985433055699 0.0
0.0 1.92640002441 0.0985486037498 0.0
0.0 1.92740002441 0.098544746441 0.0
0.0 1.92840002441 0.0985477052167 0.0
0.0 1.92940002441 0.0985507115538 0.0
0.0 1.93040002441 0.0985521024433 0.0
0.0 1.93140002441 0.0985539225842 0.0
0.0 1.93240002441 0.0985575287875 0.0
0.0 1.93340002441 0.0985599648602 0.0
0.0 1.93440002441 0.0985669587524 0.0
0.0 1.93540002441 0.0985712545209 0.0
0.0 1.93640002441 0.0985763287879 0.0
0.0 1.93740002441 0.0985794156923 0.0
0.0 1.93840002441 0.0985859938901 0.0
0.0 1.93940002441 0.0985940303823 0.0
0.0 1.94040002441 0.0986011567019 0.0
0.0 1.94140002441 0.0986065384949 0.0
0.0 1.94240002441 0.0986141209753 0.0
0.0 1.94340002441 0.0986239651282 0.0
0.0 1.94440002441 0.0986319712425 0.0
0.0 1.94540002441 0.0986424217251 0.0
0.0 1.94640002441 0.0986502224242 0.0
0.0 1.94740002441 0.0986606663937 0.0
0.0 1.94840002441 0.0986714734506 0.0
0.0 1.94940002441 0.098682322974 0.0
0.0 1.95040002441 0.0986936176437 0.0
0.0 1.95140002441 0.0987073642879 0.0
0.0 1.95240002441 0.0987191176654 0.0
0.0 1.95340002441 0.0987335502764 0.0
0.0 1.95440002441 0.0987440540798 0.0
0.0 1.95540002441 0.0987594768006 0.0
0.0 1.95640002441 0.0987803853458 0.0
0.0 1.95740002441 0.0987899272004 0.0
0.0 1.95840002441 0.0988023544625 0.0
0.0 1.95940002441 0.0988235644059 0.0
0.0 1.96040002441 0.0988368754718 0.0
0.0 1.96140002441 0.098851752418 0.0
0.0 1.96240002441 0.0988688363757 0.0
0.0 1.96340002441 0.0988880264598 0.0
0.0 1.96440002441 0.0989055273853 0.0
0.0 1.96540002441 0.0989250287022 0.0
0.0 1.96640002441 0.0989420762106 0.0
0.0 1.96740002441 0.0989633092613 0.0
0.0 1.96840002441 0.0989827048915 0.0
0.0 1.96940002441 0.0990024488801 0.0
0.0 1.97040002441 0.099026816834 0.0
0.0 1.97140002441 0.0990459748674 0.0
0.0 1.97240002441 0.0990657882282 0.0
0.0 1.97340002441 0.0990907511015 0.0
0.0 1.97440002441 0.0991170890241 0.0
0.0 1.97540002441 0.0991353267611 0.0
0.0 1.97640002441 0.0991623067896 0.0
0.0 1.97740002441 0.0991843843185 0.0
0.0 1.97840002441 0.0992082600517 0.0
0.0 1.97940002441 0.0992379016024 0.0
0.0 1.98040002441 0.0992581599955 0.0
0.0 1.98140002441 0.0992843647731 0.0
0.0 1.98240002441 0.099315073593 0.0
0.0 1.98340002441 0.0993382497693 0.0
0.0 1.98440002441 0.0993687871801 0.0
0.0 1.98540002441 0.0993968531802 0.0
0.0 1.98640002441 0.0994229660398 0.0
0.0 1.98740002441 0.0994547392308 0.0
0.0 1.98840002441 0.0994867614562 0.0
0.0 1.98940002441 0.09951361329 0.0
0.0 1.99040002441 0.0995424385393 0.0
0.0 1.99140002441 0.0995734450949 0.0
0.0 1.99240002441 0.0996053328609 0.0
0.0 1.99340002441 0.0996386512044 0.0
0.0 1.99440002441 0.0996703801993 0.0
0.0 1.99540002441 0.0997035322696 0.0
0.0 1.99640002441 0.0997357806663 0.0
0.0 1.99740002441 0.0997703527044 0.0
0.0 1.99840002441 0.0998074751809 0.0
0.0 1.99940002441 0.0998405290209 0.0
0.0 2.00040002441 0.0998769733842 0.0
0.0 2.00140002441 0.099912097196 0.0
0.0 2.00240002441 0.0999503339311 0.0
0.0 2.00340002441 0.0999881657607 0.0
0.0 2.00440002441 0.100021652463 0.0
0.0 2.00540002441 0.100065665077 0.0
0.0 2.00640002441 0.100098889366 0.0
0.0 2.00740002441 0.100136581573 0.0
0.0 2.00840002441 0.10017704173 0.0
0.0 2.00940002441 0.100216183838 0.0
0.0 2.01040002441 0.1002581015 0.0
0.0 2.01140002441 0.100298531834 0.0
0.0 2.01240002441 0.100339026263 0.0
0.0 2.01340002441 0.100383019436 0.0
0.0 2.01440002441 0.100422007087 0.0
0.0 2.01540002441 0.100468585396 0.0
0.0 2.01640002441 0.100515361659 0.0
0.0 2.01740002441 0.100555256136 0.0
0.0 2.01840002441 0.100597866706 0.0
0.0 2.01940002441 0.100642621723 0.0
0.0 2.02040002441 0.100690968307 0.0
0.0 2.02140002441 0.100736366476 0.0
0.0 2.02240002441 0.100779703146 0.0
0.0 2.02340002441 0.100830066455 0.0
0.0 2.02440002441 0.100876434692 0.0
0.0 2.02540002441 0.100923227969 0.0
0.0 2.02640002441 0.100973631522 0.0
0.0 2.02740002441 0.101021575045 0.0
0.0 2.02840002441 0.101068045347 0.0
0.0 2.02940002441 0.101118882314 0.0
0.0 2.03040002441 0.101172950829 0.0
0.0 2.03140002441 0.101224783054 0.0
0.0 2.03240002441 0.101273309571 0.0
0.0 2.03340002441 0.101323873163 0.0
0.0 2.03440002441 0.101378210688 0.0
0.0 2.03540002441 0.101427291382 0.0
0.0 2.03640002441 0.101488496322 0.0
0.0 2.03740002441 0.101537900403 0.0
0.0 2.03840002441 0.101589451458 0.0
0.0 2.03940002441 0.101644662589 0.0
0.0 2.04040002441 0.10169936314 0.0
0.0 2.04140002441 0.101757722326 0.0
0.0 2.04240002441 0.101817077256 0.0
0.0 2.04340002441 0.10187040622 0.0
0.0 2.04440002441 0.101928271212 0.0
0.0 2.04540002441 0.101987962921 0.0
0.0 2.04640002441 0.102043718367 0.0
0.0 2.04740002441 0.102102065405 0.0
0.0 2.04839990234 0.10216159877 0.0
0.0 2.04939990234 0.102222483684 0.0
0.0 2.05039990234 0.102284535586 0.0
0.0 2.05139990234 0.102342813675 0.0
0.0 2.05239990234 0.10240885173 0.0
0.0 2.05339990234 0.102470559668 0.0
0.0 2.05439990234 0.102537533928 0.0
0.0 2.05539990234 0.102594535038 0.0
0.0 2.05639990234 0.102656052728 0.0
0.0 2.05739990234 0.102726749484 0.0
0.0 2.05839990234 0.102786721813 0.0
0.0 2.05939990234 0.102852622927 0.0
0.0 2.06039990234 0.102918761935 0.0
0.0 2.06139990234 0.102982187948 0.0
0.0 2.06239990234 0.103049434096 0.0
0.0 2.06339990234 0.103122219788 0.0
0.0 2.06439990234 0.103192081168 0.0
0.0 2.06539990234 0.103256223711 0.0
0.0 2.06639990234 0.103321387323 0.0
0.0 2.06739990234 0.103393765654 0.0
0.0 2.06839990234 0.103466502155 0.0
0.0 2.06939990234 0.103532600009 0.0
0.0 2.07039990234 0.103602169811 0.0
0.0 2.07139990234 0.103673678357 0.0
0.0 2.07239990234 0.103746097041 0.0
0.0 2.07339990234 0.103822062745 0.0
0.0 2.07439990234 0.103896017751 0.0
0.0 2.07539990234 0.103968821111 0.0
0.0 2.07639990234 0.104041752629 0.0
0.0 2.07739990234 0.104117433342 0.0
0.0 2.07839990234 0.104193955353 0.0
0.0 2.07939990234 0.104264730972 0.0
0.0 2.08039990234 0.104346769344 0.0
0.0 2.08139990234 0.104418293395 0.0
0.0 2.08239990234 0.104501902036 0.0
0.0 2.08339990234 0.104579857307 0.0
0.0 2.08439990234 0.104651353405 0.0
0.0 2.08539990234 0.104735069327 0.0
0.0 2.08639990234 0.104813722511 0.0
0.0 2.08739990234 0.104896510629 0.0
0.0 2.08839990234 0.104972320161 0.0
0.0 2.08939990234 0.105052319742 0.0
0.0 2.09039990234 0.105134193756 0.0
0.0 2.09139990234 0.105215011579 0.0
0.0 2.09239990234 0.105300839759 0.0
0.0 2.09339990234 0.105381496504 0.0
0.0 2.09439990234 0.105468817113 0.0
0.0 2.09539990234 0.105549754653 0.0
0.0 2.09639990234 0.105635447691 0.0
0.0 2.09739990234 0.105719899276 0.0
0.0 2.09839990234 0.105807254746 0.0
0.0 2.09939990234 0.105893727961 0.0
0.0 2.10039990234 0.105979769609 0.0
0.0 2.10139990234 0.106066697757 0.0
0.0 2.10239990234 0.106158517545 0.0
0.0 2.10339990234 0.10624723578 0.0
0.0 2.10439990234 0.106331998034 0.0
0.0 2.10539990234 0.106422308275 0.0
0.0 2.10639990234 0.106512105933 0.0
0.0 2.10739990234 0.106602308881 0.0
0.0 2.10839990234 0.106700174344 0.0
0.0 2.10939990234 0.106788039258 0.0
0.0 2.11039990234 0.10687959153 0.0
0.0 2.11139990234 0.106973599319 0.0
0.0 2.11239990234 0.107068282254 0.0
0.0 2.11339990234 0.107165606108 0.0
0.0 2.11439990234 0.107256591438 0.0
0.0 2.11539990234 0.10734977363 0.0
0.0 2.11639990234 0.107446780476 0.0
0.0 2.11739990234 0.107541694165 0.0
0.0 2.11839990234 0.107636766571 0.0
0.0 2.11939990234 0.107736729946 0.0
0.0 2.12039990234 0.1078347361 0.0
0.0 2.12139990234 0.107932192857 0.0
0.0 2.12239990234 0.108032783644 0.0
0.0 2.12339990234 0.108130626431 0.0
0.0 2.12439990234 0.108229009271 0.0
0.0 2.12539990234 0.108331269335 0.0
0.0 2.12639990234 0.108433242176 0.0
0.0 2.12739990234 0.108539421246 0.0
0.0 2.12839990234 0.108641015755 0.0
0.0 2.12939990234 0.108742969053 0.0
0.0 2.13039990234 0.108841150048 0.0
0.0 2.13139990234 0.108945206146 0.0
0.0 2.13239990234 0.109052851144 0.0
0.0 2.13339990234 0.109155029787 0.0
0.0 2.13439990234 0.10926627078 0.0
0.0 2.13539990234 0.109366913531 0.0
0.0 2.13639990234 0.109475314288 0.0
0.0 2.13739990234 0.109582971033 0.0
0.0 2.13839990234 0.109689378498 0.0
0.0 2.13939990234 0.109801155975 0.0
0.0 2.14039990234 0.109906785495 0.0
0.0 2.14139990234 0.110019530127 0.0
0.0 2.14239990234 0.11012726492 0.0
0.0 2.14339990234 0.110238617642 0.0
0.0 2.14439990234 0.110351049375 0.0
0.0 2.14539990234 0.110460068041 0.0
0.0 2.14639990234 0.110575227364 0.0
0.0 2.14739990234 0.110684553332 0.0
0.0 2.14839990234 0.110798684511 0.0
0.0 2.14939990234 0.110916335911 0.0
0.0 2.15039990234 0.111029071308 0.0
0.0 2.15139990234 0.111147217332 0.0
0.0 2.15239990234 0.111257904209 0.0
0.0 2.15339990234 0.111375497016 0.0
0.0 2.15439990234 0.111491959245 0.0
0.0 2.15539990234 0.111610200052 0.0
0.0 2.15639990234 0.111728399444 0.0
0.0 2.15739990234 0.111845478964 0.0
0.0 2.15839990234 0.111970535259 0.0
0.0 2.15939990234 0.112085931699 0.0
0.0 2.16039990234 0.11221017504 0.0
0.0 2.16139990234 0.112327007986 0.0
0.0 2.16239990234 0.112451948223 0.0
0.0 2.16339990234 0.112569580847 0.0
0.0 2.16439990234 0.112694620046 0.0
0.0 2.16539990234 0.112814182623 0.0
0.0 2.16639990234 0.112952462279 0.0
0.0 2.16739990234 0.113066367072 0.0
0.0 2.16839990234 0.11319012322 0.0
0.0 2.16939990234 0.113312554381 0.0
0.0 2.17039990234 0.113438584241 0.0
0.0 2.17139990234 0.113565347046 0.0
0.0 2.17239990234 0.113695449742 0.0
0.0 2.17339990234 0.113821262261 0.0
0.0 2.17439990234 0.113949756821 0.0
0.0 2.17539990234 0.114081018805 0.0
0.0 2.17639990234 0.114208430169 0.0
0.0 2.17739990234 0.114338097862 0.0
0.0 2.17839990234 0.114467924543 0.0
0.0 2.17939990234 0.114603022379 0.0
0.0 2.18039990234 0.114730632876 0.0
0.0 2.18139990234 0.114863920024 0.0
0.0 2.18239990234 0.114996375009 0.0
0.0 2.18339990234 0.115134580801 0.0
0.0 2.18439990234 0.115266180088 0.0
0.0 2.18539990234 0.115400019696 0.0
0.0 2.18639990234 0.115537436139 0.0
0.0 2.18739990234 0.115669901655 0.0
0.0 2.18839990234 0.115807275804 0.0
0.0 2.18939990234 0.115946643495 0.0
0.0 2.19039990234 0.116082235326 0.0
0.0 2.19139990234 0.116223597821 0.0
0.0 2.19239990234 0.11635779833 0.0
0.0 2.19339990234 0.116500192842 0.0
0.0 2.19439990234 0.116638289214 0.0
0.0 2.19539990234 0.1167786869 0.0
0.0 2.19639990234 0.116920385876 0.0
0.0 2.19739990234 0.117063148957 0.0
0.0 2.19839990234 0.117204362904 0.0
0.0 2.19939990234 0.117349841124 0.0
0.0 2.20039990234 0.117492916683 0.0
0.0 2.20139990234 0.117636221585 0.0
0.0 2.20239990234 0.117778279961 0.0
0.0 2.20339990234 0.117924201903 0.0
0.0 2.20439990234 0.118070469892 0.0
0.0 2.20539990234 0.118216705258 0.0
0.0 2.20639990234 0.118364188915 0.0
0.0 2.20739990234 0.118511204249 0.0
0.0 2.20839990234 0.118663008754 0.0
0.0 2.20939990234 0.118812248203 0.0
0.0 2.21039990234 0.118966032411 0.0
0.0 2.21139990234 0.119108950487 0.0
0.0 2.21239990234 0.119257941826 0.0
0.0 2.21339990234 0.119410624327 0.0
0.0 2.21439990234 0.119562996752 0.0
0.0 2.21539990234 0.119717421898 0.0
0.0 2.21639990234 0.119870080975 0.0
0.0 2.21739990234 0.120020139448 0.0
0.0 2.21839990234 0.120177097442 0.0
0.0 2.21939990234 0.120334575729 0.0
0.0 2.22039990234 0.120487019748 0.0
0.0 2.22139990234 0.120640650685 0.0
0.0 2.22239990234 0.12079840037 0.0
0.0 2.22339990234 0.120959866679 0.0
0.0 2.22439990234 0.121116967917 0.0
0.0 2.22539990234 0.121283985363 0.0
0.0 2.22639990234 0.121429845141 0.0
0.0 2.22739990234 0.121590587129 0.0
0.0 2.22839990234 0.121754006458 0.0
0.0 2.22939990234 0.12191959129 0.0
0.0 2.23039990234 0.122072653894 0.0
0.0 2.23139990234 0.12223617639 0.0
0.0 2.23239990234 0.122405666707 0.0
0.0 2.23339990234 0.122562140611 0.0
0.0 2.23439990234 0.122724499707 0.0
0.0 2.23539990234 0.122889229244 0.0
0.0 2.23639990234 0.123059610373 0.0
0.0 2.23739990234 0.123222248388 0.0
0.0 2.23839990234 0.123400461307 0.0
0.0 2.23939990234 0.123552554723 0.0
0.0 2.24039990234 0.123738225188 0.0
0.0 2.24139990234 0.123896502539 0.0
0.0 2.24239990234 0.124068470421 0.0
0.0 2.24339990234 0.124234590891 0.0
0.0 2.24439990234 0.124397833894 0.0
0.0 2.24539990234 0.124574210447 0.0
0.0 2.24639990234 0.124755660181 0.0
0.0 2.24739990234 0.124917748097 0.0
0.0 2.24839990234 0.125085531555 0.0
0.0 2.24939990234 0.125258206907 0.0
0.0 2.25039990234 0.125435511818 0.0
0.0 2.25139990234 0.125608527808 0.0
0.0 2.25239990234 0.125779237957 0.0
0.0 2.25339990234 0.125958169105 0.0
0.0 2.25439990234 0.126144612163 0.0
0.0 2.25539990234 0.126319097814 0.0
0.0 2.25639990234 0.126484706932 0.0
0.0 2.25739990234 0.12666561279 0.0
0.0 2.25839990234 0.126845708789 0.0
0.0 2.25939990234 0.127024325313 0.0
0.0 2.26039990234 0.12720995952 0.0
0.0 2.26139990234 0.127385316195 0.0
0.0 2.26239990234 0.127575558104 0.0
0.0 2.26339990234 0.127751105254 0.0
0.0 2.26439990234 0.127932613717 0.0
0.0 2.26539990234 0.128122529816 0.0
0.0 2.26639990234 0.128292105005 0.0
0.0 2.26739990234 0.128484048189 0.0
0.0 2.26839990234 0.128671725822 0.0
0.0 2.26939990234 0.128846615329 0.0
0.0 2.27039990234 0.129044574508 0.0
0.0 2.27139990234 0.129222149837 0.0
0.0 2.27239990234 0.129414881145 0.0
0.0 2.27339990234 0.129595215782 0.0
0.0 2.27439990234 0.129796694716 0.0
0.0 2.27539990234 0.129977513848 0.0
0.0 2.27639990234 0.130168003529 0.0
0.0 2.27739990234 0.130353427104 0.0
0.0 2.27839990234 0.130548092499 0.0
0.0 2.27939990234 0.130747096261 0.0
0.0 2.28039990234 0.130928076162 0.0
0.0 2.28139990234 0.131122590489 0.0
0.0 2.28239990234 0.13132225622 0.0
0.0 2.28339990234 0.131513006253 0.0
0.0 2.28439990234 0.131710576334 0.0
0.0 2.28539990234 0.131900375137 0.0
0.0 2.28639990234 0.132097343824 0.0
0.0 2.28739990234 0.132293863876 0.0
0.0 2.28839990234 0.132503502184 0.0
0.0 2.28939990234 0.132687838743 0.0
0.0 2.29039990234 0.132889248304 0.0
0.0 2.29139990234 0.133087225542 0.0
0.0 2.29239990234 0.133286940744 0.0
0.0 2.29339990234 0.133488226997 0.0
0.0 2.29439990234 0.133688877449 0.0
0.0 2.29539990234 0.133893757997 0.0
0.0 2.29639990234 0.134092317064 0.0
0.0 2.29739990234 0.134295723313 0.0
0.0 2.29839990234 0.134499840881 0.0
0.0 2.29939990234 0.134707141871 0.0
0.0 2.30039990234 0.13491145542 0.0
0.0 2.30139990234 0.13511864314 0.0
0.0 2.30239990234 0.135322385246 0.0
0.0 2.30339990234 0.135527679322 0.0
0.0 2.30439990234 0.135738989203 0.0
0.0 2.30539990234 0.135945434262 0.0
0.0 2.30639990234 0.136152551031 0.0
0.0 2.30739990234 0.136366397847 0.0
0.0 2.30839990234 0.136572648841 0.0
0.0 2.30939990234 0.136783533119 0.0
0.0 2.31039990234 0.136997148771 0.0
0.0 2.31139990234 0.137209658955 0.0
0.0 2.31239990234 0.137420898938 0.0
0.0 2.31339990234 0.137635984375 0.0
0.0 2.31439990234 0.137850003393 0.0
0.0 2.31539990234 0.138061991206 0.0
0.0 2.31639990234 0.13827755521 0.0
0.0 2.31739990234 0.13849395222 0.0
0.0 2.31839990234 0.138711209025 0.0
0.0 2.31939990234 0.138929589272 0.0
0.0 2.32039990234 0.139147511738 0.0
0.0 2.32139990234 0.139364129876 0.0
0.0 2.32239990234 0.139583997926 0.0
0.0 2.32339990234 0.139803352245 0.0
0.0 2.32439990234 0.140024066626 0.0
0.0 2.32539990234 0.140245566676 0.0
0.0 2.32639990234 0.14046783596 0.0
0.0 2.32739990234 0.140689687335 0.0
0.0 2.32839990234 0.14091289037 0.0
0.0 2.32939990234 0.141138075456 0.0
0.0 2.33039990234 0.141361286612 0.0
0.0 2.33139990234 0.141586560015 0.0
0.0 2.33239990234 0.14181273979 0.0
0.0 2.33339990234 0.142038801703 0.0
0.0 2.33439990234 0.142265954265 0.0
0.0 2.33539990234 0.142493925117 0.0
0.0 2.33639990234 0.142722419088 0.0
0.0 2.33739990234 0.142951810537 0.0
0.0 2.33839990234 0.143181931788 0.0
0.0 2.33939990234 0.143411933832 0.0
0.0 2.34039990234 0.143642703799 0.0
0.0 2.34139990234 0.143875362927 0.0
0.0 2.34239990234 0.14410707882 0.0
0.0 2.34339990234 0.144340133306 0.0
0.0 2.34439990234 0.144573834626 0.0
0.0 2.34539990234 0.144808583632 0.0
0.0 2.34639990234 0.145043592162 0.0
0.0 2.34739990234 0.14528099804 0.0
0.0 2.34839990234 0.145515401213 0.0
0.0 2.34939990234 0.145752638799 0.0
0.0 2.35039990234 0.145991064457 0.0
0.0 2.35139990234 0.146228979451 0.0
0.0 2.35239990234 0.146468358693 0.0
0.0 2.35339990234 0.146708504371 0.0
0.0 2.35439990234 0.146947955583 0.0
0.0 2.35539990234 0.147189078113 0.0
0.0 2.35639990234 0.147430904832 0.0
0.0 2.35739990234 0.147673092775 0.0
0.0 2.35839990234 0.147916507935 0.0
0.0 2.35939990234 0.14816004714 0.0
0.0 2.36039990234 0.148404743594 0.0
0.0 2.36139990234 0.148649911794 0.0
0.0 2.36239990234 0.148896230537 0.0
0.0 2.36339990234 0.149141997252 0.0
0.0 2.36439990234 0.149388750425 0.0
0.0 2.36539990234 0.149636576335 0.0
0.0 2.36639990234 0.149885373341 0.0
0.0 2.36739990234 0.150134331311 0.0
0.0 2.36839990234 0.150384247082 0.0
0.0 2.36939990234 0.150634442977 0.0
0.0 2.37039990234 0.15088552359 0.0
0.0 2.37139990234 0.151137436655 0.0
0.0 2.37239990234 0.151389985369 0.0
0.0 2.37339990234 0.15164305235 0.0
0.0 2.37439990234 0.151897030402 0.0
0.0 2.37539990234 0.152151568824 0.0
0.0 2.37639990234 0.15240669503 0.0
0.0 2.37739990234 0.152662574767 0.0
0.0 2.37839990234 0.152919142856 0.0
0.0 2.37939990234 0.153176396307 0.0
0.0 2.38039990234 0.18662074516 0.0
0.0 2.38139990234 0.26424888252 0.0
0.0 2.38239990234 0.334468826531 0.0
0.0 2.38339990234 0.397987498368 0.0
0.0 2.38439990234 0.45544449681 0.0
0.0 2.38539990234 0.50741803807 0.0
0.0 2.38639990234 0.554431620468 0.0
0.0 2.38739990234 0.596958385948 0.0
0.0 2.38839990234 0.635426561472 0.0
0.0 2.38939990234 0.670223515142 0.0
0.0 2.39039990234 0.701699439704 0.0
0.0 2.39139990234 0.730171432905 0.0
0.0 2.39239990234 0.755926034007 0.0
0.0 2.39339990234 0.779222584107 0.0
0.0 2.39439990234 0.80029572643 0.0
0.0 2.39539990234 0.819357631992 0.0
0.0 2.39639990234 0.836600150519 0.0
0.0 2.39739990234 0.852197016118 0.0
0.0 2.39839990234 0.866305268497 0.0
0.0 2.39939990234 0.879066947137 0.0
0.0 2.40039990234 0.890610563015 0.0
0.0 2.40139990234 0.90105239574 0.0
0.0 2.40239990234 0.910497570143 0.0
0.0 2.40339990234 0.919041221521 0.0
0.0 2.40439990234 0.926769386933 0.0
0.0 2.40539990234 0.933759885843 0.0
0.0 2.40639990234 0.9400831544 0.0
0.0 2.40739990234 0.94580285573 0.0
0.0 2.40839990234 0.950976584737 0.0
0.0 2.40939990234 0.955656473404 0.0
0.0 2.41039990234 0.959889644593 0.0
0.0 2.41139990234 0.963718737555 0.0
0.0 2.41239990234 0.967182323573 0.0
0.0 2.41339990234 0.970315283657 0.0
0.0 2.41439990234 0.973149176258 0.0
0.0 2.41539990234 0.975712554415 0.0
0.0 2.41639990234 0.978031231966 0.0
0.0 2.41739990234 0.980128571049 0.0
0.0 2.41839990234 0.982025694611 0.0
0.0 2.41939990234 0.983741716385 0.0
0.0 2.42039990234 0.985293923779 0.0
0.0 2.42139990234 0.986697948527 0.0
0.0 2.42239990234 0.987967940484 0.0
0.0 2.42339990234 0.98911669432 0.0
0.0 2.42439990234 0.990155778108 0.0
0.0 2.42539990234 0.9910956657 0.0
0.0 2.42639990234 0.99194582342 0.0
0.0 2.42739990234 0.992714818176 0.0
0.0 2.42839990234 0.993410397941 0.0
0.0 2.42939990234 0.994039570412 0.0
0.0 2.43039990234 0.994608673363 0.0
0.0 2.43139990234 0.995123445172 0.0
0.0 2.43239990234 0.995589067969 0.0
0.0 2.43339990234 0.996010237288 0.0
0.0 2.43439990234 0.996391195578 0.0
0.0 2.43539990234 0.996735781544 0.0
0.0 2.43639990234 0.997047467508 0.0
0.0 2.43739990234 0.997329394659 0.0
0.0 2.43839990234 0.997584404276 0.0
0.0 2.43939990234 0.99781506555 0.0
0.0 2.44039990234 0.998023703073 0.0
0.0 2.44139990234 0.998212419986 0.0
0.0 2.44239990234 0.998383117896 0.0
0.0 2.44339990234 0.998537517063 0.0
0.0 2.44439990234 0.998677173551 0.0
0.0 2.44539990234 0.998803495232 0.0
0.0 2.44639990234 0.998917754904 0.0
0.0 2.44739990234 0.99902110453 0.0
0.0 2.44839990234 0.9991145856 0.0
0.0 2.44939990234 0.999199140218 0.0
0.0 2.45039990234 0.999275620876 0.0
0.0 2.45139990234 0.999344798529 0.0
0.0 2.45239990234 0.999407370255 0.0
0.0 2.45339990234 0.999463966994 0.0
0.0 2.45439990234 0.99951515913 0.0
0.0 2.45539990234 0.999561462825 0.0
0.0 2.45639990234 0.999603344729 0.0
0.0 2.45739990234 0.999641227172 0.0
0.0 2.45839990234 0.99967549192 0.0
0.0 2.45939990234 0.999706484645 0.0
0.0 2.46039990234 0.999734517433 0.0
0.0 2.46139990234 0.999759873312 0.0
0.0 2.46239990234 0.999782807571 0.0
0.0 2.46339990234 0.999803551662 0.0
0.0 2.46439990234 0.999822314647 0.0
0.0 2.46539990234 0.99983928572 0.0
0.0 2.46639990234 0.999854636038 0.0
0.0 2.46739990234 0.999868520294 0.0
0.0 2.46839990234 0.999881078563 0.0
0.0 2.46939990234 0.999892437435 0.0
0.0 2.47039990234 0.999902711449 0.0
0.0 2.47139990234 0.99991200422 0.0
0.0 2.47239990234 0.999920409459 0.0
0.0 2.47339990234 0.999928011905 0.0
0.0 2.47439990234 0.999934888251 0.0
0.0 2.47539990234 0.999941107805 0.0
0.0 2.47639990234 0.999946733328 0.0
0.0 2.47739990234 0.999951821535 0.0
0.0 2.47839990234 0.99995642375 0.0
0.0 2.47939990234 0.999960586379 0.0
0.0 2.48039990234 0.999964351415 0.0
0.0 2.48139990234 0.999967756816 0.0
0.0 2.48239990234 0.999970836948 0.0
0.0 2.48339990234 0.999973622864 0.0
0.0 2.48439990234 0.999976142672 0.0
0.0 2.48539990234 0.999978421785 0.0
0.0 2.48639990234 0.999980483194 0.0
0.0 2.48739990234 0.99998234769 0.0
0.0 2.48839990234 0.999984034083 0.0
0.0 2.48939990234 0.999985559386 0.0
0.0 2.49039990234 0.99998693898 0.0
0.0 2.49139990234 0.999988186788 0.0
0.0 2.49239990234 0.999989315396 0.0
0.0 2.49339990234 0.999990336189 0.0
0.0 2.49439990234 0.999991259466 0.0
0.0 2.49539990234 0.999992094543 0.0
0.0 2.49639990234 0.999992849844 0.0
0.0 2.49739990234 0.999993532987 0.0
0.0 2.49839990234 0.999994150869 0.0
0.0 2.49939990234 0.999994709722 0.0
0.0 2.50039990234 0.999995215185 0.0
0.0 2.50139990234 0.999995672358 0.0
0.0 2.50239990234 0.999996085853 0.0
0.0 2.50339990234 0.999996459844 0.0
0.0 2.50439990234 0.999996798105 0.0
0.0 2.50539990234 0.999997104047 0.0
0.0 2.50639990234 0.999997380761 0.0
0.0 2.50739990234 0.999997631035 0.0
0.0 2.50839990234 0.999997857398 0.0
0.0 2.50939990234 0.999998062134 0.0
0.0 2.51039990234 0.999998247308 0.0
0.0 2.51139990234 0.999998414789 0.0
0.0 2.51239990234 0.999998566268 0.0
0.0 2.51339990234 0.999998703273 0.0
0.0 2.51439990234 0.999998827188 0.0
0.0 2.51539990234 0.999998939263 0.0
0.0 2.51639990234 0.999999040628 0.0
0.0 2.51739990234 0.999999132308 0.0
0.0 2.51839990234 0.999999215228 0.0
0.0 2.51939990234 0.999999290225 0.0
0.0 2.52039990234 0.999999358055 0.0
0.0 2.52139990234 0.999999419404 0.0
0.0 2.52239990234 0.99999947489 0.0
0.0 2.52339990234 0.999999525074 0.0
0.0 2.52439990234 0.999999570463 0.0
0.0 2.52539990234 0.999999611514 0.0
0.0 2.52639990234 0.999999648642 0.0
0.0 2.52739990234 0.999999682222 0.0
0.0 2.52839990234 0.999999712594 0.0
0.0 2.52939990234 0.999999740063 0.0
0.0 2.53039990234 0.999999764906 0.0
0.0 2.53139990234 0.999999787376 0.0
0.0 2.53239990234 0.999999807698 0.0
0.0 2.53339990234 0.999999826078 0.0
0.0 2.53439990234 0.999999842702 0.0
0.0 2.53539990234 0.999999857736 0.0
0.0 2.53639990234 0.999999871334 0.0
0.0 2.53739990234 0.999999883633 0.0
0.0 2.53839990234 0.999999894756 0.0
0.0 2.53939990234 0.999999904815 0.0
0.0 2.54039990234 0.999999913914 0.0
0.0 2.54139990234 0.999999922143 0.0
0.0 2.54239990234 0.999999929585 0.0
0.0 2.54339990234 0.999999936316 0.0
0.0 2.54439990234 0.999999942403 0.0
0.0 2.54539990234 0.999999947909 0.0
0.0 2.54639990234 0.999999952889 0.0
0.0 2.54739990234 0.999999957392 0.0
0.0 2.54839990234 0.999999961465 0.0
0.0 2.54939990234 0.999999965149 0.0
0.0 2.55039990234 0.999999968481 0.0
0.0 2.55139990234 0.999999971494 0.0
0.0 2.55239990234 0.999999974219 0.0
0.0 2.55339990234 0.999999976684 0.0
0.0 2.55439990234 0.999999978913 0.0
0.0 2.55539990234 0.999999980929 0.0
0.0 2.55639990234 0.999999982752 0.0
0.0 2.55739990234 0.999999984401 0.0
0.0 2.55839990234 0.999999985892 0.0
0.0 2.55939990234 0.999999987241 0.0
0.0 2.56039990234 0.999999988461 0.0
0.0 2.56139990234 0.999999989564 0.0
0.0 2.56239990234 0.999999990562 0.0
0.0 2.56339990234 0.999999991464 0.0
0.0 2.56439990234 0.999999992281 0.0
0.0 2.56539990234 0.999999993019 0.0
0.0 2.56639990234 0.999999993686 0.0
0.0 2.56739990234 0.99999999429 0.0
0.0 2.56839990234 0.999999994836 0.0
0.0 2.56939990234 0.99999999533 0.0
0.0 2.57039990234 0.999999995776 0.0
0.0 2.57139990234 0.99999999618 0.0
0.0 2.57239990234 0.999999996545 0.0
0.0 2.57339990234 0.999999996876 0.0
0.0 2.57439990234 0.999999997174 0.0
0.0 2.57539990234 0.999999997445 0.0
0.0 2.57639990234 0.999999997689 0.0
0.0 2.57739990234 0.99999999791 0.0
0.0 2.57839990234 0.99999999811 0.0
0.0 2.57939990234 0.999999998291 0.0
0.0 2.58039990234 0.999999998454 0.0
0.0 2.58139990234 0.999999998602 0.0
0.0 2.58239990234 0.999999998736 0.0
0.0 2.58339990234 0.999999998857 0.0
0.0 2.58439990234 0.999999998966 0.0
0.0 2.58539990234 0.999999999065 0.0
0.0 2.58639990234 0.999999999154 0.0
0.0 2.58739990234 0.999999999235 0.0
0.0 2.58839990234 0.999999999308 0.0
0.0 2.58939990234 0.999999999374 0.0
0.0 2.59039990234 0.999999999434 0.0
0.0 2.59139990234 0.999999999488 0.0
0.0 2.59239990234 0.999999999537 0.0
0.0 2.59339990234 0.999999999582 0.0
0.0 2.59439990234 0.999999999622 0.0
0.0 2.59539990234 0.999999999658 0.0
0.0 2.59639990234 0.999999999691 0.0
0.0 2.59739990234 0.99999999972 0.0
0.0 2.59839990234 0.999999999747 0.0
0.0 2.59939990234 0.999999999771 0.0
0.0 2.60039990234 0.999999999793 0.0
