0.0 0.551200012207 0.309207932368 0.0
0.0 0.552200012207 0.309058608075 0.0
0.0 0.553200012207 0.308909048834 0.0
0.0 0.554200012207 0.308759255146 0.0
0.0 0.555200012207 0.308609227513 0.0
0.0 0.556200012207 0.308458966435 0.0
0.0 0.557200012207 0.308308472413 0.0
0.0 0.558200012207 0.308157745948 0.0
0.0 0.559200012207 0.308006787541 0.0
0.0 0.560200012207 0.307855597694 0.0
0.0 0.561200012207 0.307704176907 0.0
0.0 0.562200012207 0.307552525681 0.0
0.0 0.563200012207 0.307400644517 0.0
0.0 0.564200012207 0.307248533916 0.0
0.0 0.565200012207 0.307096194529 0.0
0.0 0.566200012207 0.306943627451 0.0
0.0 0.567200012207 0.306790830505 0.0
0.0 0.568200012207 0.306637807168 0.0
0.0 0.569200012207 0.306484556899 0.0
0.0 0.570200012207 0.306331080695 0.0
0.0 0.571200012207 0.306177377568 0.0
0.0 0.572200012207 0.306023449509 0.0
0.0 0.573200012207 0.305869296522 0.0
0.0 0.574200012207 0.305714919109 0.0
0.0 0.575200012207 0.30556031777 0.0
0.0 0.576200012207 0.305405493005 0.0
0.0 0.577200012207 0.305250445318 0.0
0.0 0.578200012207 0.30509517555 0.0
0.0 0.579200012207 0.304939683173 0.0
0.0 0.580200012207 0.30478396972 0.0
0.0 0.581200012207 0.304628035348 0.0
0.0 0.582200012207 0.304471880556 0.0
0.0 0.583200012207 0.304315505848 0.0
0.0 0.584200012207 0.304158911721 0.0
0.0 0.585200012207 0.304002098686 0.0
0.0 0.586200012207 0.303845067224 0.0
0.0 0.587200012207 0.303687817853 0.0
0.0 0.588200012207 0.30353035107 0.0
0.0 0.589200012207 0.303372667375 0.0
0.0 0.590200012207 0.303214767998 0.0
0.0 0.591200012207 0.303056651254 0.0
0.0 0.592200012207 0.302898321067 0.0
0.0 0.593200012207 0.302739773497 0.0
0.0 0.594200012207 0.302581012758 0.0
0.0 0.595200012207 0.302422049201 0.0
0.0 0.596200012207 0.302262850063 0.0
0.0 0.597200012207 0.302103449243 0.0
0.0 0.598200012207 0.301943836151 0.0
0.0 0.599200012207 0.301784010495 0.0
0.0 0.600200012207 0.301623987673 0.0
0.0 0.601200012207 0.301463726277 0.0
0.0 0.602200012207 0.301303270764 0.0
0.0 0.603200012207 0.301142600465 0.0
0.0 0.604200012207 0.300981735991 0.0
0.0 0.605200012207 0.300820637685 0.0
0.0 0.606200012207 0.300659342521 0.0
0.0 0.607200012207 0.300497843503 0.0
0.0 0.608200012207 0.300336132611 0.0
0.0 0.609200012207 0.300174218314 0.0
0.0 0.610200012207 0.300012092868 0.0
0.0 0.611200012207 0.299849767916 0.0
0.0 0.612200012207 0.299687236238 0.0
0.0 0.613200012207 0.299524497698 0.0
0.0 0.614200012207 0.299361556971 0.0
0.0 0.615200012207 0.299198411443 0.0
0.0 0.616200012207 0.299035064169 0.0
0.0 0.617200012207 0.298871499805 0.0
0.0 0.618200012207 0.298707741608 0.0
0.0 0.619200012207 0.298543777903 0.0
0.0 0.620200012207 0.29837961803 0.0
0.0 0.621200012207 0.298215260849 0.0
0.0 0.622200012207 0.298050696961 0.0
0.0 0.623200012207 0.297885946627 0.0
0.0 0.624200012207 0.297720981887 0.0
0.0 0.625200012207 0.297555824984 0.0
0.0 0.626200012207 0.297390463563 0.0
0.0 0.627200012207 0.297224905197 0.0
0.0 0.628200012207 0.297059152722 0.0
0.0 0.629200012207 0.296893215307 0.0
0.0 0.630200012207 0.296727076389 0.0
0.0 0.631200012207 0.296560728885 0.0
0.0 0.632200012207 0.296394179113 0.0
0.0 0.633200012207 0.296227459925 0.0
0.0 0.634200012207 0.29606054001 0.0
0.0 0.635200012207 0.295893416399 0.0
0.0 0.636200012207 0.295726135358 0.0
0.0 0.637200012207 0.295558590172 0.0
0.0 0.638200012207 0.295390925816 0.0
0.0 0.639200012207 0.295223013067 0.0
0.0 0.640200012207 0.295054929854 0.0
0.0 0.641200012207 0.294886673932 0.0
0.0 0.642200012207 0.294718182191 0.0
0.0 0.643200012207 0.294549524672 0.0
0.0 0.644200012207 0.294380697013 0.0
0.0 0.645200012207 0.294211658039 0.0
0.0 0.646200012207 0.294042445877 0.0
0.0 0.647200012207 0.293873040307 0.0
0.0 0.648200012207 0.293703443281 0.0
0.0 0.649200012207 0.293533649849 0.0
0.0 0.650200012207 0.293363701903 0.0
0.0 0.651200012207 0.293193530189 0.0
0.0 0.652200012207 0.29302319985 0.0
0.0 0.653200012207 0.292852666003 0.0
0.0 0.654200012207 0.29268195179 0.0
0.0 0.655200012207 0.292511072765 0.0
0.0 0.656200012207 0.292340000738 0.0
0.0 0.657200012207 0.29216873792 0.0
0.0 0.658200012207 0.291997301214 0.0
0.0 0.659200012207 0.291825676024 0.0
0.0 0.660200012207 0.291653873735 0.0
0.0 0.661200012207 0.291481887628 0.0
0.0 0.662200012207 0.291309732298 0.0
0.0 0.663200012207 0.291137389532 0.0
0.0 0.664200012207 0.290964893392 0.0
0.0 0.665200012207 0.290792169034 0.0
0.0 0.666200012207 0.290619287783 0.0
0.0 0.667200012207 0.290446220622 0.0
0.0 0.668200012207 0.290273004336 0.0
0.0 0.669200012207 0.290099572543 0.0
0.0 0.670200012207 0.289925991675 0.0
0.0 0.671200012207 0.289752216242 0.0
0.0 0.672200012207 0.289578264321 0.0
0.0 0.673200012207 0.289404165128 0.0
0.0 0.674200012207 0.289229867136 0.0
0.0 0.675200012207 0.289055397753 0.0
0.0 0.676200012207 0.288880799239 0.0
0.0 0.677200012207 0.288705962515 0.0
0.0 0.678200012207 0.288530978291 0.0
0.0 0.679200012207 0.288355816649 0.0
0.0 0.680200012207 0.288180479065 0.0
0.0 0.681200012207 0.288004975986 0.0
0.0 0.682200012207 0.28782932209 0.0
0.0 0.683200012207 0.28765349499 0.0
0.0 0.684200012207 0.287477519541 0.0
0.0 0.685200012207 0.287301362577 0.0
0.0 0.686200012207 0.287124972671 0.0
0.0 0.687200012207 0.286948448844 0.0
0.0 0.688200012207 0.286771763589 0.0
0.0 0.689200012207 0.286594968475 0.0
0.0 0.690200012207 0.286417935195 0.0
0.0 0.691200012207 0.286240737629 0.0
0.0 0.692200012207 0.28606339661 0.0
0.0 0.693200012207 0.285885921347 0.0
0.0 0.694200012207 0.285708245964 0.0
0.0 0.695200012207 0.285530388102 0.0
0.0 0.696200012207 0.28535237604 0.0
0.0 0.697200012207 0.285174232575 0.0
0.0 0.698200012207 0.284995919927 0.0
0.0 0.699200012207 0.284817419087 0.0
0.0 0.700200012207 0.284638792373 0.0
0.0 0.701200012207 0.284459959368 0.0
0.0 0.702200012207 0.284281014704 0.0
0.0 0.703200012207 0.284101864723 0.0
0.0 0.704200012207 0.283922598356 0.0
0.0 0.705200012207 0.283743176555 0.0
0.0 0.706200012207 0.283563545657 0.0
0.0 0.707200012207 0.283383795379 0.0
0.0 0.708200012207 0.283203855849 0.0
0.0 0.709200012207 0.283023788328 0.0
0.0 0.710200012207 0.282843576933 0.0
0.0 0.711200012207 0.282663139483 0.0
0.0 0.712200012207 0.282482613794 0.0
0.0 0.713200012207 0.282301922854 0.0
0.0 0.714200012207 0.282121055538 0.0
0.0 0.715200012207 0.281940060663 0.0
0.0 0.716200012207 0.281758902963 0.0
0.0 0.717200012207 0.281577594776 0.0
0.0 0.718200012207 0.281396134046 0.0
0.0 0.719200012207 0.281214569225 0.0
0.0 0.720200012207 0.281032763522 0.0
0.0 0.721200012207 0.280850836516 0.0
0.0 0.722200012207 0.280668771427 0.0
0.0 0.723200012207 0.280486543821 0.0
0.0 0.724200012207 0.280304154634 0.0
0.0 0.725200012207 0.280121652345 0.0
0.0 0.726200012207 0.27993896642 0.0
0.0 0.727200012207 0.279756186078 0.0
0.0 0.728200012207 0.279573212023 0.0
0.0 0.729200012207 0.279390100121 0.0
0.0 0.730200012207 0.279206869456 0.0
0.0 0.731200012207 0.279023438778 0.0
0.0 0.732200012207 0.278839892756 0.0
0.0 0.733200012207 0.278656205631 0.0
0.0 0.734200012207 0.278472371681 0.0
0.0 0.735200012207 0.278288394796 0.0
0.0 0.736200012207 0.278104281019 0.0
0.0 0.737200012207 0.277920012331 0.0
0.0 0.738200012207 0.277735607453 0.0
0.0 0.739200012207 0.277551060813 0.0
0.0 0.740200012207 0.277366388768 0.0
0.0 0.741200012207 0.277181544253 0.0
0.0 0.742200012207 0.276996587755 0.0
0.0 0.743200012207 0.276811466657 0.0
0.0 0.744200012207 0.276626237632 0.0
0.0 0.745200012207 0.276440836081 0.0
0.0 0.746200012207 0.276255307091 0.0
0.0 0.747200012207 0.276069644393 0.0
0.0 0.748200012207 0.275883847551 0.0
0.0 0.749200012207 0.275697914908 0.0
0.0 0.750200012207 0.275511834787 0.0
0.0 0.751200012207 0.275325638337 0.0
0.0 0.752200012207 0.275139282133 0.0
0.0 0.753200012207 0.27495284875 0.0
0.0 0.754200012207 0.274766190487 0.0
0.0 0.755200012207 0.274579443794 0.0
0.0 0.756200012207 0.274392563857 0.0
0.0 0.757200012207 0.274205552403 0.0
0.0 0.758200012207 0.274018415446 0.0
0.0 0.759200012207 0.273831136318 0.0
0.0 0.760200012207 0.273643721681 0.0
0.0 0.761200012207 0.273456191894 0.0
0.0 0.762200012207 0.273268520676 0.0
0.0 0.763200012207 0.273080741944 0.0
0.0 0.764200012207 0.272892787669 0.0
0.0 0.765200012207 0.272704746308 0.0
0.0 0.766200012207 0.272516560406 0.0
0.0 0.767200012207 0.272328270446 0.0
0.0 0.768200012207 0.27213979905 0.0
0.0 0.769200012207 0.271951227356 0.0
0.0 0.770200012207 0.271762534597 0.0
0.0 0.771200012207 0.271573716108 0.0
0.0 0.772200012207 0.271384782863 0.0
0.0 0.773200012207 0.271195716074 0.0
0.0 0.774200012207 0.271006530235 0.0
0.0 0.775200012207 0.270817197475 0.0
0.0 0.776200012207 0.270627755252 0.0
0.0 0.777200012207 0.270438192905 0.0
0.0 0.778200012207 0.27024851074 0.0
0.0 0.779200012207 0.270058702044 0.0
0.0 0.780200012207 0.269868774532 0.0
0.0 0.781200012207 0.2696787263 0.0
0.0 0.782200012207 0.26948855785 0.0
0.0 0.783200012207 0.269298275178 0.0
0.0 0.784200012207 0.269107862296 0.0
0.0 0.785200012207 0.268917336195 0.0
0.0 0.786200012207 0.268726692462 0.0
0.0 0.787200012207 0.268535950478 0.0
0.0 0.788200012207 0.26834506649 0.0
0.0 0.789200012207 0.268154062407 0.0
0.0 0.790200012207 0.267962942489 0.0
0.0 0.791200012207 0.267771714614 0.0
0.0 0.792200012207 0.267580381035 0.0
0.0 0.793200012207 0.267388913739 0.0
0.0 0.794200012207 0.267197343866 0.0
0.0 0.795200012207 0.267005656037 0.0
0.0 0.796200012207 0.266813905407 0.0
0.0 0.797200012207 0.266622025441 0.0
0.0 0.798200012207 0.2664299217 0.0
0.0 0.799200012207 0.266237836655 0.0
0.0 0.800200012207 0.266045557223 0.0
0.0 0.801200012207 0.26585321175 0.0
0.0 0.802200012207 0.265660750008 0.0
0.0 0.803200012207 0.265468170823 0.0
0.0 0.804200012207 0.265275484075 0.0
0.0 0.805200012207 0.265082657673 0.0
0.0 0.806200012207 0.264889769104 0.0
0.0 0.807200012207 0.264696741493 0.0
0.0 0.808200012207 0.264503628339 0.0
0.0 0.809200012207 0.26431045819 0.0
0.0 0.810200012207 0.264117077723 0.0
0.0 0.811200012207 0.263923681831 0.0
0.0 0.812200012207 0.263730095891 0.0
0.0 0.813200012207 0.263536498669 0.0
0.0 0.814200012207 0.263342689892 0.0
0.0 0.815200012207 0.263148871116 0.0
0.0 0.816200012207 0.262954910954 0.0
0.0 0.817200012207 0.262760883805 0.0
0.0 0.818200012207 0.262566656032 0.0
0.0 0.819200012207 0.262372424043 0.0
0.0 0.820200012207 0.26217804478 0.0
0.0 0.821200012207 0.261983571634 0.0
0.0 0.822200012207 0.261788999523 0.0
0.0 0.823200012207 0.261594325835 0.0
0.0 0.824200012207 0.261399565512 0.0
0.0 0.825200012207 0.261204749125 0.0
0.0 0.826200012207 0.261009734597 0.0
0.0 0.827200012207 0.260814675838 0.0
0.0 0.828200012207 0.260619544259 0.0
0.0 0.829200012207 0.260424306266 0.0
0.0 0.830200012207 0.260228922279 0.0
0.0 0.831200012207 0.260033469073 0.0
0.0 0.832200012207 0.259837939647 0.0
0.0 0.833200012207 0.259642331308 0.0
0.0 0.834200012207 0.259446591838 0.0
0.0 0.835200012207 0.259250793019 0.0
0.0 0.836200012207 0.25905489438 0.0
0.0 0.837200012207 0.258858864295 0.0
0.0 0.838200012207 0.258662763125 0.0
0.0 0.839200012207 0.25846658895 0.0
0.0 0.840200012207 0.25827028355 0.0
0.0 0.841200012207 0.258073891441 0.0
0.0 0.842200012207 0.257877492719 0.0
0.0 0.843200012207 0.257680928631 0.0
0.0 0.844200012207 0.257484357959 0.0
0.0 0.845200012207 0.257287658028 0.0
0.0 0.846200012207 0.257090849625 0.0
0.0 0.847200012207 0.256893997234 0.0
0.0 0.848200012207 0.256696965225 0.0
0.0 0.849200012207 0.256499893987 0.0
0.0 0.850200012207 0.256302611612 0.0
0.0 0.851200012207 0.256105303682 0.0
0.0 0.852200012207 0.2559079651 0.0
0.0 0.853200012207 0.255710482631 0.0
0.0 0.854200012207 0.255512995409 0.0
0.0 0.855200012207 0.255315407925 0.0
0.0 0.856200012207 0.255117719774 0.0
0.0 0.857200012207 0.254919948642 0.0
0.0 0.858200012207 0.254722191896 0.0
0.0 0.859200012207 0.254524201734 0.0
0.0 0.860200012207 0.254326186758 0.0
0.0 0.861200012207 0.254128124525 0.0
0.0 0.862200012207 0.253929960931 0.0
0.0 0.863200012207 0.253731699836 0.0
0.0 0.864200012207 0.25353338058 0.0
0.0 0.865200012207 0.253334977505 0.0
0.0 0.866200012207 0.253136499245 0.0
0.0 0.867200012207 0.252937943352 0.0
0.0 0.868200012207 0.252739310326 0.0
0.0 0.869200012207 0.252540648068 0.0
0.0 0.870200012207 0.25234181488 0.0
0.0 0.871200012207 0.252142959056 0.0
0.0 0.872200012207 0.251944018652 0.0
0.0 0.873200012207 0.251745036101 0.0
0.0 0.874200012207 0.251545920438 0.0
0.0 0.875200012207 0.251346787714 0.0
0.0 0.876200012207 0.251147712974 0.0
0.0 0.877200012207 0.250948224782 0.0
0.0 0.878200012207 0.250748891266 0.0
0.0 0.879200012207 0.250549399563 0.0
0.0 0.880200012207 0.250349880021 0.0
0.0 0.881200012207 0.250150518214 0.0
0.0 0.882200012207 0.249950781403 0.0
0.0 0.883200012207 0.249750899682 0.0
0.0 0.884200012207 0.249551114108 0.0
0.0 0.885200012207 0.249351258509 0.0
0.0 0.886200012207 0.249151537252 0.0
0.0 0.887200012207 0.248951811288 0.0
0.0 0.888200012207 0.248751223461 0.0
0.0 0.889200012207 0.24855168824 0.0
0.0 0.890200012207 0.248350883183 0.0
0.0 0.891200012207 0.248150708444 0.0
0.0 0.892200012207 0.247950280466 0.0
0.0 0.893200012207 0.247750533862 0.0
0.0 0.894200012207 0.24754984286 0.0
0.0 0.895200012207 0.247349205508 0.0
0.0 0.896200012207 0.247148415716 0.0
0.0 0.897200012207 0.24694767813 0.0
0.0 0.898200012207 0.246747010355 0.0
0.0 0.899200012207 0.246546162113 0.0
0.0 0.900200012207 0.246345325367 0.0
0.0 0.901200012207 0.246144580387 0.0
0.0 0.902200012207 0.245943470574 0.0
0.0 0.903200012207 0.245742513631 0.0
0.0 0.904200012207 0.245541671372 0.0
0.0 0.905200012207 0.245340706049 0.0
0.0 0.906200012207 0.245139131264 0.0
0.0 0.907200012207 0.244938168274 0.0
0.0 0.908200012207 0.24473649188 0.0
0.0 0.909200012207 0.244535272265 0.0
0.0 0.910200012207 0.24433370757 0.0
0.0 0.911200012207 0.24413223178 0.0
0.0 0.912200012207 0.243931061784 0.0
0.0 0.913200012207 0.243729311649 0.0
0.0 0.914200012207 0.243527616237 0.0
0.0 0.915200012207 0.243325782742 0.0
0.0 0.916200012207 0.243124036518 0.0
0.0 0.917200012207 0.242922508984 0.0
0.0 0.918200012207 0.242720426528 0.0
0.0 0.919200012207 0.242518484347 0.0
0.0 0.920200012207 0.242316530794 0.0
0.0 0.921200012207 0.242114736761 0.0
0.0 0.922200012207 0.241912780611 0.0
0.0 0.923200012207 0.241710368659 0.0
0.0 0.924200012207 0.24150851207 0.0
0.0 0.925200012207 0.241306014351 0.0
0.0 0.926200012207 0.241103795905 0.0
0.0 0.927200012207 0.240901709082 0.0
0.0 0.928200012207 0.240699123579 0.0
0.0 0.929200012207 0.240496732844 0.0
0.0 0.930200012207 0.240294395558 0.0
0.0 0.931200012207 0.2400918849 0.0
0.0 0.932200012207 0.239889619366 0.0
0.0 0.933200012207 0.23968680276 0.0
0.0 0.934200012207 0.239484110439 0.0
0.0 0.935200012207 0.239281766798 0.0
0.0 0.936200012207 0.239078887093 0.0
0.0 0.937200012207 0.238876482866 0.0
0.0 0.938200012207 0.238673906174 0.0
0.0 0.939200012207 0.238471524646 0.0
0.0 0.940200012207 0.238268560552 0.0
0.0 0.941200012207 0.238065891766 0.0
0.0 0.942200012207 0.237863399873 0.0
0.0 0.943200012207 0.237659790863 0.0
0.0 0.944200012207 0.237456862745 0.0
0.0 0.945200012207 0.237253331976 0.0
0.0 0.946200012207 0.237050110181 0.0
0.0 0.947200012207 0.236846879136 0.0
0.0 0.948200012207 0.236643384833 0.0
0.0 0.949200012207 0.236440522943 0.0
0.0 0.950200012207 0.23623712181 0.0
0.0 0.951200012207 0.236033485497 0.0
0.0 0.952200012207 0.235830136722 0.0
0.0 0.953200012207 0.235626931681 0.0
0.0 0.954200012207 0.235423467748 0.0
0.0 0.955200012207 0.23521992623 0.0
0.0 0.956200012207 0.235016723475 0.0
0.0 0.957200012207 0.234813329664 0.0
0.0 0.958200012207 0.234609508507 0.0
0.0 0.959200012207 0.234405893072 0.0
0.0 0.960200012207 0.234202374996 0.0
0.0 0.961200012207 0.233998767821 0.0
0.0 0.962200012207 0.233794990846 0.0
0.0 0.963200012207 0.233591549677 0.0
0.0 0.964200012207 0.233387655134 0.0
0.0 0.965200012207 0.233184181947 0.0
0.0 0.966200012207 0.232980114304 0.0
0.0 0.967200012207 0.232776525308 0.0
0.0 0.968200012207 0.232572778258 0.0
0.0 0.969200012207 0.232368765027 0.0
0.0 0.970200012207 0.232164797221 0.0
0.0 0.971200012207 0.231960902874 0.0
0.0 0.972200012207 0.231757178785 0.0
0.0 0.973200012207 0.231553039593 0.0
0.0 0.974200012207 0.231349210171 0.0
0.0 0.975200012207 0.231145214448 0.0
0.0 0.976200012207 0.230941184719 0.0
0.0 0.977200012207 0.230737190814 0.0
0.0 0.978200012207 0.230533080523 0.0
0.0 0.979200012207 0.230329147384 0.0
0.0 0.980200012207 0.230124955742 0.0
0.0 0.981200012207 0.229921172438 0.0
0.0 0.982200012207 0.229716584195 0.0
0.0 0.983200012207 0.229512765855 0.0
0.0 0.984200012207 0.229308863096 0.0
0.0 0.985200012207 0.22910505451 0.0
0.0 0.986200012207 0.228900888922 0.0
0.0 0.987200012207 0.228696573489 0.0
0.0 0.988200012207 0.228491884052 0.0
0.0 0.989200012207 0.228287708516 0.0
0.0 0.990200012207 0.22808348183 0.0
0.0 0.991200012207 0.227878855849 0.0
0.0 0.992200012207 0.227674298857 0.0
0.0 0.993200012207 0.227469889835 0.0
0.0 0.994200012207 0.227265595996 0.0
0.0 0.995200012207 0.227061082191 0.0
0.0 0.996200012207 0.226857014448 0.0
0.0 0.997200012207 0.226653240753 0.0
0.0 0.998200012207 0.226449027714 0.0
0.0 0.999200012207 0.226244170737 0.0
0.0 1.00020001221 0.22603977806 0.0
0.0 1.00120001221 0.225835576032 0.0
0.0 1.00220001221 0.225630963649 0.0
0.0 1.00320001221 0.225425932305 0.0
0.0 1.00420001221 0.225221973447 0.0
0.0 1.00520001221 0.225017353771 0.0
0.0 1.00620001221 0.224812551975 0.0
0.0 1.00720001221 0.224608458034 0.0
0.0 1.00820001221 0.224403803033 0.0
0.0 1.00920001221 0.22419932092 0.0
0.0 1.01020001221 0.223994977181 0.0
0.0 1.01120001221 0.223790047427 0.0
0.0 1.01220001221 0.223585752373 0.0
0.0 1.01320001221 0.223381832014 0.0
0.0 1.01420001221 0.223177145283 0.0
0.0 1.01520001221 0.222972808111 0.0
0.0 1.01620001221 0.222768451896 0.0
0.0 1.01720001221 0.222563313918 0.0
0.0 1.01820001221 0.222359088147 0.0
0.0 1.01920001221 0.222154713971 0.0
0.0 1.02020001221 0.221949817368 0.0
0.0 1.02120001221 0.221744707102 0.0
0.0 1.02220001221 0.221540765605 0.0
0.0 1.02320001221 0.221335968963 0.0
0.0 1.02419995117 0.22113208722 0.0
0.0 1.02519995117 0.220927969787 0.0
0.0 1.02619995117 0.220722069613 0.0
0.0 1.02719995117 0.220519105632 0.0
0.0 1.02819995117 0.220313128982 0.0
0.0 1.02919995117 0.220108982947 0.0
0.0 1.03019995117 0.21990472477 0.0
0.0 1.03119995117 0.219700186623 0.0
0.0 1.03219995117 0.219495040632 0.0
0.0 1.03319995117 0.219290590577 0.0
0.0 1.03419995117 0.219086608974 0.0
0.0 1.03519995117 0.21888159527 0.0
0.0 1.03619995117 0.218677403257 0.0
0.0 1.03719995117 0.218473357708 0.0
0.0 1.03819995117 0.218268102966 0.0
0.0 1.03919995117 0.218064007492 0.0
0.0 1.04019995117 0.217859871996 0.0
0.0 1.04119995117 0.217655504804 0.0
0.0 1.04219995117 0.21745122297 0.0
0.0 1.04319995117 0.217246069525 0.0
0.0 1.04419995117 0.217042041439 0.0
0.0 1.04519995117 0.216837108744 0.0
0.0 1.04619995117 0.216633188108 0.0
0.0 1.04719995117 0.216428849008 0.0
0.0 1.04819995117 0.216224847169 0.0
0.0 1.04919995117 0.216020338591 0.0
0.0 1.05019995117 0.215816659162 0.0
0.0 1.05119995117 0.215612360264 0.0
0.0 1.05219995117 0.215407884515 0.0
0.0 1.05319995117 0.215202798385 0.0
0.0 1.05419995117 0.214998287815 0.0
0.0 1.05519995117 0.214794646597 0.0
0.0 1.05619995117 0.214590216111 0.0
0.0 1.05719995117 0.214386558738 0.0
0.0 1.05819995117 0.214182039703 0.0
0.0 1.05919995117 0.213977722169 0.0
0.0 1.06019995117 0.213773810977 0.0
0.0 1.06119995117 0.2135700255 0.0
0.0 1.06219995117 0.213365423825 0.0
0.0 1.06319995117 0.213161669449 0.0
0.0 1.06419995117 0.212957403261 0.0
0.0 1.06519995117 0.212753883815 0.0
0.0 1.06619995117 0.212549073433 0.0
0.0 1.06719995117 0.212345812376 0.0
0.0 1.06819995117 0.212141537247 0.0
0.0 1.06919995117 0.211937876354 0.0
0.0 1.07019995117 0.211733177572 0.0
0.0 1.07119995117 0.211529310608 0.0
0.0 1.07219995117 0.211325834913 0.0
0.0 1.07319995117 0.211122058045 0.0
0.0 1.07419995117 0.210918482328 0.0
0.0 1.07519995117 0.210713614568 0.0
0.0 1.07619995117 0.210510713082 0.0
0.0 1.07719995117 0.210306811181 0.0
0.0 1.07819995117 0.210103158088 0.0
0.0 1.07919995117 0.209898922948 0.0
0.0 1.08019995117 0.209695733574 0.0
0.0 1.08119995117 0.209491635915 0.0
0.0 1.08219995117 0.209287596156 0.0
0.0 1.08319995117 0.20908448128 0.0
0.0 1.08419995117 0.20888108623 0.0
0.0 1.08519995117 0.208677591579 0.0
0.0 1.08619995117 0.208474096463 0.0
0.0 1.08719995117 0.208270390202 0.0
0.0 1.08819995117 0.208066514971 0.0
0.0 1.08919995117 0.207863686176 0.0
0.0 1.09019995117 0.207659835349 0.0
0.0 1.09119995117 0.207457100101 0.0
0.0 1.09219995117 0.207253401197 0.0
0.0 1.09319995117 0.20704983383 0.0
0.0 1.09419995117 0.206846830898 0.0
0.0 1.09519995117 0.206643527854 0.0
0.0 1.09619995117 0.206440560019 0.0
0.0 1.09719995117 0.206238155521 0.0
0.0 1.09819995117 0.20603460782 0.0
0.0 1.09919995117 0.205830902546 0.0
0.0 1.10019995117 0.205628678355 0.0
0.0 1.10119995117 0.205424968529 0.0
0.0 1.10219995117 0.205222752564 0.0
0.0 1.10319995117 0.205019360836 0.0
0.0 1.10419995117 0.204816727929 0.0
0.0 1.10519995117 0.204613840512 0.0
0.0 1.10619995117 0.204411789705 0.0
0.0 1.10719995117 0.204209319117 0.0
0.0 1.10819995117 0.204006387097 0.0
0.0 1.10919995117 0.203803032478 0.0
0.0 1.11019995117 0.203600677078 0.0
0.0 1.11119995117 0.203398296192 0.0
0.0 1.11219995117 0.203196154064 0.0
0.0 1.11319995117 0.202993679743 0.0
0.0 1.11419995117 0.202791673109 0.0
0.0 1.11519995117 0.202588924621 0.0
0.0 1.11619995117 0.202387106123 0.0
0.0 1.11719995117 0.202185800103 0.0
0.0 1.11819995117 0.201981635512 0.0
0.0 1.11919995117 0.201780399177 0.0
0.0 1.12019995117 0.201578116121 0.0
0.0 1.12119995117 0.20137641131 0.0
0.0 1.12219995117 0.201174763794 0.0
0.0 1.12319995117 0.200972426078 0.0
0.0 1.12419995117 0.2007712986 0.0
0.0 1.12519995117 0.200568591424 0.0
0.0 1.12619995117 0.200367060008 0.0
0.0 1.12719995117 0.200164509055 0.0
0.0 1.12819995117 0.199963705198 0.0
0.0 1.12919995117 0.199761230781 0.0
0.0 1.13019995117 0.199560068508 0.0
0.0 1.13119995117 0.199358547239 0.0
0.0 1.13219995117 0.19915696428 0.0
0.0 1.13319995117 0.198955658664 0.0
0.0 1.13419995117 0.198754520217 0.0
0.0 1.13519995117 0.198552998404 0.0
0.0 1.13619995117 0.198351036576 0.0
0.0 1.13719995117 0.19814974753 0.0
0.0 1.13819995117 0.197949019506 0.0
0.0 1.13919995117 0.197748050983 0.0
0.0 1.14019995117 0.197546937038 0.0
0.0 1.14119995117 0.19734618023 0.0
0.0 1.14219995117 0.197145236122 0.0
0.0 1.14319995117 0.196944345244 0.0
0.0 1.14419995117 0.196742809528 0.0
0.0 1.14519995117 0.196542597414 0.0
0.0 1.14619995117 0.196341806505 0.0
0.0 1.14719995117 0.196141597389 0.0
0.0 1.14819995117 0.195940920618 0.0
0.0 1.14919995117 0.195739891938 0.0
0.0 1.15019995117 0.195540067995 0.0
0.0 1.15119995117 0.195339607005 0.0
0.0 1.15219995117 0.195138907165 0.0
0.0 1.15319995117 0.194939280272 0.0
0.0 1.15419995117 0.194738586706 0.0
0.0 1.15519995117 0.194538669006 0.0
0.0 1.15619995117 0.194339429491 0.0
0.0 1.15719995117 0.194138904363 0.0
0.0 1.15819995117 0.193938723756 0.0
0.0 1.15919995117 0.193739009485 0.0
0.0 1.16019995117 0.193539337355 0.0
0.0 1.16119995117 0.193339595827 0.0
0.0 1.16219995117 0.193140464587 0.0
0.0 1.16319995117 0.192940823032 0.0
0.0 1.16419995117 0.192741344134 0.0
0.0 1.16519995117 0.192541861243 0.0
0.0 1.16619995117 0.192342413703 0.0
0.0 1.16719995117 0.192143116886 0.0
0.0 1.16819995117 0.191944681139 0.0
0.0 1.16919995117 0.191745687909 0.0
0.0 1.17019995117 0.191546180292 0.0
0.0 1.17119995117 0.191347010825 0.0
0.0 1.17219995117 0.191148905814 0.0
0.0 1.17319995117 0.190949315618 0.0
0.0 1.17419995117 0.190751148054 0.0
0.0 1.17519995117 0.190552417142 0.0
0.0 1.17619995117 0.190354213024 0.0
0.0 1.17719995117 0.190155044224 0.0
0.0 1.17819995117 0.189956703747 0.0
0.0 1.17919995117 0.189758741958 0.0
0.0 1.18019995117 0.189560461204 0.0
0.0 1.18119995117 0.189362456762 0.0
0.0 1.18219995117 0.189164045534 0.0
0.0 1.18319995117 0.188966567117 0.0
0.0 1.18419995117 0.188768241909 0.0
0.0 1.18519995117 0.188570401054 0.0
0.0 1.18619995117 0.188372386121 0.0
0.0 1.18719995117 0.188175229753 0.0
0.0 1.18819995117 0.187977186883 0.0
0.0 1.18919995117 0.187780046142 0.0
0.0 1.19019995117 0.187582507874 0.0
0.0 1.19119995117 0.187384894712 0.0
0.0 1.19219995117 0.187188551134 0.0
0.0 1.19319995117 0.186990390961 0.0
0.0 1.19419995117 0.186793350515 0.0
0.0 1.19519995117 0.186596763191 0.0
0.0 1.19619995117 0.186399427981 0.0
0.0 1.19719995117 0.186202749955 0.0
0.0 1.19819995117 0.186006523917 0.0
0.0 1.19919995117 0.185809400585 0.0
0.0 1.20019995117 0.185612732325 0.0
0.0 1.20119995117 0.185416326207 0.0
0.0 1.20219995117 0.185220180677 0.0
0.0 1.20319995117 0.185023806095 0.0
0.0 1.20419995117 0.184827658464 0.0
0.0 1.20519995117 0.184631328745 0.0
0.0 1.20619995117 0.184436357111 0.0
0.0 1.20719995117 0.184239419201 0.0
0.0 1.20819995117 0.184043687796 0.0
0.0 1.20919995117 0.18384815816 0.0
0.0 1.21019995117 0.183652314051 0.0
0.0 1.21119995117 0.183457103056 0.0
0.0 1.21219995117 0.183261395536 0.0
0.0 1.21319995117 0.183065996495 0.0
0.0 1.21419995117 0.182871031508 0.0
0.0 1.21519995117 0.182675549394 0.0
0.0 1.21619995117 0.182480891831 0.0
0.0 1.21719995117 0.182285579561 0.0
0.0 1.21819995117 0.182091203362 0.0
0.0 1.21919995117 0.181895931622 0.0
0.0 1.22019995117 0.181701334181 0.0
0.0 1.22119995117 0.181506888031 0.0
0.0 1.22219995117 0.181312258341 0.0
0.0 1.22319995117 0.181118454925 0.0
0.0 1.22419995117 0.180923896469 0.0
0.0 1.22519995117 0.180729491561 0.0
0.0 1.22619995117 0.180536235582 0.0
0.0 1.22719995117 0.180341490665 0.0
0.0 1.22819995117 0.180147947579 0.0
0.0 1.22919995117 0.179954642092 0.0
0.0 1.23019995117 0.179760264776 0.0
0.0 1.23119995117 0.179566931754 0.0
0.0 1.23219995117 0.179373916085 0.0
0.0 1.23319995117 0.179179981459 0.0
0.0 1.23419995117 0.178986765485 0.0
0.0 1.23519995117 0.178794118781 0.0
0.0 1.23619995117 0.178600654241 0.0
0.0 1.23719995117 0.178407759972 0.0
0.0 1.23819995117 0.17821524671 0.0
0.0 1.23919995117 0.178022296648 0.0
0.0 1.24019995117 0.177829728594 0.0
0.0 1.24119995117 0.17763727028 0.0
0.0 1.24219995117 0.177444922208 0.0
0.0 1.24319995117 0.177252720342 0.0
0.0 1.24419995117 0.177060813067 0.0
0.0 1.24519995117 0.176868615801 0.0
0.0 1.24619995117 0.176677255221 0.0
0.0 1.24719995117 0.176484852997 0.0
0.0 1.24819995117 0.176293396484 0.0
0.0 1.24919995117 0.176101685193 0.0
0.0 1.25019995117 0.175910290416 0.0
0.0 1.25119995117 0.175719519472 0.0
0.0 1.25219995117 0.175527614966 0.0
0.0 1.25319995117 0.175336959191 0.0
0.0 1.25419995117 0.175145861726 0.0
0.0 1.25519995117 0.174954710012 0.0
0.0 1.25619995117 0.174763993591 0.0
0.0 1.25719995117 0.174573474438 0.0
0.0 1.25819995117 0.17438296457 0.0
0.0 1.25919995117 0.174192437249 0.0
0.0 1.26019995117 0.174002183722 0.0
0.0 1.26119995117 0.173811920982 0.0
0.0 1.26219995117 0.173622280042 0.0
0.0 1.26319995117 0.173431965666 0.0
0.0 1.26419995117 0.173242185759 0.0
0.0 1.26519995117 0.173052583916 0.0
0.0 1.26619995117 0.172862943418 0.0
0.0 1.26719995117 0.1726735142 0.0
0.0 1.26819995117 0.172484840972 0.0
0.0 1.26919995117 0.172295184396 0.0
0.0 1.27019995117 0.172106741869 0.0
0.0 1.27119995117 0.171917087218 0.0
0.0 1.27219995117 0.171728227137 0.0
0.0 1.27319995117 0.171539651187 0.0
0.0 1.27419995117 0.171351243095 0.0
0.0 1.27519995117 0.171162628912 0.0
0.0 1.27619995117 0.17097458366 0.0
0.0 1.27719995117 0.170786191023 0.0
0.0 1.27819995117 0.170598412854 0.0
0.0 1.27919995117 0.170410121708 0.0
0.0 1.28019995117 0.170222888587 0.0
0.0 1.28119995117 0.170035061689 0.0
0.0 1.28219995117 0.169847262283 0.0
0.0 1.28319995117 0.169660586655 0.0
0.0 1.28419995117 0.169472749988 0.0
0.0 1.28519995117 0.169285729051 0.0
0.0 1.28619995117 0.169098752743 0.0
0.0 1.28719995117 0.168911533319 0.0
0.0 1.28819995117 0.168725595522 0.0
0.0 1.28919995117 0.168539763599 0.0
0.0 1.29019995117 0.168351677946 0.0
0.0 1.29119995117 0.168165606904 0.0
0.0 1.29219995117 0.167979707105 0.0
0.0 1.29319995117 0.167793856762 0.0
0.0 1.29419995117 0.167608078332 0.0
0.0 1.29519995117 0.167422037766 0.0
0.0 1.29619995117 0.167235722494 0.0
0.0 1.29719995117 0.167050927698 0.0
0.0 1.29819995117 0.166865008549 0.0
0.0 1.29919995117 0.166679763972 0.0
0.0 1.30019995117 0.166494754985 0.0
0.0 1.30119995117 0.166310755873 0.0
0.0 1.30219995117 0.166125041877 0.0
0.0 1.30319995117 0.165940498901 0.0
0.0 1.30419995117 0.165755963666 0.0
0.0 1.30519995117 0.16557168796 0.0
0.0 1.30619995117 0.165387031389 0.0
0.0 1.30719995117 0.165203482786 0.0
0.0 1.30819995117 0.165019780266 0.0
0.0 1.30919995117 0.164835463338 0.0
0.0 1.31019995117 0.164651649979 0.0
0.0 1.31119995117 0.164467919437 0.0
0.0 1.31219995117 0.164284799231 0.0
0.0 1.31319995117 0.164102164962 0.0
0.0 1.31419995117 0.163919058858 0.0
0.0 1.31519995117 0.163735273367 0.0
0.0 1.31619995117 0.163553950923 0.0
0.0 1.31719995117 0.163370700907 0.0
0.0 1.31819995117 0.163187335608 0.0
0.0 1.31919995117 0.163004900321 0.0
0.0 1.32019995117 0.16282282867 0.0
0.0 1.32119995117 0.162640747917 0.0
0.0 1.32219995117 0.162458680843 0.0
0.0 1.32319995117 0.162277050263 0.0
0.0 1.32419995117 0.162095582744 0.0
0.0 1.32519995117 0.161914371175 0.0
0.0 1.32619995117 0.161733327063 0.0
0.0 1.32719995117 0.161551371031 0.0
0.0 1.32819995117 0.161370854032 0.0
0.0 1.32919995117 0.161189747869 0.0
0.0 1.33019995117 0.161009148316 0.0
0.0 1.33119995117 0.160828370013 0.0
0.0 1.33219995117 0.160649794703 0.0
0.0 1.33319995117 0.160467729931 0.0
0.0 1.33419995117 0.160288293058 0.0
0.0 1.33519995117 0.160108330623 0.0
0.0 1.33619995117 0.159928494036 0.0
0.0 1.33719995117 0.159749046428 0.0
0.0 1.33819995117 0.159569575771 0.0
0.0 1.33919995117 0.159390976413 0.0
0.0 1.34019995117 0.159210873974 0.0
0.0 1.34119995117 0.1590320015 0.0
0.0 1.34219995117 0.158853507997 0.0
0.0 1.34319995117 0.158675315044 0.0
0.0 1.34419995117 0.158496513438 0.0
0.0 1.34519995117 0.15831743993 0.0
0.0 1.34619995117 0.158140510653 0.0
0.0 1.34719995117 0.157961616884 0.0
0.0 1.34819995117 0.157783486379 0.0
0.0 1.34919995117 0.157606247631 0.0
0.0 1.35019995117 0.157428660183 0.0
0.0 1.35119995117 0.157251748133 0.0
0.0 1.35219995117 0.157075039301 0.0
0.0 1.35319995117 0.156896865271 0.0
0.0 1.35419995117 0.156720079451 0.0
0.0 1.35519995117 0.156543790568 0.0
0.0 1.35619995117 0.156368111104 0.0
0.0 1.35719995117 0.156190737663 0.0
0.0 1.35819995117 0.156014393604 0.0
0.0 1.35919995117 0.155839206619 0.0
0.0 1.36019995117 0.155663287357 0.0
0.0 1.36119995117 0.155486901546 0.0
0.0 1.36219995117 0.155312046988 0.0
0.0 1.36319995117 0.155136502594 0.0
0.0 1.36419995117 0.154961617646 0.0
0.0 1.36519995117 0.154786899005 0.0
0.0 1.36619995117 0.154611205821 0.0
0.0 1.36719995117 0.154436891354 0.0
0.0 1.36819995117 0.15426295448 0.0
0.0 1.36919995117 0.154088048607 0.0
0.0 1.37019995117 0.153913757825 0.0
0.0 1.37119995117 0.153741302848 0.0
0.0 1.37219995117 0.153566783415 0.0
0.0 1.37319995117 0.153393012635 0.0
0.0 1.37419995117 0.153220031202 0.0
0.0 1.37519995117 0.153046209963 0.0
0.0 1.37619995117 0.152873593739 0.0
0.0 1.37719995117 0.152700210076 0.0
0.0 1.37819995117 0.152527501982 0.0
0.0 1.37919995117 0.15235597225 0.0
0.0 1.38019995117 0.152183466175 0.0
0.0 1.38119995117 0.152010431669 0.0
0.0 1.38219995117 0.151839696508 0.0
0.0 1.38319995117 0.151667542003 0.0
0.0 1.38419995117 0.151495181463 0.0
0.0 1.38519995117 0.151324992027 0.0
0.0 1.38619995117 0.151153109244 0.0
0.0 1.38719995117 0.150981732766 0.0
0.0 1.38819995117 0.150811172607 0.0
0.0 1.38919995117 0.150641168939 0.0
0.0 1.39019995117 0.150470044391 0.0
0.0 1.39119995117 0.150299877731 0.0
0.0 1.39219995117 0.150128735294 0.0
0.0 1.39319995117 0.149959882126 0.0
0.0 1.39419995117 0.149789546339 0.0
0.0 1.39519995117 0.149620491844 0.0
0.0 1.39619995117 0.149450452655 0.0
0.0 1.39719995117 0.149281121469 0.0
0.0 1.39819995117 0.149112116351 0.0
0.0 1.39919995117 0.148942932974 0.0
0.0 1.40019995117 0.148774822792 0.0
0.0 1.40119995117 0.148605963282 0.0
0.0 1.40219995117 0.14843849124 0.0
0.0 1.40319995117 0.148269792224 0.0
0.0 1.40419995117 0.148101820871 0.0
0.0 1.40519995117 0.147935147744 0.0
0.0 1.40619995117 0.147767258851 0.0
0.0 1.40719995117 0.147599644846 0.0
0.0 1.40819995117 0.147432729703 0.0
0.0 1.40919995117 0.147265482401 0.0
0.0 1.41019995117 0.14709955261 0.0
0.0 1.41119995117 0.14693224421 0.0
0.0 1.41219995117 0.146765940355 0.0
0.0 1.41319995117 0.146600046907 0.0
0.0 1.41419995117 0.146434256793 0.0
0.0 1.41519995117 0.146268461217 0.0
0.0 1.41619995117 0.146102356501 0.0
0.0 1.41719995117 0.14593768883 0.0
0.0 1.41819995117 0.14577300842 0.0
0.0 1.41919995117 0.145607885485 0.0
0.0 1.42019995117 0.14544359187 0.0
0.0 1.42119995117 0.145277567877 0.0
0.0 1.42219995117 0.145113659749 0.0
0.0 1.42319995117 0.14495015463 0.0
0.0 1.42419995117 0.144785605356 0.0
0.0 1.42519995117 0.144622320629 0.0
0.0 1.42619995117 0.144459027156 0.0
0.0 1.42719995117 0.144294984713 0.0
0.0 1.42819995117 0.144132158649 0.0
0.0 1.42919995117 0.143968794538 0.0
0.0 1.43019995117 0.143806133403 0.0
0.0 1.43119995117 0.143643760915 0.0
0.0 1.43219995117 0.143480983147 0.0
0.0 1.43319995117 0.143319965273 0.0
0.0 1.43419995117 0.143157780315 0.0
0.0 1.43519995117 0.142995798447 0.0
0.0 1.43619995117 0.142833799964 0.0
0.0 1.43719995117 0.142673292291 0.0
0.0 1.43819995117 0.142511872069 0.0
0.0 1.43919995117 0.14235070961 0.0
0.0 1.44019995117 0.142190812109 0.0
0.0 1.44119995117 0.142029438462 0.0
0.0 1.44219995117 0.141869625546 0.0
0.0 1.44319995117 0.141709189929 0.0
0.0 1.44419995117 0.141549840851 0.0
0.0 1.44519995117 0.141390688302 0.0
0.0 1.44619995117 0.141230594646 0.0
0.0 1.44719995117 0.141071462274 0.0
0.0 1.44819995117 0.140912966674 0.0
0.0 1.44919995117 0.140754312524 0.0
0.0 1.45019995117 0.140595195732 0.0
0.0 1.45119995117 0.140436693605 0.0
0.0 1.45219995117 0.140279341202 0.0
0.0 1.45319995117 0.140121605863 0.0
0.0 1.45419995117 0.139963048651 0.0
0.0 1.45519995117 0.139806739944 0.0
0.0 1.45619995117 0.139648691497 0.0
0.0 1.45719995117 0.139492144936 0.0
0.0 1.45819995117 0.139335580725 0.0
0.0 1.45919995117 0.139177986157 0.0
0.0 1.46019995117 0.139023377637 0.0
0.0 1.46119995117 0.138865493866 0.0
0.0 1.46219995117 0.138710860407 0.0
0.0 1.46319995117 0.138554758745 0.0
0.0 1.46419995117 0.138398867878 0.0
0.0 1.46519995117 0.138244349725 0.0
0.0 1.46619995117 0.138088301386 0.0
0.0 1.46719995117 0.137934063873 0.0
0.0 1.46819995117 0.137779369674 0.0
0.0 1.46919995117 0.137624554398 0.0
0.0 1.47019995117 0.137471121666 0.0
0.0 1.47119995117 0.137316340245 0.0
0.0 1.47219995117 0.137163256219 0.0
0.0 1.47319995117 0.137009283523 0.0
0.0 1.47419995117 0.136856300226 0.0
0.0 1.47519995117 0.136703037552 0.0
0.0 1.47619995117 0.13655133526 0.0
0.0 1.47719995117 0.136399035243 0.0
0.0 1.47819995117 0.136245443038 0.0
0.0 1.47919995117 0.136093942685 0.0
0.0 1.48019995117 0.135942000753 0.0
0.0 1.48119995117 0.135790760391 0.0
0.0 1.48219995117 0.13563967901 0.0
0.0 1.48319995117 0.135487162182 0.0
0.0 1.48419995117 0.135336223377 0.0
0.0 1.48519995117 0.135186082461 0.0
0.0 1.48619995117 0.135035872605 0.0
0.0 1.48719995117 0.134884878563 0.0
0.0 1.48819995117 0.134734793008 0.0
0.0 1.48919995117 0.134585086883 0.0
0.0 1.49019995117 0.134436835622 0.0
0.0 1.49119995117 0.134286203484 0.0
0.0 1.49219995117 0.134137716482 0.0
0.0 1.49319995117 0.133988616987 0.0
0.0 1.49419995117 0.133839753647 0.0
0.0 1.49519995117 0.133691317696 0.0
0.0 1.49619995117 0.133544042409 0.0
0.0 1.49719995117 0.133395882708 0.0
0.0 1.49819995117 0.133247761925 0.0
0.0 1.49919995117 0.133100316046 0.0
0.0 1.50019995117 0.132954243274 0.0
0.0 1.50119995117 0.132806702152 0.0
0.0 1.50219995117 0.132660074163 0.0
0.0 1.50319995117 0.13251329166 0.0
0.0 1.50419995117 0.132367268947 0.0
0.0 1.50519995117 0.132221221069 0.0
0.0 1.50619995117 0.13207568279 0.0
0.0 1.50719995117 0.131929710995 0.0
0.0 1.50819995117 0.131784758551 0.0
0.0 1.50919995117 0.131640605155 0.0
0.0 1.51019995117 0.13149473751 0.0
0.0 1.51119995117 0.13135114564 0.0
0.0 1.51219995117 0.131206053055 0.0
0.0 1.51319995117 0.131062533812 0.0
0.0 1.51419995117 0.130918580685 0.0
0.0 1.51519995117 0.130775702843 0.0
0.0 1.51619995117 0.130631402715 0.0
0.0 1.51719995117 0.130488383916 0.0
0.0 1.51819995117 0.130346350848 0.0
0.0 1.51919995117 0.130204074061 0.0
0.0 1.52019995117 0.13006091188 0.0
0.0 1.52119995117 0.1299187989 0.0
0.0 1.52219995117 0.129777421971 0.0
0.0 1.52319995117 0.129636192382 0.0
0.0 1.52419995117 0.129495054684 0.0
0.0 1.52519995117 0.129353922209 0.0
0.0 1.52619995117 0.129212621309 0.0
0.0 1.52719995117 0.129072736452 0.0
0.0 1.52819995117 0.128933294823 0.0
0.0 1.52919995117 0.12879168595 0.0
0.0 1.53019995117 0.128652985761 0.0
0.0 1.53119995117 0.128513280486 0.0
0.0 1.53219995117 0.128374072543 0.0
0.0 1.53319995117 0.128234600842 0.0
0.0 1.53419995117 0.12809603916 0.0
0.0 1.53519995117 0.127957764228 0.0
0.0 1.53619995117 0.127819954151 0.0
0.0 1.53719995117 0.127680952478 0.0
0.0 1.53819995117 0.127543169386 0.0
0.0 1.53919995117 0.127406299032 0.0
0.0 1.54019995117 0.127268720207 0.0
0.0 1.54119995117 0.127132277354 0.0
0.0 1.54219995117 0.126995653069 0.0
0.0 1.54319995117 0.126859544976 0.0
0.0 1.54419995117 0.126722587284 0.0
0.0 1.54519995117 0.12658705469 0.0
0.0 1.54619995117 0.126451054573 0.0
0.0 1.54719995117 0.126316166847 0.0
0.0 1.54819995117 0.126181616792 0.0
0.0 1.54919995117 0.126045843244 0.0
0.0 1.55019995117 0.125911238805 0.0
0.0 1.55119995117 0.125777646071 0.0
0.0 1.55219995117 0.125643628509 0.0
0.0 1.55319995117 0.125509626749 0.0
0.0 1.55419995117 0.125376062601 0.0
0.0 1.55519995117 0.125242831284 0.0
0.0 1.55619995117 0.125110625078 0.0
0.0 1.55719995117 0.124976853909 0.0
0.0 1.55819995117 0.124844542887 0.0
0.0 1.55919995117 0.124712332468 0.0
0.0 1.56019995117 0.124580558085 0.0
0.0 1.56119995117 0.124449598171 0.0
0.0 1.56219995117 0.124318032713 0.0
0.0 1.56319995117 0.124186583385 0.0
0.0 1.56419995117 0.124056002793 0.0
0.0 1.56519995117 0.123925321494 0.0
0.0 1.56619995117 0.1237952168 0.0
0.0 1.56719995117 0.123665715077 0.0
0.0 1.56819995117 0.123535786396 0.0
0.0 1.56919995117 0.123405970842 0.0
0.0 1.57019995117 0.123276567085 0.0
0.0 1.57119995117 0.12314880773 0.0
0.0 1.57219995117 0.123019661528 0.0
0.0 1.57319995117 0.122891815588 0.0
0.0 1.57419995117 0.122763031749 0.0
0.0 1.57519995117 0.122635953464 0.0
0.0 1.57619995117 0.122508214163 0.0
0.0 1.57719995117 0.122380205419 0.0
0.0 1.57819995117 0.122254112788 0.0
0.0 1.57919995117 0.122128924857 0.0
0.0 1.58019995117 0.122000814876 0.0
0.0 1.58119995117 0.121873980167 0.0
0.0 1.58219995117 0.121748824979 0.0
0.0 1.58319995117 0.121622615042 0.0
0.0 1.58419995117 0.12149820212 0.0
0.0 1.58519995117 0.121372376251 0.0
0.0 1.58619995117 0.1212487156 0.0
0.0 1.58719995117 0.121123461248 0.0
0.0 1.58819995117 0.121000513888 0.0
0.0 1.58919995117 0.120875502867 0.0
0.0 1.59019995117 0.120751958074 0.0
0.0 1.59119995117 0.120629651476 0.0
0.0 1.59219995117 0.12050621537 0.0
0.0 1.59319995117 0.120384417296 0.0
0.0 1.59419995117 0.120260410637 0.0
0.0 1.59519995117 0.120139848426 0.0
0.0 1.59619995117 0.12001677702 0.0
0.0 1.59719995117 0.119896099284 0.0
0.0 1.59819995117 0.119774877816 0.0
0.0 1.59919995117 0.119653611861 0.0
0.0 1.60019995117 0.11953354157 0.0
0.0 1.60119995117 0.119411612851 0.0
0.0 1.60219995117 0.119293155712 0.0
0.0 1.60319995117 0.119171635624 0.0
0.0 1.60419995117 0.119053976326 0.0
0.0 1.60519995117 0.118934053024 0.0
0.0 1.60619995117 0.118814177862 0.0
0.0 1.60719995117 0.118696459166 0.0
0.0 1.60819995117 0.118577941682 0.0
0.0 1.60919995117 0.118459342198 0.0
0.0 1.61019995117 0.118342759402 0.0
0.0 1.61119995117 0.11822395843 0.0
0.0 1.61219995117 0.118108194921 0.0
0.0 1.61319995117 0.117989775501 0.0
0.0 1.61419995117 0.117873590569 0.0
0.0 1.61519995117 0.117757678443 0.0
0.0 1.61619995117 0.117640851729 0.0
0.0 1.61719995117 0.117527273176 0.0
0.0 1.61819995117 0.117409684135 0.0
0.0 1.61919995117 0.117295683936 0.0
0.0 1.62019995117 0.117179739685 0.0
0.0 1.62119995117 0.117065822828 0.0
0.0 1.62219995117 0.116952970259 0.0
0.0 1.62319995117 0.116837380727 0.0
0.0 1.62419995117 0.11672476384 0.0
0.0 1.62519995117 0.116611019867 0.0
0.0 1.62619995117 0.116498892632 0.0
0.0 1.62719995117 0.116388505665 0.0
0.0 1.62819995117 0.116273424853 0.0
0.0 1.62919995117 0.116161723564 0.0
0.0 1.63019995117 0.11604961922 0.0
0.0 1.63119995117 0.115939177838 0.0
0.0 1.63219995117 0.115827019219 0.0
0.0 1.63319995117 0.115716438473 0.0
0.0 1.63419995117 0.115606075534 0.0
0.0 1.63519995117 0.115495847544 0.0
0.0 1.63619995117 0.115386062154 0.0
0.0 1.63719995117 0.115275997239 0.0
0.0 1.63819995117 0.115166711548 0.0
0.0 1.63919995117 0.115057586412 0.0
0.0 1.64019995117 0.114949852903 0.0
0.0 1.64119995117 0.11483950871 0.0
0.0 1.64219995117 0.114732587905 0.0
0.0 1.64319995117 0.114624429881 0.0
0.0 1.64419995117 0.114517065672 0.0
0.0 1.64519995117 0.114409581293 0.0
0.0 1.64619995117 0.114303709803 0.0
0.0 1.64719995117 0.114197376178 0.0
0.0 1.64819995117 0.114089508031 0.0
0.0 1.64919995117 0.113984702271 0.0
0.0 1.65019995117 0.113879500546 0.0
0.0 1.65119995117 0.11377377383 0.0
0.0 1.65219995117 0.113669070123 0.0
0.0 1.65319995117 0.113563615107 0.0
0.0 1.65419995117 0.113460085117 0.0
0.0 1.65519995117 0.113355406767 0.0
0.0 1.65619995117 0.113252162891 0.0
0.0 1.65719995117 0.113149867514 0.0
0.0 1.65819995117 0.113045799945 0.0
0.0 1.65919995117 0.112943500332 0.0
0.0 1.66019995117 0.112840240347 0.0
0.0 1.66119995117 0.112738225051 0.0
0.0 1.66219995117 0.1126362055 0.0
0.0 1.66319995117 0.112534687465 0.0
0.0 1.66419995117 0.112435591561 0.0
0.0 1.66519995117 0.112333367787 0.0
0.0 1.66619995117 0.112232611008 0.0
0.0 1.66719995117 0.112132930575 0.0
0.0 1.66819995117 0.112033180805 0.0
0.0 1.66919995117 0.111934046544 0.0
0.0 1.67019995117 0.111833480738 0.0
0.0 1.67119995117 0.11173493162 0.0
0.0 1.67219995117 0.111636576006 0.0
0.0 1.67319995117 0.111538458472 0.0
0.0 1.67419995117 0.111440853836 0.0
0.0 1.67519995117 0.111344257988 0.0
0.0 1.67619995117 0.111245283675 0.0
0.0 1.67719995117 0.111149762552 0.0
0.0 1.67819995117 0.111052756891 0.0
0.0 1.67919995117 0.110956568101 0.0
0.0 1.68019995117 0.110860771247 0.0
0.0 1.68119995117 0.110765256139 0.0
0.0 1.68219995117 0.110669293845 0.0
0.0 1.68319995117 0.110575560205 0.0
0.0 1.68419995117 0.110480188985 0.0
0.0 1.68519995117 0.110385712268 0.0
0.0 1.68619995117 0.110291261482 0.0
0.0 1.68719995117 0.110197698852 0.0
0.0 1.68819995117 0.110104534133 0.0
0.0 1.68919995117 0.110011504932 0.0
0.0 1.69019995117 0.109919461288 0.0
0.0 1.69119995117 0.109827619462 0.0
0.0 1.69219995117 0.109736084914 0.0
0.0 1.69319995117 0.109644740897 0.0
0.0 1.69419995117 0.109552730755 0.0
0.0 1.69519995117 0.109461197858 0.0
0.0 1.69619995117 0.109370516401 0.0
0.0 1.69719995117 0.109282214685 0.0
0.0 1.69819995117 0.109190562181 0.0
0.0 1.69919995117 0.109102333925 0.0
0.0 1.70019995117 0.109013568824 0.0
0.0 1.70119995117 0.10892307746 0.0
0.0 1.70219995117 0.108834732259 0.0
0.0 1.70319995117 0.108747269504 0.0
0.0 1.70419995117 0.108658348876 0.0
0.0 1.70519995117 0.108570883143 0.0
0.0 1.70619995117 0.108483671915 0.0
0.0 1.70719995117 0.10839940741 0.0
0.0 1.70819995117 0.108310703929 0.0
0.0 1.70919995117 0.108225413412 0.0
0.0 1.71019995117 0.108139094898 0.0
0.0 1.71119995117 0.108053947316 0.0
0.0 1.71219995117 0.107969078674 0.0
0.0 1.71319995117 0.10788378478 0.0
0.0 1.71419995117 0.107800293155 0.0
0.0 1.71519995117 0.107716430231 0.0
0.0 1.71619995117 0.107631324094 0.0
0.0 1.71719995117 0.107548602382 0.0
0.0 1.71819995117 0.107465327888 0.0
0.0 1.71919995117 0.107383127661 0.0
0.0 1.72019995117 0.107300171867 0.0
0.0 1.72119995117 0.107219118287 0.0
0.0 1.72219995117 0.107137039792 0.0
0.0 1.72319995117 0.107055653736 0.0
0.0 1.72419995117 0.106974973223 0.0
0.0 1.72519995117 0.106895408457 0.0
0.0 1.72619995117 0.106814500794 0.0
0.0 1.72719995117 0.106734225827 0.0
0.0 1.72819995117 0.106655001725 0.0
0.0 1.72919995117 0.106575000241 0.0
0.0 1.73019995117 0.10649718803 0.0
0.0 1.73119995117 0.106418761141 0.0
0.0 1.73219995117 0.106340391499 0.0
0.0 1.73319995117 0.106262066196 0.0
0.0 1.73419995117 0.106185461675 0.0
0.0 1.73519995117 0.106108820808 0.0
0.0 1.73619995117 0.10603228788 0.0
0.0 1.73719995117 0.105955610892 0.0
0.0 1.73819995117 0.105879577132 0.0
0.0 1.73919995117 0.105803594448 0.0
0.0 1.74019995117 0.105728666466 0.0
0.0 1.74119995117 0.105655083502 0.0
0.0 1.74219995117 0.105579683677 0.0
0.0 1.74319995117 0.10550468567 0.0
0.0 1.74419995117 0.105430938786 0.0
0.0 1.74519995117 0.105358010036 0.0
0.0 1.74619995117 0.105284979499 0.0
0.0 1.74719995117 0.105211977029 0.0
0.0 1.74819995117 0.105139541875 0.0
0.0 1.74919995117 0.105068276435 0.0
0.0 1.75019995117 0.104996150044 0.0
0.0 1.75119995117 0.104925269084 0.0
0.0 1.75219995117 0.104854434132 0.0
0.0 1.75319995117 0.104784215112 0.0
0.0 1.75419995117 0.104714622112 0.0
0.0 1.75519995117 0.104645307351 0.0
0.0 1.75619995117 0.104575292822 0.0
0.0 1.75719995117 0.104505521686 0.0
0.0 1.75819995117 0.104438357365 0.0
0.0 1.75919995117 0.104369452198 0.0
0.0 1.76019995117 0.104300821895 0.0
0.0 1.76119995117 0.104234609567 0.0
0.0 1.76219995117 0.104165967148 0.0
0.0 1.76319995117 0.104099045109 0.0
0.0 1.76419995117 0.104033161724 0.0
0.0 1.76519995117 0.103967159888 0.0
0.0 1.76619995117 0.103902784373 0.0
0.0 1.76719995117 0.10383751194 0.0
0.0 1.76819995117 0.103770803663 0.0
0.0 1.76919995117 0.103706107141 0.0
0.0 1.77019995117 0.103642168485 0.0
0.0 1.77119995117 0.10358005832 0.0
0.0 1.77219995117 0.103515143048 0.0
0.0 1.77319995117 0.10345242175 0.0
0.0 1.77419995117 0.103390640674 0.0
0.0 1.77519995117 0.103328671941 0.0
0.0 1.77619995117 0.10326537055 0.0
0.0 1.77719995117 0.10320436046 0.0
0.0 1.77819995117 0.103142455833 0.0
0.0 1.77919995117 0.103083339739 0.0
0.0 1.78019995117 0.103021431727 0.0
0.0 1.78119995117 0.102962547648 0.0
0.0 1.78219995117 0.102902793408 0.0
0.0 1.78319995117 0.102845378392 0.0
0.0 1.78419995117 0.102784526786 0.0
0.0 1.78519995117 0.102724650908 0.0
0.0 1.78619995117 0.102668529191 0.0
0.0 1.78719995117 0.102610921229 0.0
0.0 1.78819995117 0.102552471368 0.0
0.0 1.78919995117 0.102495215055 0.0
0.0 1.79019995117 0.10243902099 0.0
0.0 1.79119995117 0.102383495262 0.0
0.0 1.79219995117 0.102327527856 0.0
0.0 1.79319995117 0.102273883346 0.0
0.0 1.79419995117 0.102219122857 0.0
0.0 1.79519995117 0.102160872575 0.0
0.0 1.79619995117 0.102108014635 0.0
0.0 1.79719995117 0.102054321071 0.0
0.0 1.79819995117 0.10200089114 0.0
0.0 1.79919995117 0.101948040605 0.0
0.0 1.80019995117 0.101896219033 0.0
0.0 1.80119995117 0.10184118768 0.0
0.0 1.80219995117 0.101789823245 0.0
0.0 1.80319995117 0.101739724158 0.0
0.0 1.80419995117 0.101688957278 0.0
0.0 1.80519995117 0.101636188903 0.0
0.0 1.80619995117 0.101588140741 0.0
0.0 1.80719995117 0.101537360208 0.0
0.0 1.80819995117 0.101488305242 0.0
0.0 1.80919995117 0.101439842958 0.0
0.0 1.81019995117 0.101391057689 0.0
0.0 1.81119995117 0.101340041454 0.0
0.0 1.81219995117 0.101295028895 0.0
0.0 1.81319995117 0.101247937754 0.0
0.0 1.81419995117 0.10119848351 0.0
0.0 1.81519995117 0.101151266269 0.0
0.0 1.81619995117 0.101106764569 0.0
0.0 1.81719995117 0.101059195105 0.0
0.0 1.81819995117 0.101016254022 0.0
0.0 1.81919995117 0.100972020404 0.0
0.0 1.82019995117 0.100928116626 0.0
0.0 1.82119995117 0.100883892206 0.0
0.0 1.82219995117 0.100840829896 0.0
0.0 1.82319995117 0.100800802775 0.0
0.0 1.82419995117 0.100757619785 0.0
0.0 1.82519995117 0.100720859714 0.0
0.0 1.82619995117 0.100677856399 0.0
0.0 1.82719995117 0.100641043568 0.0
0.0 1.82819995117 0.100605676052 0.0
0.0 1.82919995117 0.100568556249 0.0
0.0 1.83019995117 0.100536576324 0.0
0.0 1.83119995117 0.100502717643 0.0
0.0 1.83219995117 0.100478184912 0.0
0.0 1.83319995117 0.100446557315 0.0
0.0 1.83419995117 0.10042827491 0.0
0.0 1.83519995117 0.100416912813 0.0
0.0 1.83619995117 0.100416435439 0.0
0.0 1.83719995117 0.100422438007 0.0
0.0 1.83819995117 0.100465119746 0.0
0.0 1.83919995117 0.100551192252 0.0
0.0 1.84019995117 0.100715427524 0.0
0.0 1.84119995117 0.101013329071 0.0
0.0 1.84219995117 0.101562667092 0.0
0.0 1.84319995117 0.102484424398 0.0
0.0 1.84419995117 0.103930234626 0.0
0.0 1.84519995117 0.106092079673 0.0
0.0 1.84619995117 0.109072780352 0.0
0.0 1.84719995117 0.112911086933 0.0
0.0 1.84819995117 0.117706566736 0.0
0.0 1.84919995117 0.123236202277 0.0
0.0 1.85019995117 0.129105290003 0.0
0.0 1.85119995117 0.13511655032 0.0
0.0 1.85219995117 0.140339150486 0.0
0.0 1.85319995117 0.145741071295 0.0
0.0 1.85419995117 0.14924251372 0.0
0.0 1.85519995117 0.15750630761 0.0
0.0 1.85619995117 0.165400885665 0.0
0.0 1.85719995117 0.176643518703 0.0
0.0 1.85819995117 0.18821962234 0.0
0.0 1.85919995117 0.20570254314 0.0
0.0 1.86019995117 0.225274260248 0.0
0.0 1.86119995117 0.25346005602 0.0
0.0 1.86219995117 0.285706369272 0.0
0.0 1.86319995117 0.325857556765 0.0
0.0 1.86419995117 0.378013947821 0.0
0.0 1.86519995117 0.420745911645 0.0
0.0 1.86619995117 0.465724402063 0.0
0.0 1.86719995117 0.49946931861 0.0
0.0 1.86819995117 0.524367266349 0.0
0.0 1.86919995117 0.536442390945 0.0
0.0 1.87019995117 0.545218599974 0.0
0.0 1.87119995117 0.54698189936 0.0
0.0 1.87219995117 0.54620751794 0.0
0.0 1.87319995117 0.547252004485 0.0
0.0 1.87419995117 0.545784217853 0.0
0.0 1.87519995117 0.542335956624 0.0
0.0 1.87619995117 0.539976544813 0.0
0.0 1.87719995117 0.534929606883 0.0
0.0 1.87819995117 0.523064851987 0.0
0.0 1.87919995117 0.507742892157 0.0
0.0 1.88019995117 0.481300728369 0.0
0.0 1.88119995117 0.452255112732 0.0
0.0 1.88219995117 0.412130933196 0.0
0.0 1.88319995117 0.369986621474 0.0
0.0 1.88419995117 0.327929369266 0.0
0.0 1.88519995117 0.290181268325 0.0
0.0 1.88619995117 0.260761451547 0.0
0.0 1.88719995117 0.234467601858 0.0
0.0 1.88819995117 0.214785857701 0.0
0.0 1.88919995117 0.197144658227 0.0
0.0 1.89019995117 0.184982316785 0.0
0.0 1.89119995117 0.172836883452 0.0
0.0 1.89219995117 0.165006035254 0.0
0.0 1.89319995117 0.15684050003 0.0
0.0 1.89419995117 0.150270530908 0.0
0.0 1.89519995117 0.142576710578 0.0
0.0 1.89619995117 0.135058203642 0.0
0.0 1.89719995117 0.127863551479 0.0
0.0 1.89819995117 0.121198812764 0.0
0.0 1.89919995117 0.11612308689 0.0
0.0 1.90019995117 0.111504440913 0.0
0.0 1.90119995117 0.107822446467 0.0
0.0 1.90219995117 0.104977417312 0.0
0.0 1.90319995117 0.102860543162 0.0
0.0 1.90419995117 0.101319749208 0.0
0.0 1.90519995117 0.100380546384 0.0
0.0 1.90619995117 0.0997575225534 0.0
0.0 1.90719995117 0.0993534603996 0.0
0.0 1.90819995117 0.0991081715669 0.0
0.0 1.90919995117 0.0989519385254 0.0
0.0 1.91019995117 0.0988396484121 0.0
0.0 1.91119995117 0.098769384982 0.0
0.0 1.91219995117 0.098716829774 0.0
0.0 1.91319995117 0.0986783045062 0.0
0.0 1.91419995117 0.0986493082816 0.0
0.0 1.91519995117 0.0986299879602 0.0
0.0 1.91619995117 0.0986130810159 0.0
0.0 1.91719995117 0.0985987114288 0.0
0.0 1.91819995117 0.0985873184849 0.0
0.0 1.91919995117 0.0985734239452 0.0
0.0 1.92019995117 0.0985729431216 0.0
0.0 1.92119995117 0.0985657160552 0.0
0.0 1.92219995117 0.098558530166 0.0
0.0 1.92319995117 0.098556452533 0.0
0.0 1.92419995117 0.0985533857081 0.0
0.0 1.92519995117 0.0985507875344 0.0
0.0 1.92619995117 0.0985483888759 0.0
0.0 1.92719995117 0.0985514263826 0.0
0.0 1.92819995117 0.0985513619354 0.0
0.0 1.92919995117 0.0985533473964 0.0
0.0 1.93019995117 0.0985533087956 0.0
0.0 1.93119995117 0.098558165207 0.0
0.0 1.93219995117 0.0985610523985 0.0
0.0 1.93319995117 0.0985619263603 0.0
0.0 1.93419995117 0.0985655182382 0.0
0.0 1.93519995117 0.0985727582262 0.0
0.0 1.93619995117 0.0985767127835 0.0
0.0 1.93719995117 0.0985782046309 0.0
0.0 1.93819995117 0.0985885940645 0.0
0.0 1.93919995117 0.0985916524733 0.0
0.0 1.94019995117 0.0986002943172 0.0
0.0 1.94119995117 0.0986065035763 0.0
0.0 1.94219995117 0.0986169067606 0.0
0.0 1.94319995117 0.0986213714141 0.0
0.0 1.94419995117 0.0986318456778 0.0
0.0 1.94519995117 0.0986384147276 0.0
0.0 1.94619995117 0.0986486109416 0.0
0.0 1.94719995117 0.0986595349758 0.0
0.0 1.94819995117 0.0986687563931 0.0
0.0 1.94919995117 0.0986817940027 0.0
0.0 1.95019995117 0.0986947355794 0.0
0.0 1.95119995117 0.0987042269612 0.0
0.0 1.95219995117 0.0987161467013 0.0
0.0 1.95319995117 0.0987316117215 0.0
0.0 1.95419995117 0.0987431367819 0.0
0.0 1.95519995117 0.0987569554295 0.0
0.0 1.95619995117 0.0987706030513 0.0
0.0 1.95719995117 0.0987840758572 0.0
0.0 1.95819995117 0.0988001665903 0.0
0.0 1.95919995117 0.0988171539596 0.0
0.0 1.96019995117 0.0988353379281 0.0
0.0 1.96119995117 0.0988485636957 0.0
0.0 1.96219995117 0.0988664038105 0.0
0.0 1.96319995117 0.0988827336495 0.0
0.0 1.96419995117 0.0989012506107 0.0
0.0 1.96519995117 0.098922130948 0.0
0.0 1.96619995117 0.0989391638545 0.0
0.0 1.96719995117 0.0989591455802 0.0
0.0 1.96819995117 0.0989789896331 0.0
0.0 1.96919995117 0.0990007906351 0.0
0.0 1.97019995117 0.0990206306563 0.0
0.0 1.97119995117 0.0990403628867 0.0
0.0 1.97219995117 0.0990631811503 0.0
0.0 1.97319995117 0.09908364012 0.0
0.0 1.97419995117 0.0991105755989 0.0
0.0 1.97519995117 0.099129629086 0.0
0.0 1.97619995117 0.0991579546683 0.0
0.0 1.97719995117 0.0991803491807 0.0
0.0 1.97819995117 0.0992030265394 0.0
0.0 1.97919995117 0.0992291122761 0.0
0.0 1.98019995117 0.0992573504991 0.0
0.0 1.98119995117 0.0992837666233 0.0
0.0 1.98219995117 0.0993060187596 0.0
0.0 1.98319995117 0.0993367577021 0.0
0.0 1.98419995117 0.0993633480858 0.0
0.0 1.98519995117 0.0993911193866 0.0
0.0 1.98619995117 0.0994186340756 0.0
0.0 1.98719995117 0.0994479510648 0.0
0.0 1.98819995117 0.0994768454522 0.0
0.0 1.98919995117 0.0995072981028 0.0
0.0 1.99019995117 0.0995377075265 0.0
0.0 1.99119995117 0.0995718192434 0.0
0.0 1.99219995117 0.0996017797055 0.0
0.0 1.99319995117 0.0996322962047 0.0
0.0 1.99419995117 0.0996624466911 0.0
0.0 1.99519995117 0.0996985424137 0.0
0.0 1.99619995117 0.0997305568965 0.0
0.0 1.99719995117 0.0997631121575 0.0
0.0 1.99819995117 0.0998002872466 0.0
0.0 1.99919995117 0.0998317712199 0.0
0.0 2.00019995117 0.0998678646544 0.0
0.0 2.00119995117 0.099907660778 0.0
0.0 2.00219995117 0.0999411347469 0.0
0.0 2.00319995117 0.0999760478239 0.0
0.0 2.00419995117 0.100019187276 0.0
0.0 2.00519995117 0.10005113614 0.0
0.0 2.00619995117 0.100092087632 0.0
0.0 2.00719995117 0.100132692176 0.0
0.0 2.00819995117 0.100171438632 0.0
0.0 2.00919995117 0.100209369438 0.0
0.0 2.01019995117 0.10025148524 0.0
0.0 2.01119995117 0.100290570403 0.0
0.0 2.01219995117 0.100330921832 0.0
0.0 2.01319995117 0.100377390976 0.0
0.0 2.01419995117 0.100414022718 0.0
0.0 2.01519995117 0.100457967325 0.0
0.0 2.01619995117 0.100499774323 0.0
0.0 2.01719995117 0.100546141101 0.0
0.0 2.01819995117 0.100589881592 0.0
0.0 2.01919995117 0.100634955598 0.0
0.0 2.02019995117 0.10068023196 0.0
0.0 2.02119995117 0.100724690952 0.0
0.0 2.02219995117 0.100772558977 0.0
0.0 2.02319995117 0.100818285817 0.0
0.0 2.02419995117 0.100865324896 0.0
0.0 2.02519995117 0.100913298891 0.0
0.0 2.02619995117 0.100965785858 0.0
0.0 2.02719995117 0.101008915971 0.0
0.0 2.02819995117 0.101059961828 0.0
0.0 2.02919995117 0.101109591273 0.0
0.0 2.03019995117 0.101158465767 0.0
0.0 2.03119995117 0.101210313923 0.0
0.0 2.03219995117 0.101259474452 0.0
0.0 2.03319995117 0.101312768468 0.0
0.0 2.03419995117 0.101368037887 0.0
0.0 2.03519995117 0.101418286 0.0
0.0 2.03619995117 0.101469654389 0.0
0.0 2.03719995117 0.101530233061 0.0
0.0 2.03819995117 0.10157779357 0.0
0.0 2.03919995117 0.10163588049 0.0
0.0 2.04019995117 0.101691443087 0.0
0.0 2.04119995117 0.101745315991 0.0
0.0 2.04219995117 0.101804111336 0.0
0.0 2.04319995117 0.101858157514 0.0
0.0 2.04419995117 0.101914794886 0.0
0.0 2.04519995117 0.10197705202 0.0
0.0 2.04619995117 0.102036541249 0.0
0.0 2.04719995117 0.10208969989 0.0
0.0 2.04819995117 0.102150090109 0.0
0.0 2.04919995117 0.102212305041 0.0
0.0 2.05019995117 0.10227046835 0.0
0.0 2.05119995117 0.102333028364 0.0
0.0 2.05219995117 0.102393328943 0.0
0.0 2.05319995117 0.102455438173 0.0
0.0 2.05419995117 0.10252149981 0.0
0.0 2.05519995117 0.102580968818 0.0
0.0 2.05619995117 0.102645484925 0.0
0.0 2.05719995117 0.10270951313 0.0
0.0 2.05819995117 0.102776615563 0.0
0.0 2.05919995117 0.102842564623 0.0
0.0 2.06019995117 0.102907587904 0.0
0.0 2.06119995117 0.102968894641 0.0
0.0 2.06219995117 0.103039915664 0.0
0.0 2.06319995117 0.103104518488 0.0
0.0 2.06419995117 0.103170533732 0.0
0.0 2.06519995117 0.103244870409 0.0
0.0 2.06619995117 0.103307571779 0.0
0.0 2.06719995117 0.103379014455 0.0
0.0 2.06819995117 0.103446704091 0.0
0.0 2.06919995117 0.103517056849 0.0
0.0 2.07019995117 0.103588832343 0.0
0.0 2.07119995117 0.103663024773 0.0
0.0 2.07219995117 0.10373354496 0.0
0.0 2.07319995117 0.103806652365 0.0
0.0 2.07419995117 0.103880496077 0.0
0.0 2.07519995117 0.103952625597 0.0
0.0 2.07619995117 0.104024854428 0.0
0.0 2.07719995117 0.104103559829 0.0
0.0 2.07819995117 0.104175214438 0.0
0.0 2.07919995117 0.104251933859 0.0
0.0 2.08019995117 0.104328210818 0.0
0.0 2.08119995117 0.104408176474 0.0
0.0 2.08219995117 0.104482823927 0.0
0.0 2.08319995117 0.104557355674 0.0
0.0 2.08419995117 0.104635637074 0.0
0.0 2.08519995117 0.104718293488 0.0
0.0 2.08619995117 0.104795379385 0.0
0.0 2.08719995117 0.10487716244 0.0
0.0 2.08819995117 0.104955106899 0.0
0.0 2.08919995117 0.105038489595 0.0
0.0 2.09019995117 0.10512474769 0.0
0.0 2.09119995117 0.105199833052 0.0
0.0 2.09219995117 0.105285530424 0.0
0.0 2.09319995117 0.105364933985 0.0
0.0 2.09419995117 0.105449360449 0.0
0.0 2.09519995117 0.10553454134 0.0
0.0 2.09619995117 0.105619489783 0.0
0.0 2.09719995117 0.105707484685 0.0
0.0 2.09819995117 0.105788272956 0.0
0.0 2.09919995117 0.105876409427 0.0
0.0 2.10019995117 0.105963497197 0.0
0.0 2.10119995117 0.106051149416 0.0
0.0 2.10219995117 0.10613652607 0.0
0.0 2.10319995117 0.106226791123 0.0
0.0 2.10419995117 0.106314056299 0.0
0.0 2.10519995117 0.106409173696 0.0
0.0 2.10619995117 0.106493762231 0.0
0.0 2.10719995117 0.106587410346 0.0
0.0 2.10819995117 0.106681772366 0.0
0.0 2.10919995117 0.106767350055 0.0
0.0 2.11019995117 0.106860496159 0.0
0.0 2.11119995117 0.106952192975 0.0
0.0 2.11219995117 0.10704557611 0.0
0.0 2.11319995117 0.107141611507 0.0
0.0 2.11419995117 0.107236623955 0.0
0.0 2.11519995117 0.107332181099 0.0
0.0 2.11619995117 0.107430323155 0.0
0.0 2.11719995117 0.107521878657 0.0
0.0 2.11819995117 0.107617547797 0.0
0.0 2.11919995117 0.107720125804 0.0
0.0 2.12019995117 0.1078129602 0.0
0.0 2.12119995117 0.107916613245 0.0
0.0 2.12219995117 0.108014304818 0.0
0.0 2.12319995117 0.10810897722 0.0
0.0 2.12419995117 0.108215656351 0.0
0.0 2.12519995117 0.108312188005 0.0
0.0 2.12619995117 0.108411429499 0.0
0.0 2.12719995117 0.108514702438 0.0
0.0 2.12819995117 0.108622289856 0.0
0.0 2.12919995117 0.108720869538 0.0
0.0 2.13019995117 0.108821649183 0.0
0.0 2.13119995117 0.10892938144 0.0
0.0 2.13219995117 0.109029123665 0.0
0.0 2.13319995117 0.109135329606 0.0
0.0 2.13419995117 0.109246195513 0.0
0.0 2.13519995117 0.109348937672 0.0
0.0 2.13619995117 0.109455069314 0.0
0.0 2.13719995117 0.109563238372 0.0
0.0 2.13819995117 0.109671510434 0.0
0.0 2.13919995117 0.109778418034 0.0
0.0 2.14019995117 0.109887150184 0.0
0.0 2.14119995117 0.109997635345 0.0
0.0 2.14219995117 0.110106403533 0.0
0.0 2.14319995117 0.110217330704 0.0
0.0 2.14419995117 0.110330081072 0.0
0.0 2.14519995117 0.110438200836 0.0
0.0 2.14619995117 0.110550664568 0.0
0.0 2.14719995117 0.110667082302 0.0
0.0 2.14819995117 0.110778577707 0.0
0.0 2.14919995117 0.110890827703 0.0
0.0 2.15019995117 0.11100773057 0.0
0.0 2.15119995117 0.111121600034 0.0
0.0 2.15219995117 0.111238818237 0.0
0.0 2.15319995117 0.111353491661 0.0
0.0 2.15419995117 0.111470024237 0.0
0.0 2.15519995117 0.111586696533 0.0
0.0 2.15619995117 0.111707232089 0.0
0.0 2.15719995117 0.111823495833 0.0
0.0 2.15819995117 0.111942715112 0.0
0.0 2.15919995117 0.11206596682 0.0
0.0 2.16019995117 0.112187003186 0.0
0.0 2.16119995117 0.112300769247 0.0
0.0 2.16219995117 0.112426012373 0.0
0.0 2.16319995117 0.112543995847 0.0
0.0 2.16419995117 0.112669559876 0.0
0.0 2.16519995117 0.1127895111 0.0
0.0 2.16619995117 0.112916999399 0.0
0.0 2.16719995117 0.113038775519 0.0
0.0 2.16819995117 0.113165949518 0.0
0.0 2.16919995117 0.11329358815 0.0
0.0 2.17019995117 0.113415617519 0.0
0.0 2.17119995117 0.113545259798 0.0
0.0 2.17219995117 0.11367451841 0.0
0.0 2.17319995117 0.113797052848 0.0
0.0 2.17419995117 0.113924526473 0.0
0.0 2.17519995117 0.114056807669 0.0
0.0 2.17619995117 0.114187394846 0.0
0.0 2.17719995117 0.114314382871 0.0
0.0 2.17819995117 0.114444538119 0.0
0.0 2.17919995117 0.11457785117 0.0
0.0 2.18019995117 0.114708951171 0.0
0.0 2.18119995117 0.114842631611 0.0
0.0 2.18219995117 0.114973744777 0.0
0.0 2.18319995117 0.11510544323 0.0
0.0 2.18419995117 0.115239812241 0.0
0.0 2.18519995117 0.115375967796 0.0
0.0 2.18619995117 0.115509797867 0.0
0.0 2.18719995117 0.115643384875 0.0
0.0 2.18819995117 0.115780315104 0.0
0.0 2.18919995117 0.115918203613 0.0
0.0 2.19019995117 0.116060934182 0.0
0.0 2.19119995117 0.116193890108 0.0
0.0 2.19219995117 0.116337850459 0.0
0.0 2.19319995117 0.116472778797 0.0
0.0 2.19419995117 0.116609167192 0.0
0.0 2.19519995117 0.116750136508 0.0
0.0 2.19619995117 0.116894614101 0.0
0.0 2.19719995117 0.117035187648 0.0
0.0 2.19819995117 0.117176943339 0.0
0.0 2.19919995117 0.117322957769 0.0
0.0 2.20019995117 0.1174616005 0.0
0.0 2.20119995117 0.117612090589 0.0
0.0 2.20219995117 0.117749299117 0.0
0.0 2.20319995117 0.117897864038 0.0
0.0 2.20419995117 0.118042186764 0.0
0.0 2.20519995117 0.118189222015 0.0
0.0 2.20619995117 0.118333560092 0.0
0.0 2.20719995117 0.118484817784 0.0
0.0 2.20819995117 0.118632343085 0.0
0.0 2.20919995117 0.118784538852 0.0
0.0 2.21019995117 0.118928539401 0.0
0.0 2.21119995117 0.119081209554 0.0
0.0 2.21219995117 0.119237111754 0.0
0.0 2.21319995117 0.119381413972 0.0
0.0 2.21419995117 0.119537314683 0.0
0.0 2.21519995117 0.119683676096 0.0
0.0 2.21619995117 0.119844137381 0.0
0.0 2.21719995117 0.119990721974 0.0
0.0 2.21819995117 0.120154227055 0.0
0.0 2.21919995117 0.120299998444 0.0
0.0 2.22019995117 0.120455778651 0.0
0.0 2.22119995117 0.120609403653 0.0
0.0 2.22219995117 0.120769957167 0.0
0.0 2.22319995117 0.12092571032 0.0
0.0 2.22419995117 0.121080751229 0.0
0.0 2.22519995117 0.121243804747 0.0
0.0 2.22619995117 0.121404094808 0.0
0.0 2.22719995117 0.121559171229 0.0
0.0 2.22819995117 0.12171765514 0.0
0.0 2.22919995117 0.121881381128 0.0
0.0 2.23019995117 0.122046829268 0.0
0.0 2.23119995117 0.122204954352 0.0
0.0 2.23219995117 0.122366126528 0.0
0.0 2.23319995117 0.122542332075 0.0
0.0 2.23419995117 0.122691162871 0.0
0.0 2.23519995117 0.122858232649 0.0
0.0 2.23619995117 0.123021313042 0.0
0.0 2.23719995117 0.123187726311 0.0
0.0 2.23819995117 0.123352316029 0.0
0.0 2.23919995117 0.123527926389 0.0
0.0 2.24019995117 0.123689449818 0.0
0.0 2.24119995117 0.123865413758 0.0
0.0 2.24219995117 0.124028945053 0.0
0.0 2.24319995117 0.124192480343 0.0
0.0 2.24419995117 0.12436649571 0.0
0.0 2.24519995117 0.124538992018 0.0
0.0 2.24619995117 0.124708907711 0.0
0.0 2.24719995117 0.124877167319 0.0
0.0 2.24819995117 0.125050469953 0.0
0.0 2.24919995117 0.125224772972 0.0
0.0 2.25019995117 0.125396445265 0.0
0.0 2.25119995117 0.125571036858 0.0
0.0 2.25219995117 0.125745397022 0.0
0.0 2.25319995117 0.125920576404 0.0
0.0 2.25419995117 0.126094807408 0.0
0.0 2.25519995117 0.126281609201 0.0
0.0 2.25619995117 0.126457548484 0.0
0.0 2.25719995117 0.126627788932 0.0
0.0 2.25819995117 0.126808549869 0.0
0.0 2.25919995117 0.126999816997 0.0
0.0 2.26019995117 0.127165801346 0.0
0.0 2.26119995117 0.127358133001 0.0
0.0 2.26219995117 0.127526228735 0.0
0.0 2.26319995117 0.127708054071 0.0
0.0 2.26419995117 0.127895833888 0.0
0.0 2.26519995117 0.128077191841 0.0
0.0 2.26619995117 0.128268713279 0.0
0.0 2.26719995117 0.12845461886 0.0
0.0 2.26819995117 0.128624145602 0.0
0.0 2.26919995117 0.128815080579 0.0
0.0 2.27019995117 0.12900928102 0.0
0.0 2.27119995117 0.129182059339 0.0
0.0 2.27219995117 0.129369245193 0.0
0.0 2.27319995117 0.129561701783 0.0
0.0 2.27419995117 0.129751779589 0.0
0.0 2.27519995117 0.129935951075 0.0
0.0 2.27619995117 0.130127745396 0.0
0.0 2.27719995117 0.13031907925 0.0
0.0 2.27819995117 0.13050828893 0.0
0.0 2.27919995117 0.130700447048 0.0
0.0 2.28019995117 0.130894180463 0.0
0.0 2.28119995117 0.131084557379 0.0
0.0 2.28219995117 0.131279897246 0.0
0.0 2.28319995117 0.131475878967 0.0
0.0 2.28419995117 0.131671618311 0.0
0.0 2.28519995117 0.131860243266 0.0
0.0 2.28619995117 0.132060360558 0.0
0.0 2.28719995117 0.132253303375 0.0
0.0 2.28819995117 0.13245220188 0.0
0.0 2.28919995117 0.132653217123 0.0
0.0 2.29019995117 0.132849979199 0.0
0.0 2.29119995117 0.133048422969 0.0
0.0 2.29219995117 0.133248995719 0.0
0.0 2.29319995117 0.133451278558 0.0
0.0 2.29419995117 0.133650883013 0.0
0.0 2.29519995117 0.133852038699 0.0
0.0 2.29619995117 0.134054238276 0.0
0.0 2.29719995117 0.13425557109 0.0
0.0 2.29819995117 0.134461260813 0.0
0.0 2.29919995117 0.134664885389 0.0
0.0 2.30019995117 0.134872381805 0.0
0.0 2.30119995117 0.135073449306 0.0
0.0 2.30219995117 0.135283528819 0.0
0.0 2.30319995117 0.135486237051 0.0
0.0 2.30419995117 0.135696607884 0.0
0.0 2.30519995117 0.135902720323 0.0
0.0 2.30619995117 0.136113987149 0.0
0.0 2.30719995117 0.136321129408 0.0
0.0 2.30819995117 0.136532510424 0.0
0.0 2.30919995117 0.136741721765 0.0
0.0 2.31019995117 0.136955420043 0.0
0.0 2.31119995117 0.137164415692 0.0
0.0 2.31219995117 0.13738003281 0.0
0.0 2.31319995117 0.137591496668 0.0
0.0 2.31419995117 0.137805856294 0.0
0.0 2.31519995117 0.13802135014 0.0
0.0 2.31619995117 0.13823622741 0.0
0.0 2.31719995117 0.138454120066 0.0
0.0 2.31819995117 0.138668714261 0.0
0.0 2.31919995117 0.138884349157 0.0
0.0 2.32019995117 0.139103466544 0.0
0.0 2.32119995117 0.139324050312 0.0
0.0 2.32219995117 0.139540200412 0.0
0.0 2.32319995117 0.139761879989 0.0
0.0 2.32419995117 0.13998098163 0.0
0.0 2.32519995117 0.140201905572 0.0
0.0 2.32619995117 0.14042455092 0.0
0.0 2.32719995117 0.140647709401 0.0
0.0 2.32819995117 0.140869020405 0.0
0.0 2.32919995117 0.141095106467 0.0
0.0 2.33019995117 0.141317976226 0.0
0.0 2.33119995117 0.141542235233 0.0
0.0 2.33219995117 0.141768778963 0.0
0.0 2.33319995117 0.141994877771 0.0
0.0 2.33419995117 0.142221583596 0.0
0.0 2.33519995117 0.14244894084 0.0
0.0 2.33619995117 0.142678884887 0.0
0.0 2.33719995117 0.142906341304 0.0
0.0 2.33819995117 0.143136839792 0.0
0.0 2.33919995117 0.143366814137 0.0
0.0 2.34019995117 0.143597801738 0.0
0.0 2.34119995117 0.143829391635 0.0
0.0 2.34219995117 0.144062098238 0.0
0.0 2.34319995117 0.144293733259 0.0
0.0 2.34419995117 0.144528877835 0.0
0.0 2.34519995117 0.144762841031 0.0
0.0 2.34619995117 0.144998598119 0.0
0.0 2.34719995117 0.145233339305 0.0
0.0 2.34819995117 0.145468349536 0.0
0.0 2.34919995117 0.14570703747 0.0
0.0 2.35019995117 0.145943177686 0.0
0.0 2.35119995117 0.146183360889 0.0
0.0 2.35219995117 0.146421701531 0.0
0.0 2.35319995117 0.146660512508 0.0
0.0 2.35419995117 0.146901559042 0.0
0.0 2.35519995117 0.147142089708 0.0
0.0 2.35619995117 0.147383439538 0.0
0.0 2.35719995117 0.147625478765 0.0
0.0 2.35819995117 0.147869001391 0.0
0.0 2.35919995117 0.148112821311 0.0
0.0 2.36019995117 0.148356592852 0.0
0.0 2.36119995117 0.148602060034 0.0
0.0 2.36219995117 0.148846878327 0.0
0.0 2.36319995117 0.149093981783 0.0
0.0 2.36419995117 0.149339610556 0.0
0.0 2.36519995117 0.149587676022 0.0
0.0 2.36619995117 0.149835814031 0.0
0.0 2.36719995117 0.150084315068 0.0
0.0 2.36819995117 0.150334449482 0.0
0.0 2.36919995117 0.150584648452 0.0
0.0 2.37019995117 0.150835506336 0.0
0.0 2.37119995117 0.151087034668 0.0
0.0 2.37219995117 0.151339569179 0.0
0.0 2.37319995117 0.151592757438 0.0
0.0 2.37419995117 0.151846360375 0.0
0.0 2.37519995117 0.152100692195 0.0
0.0 2.37619995117 0.15235589493 0.0
0.0 2.37719995117 0.152611496506 0.0
0.0 2.37819995117 0.15286795104 0.0
0.0 2.37919995117 0.15312505175 0.0
0.0 2.38019995117 0.170143040756 0.0
0.0 2.38119995117 0.24934350214 0.0
0.0 2.38219995117 0.320986019673 0.0
0.0 2.38319995117 0.385791317973 0.0
0.0 2.38419995117 0.444412264333 0.0
0.0 2.38519995117 0.49743868864 0.0
0.0 2.38619995117 0.5454046479 0.0
0.0 2.38719995117 0.588792812482 0.0
0.0 2.38819995117 0.628040427403 0.0
0.0 2.38919995117 0.663542134365 0.0
0.0 2.39019995117 0.695655845846 0.0
0.0 2.39119995117 0.724704506171 0.0
0.0 2.39219995117 0.750980908484 0.0
0.0 2.39319995117 0.774749492116 0.0
0.0 2.39419995117 0.796249488647 0.0
0.0 2.39519995117 0.815697572475 0.0
0.0 2.39619995117 0.833289415603 0.0
0.0 2.39719995117 0.849202294056 0.0
0.0 2.39819995117 0.863596356174 0.0
0.0 2.39919995117 0.876616582028 0.0
0.0 2.40019995117 0.888394084867 0.0
0.0 2.40119995117 0.89904747016 0.0
0.0 2.40219995117 0.908684035087 0.0
0.0 2.40319995117 0.917400768735 0.0
0.0 2.40419995117 0.925285500976 0.0
0.0 2.40519995117 0.932417669725 0.0
0.0 2.40619995117 0.938869026641 0.0
0.0 2.40719995117 0.944704637682 0.0
0.0 2.40819995117 0.949983192288 0.0
0.0 2.40919995117 0.954757896671 0.0
0.0 2.41019995117 0.959076836054 0.0
0.0 2.41119995117 0.962983518847 0.0
0.0 2.41219995117 0.966517285117 0.0
0.0 2.41319995117 0.969713726485 0.0
0.0 2.41419995117 0.972605045593 0.0
0.0 2.41519995117 0.975220365611 0.0
0.0 2.41619995117 0.977586031017 0.0
0.0 2.41719995117 0.97972586937 0.0
0.0 2.41819995117 0.981661434004 0.0
0.0 2.41919995117 0.983412227292 0.0
0.0 2.42019995117 0.984995888523 0.0
0.0 2.42119995117 0.986428365735 0.0
0.0 2.42219995117 0.987724092536 0.0
0.0 2.42319995117 0.988896125186 0.0
0.0 2.42419995117 0.989956266138 0.0
0.0 2.42519995117 0.990915200351 0.0
0.0 2.42619995117 0.991782587677 0.0
0.0 2.42719995117 0.992567166294 0.0
0.0 2.42819995117 0.993276841478 0.0
0.0 2.42919995117 0.993918764763 0.0
0.0 2.43019995117 0.99449940147 0.0
0.0 2.43119995117 0.995024605427 0.0
0.0 2.43219995117 0.995499664996 0.0
0.0 2.43319995117 0.995929370218 0.0
0.0 2.43419995117 0.996318048859 0.0
0.0 2.43519995117 0.996669618539 0.0
0.0 2.43619995117 0.996987621955 0.0
0.0 2.43719995117 0.997275262801 0.0
0.0 2.43819995117 0.997535440817 0.0
0.0 2.43919995117 0.99777077687 0.0
0.0 2.44019995117 0.997983643365 0.0
0.0 2.44119995117 0.998176185047 0.0
0.0 2.44219995117 0.998350342773 0.0
0.0 2.44319995117 0.998507871342 0.0
0.0 2.44419995117 0.99865035858 0.0
0.0 2.44519995117 0.998779240661 0.0
0.0 2.44619995117 0.99889581639 0.0
0.0 2.44719995117 0.99900126073 0.0
0.0 2.44819995117 0.999096636601 0.0
0.0 2.44919995117 0.999182905235 0.0
0.0 2.45019995117 0.999260936216 0.0
0.0 2.45119995117 0.999331516033 0.0
0.0 2.45219995117 0.999395356138 0.0
0.0 2.45319995117 0.999453100169 0.0
0.0 2.45419995117 0.999505329983 0.0
0.0 2.45519995117 0.999552572254 0.0
0.0 2.45619995117 0.999595303176 0.0
0.0 2.45719995117 0.999633953534 0.0
0.0 2.45819995117 0.999668912916 0.0
0.0 2.45919995117 0.999700533834 0.0
0.0 2.46019995117 0.999729135003 0.0
0.0 2.46119995117 0.99975500481 0.0
0.0 2.46219995117 0.999778404085 0.0
0.0 2.46319995117 0.999799568683 0.0
0.0 2.46419995117 0.999818712071 0.0
0.0 2.46519995117 0.9998360272 0.0
0.0 2.46619995117 0.999851688701 0.0
0.0 2.46719995117 0.999865854463 0.0
0.0 2.46819995117 0.99987866732 0.0
0.0 2.46919995117 0.999890256485 0.0
0.0 2.47019995117 0.999900738811 0.0
0.0 2.47119995117 0.999910219981 0.0
0.0 2.47219995117 0.999918795623 0.0
0.0 2.47319995117 0.999926552212 0.0
0.0 2.47419995117 0.999933567959 0.0
0.0 2.47519995117 0.999939913631 0.0
0.0 2.47619995117 0.999945653211 0.0
0.0 2.47719995117 0.999950844583 0.0
0.0 2.47819995117 0.999955540115 0.0
0.0 2.47919995117 0.999959787144 0.0
0.0 2.48019995117 0.999963628514 0.0
0.0 2.48119995117 0.999967102968 0.0
0.0 2.48219995117 0.999970245558 0.0
0.0 2.48319995117 0.999973087962 0.0
0.0 2.48419995117 0.999975658862 0.0
0.0 2.48519995117 0.999977984193 0.0
0.0 2.48619995117 0.9999800874 0.0
0.0 2.48719995117 0.999981989703 0.0
0.0 2.48819995117 0.999983710295 0.0
0.0 2.48919995117 0.999985266522 0.0
0.0 2.49019995117 0.999986674095 0.0
0.0 2.49119995117 0.999987947206 0.0
0.0 2.49219995117 0.999989098701 0.0
0.0 2.49319995117 0.999990140196 0.0
0.0 2.49419995117 0.999991082195 0.0
0.0 2.49519995117 0.999991934207 0.0
0.0 2.49619995117 0.999992704824 0.0
0.0 2.49719995117 0.999993401823 0.0
0.0 2.49819995117 0.999994032235 0.0
0.0 2.49919995117 0.999994602422 0.0
0.0 2.50019995117 0.999995118136 0.0
0.0 2.50119995117 0.99999558458 0.0
0.0 2.50219995117 0.999996006462 0.0
0.0 2.50319995117 0.999996388039 0.0
0.0 2.50419995117 0.999996733158 0.0
0.0 2.50519995117 0.999997045307 0.0
0.0 2.50619995117 0.999997327631 0.0
0.0 2.50719995117 0.999997582982 0.0
0.0 2.50819995117 0.999997813937 0.0
0.0 2.50919995117 0.999998022824 0.0
0.0 2.51019995117 0.999998211754 0.0
0.0 2.51119995117 0.999998382632 0.0
0.0 2.51219995117 0.999998537184 0.0
0.0 2.51319995117 0.999998676968 0.0
0.0 2.51419995117 0.999998803396 0.0
0.0 2.51519995117 0.999998917744 0.0
0.0 2.51619995117 0.999999021166 0.0
0.0 2.51719995117 0.999999114706 0.0
0.0 2.51819995117 0.999999199308 0.0
0.0 2.51919995117 0.999999275825 0.0
0.0 2.52019995117 0.999999345032 0.0
0.0 2.52119995117 0.999999407625 0.0
0.0 2.52219995117 0.999999464236 0.0
0.0 2.52319995117 0.999999515439 0.0
0.0 2.52419995117 0.999999561748 0.0
0.0 2.52519995117 0.999999603632 0.0
0.0 2.52619995117 0.999999641514 0.0
0.0 2.52719995117 0.999999675775 0.0
0.0 2.52819995117 0.999999706762 0.0
0.0 2.52919995117 0.999999734789 0.0
0.0 2.53019995117 0.999999760136 0.0
0.0 2.53119995117 0.999999783062 0.0
0.0 2.53219995117 0.999999803796 0.0
0.0 2.53319995117 0.999999822549 0.0
0.0 2.53419995117 0.99999983951 0.0
0.0 2.53519995117 0.99999985485 0.0
0.0 2.53619995117 0.999999868724 0.0
0.0 2.53719995117 0.999999881271 0.0
0.0 2.53819995117 0.99999989262 0.0
0.0 2.53919995117 0.999999902884 0.0
0.0 2.54019995117 0.999999912167 0.0
0.0 2.54119995117 0.999999920563 0.0
0.0 2.54219995117 0.999999928156 0.0
0.0 2.54319995117 0.999999935023 0.0
0.0 2.54419995117 0.999999941235 0.0
0.0 2.54519995117 0.999999946852 0.0
0.0 2.54619995117 0.999999951933 0.0
0.0 2.54719995117 0.999999956528 0.0
0.0 2.54819995117 0.999999960683 0.0
0.0 2.54919995117 0.999999964442 0.0
0.0 2.55019995117 0.999999967841 0.0
0.0 2.55119995117 0.999999970915 0.0
0.0 2.55219995117 0.999999973696 0.0
0.0 2.55319995117 0.999999976211 0.0
0.0 2.55419995117 0.999999978485 0.0
0.0 2.55519995117 0.999999980542 0.0
0.0 2.55619995117 0.999999982402 0.0
0.0 2.55719995117 0.999999984085 0.0
0.0 2.55819995117 0.999999985606 0.0
0.0 2.55919995117 0.999999986982 0.0
0.0 2.56019995117 0.999999988227 0.0
0.0 2.56119995117 0.999999989352 0.0
0.0 2.56219995117 0.999999990371 0.0
0.0 2.56319995117 0.999999991291 0.0
0.0 2.56419995117 0.999999992124 0.0
0.0 2.56519995117 0.999999992877 0.0
0.0 2.56619995117 0.999999993558 0.0
0.0 2.56719995117 0.999999994174 0.0
0.0 2.56819995117 0.999999994731 0.0
0.0 2.56919995117 0.999999995235 0.0
0.0 2.57019995117 0.99999999569 0.0
0.0 2.57119995117 0.999999996103 0.0
0.0 2.57219995117 0.999999996475 0.0
0.0 2.57319995117 0.999999996812 0.0
0.0 2.57419995117 0.999999997117 0.0
0.0 2.57519995117 0.999999997393 0.0
0.0 2.57619995117 0.999999997642 0.0
0.0 2.57719995117 0.999999997868 0.0
0.0 2.57819995117 0.999999998071 0.0
0.0 2.57919995117 0.999999998256 0.0
0.0 2.58019995117 0.999999998423 0.0
0.0 2.58119995117 0.999999998574 0.0
0.0 2.58219995117 0.99999999871 0.0
0.0 2.58319995117 0.999999998833 0.0
0.0 2.58419995117 0.999999998945 0.0
0.0 2.58519995117 0.999999999046 0.0
0.0 2.58619995117 0.999999999137 0.0
0.0 2.58719995117 0.99999999922 0.0
0.0 2.58819995117 0.999999999294 0.0
0.0 2.58919995117 0.999999999362 0.0
0.0 2.59019995117 0.999999999423 0.0
0.0 2.59119995117 0.999999999478 0.0
0.0 2.59219995117 0.999999999528 0.0
0.0 2.59319995117 0.999999999573 0.0
0.0 2.59419995117 0.999999999614 0.0
0.0 2.59519995117 0.999999999651 0.0
0.0 2.59619995117 0.999999999684 0.0
