0.0 0.551299987793 0.30919301448 0.0
0.0 0.552299987793 0.3090436664 0.0
0.0 0.553299987793 0.308894083771 0.0
0.0 0.554299987793 0.308744267341 0.0
0.0 0.555299987793 0.308594216345 0.0
0.0 0.556299987793 0.308443931575 0.0
0.0 0.557299987793 0.308293414182 0.0
0.0 0.558299987793 0.308142664418 0.0
0.0 0.559299987793 0.307991682652 0.0
0.0 0.560299987793 0.307840469694 0.0
0.0 0.561299987793 0.307689026935 0.0
0.0 0.562299987793 0.307537351655 0.0
0.0 0.563299987793 0.307385447959 0.0
0.0 0.564299987793 0.307233314451 0.0
0.0 0.565299987793 0.307080952177 0.0
0.0 0.566299987793 0.306928361116 0.0
0.0 0.567299987793 0.306775542222 0.0
0.0 0.568299987793 0.306622497523 0.0
0.0 0.569299987793 0.306469223252 0.0
0.0 0.570299987793 0.306315725088 0.0
0.0 0.571299987793 0.306161998927 0.0
0.0 0.572299987793 0.306008049205 0.0
0.0 0.573299987793 0.305853874101 0.0
0.0 0.574299987793 0.305699475795 0.0
0.0 0.575299987793 0.305544850378 0.0
0.0 0.576299987793 0.305390002968 0.0
0.0 0.577299987793 0.305234932507 0.0
0.0 0.578299987793 0.305079640243 0.0
0.0 0.579299987793 0.3049241274 0.0
0.0 0.580299987793 0.304768390072 0.0
0.0 0.581299987793 0.304612440609 0.0
0.0 0.582299987793 0.304456257598 0.0
0.0 0.583299987793 0.304299862877 0.0
0.0 0.584299987793 0.304143249759 0.0
0.0 0.585299987793 0.303986410585 0.0
0.0 0.586299987793 0.303829358161 0.0
0.0 0.587299987793 0.303672085175 0.0
0.0 0.588299987793 0.303514598737 0.0
0.0 0.589299987793 0.303356891167 0.0
0.0 0.590299987793 0.303198971344 0.0
0.0 0.591299987793 0.303040834314 0.0
0.0 0.592299987793 0.302882486013 0.0
0.0 0.593299987793 0.302723914258 0.0
0.0 0.594299987793 0.302565130715 0.0
0.0 0.595299987793 0.302406136241 0.0
0.0 0.596299987793 0.302246929078 0.0
0.0 0.597299987793 0.302087502604 0.0
0.0 0.598299987793 0.30192787143 0.0
0.0 0.599299987793 0.301768020775 0.0
0.0 0.600299987793 0.301607964892 0.0
0.0 0.601299987793 0.301447701814 0.0
0.0 0.602299987793 0.301287222308 0.0
0.0 0.603299987793 0.301126528112 0.0
0.0 0.604299987793 0.300965632899 0.0
0.0 0.605299987793 0.300804526354 0.0
0.0 0.606299987793 0.30064320617 0.0
0.0 0.607299987793 0.300481688357 0.0
0.0 0.608299987793 0.300319955872 0.0
0.0 0.609299987793 0.300158014459 0.0
0.0 0.610299987793 0.2999958835 0.0
0.0 0.611299987793 0.29983353628 0.0
0.0 0.612299987793 0.299670974501 0.0
0.0 0.613299987793 0.299508211696 0.0
0.0 0.614299987793 0.299345254477 0.0
0.0 0.615299987793 0.299182078911 0.0
0.0 0.616299987793 0.299018710904 0.0
0.0 0.617299987793 0.298855133911 0.0
0.0 0.618299987793 0.298691364569 0.0
0.0 0.619299987793 0.298527394868 0.0
0.0 0.620299987793 0.298363219317 0.0
0.0 0.621299987793 0.2981988387 0.0
0.0 0.622299987793 0.298034257913 0.0
0.0 0.623299987793 0.297869473498 0.0
0.0 0.624299987793 0.297704485386 0.0
0.0 0.625299987793 0.297539317173 0.0
0.0 0.626299987793 0.297373944139 0.0
0.0 0.627299987793 0.297208359826 0.0
0.0 0.628299987793 0.29704260863 0.0
0.0 0.629299987793 0.296876642848 0.0
0.0 0.630299987793 0.296710475809 0.0
0.0 0.631299987793 0.296544143091 0.0
0.0 0.632299987793 0.296377588662 0.0
0.0 0.633299987793 0.296210838861 0.0
0.0 0.634299987793 0.296043904313 0.0
0.0 0.635299987793 0.29587676351 0.0
0.0 0.636299987793 0.29570944508 0.0
0.0 0.637299987793 0.295541900729 0.0
0.0 0.638299987793 0.295374214376 0.0
0.0 0.639299987793 0.295206338768 0.0
0.0 0.640299987793 0.295038254311 0.0
0.0 0.641299987793 0.294869992153 0.0
0.0 0.642299987793 0.294701519399 0.0
0.0 0.643299987793 0.294532855673 0.0
0.0 0.644299987793 0.294363966397 0.0
0.0 0.645299987793 0.294194890938 0.0
0.0 0.646299987793 0.294025629311 0.0
0.0 0.647299987793 0.293856181926 0.0
0.0 0.648299987793 0.29368657936 0.0
0.0 0.649299987793 0.293516772722 0.0
0.0 0.650299987793 0.293346781508 0.0
0.0 0.651299987793 0.293176615261 0.0
0.0 0.652299987793 0.293006247555 0.0
0.0 0.653299987793 0.292835692589 0.0
0.0 0.654299987793 0.292664921227 0.0
0.0 0.655299987793 0.292494018992 0.0
0.0 0.656299987793 0.292322922382 0.0
0.0 0.657299987793 0.29215164325 0.0
0.0 0.658299987793 0.291980191327 0.0
0.0 0.659299987793 0.291808562766 0.0
0.0 0.660299987793 0.291636706215 0.0
0.0 0.661299987793 0.291464722937 0.0
0.0 0.662299987793 0.291292515604 0.0
0.0 0.663299987793 0.291120153159 0.0
0.0 0.664299987793 0.290947606429 0.0
0.0 0.665299987793 0.290774883997 0.0
0.0 0.666299987793 0.290601991658 0.0
0.0 0.667299987793 0.290428928995 0.0
0.0 0.668299987793 0.290255636133 0.0
0.0 0.669299987793 0.290082209246 0.0
0.0 0.670299987793 0.289908619499 0.0
0.0 0.671299987793 0.289734853671 0.0
0.0 0.672299987793 0.289560881829 0.0
0.0 0.673299987793 0.289386749418 0.0
0.0 0.674299987793 0.289212447139 0.0
0.0 0.675299987793 0.289037939438 0.0
0.0 0.676299987793 0.288863289074 0.0
0.0 0.677299987793 0.288688483984 0.0
0.0 0.678299987793 0.28851346099 0.0
0.0 0.679299987793 0.288338310593 0.0
0.0 0.680299987793 0.288162970841 0.0
0.0 0.681299987793 0.287987445263 0.0
0.0 0.682299987793 0.287811759673 0.0
0.0 0.683299987793 0.287635916565 0.0
0.0 0.684299987793 0.287459891255 0.0
0.0 0.685299987793 0.287283710057 0.0
0.0 0.686299987793 0.28710732715 0.0
0.0 0.687299987793 0.286930805181 0.0
0.0 0.688299987793 0.286754124435 0.0
0.0 0.689299987793 0.286577281415 0.0
0.0 0.690299987793 0.286400232287 0.0
0.0 0.691299987793 0.286223038044 0.0
0.0 0.692299987793 0.286045686805 0.0
0.0 0.693299987793 0.285868189632 0.0
0.0 0.694299987793 0.28569045824 0.0
0.0 0.695299987793 0.28551262267 0.0
0.0 0.696299987793 0.285334580165 0.0
0.0 0.697299987793 0.285156400313 0.0
0.0 0.698299987793 0.284978084078 0.0
0.0 0.699299987793 0.284799565597 0.0
0.0 0.700299987793 0.284620907119 0.0
0.0 0.701299987793 0.284442071106 0.0
0.0 0.702299987793 0.284263080077 0.0
0.0 0.703299987793 0.284083962777 0.0
0.0 0.704299987793 0.28390464774 0.0
0.0 0.705299987793 0.283725204853 0.0
0.0 0.706299987793 0.283545570517 0.0
0.0 0.707299987793 0.283365786344 0.0
0.0 0.708299987793 0.283185850719 0.0
0.0 0.709299987793 0.283005788332 0.0
0.0 0.710299987793 0.282825510224 0.0
0.0 0.711299987793 0.282645125793 0.0
0.0 0.712299987793 0.282464564867 0.0
0.0 0.713299987793 0.282283834936 0.0
0.0 0.714299987793 0.282102983111 0.0
0.0 0.715299987793 0.281921955118 0.0
0.0 0.716299987793 0.281740777142 0.0
0.0 0.717299987793 0.281559453103 0.0
0.0 0.718299987793 0.281377972448 0.0
0.0 0.719299987793 0.281196334831 0.0
0.0 0.720299987793 0.281014570394 0.0
0.0 0.721299987793 0.280832632726 0.0
0.0 0.722299987793 0.280650539756 0.0
0.0 0.723299987793 0.28046830383 0.0
0.0 0.724299987793 0.280285964441 0.0
0.0 0.725299987793 0.280103395201 0.0
0.0 0.726299987793 0.27992072163 0.0
0.0 0.727299987793 0.279737875817 0.0
0.0 0.728299987793 0.279554906244 0.0
0.0 0.729299987793 0.279371806876 0.0
0.0 0.730299987793 0.279188525325 0.0
0.0 0.731299987793 0.279005103322 0.0
0.0 0.732299987793 0.278821572222 0.0
0.0 0.733299987793 0.278637846889 0.0
0.0 0.734299987793 0.278454004043 0.0
0.0 0.735299987793 0.278270014484 0.0
0.0 0.736299987793 0.278085865758 0.0
0.0 0.737299987793 0.277901605861 0.0
0.0 0.738299987793 0.277717198803 0.0
0.0 0.739299987793 0.277532627432 0.0
0.0 0.740299987793 0.277347936178 0.0
0.0 0.741299987793 0.277163133903 0.0
0.0 0.742299987793 0.276978111507 0.0
0.0 0.743299987793 0.276792973404 0.0
0.0 0.744299987793 0.276607705774 0.0
0.0 0.745299987793 0.276422296058 0.0
0.0 0.746299987793 0.276236809976 0.0
0.0 0.747299987793 0.276051095376 0.0
0.0 0.748299987793 0.275865297728 0.0
0.0 0.749299987793 0.275679316132 0.0
0.0 0.750299987793 0.275493273596 0.0
0.0 0.751299987793 0.275307042273 0.0
0.0 0.752299987793 0.275120697191 0.0
0.0 0.753299987793 0.27493419081 0.0
0.0 0.754299987793 0.274747558889 0.0
0.0 0.755299987793 0.274560800243 0.0
0.0 0.756299987793 0.274373906957 0.0
0.0 0.757299987793 0.274186864952 0.0
0.0 0.758299987793 0.27399973686 0.0
0.0 0.759299987793 0.273812424173 0.0
0.0 0.760299987793 0.273625009121 0.0
0.0 0.761299987793 0.273437472777 0.0
0.0 0.762299987793 0.273249793787 0.0
0.0 0.763299987793 0.273061961223 0.0
0.0 0.764299987793 0.272874048022 0.0
0.0 0.765299987793 0.272685951712 0.0
0.0 0.766299987793 0.272497777252 0.0
0.0 0.767299987793 0.272309457011 0.0
0.0 0.768299987793 0.272120989758 0.0
0.0 0.769299987793 0.271932410634 0.0
0.0 0.770299987793 0.271743747583 0.0
0.0 0.771299987793 0.271554877211 0.0
0.0 0.772299987793 0.271365910962 0.0
0.0 0.773299987793 0.271176858584 0.0
0.0 0.774299987793 0.270987645226 0.0
0.0 0.775299987793 0.270798329341 0.0
0.0 0.776299987793 0.270608868605 0.0
0.0 0.777299987793 0.270419297318 0.0
0.0 0.778299987793 0.270229613767 0.0
0.0 0.779299987793 0.270039804337 0.0
0.0 0.780299987793 0.26984986976 0.0
0.0 0.781299987793 0.26965979606 0.0
0.0 0.782299987793 0.269469589476 0.0
0.0 0.783299987793 0.269279269234 0.0
0.0 0.784299987793 0.269088873195 0.0
0.0 0.785299987793 0.268898315926 0.0
0.0 0.786299987793 0.268707652938 0.0
0.0 0.787299987793 0.268516890762 0.0
0.0 0.788299987793 0.268326023007 0.0
0.0 0.789299987793 0.268135022241 0.0
0.0 0.790299987793 0.267943874112 0.0
0.0 0.791299987793 0.267752656983 0.0
0.0 0.792299987793 0.267561296338 0.0
0.0 0.793299987793 0.267369801375 0.0
0.0 0.794299987793 0.26717828931 0.0
0.0 0.795299987793 0.266986597417 0.0
0.0 0.796299987793 0.266794746483 0.0
0.0 0.797299987793 0.266602829564 0.0
0.0 0.798299987793 0.266410769526 0.0
0.0 0.799299987793 0.266218628776 0.0
0.0 0.800299987793 0.266026400038 0.0
0.0 0.801299987793 0.265833991113 0.0
0.0 0.802299987793 0.265641530944 0.0
0.0 0.803299987793 0.26544895991 0.0
0.0 0.804299987793 0.265256223141 0.0
0.0 0.805299987793 0.265063431233 0.0
0.0 0.806299987793 0.264870558041 0.0
0.0 0.807299987793 0.264677506782 0.0
0.0 0.808299987793 0.264484375324 0.0
0.0 0.809299987793 0.264291091747 0.0
0.0 0.810299987793 0.264097805651 0.0
0.0 0.811299987793 0.263904361746 0.0
0.0 0.812299987793 0.263710779619 0.0
0.0 0.813299987793 0.263517115502 0.0
0.0 0.814299987793 0.263323454994 0.0
0.0 0.815299987793 0.26312955223 0.0
0.0 0.816299987793 0.262935568648 0.0
0.0 0.817299987793 0.262741459487 0.0
0.0 0.818299987793 0.26254727531 0.0
0.0 0.819299987793 0.262353016694 0.0
0.0 0.820299987793 0.262158633448 0.0
0.0 0.821299987793 0.261964199308 0.0
0.0 0.822299987793 0.261769578882 0.0
0.0 0.823299987793 0.261574887231 0.0
0.0 0.824299987793 0.261380130644 0.0
0.0 0.825299987793 0.261185278196 0.0
0.0 0.826299987793 0.260990350718 0.0
0.0 0.827299987793 0.260795221623 0.0
0.0 0.828299987793 0.260600059835 0.0
0.0 0.829299987793 0.260404789111 0.0
0.0 0.830299987793 0.260209457151 0.0
0.0 0.831299987793 0.26001397283 0.0
0.0 0.832299987793 0.259818431622 0.0
0.0 0.833299987793 0.259622765879 0.0
0.0 0.834299987793 0.2594270786 0.0
0.0 0.835299987793 0.259231207681 0.0
0.0 0.836299987793 0.259035304711 0.0
0.0 0.837299987793 0.258839230785 0.0
0.0 0.838299987793 0.258643148719 0.0
0.0 0.839299987793 0.258446978273 0.0
0.0 0.840299987793 0.258250660635 0.0
0.0 0.841299987793 0.258054293807 0.0
0.0 0.842299987793 0.257857803475 0.0
0.0 0.843299987793 0.257661263891 0.0
0.0 0.844299987793 0.257464640346 0.0
0.0 0.845299987793 0.257267874227 0.0
0.0 0.846299987793 0.257071054538 0.0
0.0 0.847299987793 0.256874129303 0.0
0.0 0.848299987793 0.256677125942 0.0
0.0 0.849299987793 0.256480072258 0.0
0.0 0.850299987793 0.25628285919 0.0
0.0 0.851299987793 0.256085589663 0.0
0.0 0.852299987793 0.255888241814 0.0
0.0 0.853299987793 0.255690807937 0.0
0.0 0.854299987793 0.255493314296 0.0
0.0 0.855299987793 0.255295757976 0.0
0.0 0.856299987793 0.255098089803 0.0
0.0 0.857299987793 0.254900326782 0.0
0.0 0.858299987793 0.254702456105 0.0
0.0 0.859299987793 0.254504542384 0.0
0.0 0.860299987793 0.254306539668 0.0
0.0 0.861299987793 0.254108556769 0.0
0.0 0.862299987793 0.253910341095 0.0
0.0 0.863299987793 0.253712191195 0.0
0.0 0.864299987793 0.253513838177 0.0
0.0 0.865299987793 0.253315456409 0.0
0.0 0.866299987793 0.253116793816 0.0
0.0 0.867299987793 0.252918147291 0.0
0.0 0.868299987793 0.252719701863 0.0
0.0 0.869299987793 0.252520780456 0.0
0.0 0.870299987793 0.252321968098 0.0
0.0 0.871299987793 0.252123143863 0.0
0.0 0.872299987793 0.251924195644 0.0
0.0 0.873299987793 0.251725172018 0.0
0.0 0.874299987793 0.251526061256 0.0
0.0 0.875299987793 0.251327052318 0.0
0.0 0.876299987793 0.251127849362 0.0
0.0 0.877299987793 0.250929065249 0.0
0.0 0.878299987793 0.250729017656 0.0
0.0 0.879299987793 0.250529567696 0.0
0.0 0.880299987793 0.25033052231 0.0
0.0 0.881299987793 0.2501307453 0.0
0.0 0.882299987793 0.249931290976 0.0
0.0 0.883299987793 0.249731580858 0.0
0.0 0.884299987793 0.249531121863 0.0
0.0 0.885299987793 0.249331330279 0.0
0.0 0.886299987793 0.249131542501 0.0
0.0 0.887299987793 0.248932553618 0.0
0.0 0.888299987793 0.248732426577 0.0
0.0 0.889299987793 0.248531364576 0.0
0.0 0.890299987793 0.248330883725 0.0
0.0 0.891299987793 0.24813089857 0.0
0.0 0.892299987793 0.247930290369 0.0
0.0 0.893299987793 0.24773153423 0.0
0.0 0.894299987793 0.247531222065 0.0
0.0 0.895299987793 0.247330303259 0.0
0.0 0.896299987793 0.247131080706 0.0
0.0 0.897299987793 0.246931258585 0.0
0.0 0.898299987793 0.24673099429 0.0
0.0 0.899299987793 0.246528775086 0.0
0.0 0.900299987793 0.246327099365 0.0
0.0 0.901299987793 0.246127430477 0.0
0.0 0.902299987793 0.245925930549 0.0
0.0 0.903299987793 0.245725094434 0.0
0.0 0.904299987793 0.245523943206 0.0
0.0 0.905299987793 0.245321576133 0.0
0.0 0.906299987793 0.245122339213 0.0
0.0 0.907299987793 0.244920129918 0.0
0.0 0.908299987793 0.244718348322 0.0
0.0 0.909299987793 0.244517337643 0.0
0.0 0.910299987793 0.24431569485 0.0
0.0 0.911299987793 0.244114768909 0.0
0.0 0.912299987793 0.243912556185 0.0
0.0 0.913299987793 0.243711148283 0.0
0.0 0.914299987793 0.243509534532 0.0
0.0 0.915299987793 0.24330800756 0.0
0.0 0.916299987793 0.243105915393 0.0
0.0 0.917299987793 0.24290467448 0.0
0.0 0.918299987793 0.242702540102 0.0
0.0 0.919299987793 0.242500469071 0.0
0.0 0.920299987793 0.242297577224 0.0
0.0 0.921299987793 0.242096413168 0.0
0.0 0.922299987793 0.241893850211 0.0
0.0 0.923299987793 0.241691970346 0.0
0.0 0.924299987793 0.24148966532 0.0
0.0 0.925299987793 0.241287510728 0.0
0.0 0.926299987793 0.241085087787 0.0
0.0 0.927299987793 0.240883503856 0.0
0.0 0.928299987793 0.240680374693 0.0
0.0 0.929299987793 0.240477590328 0.0
0.0 0.930299987793 0.24027559597 0.0
0.0 0.931299987793 0.240073945389 0.0
0.0 0.932299987793 0.239870199319 0.0
0.0 0.933299987793 0.239668502973 0.0
0.0 0.934299987793 0.239464922328 0.0
0.0 0.935299987793 0.239263182972 0.0
0.0 0.936299987793 0.239060454427 0.0
0.0 0.937299987793 0.238857618817 0.0
0.0 0.938299987793 0.238654560451 0.0
0.0 0.939299987793 0.238451678623 0.0
0.0 0.940299987793 0.238249089249 0.0
0.0 0.941299987793 0.238045951487 0.0
0.0 0.942299987793 0.237842177114 0.0
0.0 0.943299987793 0.237640242722 0.0
0.0 0.944299987793 0.237437061505 0.0
0.0 0.945299987793 0.237233408635 0.0
0.0 0.946299987793 0.237030897497 0.0
0.0 0.947299987793 0.236827455174 0.0
0.0 0.948299987793 0.236623980271 0.0
0.0 0.949299987793 0.236421626864 0.0
0.0 0.950299987793 0.23621835433 0.0
0.0 0.951299987793 0.2360142865 0.0
0.0 0.952299987793 0.235811286624 0.0
0.0 0.953299987793 0.235607756164 0.0
0.0 0.954299987793 0.23540438034 0.0
0.0 0.955299987793 0.235200922191 0.0
0.0 0.956299987793 0.234996974681 0.0
0.0 0.957299987793 0.234793434126 0.0
0.0 0.958299987793 0.234590369891 0.0
0.0 0.959299987793 0.234386725823 0.0
0.0 0.960299987793 0.234183429065 0.0
0.0 0.961299987793 0.23397953418 0.0
0.0 0.962299987793 0.233775966135 0.0
0.0 0.963299987793 0.23357233797 0.0
0.0 0.964299987793 0.233368511796 0.0
0.0 0.965299987793 0.233164687792 0.0
0.0 0.966299987793 0.232961315137 0.0
0.0 0.967299987793 0.23275705942 0.0
0.0 0.968299987793 0.232553589691 0.0
0.0 0.969299987793 0.232348989965 0.0
0.0 0.970299987793 0.232145286321 0.0
0.0 0.971299987793 0.231941767363 0.0
0.0 0.972299987793 0.231737695156 0.0
0.0 0.973299987793 0.231533624049 0.0
0.0 0.974299987793 0.231329871933 0.0
0.0 0.975299987793 0.23112579934 0.0
0.0 0.976299987793 0.23092168758 0.0
0.0 0.977299987793 0.230717730771 0.0
0.0 0.978299987793 0.230513702163 0.0
0.0 0.979299987793 0.230309697512 0.0
0.0 0.980299987793 0.23010509589 0.0
0.0 0.981299987793 0.229901315716 0.0
0.0 0.982299987793 0.229697147671 0.0
0.0 0.983299987793 0.229493194226 0.0
0.0 0.984299987793 0.229288902423 0.0
0.0 0.985299987793 0.229084400735 0.0
0.0 0.986299987793 0.228880323785 0.0
0.0 0.987299987793 0.228676215137 0.0
0.0 0.988299987793 0.228471818151 0.0
0.0 0.989299987793 0.228267288975 0.0
0.0 0.990299987793 0.228063508316 0.0
0.0 0.991299987793 0.227858940939 0.0
0.0 0.992299987793 0.227655015555 0.0
0.0 0.993299987793 0.227450343941 0.0
0.0 0.994299987793 0.227246017497 0.0
0.0 0.995299987793 0.227041344501 0.0
0.0 0.996299987793 0.226837278195 0.0
0.0 0.997299987793 0.226632849914 0.0
0.0 0.998299987793 0.226428316682 0.0
0.0 0.999299987793 0.226223824457 0.0
0.0 1.00029998779 0.226019476641 0.0
0.0 1.00129998779 0.225815430904 0.0
0.0 1.00229998779 0.225611029056 0.0
0.0 1.00329998779 0.225406476075 0.0
0.0 1.00429998779 0.225201778471 0.0
0.0 1.00529998779 0.224997887214 0.0
0.0 1.00629998779 0.224793012729 0.0
0.0 1.00729998779 0.224588384014 0.0
0.0 1.00829998779 0.224383906752 0.0
0.0 1.00929998779 0.224179204322 0.0
0.0 1.01029998779 0.223974853782 0.0
0.0 1.01129998779 0.223770448883 0.0
0.0 1.01229998779 0.223565896983 0.0
0.0 1.01329998779 0.223361196656 0.0
0.0 1.01429998779 0.223156757778 0.0
0.0 1.01529998779 0.222952139849 0.0
0.0 1.01629998779 0.22274765922 0.0
0.0 1.01729998779 0.222543117782 0.0
0.0 1.01829998779 0.222338859365 0.0
0.0 1.01929998779 0.222134133224 0.0
0.0 1.02029998779 0.221929617933 0.0
0.0 1.02129998779 0.221725293032 0.0
0.0 1.02229998779 0.221520706849 0.0
0.0 1.02329998779 0.221316020563 0.0
0.0 1.02430004883 0.221111453 0.0
0.0 1.02530004883 0.220906958922 0.0
0.0 1.02630004883 0.220702669204 0.0
0.0 1.02730004883 0.22049782529 0.0
0.0 1.02830004883 0.220293513669 0.0
0.0 1.02930004883 0.220089110606 0.0
0.0 1.03030004883 0.219884540032 0.0
0.0 1.03130004883 0.219679654201 0.0
0.0 1.03230004883 0.219475198515 0.0
0.0 1.03330004883 0.219270565452 0.0
0.0 1.03430004883 0.219066504436 0.0
0.0 1.03530004883 0.218861792328 0.0
0.0 1.03630004883 0.218657334267 0.0
0.0 1.03730004883 0.218453054294 0.0
0.0 1.03830004883 0.218248648284 0.0
0.0 1.03930004883 0.218044106202 0.0
0.0 1.04030004883 0.21783995082 0.0
0.0 1.04130004883 0.217635492381 0.0
0.0 1.04230004883 0.217430960425 0.0
0.0 1.04330004883 0.217226594393 0.0
0.0 1.04430004883 0.217022157301 0.0
0.0 1.04530004883 0.216817725096 0.0
0.0 1.04630004883 0.216613076034 0.0
0.0 1.04730004883 0.216409180988 0.0
0.0 1.04830004883 0.216204936457 0.0
0.0 1.04930004883 0.216000655354 0.0
0.0 1.05030004883 0.215796089946 0.0
0.0 1.05130004883 0.215592016954 0.0
0.0 1.05230004883 0.215387676913 0.0
0.0 1.05330004883 0.215183362114 0.0
0.0 1.05430004883 0.214979349512 0.0
0.0 1.05530004883 0.214774927841 0.0
0.0 1.05630004883 0.214570885786 0.0
0.0 1.05730004883 0.214366494142 0.0
0.0 1.05830004883 0.214162621345 0.0
0.0 1.05930004883 0.213958132314 0.0
0.0 1.06030004883 0.213754020215 0.0
0.0 1.06130004883 0.213550144728 0.0
0.0 1.06230004883 0.213345904338 0.0
0.0 1.06330004883 0.213141628468 0.0
0.0 1.06430004883 0.212938190375 0.0
0.0 1.06530004883 0.212733391392 0.0
0.0 1.06630004883 0.212529709905 0.0
0.0 1.06730004883 0.212325415283 0.0
0.0 1.06830004883 0.2121209838 0.0
0.0 1.06930004883 0.211917542938 0.0
0.0 1.07030004883 0.211713594517 0.0
0.0 1.07130004883 0.211509660882 0.0
0.0 1.07230004883 0.211305836265 0.0
0.0 1.07330004883 0.211101864998 0.0
0.0 1.07430004883 0.210897908075 0.0
0.0 1.07530004883 0.210694361193 0.0
0.0 1.07630004883 0.210490528122 0.0
0.0 1.07730004883 0.210286374502 0.0
0.0 1.07830004883 0.210082859153 0.0
0.0 1.07930004883 0.209879311531 0.0
0.0 1.08030004883 0.209675619212 0.0
0.0 1.08130004883 0.209471810774 0.0
0.0 1.08230004883 0.209267977184 0.0
0.0 1.08330004883 0.209064471825 0.0
0.0 1.08430004883 0.208861061417 0.0
0.0 1.08530004883 0.208657341741 0.0
0.0 1.08630004883 0.208453693956 0.0
0.0 1.08730004883 0.208250303837 0.0
0.0 1.08830004883 0.20804686013 0.0
0.0 1.08930004883 0.207843466854 0.0
0.0 1.09030004883 0.207640090783 0.0
0.0 1.09130004883 0.207437060509 0.0
0.0 1.09230004883 0.207233629694 0.0
0.0 1.09330004883 0.207030236317 0.0
0.0 1.09430004883 0.20682714402 0.0
0.0 1.09530004883 0.206624145814 0.0
0.0 1.09630004883 0.206420863789 0.0
0.0 1.09730004883 0.206217981142 0.0
0.0 1.09830004883 0.206014702688 0.0
0.0 1.09930004883 0.205811672837 0.0
0.0 1.10030004883 0.2056088742 0.0
0.0 1.10130004883 0.205405746254 0.0
0.0 1.10230004883 0.205203021109 0.0
0.0 1.10330004883 0.20500011095 0.0
0.0 1.10430004883 0.204797266443 0.0
0.0 1.10530004883 0.204594605559 0.0
0.0 1.10630004883 0.204391919917 0.0
0.0 1.10730004883 0.204189081017 0.0
0.0 1.10830004883 0.203986385665 0.0
0.0 1.10930004883 0.203783815171 0.0
0.0 1.11030004883 0.20358094609 0.0
0.0 1.11130004883 0.203378878645 0.0
0.0 1.11230004883 0.203176234848 0.0
0.0 1.11330004883 0.20297384117 0.0
0.0 1.11430004883 0.202771386394 0.0
0.0 1.11530004883 0.202569230721 0.0
0.0 1.11630004883 0.202367111546 0.0
0.0 1.11730004883 0.202164596522 0.0
0.0 1.11830004883 0.201962442379 0.0
0.0 1.11930004883 0.201760538937 0.0
0.0 1.12030004883 0.201558258593 0.0
0.0 1.12130004883 0.201356268157 0.0
0.0 1.12230004883 0.201154294833 0.0
0.0 1.12330004883 0.2009521323 0.0
0.0 1.12430004883 0.200750383475 0.0
0.0 1.12530004883 0.200548371125 0.0
0.0 1.12630004883 0.200346538853 0.0
0.0 1.12730004883 0.200144851243 0.0
0.0 1.12830004883 0.199943339842 0.0
0.0 1.12930004883 0.199741810402 0.0
0.0 1.13030004883 0.199540058406 0.0
0.0 1.13130004883 0.199338514003 0.0
0.0 1.13230004883 0.199137174435 0.0
0.0 1.13330004883 0.198935315966 0.0
0.0 1.13430004883 0.198734461648 0.0
0.0 1.13530004883 0.198533129515 0.0
0.0 1.13630004883 0.198331958831 0.0
0.0 1.13730004883 0.198130779151 0.0
0.0 1.13830004883 0.197929667476 0.0
0.0 1.13930004883 0.197728587684 0.0
0.0 1.14030004883 0.197527558669 0.0
0.0 1.14130004883 0.197326743533 0.0
0.0 1.14230004883 0.197125689355 0.0
0.0 1.14330004883 0.196925058045 0.0
0.0 1.14430004883 0.196723929521 0.0
0.0 1.14530004883 0.196523479177 0.0
0.0 1.14630004883 0.196322917897 0.0
0.0 1.14730004883 0.196122091823 0.0
0.0 1.14830004883 0.195921598737 0.0
0.0 1.14930004883 0.195721196826 0.0
0.0 1.15030004883 0.195521168819 0.0
0.0 1.15130004883 0.195320482668 0.0
0.0 1.15230004883 0.19512024484 0.0
0.0 1.15330004883 0.194920059705 0.0
0.0 1.15430004883 0.19472022295 0.0
0.0 1.15530004883 0.194519830701 0.0
0.0 1.15630004883 0.194319990082 0.0
0.0 1.15730004883 0.194120055517 0.0
0.0 1.15830004883 0.193920352819 0.0
0.0 1.15930004883 0.193720368004 0.0
0.0 1.16030004883 0.193520825315 0.0
0.0 1.16130004883 0.193320941651 0.0
0.0 1.16230004883 0.193121248554 0.0
0.0 1.16330004883 0.192922046532 0.0
0.0 1.16430004883 0.192722226715 0.0
0.0 1.16530004883 0.19252312248 0.0
0.0 1.16630004883 0.192323675093 0.0
0.0 1.16730004883 0.192124442601 0.0
0.0 1.16830004883 0.191925501306 0.0
0.0 1.16930004883 0.191726384501 0.0
0.0 1.17030004883 0.19152759208 0.0
0.0 1.17130004883 0.191328528657 0.0
0.0 1.17230004883 0.191129667097 0.0
0.0 1.17330004883 0.190930590179 0.0
0.0 1.17430004883 0.190732150316 0.0
0.0 1.17530004883 0.190533408636 0.0
0.0 1.17630004883 0.190334827989 0.0
0.0 1.17730004883 0.19013618766 0.0
0.0 1.17830004883 0.18993784537 0.0
0.0 1.17930004883 0.189739786468 0.0
0.0 1.18030004883 0.189541412993 0.0
0.0 1.18130004883 0.189343230792 0.0
0.0 1.18230004883 0.189144915812 0.0
0.0 1.18330004883 0.18894707795 0.0
0.0 1.18430004883 0.188749397215 0.0
0.0 1.18530004883 0.188551588454 0.0
0.0 1.18630004883 0.188353569342 0.0
0.0 1.18730004883 0.188155924144 0.0
0.0 1.18830004883 0.187958567981 0.0
0.0 1.18930004883 0.187761186834 0.0
0.0 1.19030004883 0.187563612609 0.0
0.0 1.19130004883 0.187366605378 0.0
0.0 1.19230004883 0.187169354139 0.0
0.0 1.19330004883 0.186972308844 0.0
0.0 1.19430004883 0.186775037623 0.0
0.0 1.19530004883 0.186577844294 0.0
0.0 1.19630004883 0.18638095265 0.0
0.0 1.19730004883 0.186184328651 0.0
0.0 1.19830004883 0.185987632263 0.0
0.0 1.19930004883 0.185791058576 0.0
0.0 1.20030004883 0.185594481742 0.0
0.0 1.20130004883 0.185398078173 0.0
0.0 1.20230004883 0.185201841509 0.0
0.0 1.20330004883 0.185005517754 0.0
0.0 1.20430004883 0.184809392376 0.0
0.0 1.20530004883 0.184613198701 0.0
0.0 1.20630004883 0.184417190914 0.0
0.0 1.20730004883 0.184221129616 0.0
0.0 1.20830004883 0.184025424374 0.0
0.0 1.20930004883 0.183829809051 0.0
0.0 1.21030004883 0.183633969682 0.0
0.0 1.21130004883 0.183438508469 0.0
0.0 1.21230004883 0.183243108946 0.0
0.0 1.21330004883 0.183047776858 0.0
0.0 1.21430004883 0.182852483419 0.0
0.0 1.21530004883 0.182657418369 0.0
0.0 1.21630004883 0.182462570673 0.0
0.0 1.21730004883 0.182267456887 0.0
0.0 1.21830004883 0.182072547574 0.0
0.0 1.21930004883 0.181878172052 0.0
0.0 1.22030004883 0.181683219462 0.0
0.0 1.22130004883 0.181488684142 0.0
0.0 1.22230004883 0.181294259084 0.0
0.0 1.22330004883 0.181099884642 0.0
0.0 1.22430004883 0.180905419117 0.0
0.0 1.22530004883 0.180711259028 0.0
0.0 1.22630004883 0.18051753695 0.0
0.0 1.22730004883 0.180323523125 0.0
0.0 1.22830004883 0.180129534288 0.0
0.0 1.22930004883 0.179935961808 0.0
0.0 1.23030004883 0.179742375739 0.0
0.0 1.23130004883 0.179548979143 0.0
0.0 1.23230004883 0.179355235903 0.0
0.0 1.23330004883 0.179162071496 0.0
0.0 1.23430004883 0.178968727702 0.0
0.0 1.23530004883 0.178775666716 0.0
0.0 1.23630004883 0.178582755057 0.0
0.0 1.23730004883 0.178389786855 0.0
0.0 1.23830004883 0.178197069063 0.0
0.0 1.23930004883 0.178004361239 0.0
0.0 1.24030004883 0.177811960849 0.0
0.0 1.24130004883 0.177619774146 0.0
0.0 1.24230004883 0.177427303923 0.0
0.0 1.24330004883 0.177235067608 0.0
0.0 1.24430004883 0.177042738633 0.0
0.0 1.24530004883 0.176850657954 0.0
0.0 1.24630004883 0.176658698212 0.0
0.0 1.24730004883 0.176466854104 0.0
0.0 1.24830004883 0.176275385565 0.0
0.0 1.24930004883 0.176083597015 0.0
0.0 1.25030004883 0.175892208167 0.0
0.0 1.25130004883 0.175700996927 0.0
0.0 1.25230004883 0.175509667591 0.0
0.0 1.25330004883 0.175318617307 0.0
0.0 1.25430004883 0.175127643574 0.0
0.0 1.25530004883 0.174936790405 0.0
0.0 1.25630004883 0.174746038521 0.0
0.0 1.25730004883 0.174555668824 0.0
0.0 1.25830004883 0.174364986347 0.0
0.0 1.25930004883 0.174174839829 0.0
0.0 1.26030004883 0.173984737285 0.0
0.0 1.26130004883 0.173794327954 0.0
0.0 1.26230004883 0.17360421575 0.0
0.0 1.26330004883 0.173414384156 0.0
0.0 1.26430004883 0.173224746164 0.0
0.0 1.26530004883 0.173034881304 0.0
0.0 1.26630004883 0.172845511927 0.0
0.0 1.26730004883 0.172656191158 0.0
0.0 1.26830004883 0.172466671751 0.0
0.0 1.26930004883 0.172277476439 0.0
0.0 1.27030004883 0.172088459203 0.0
0.0 1.27130004883 0.171899445562 0.0
0.0 1.27230004883 0.171710841435 0.0
0.0 1.27330004883 0.171522286181 0.0
0.0 1.27430004883 0.171333676453 0.0
0.0 1.27530004883 0.171145384105 0.0
0.0 1.27630004883 0.170957009602 0.0
0.0 1.27730004883 0.170768724948 0.0
0.0 1.27830004883 0.170580578964 0.0
0.0 1.27930004883 0.170392836745 0.0
0.0 1.28030004883 0.170204624554 0.0
0.0 1.28130004883 0.170017529227 0.0
0.0 1.28230004883 0.16982982004 0.0
0.0 1.28330004883 0.16964226859 0.0
0.0 1.28430004883 0.169454904288 0.0
0.0 1.28530004883 0.169267678944 0.0
0.0 1.28630004883 0.169080723335 0.0
0.0 1.28730004883 0.168893985577 0.0
0.0 1.28830004883 0.168707530949 0.0
0.0 1.28930004883 0.168520715384 0.0
0.0 1.29030004883 0.168334313992 0.0
0.0 1.29130004883 0.168147864008 0.0
0.0 1.29230004883 0.167962136995 0.0
0.0 1.29330004883 0.167775545175 0.0
0.0 1.29430004883 0.167589974618 0.0
0.0 1.29530004883 0.167404134088 0.0
0.0 1.29630004883 0.167218381233 0.0
0.0 1.29730004883 0.167032963878 0.0
0.0 1.29830004883 0.166847655267 0.0
0.0 1.29930004883 0.16666226134 0.0
0.0 1.30030004883 0.166477496484 0.0
0.0 1.30130004883 0.166292503184 0.0
0.0 1.30230004883 0.166107433744 0.0
0.0 1.30330004883 0.1659230721 0.0
0.0 1.30430004883 0.16573843985 0.0
0.0 1.30530004883 0.16555379525 0.0
0.0 1.30630004883 0.165369646225 0.0
0.0 1.30730004883 0.165185386184 0.0
0.0 1.30830004883 0.165001479313 0.0
0.0 1.30930004883 0.164817845343 0.0
0.0 1.31030004883 0.164634083218 0.0
0.0 1.31130004883 0.164450788104 0.0
0.0 1.31230004883 0.164267562771 0.0
0.0 1.31330004883 0.164084185637 0.0
0.0 1.31430004883 0.163901133198 0.0
0.0 1.31530004883 0.163718094075 0.0
0.0 1.31630004883 0.163535258511 0.0
0.0 1.31730004883 0.163352502871 0.0
0.0 1.31830004883 0.163170243546 0.0
0.0 1.31930004883 0.162987969522 0.0
0.0 1.32030004883 0.162805979226 0.0
0.0 1.32130004883 0.162623373299 0.0
0.0 1.32230004883 0.162441808736 0.0
0.0 1.32330004883 0.162260252351 0.0
0.0 1.32430004883 0.16207831706 0.0
0.0 1.32530004883 0.161896992075 0.0
0.0 1.32630004883 0.161715534243 0.0
0.0 1.32730004883 0.161534269418 0.0
0.0 1.32830004883 0.161353424604 0.0
0.0 1.32930004883 0.161172567535 0.0
0.0 1.33030004883 0.160992020701 0.0
0.0 1.33130004883 0.160811628808 0.0
0.0 1.33230004883 0.160631308699 0.0
0.0 1.33330004883 0.160450819219 0.0
0.0 1.33430004883 0.160270934835 0.0
0.0 1.33530004883 0.160091129217 0.0
0.0 1.33630004883 0.159911583637 0.0
0.0 1.33730004883 0.159731910183 0.0
0.0 1.33830004883 0.159552406353 0.0
0.0 1.33930004883 0.159373095753 0.0
0.0 1.34030004883 0.159193892729 0.0
0.0 1.34130004883 0.159014920374 0.0
0.0 1.34230004883 0.158835939933 0.0
0.0 1.34330004883 0.158657776729 0.0
0.0 1.34430004883 0.158479444046 0.0
0.0 1.34530004883 0.158301167511 0.0
0.0 1.34630004883 0.15812291404 0.0
0.0 1.34730004883 0.157944757443 0.0
0.0 1.34830004883 0.157767071809 0.0
0.0 1.34930004883 0.157589233946 0.0
0.0 1.35030004883 0.157412123448 0.0
0.0 1.35130004883 0.15723451722 0.0
0.0 1.35230004883 0.157057489464 0.0
0.0 1.35330004883 0.156880384412 0.0
0.0 1.35430004883 0.156703759736 0.0
0.0 1.35530004883 0.15652730591 0.0
0.0 1.35630004883 0.156350661706 0.0
0.0 1.35730004883 0.15617429075 0.0
0.0 1.35830004883 0.155998272313 0.0
0.0 1.35930004883 0.155822380301 0.0
0.0 1.36030004883 0.155646431022 0.0
0.0 1.36130004883 0.155470774501 0.0
0.0 1.36230004883 0.155295286897 0.0
0.0 1.36330004883 0.155120023255 0.0
0.0 1.36430004883 0.154944766497 0.0
0.0 1.36530004883 0.154770042587 0.0
0.0 1.36630004883 0.154594622198 0.0
0.0 1.36730004883 0.154420403893 0.0
0.0 1.36830004883 0.154245998906 0.0
0.0 1.36930004883 0.15407198629 0.0
0.0 1.37030004883 0.153898048381 0.0
0.0 1.37130004883 0.153723843247 0.0
0.0 1.37230004883 0.15355023742 0.0
0.0 1.37330004883 0.153376752871 0.0
0.0 1.37430004883 0.153203362465 0.0
0.0 1.37530004883 0.1530303743 0.0
0.0 1.37630004883 0.152857070939 0.0
0.0 1.37730004883 0.152684430877 0.0
0.0 1.37830004883 0.152511501819 0.0
0.0 1.37930004883 0.152339032856 0.0
0.0 1.38030004883 0.152166695092 0.0
0.0 1.38130004883 0.151994507302 0.0
0.0 1.38230004883 0.151822350327 0.0
0.0 1.38330004883 0.151650453131 0.0
0.0 1.38430004883 0.151479271585 0.0
0.0 1.38530004883 0.151307669181 0.0
0.0 1.38630004883 0.151136356792 0.0
0.0 1.38730004883 0.150965701591 0.0
0.0 1.38830004883 0.150794534229 0.0
0.0 1.38930004883 0.150624536372 0.0
0.0 1.39030004883 0.150453583804 0.0
0.0 1.39130004883 0.150283034194 0.0
0.0 1.39230004883 0.150113167907 0.0
0.0 1.39330004883 0.149943089336 0.0
0.0 1.39430004883 0.149773720858 0.0
0.0 1.39530004883 0.149603754302 0.0
0.0 1.39630004883 0.1494346259 0.0
0.0 1.39730004883 0.149265153879 0.0
0.0 1.39830004883 0.149096679611 0.0
0.0 1.39930004883 0.148927742321 0.0
0.0 1.40030004883 0.148758664937 0.0
0.0 1.40130004883 0.148590511194 0.0
0.0 1.40230004883 0.148422327313 0.0
0.0 1.40330004883 0.148254371514 0.0
0.0 1.40430004883 0.148086410706 0.0
0.0 1.40530004883 0.147918697573 0.0
0.0 1.40630004883 0.147751376305 0.0
0.0 1.40730004883 0.147583938388 0.0
0.0 1.40830004883 0.147416586921 0.0
0.0 1.40930004883 0.147250423353 0.0
0.0 1.41030004883 0.147083340208 0.0
0.0 1.41130004883 0.14691694611 0.0
0.0 1.41230004883 0.146750441034 0.0
0.0 1.41330004883 0.146584574601 0.0
0.0 1.41430004883 0.146418619294 0.0
0.0 1.41530004883 0.146252956812 0.0
0.0 1.41630004883 0.146087381946 0.0
0.0 1.41730004883 0.145921762453 0.0
0.0 1.41830004883 0.145756774213 0.0
0.0 1.41930004883 0.145591859555 0.0
0.0 1.42030004883 0.145426794914 0.0
0.0 1.42130004883 0.145262447394 0.0
0.0 1.42230004883 0.145098390497 0.0
0.0 1.42330004883 0.144934277539 0.0
0.0 1.42430004883 0.144770344048 0.0
0.0 1.42530004883 0.144606414504 0.0
0.0 1.42630004883 0.144443042171 0.0
0.0 1.42730004883 0.144279786389 0.0
0.0 1.42830004883 0.14411669387 0.0
0.0 1.42930004883 0.143953669515 0.0
0.0 1.43030004883 0.143791047007 0.0
0.0 1.43130004883 0.143628506344 0.0
0.0 1.43230004883 0.143466254152 0.0
0.0 1.43330004883 0.143304172474 0.0
0.0 1.43430004883 0.143142243969 0.0
0.0 1.43530004883 0.142980208566 0.0
0.0 1.43630004883 0.142819073269 0.0
0.0 1.43730004883 0.142657683939 0.0
0.0 1.43830004883 0.142496538812 0.0
0.0 1.43930004883 0.142335862231 0.0
0.0 1.44030004883 0.142175166944 0.0
0.0 1.44130004883 0.142014737229 0.0
0.0 1.44230004883 0.14185482797 0.0
0.0 1.44330004883 0.141695020655 0.0
0.0 1.44430004883 0.141535179515 0.0
0.0 1.44530004883 0.141375540275 0.0
0.0 1.44630004883 0.141216062381 0.0
0.0 1.44730004883 0.141056817281 0.0
0.0 1.44830004883 0.140898015287 0.0
0.0 1.44930004883 0.140739422172 0.0
0.0 1.45030004883 0.140580715386 0.0
0.0 1.45130004883 0.140422534705 0.0
0.0 1.45230004883 0.140264670038 0.0
0.0 1.45330004883 0.140106714031 0.0
0.0 1.45430004883 0.139949247872 0.0
0.0 1.45530004883 0.139791875314 0.0
0.0 1.45630004883 0.139634479499 0.0
0.0 1.45730004883 0.139477270822 0.0
0.0 1.45830004883 0.139320626194 0.0
0.0 1.45930004883 0.139164229052 0.0
0.0 1.46030004883 0.139007957821 0.0
0.0 1.46130004883 0.138851757427 0.0
0.0 1.46230004883 0.138695694404 0.0
0.0 1.46330004883 0.138540155221 0.0
0.0 1.46430004883 0.138384692984 0.0
0.0 1.46530004883 0.138229715318 0.0
0.0 1.46630004883 0.138074536626 0.0
0.0 1.46730004883 0.137919816084 0.0
0.0 1.46830004883 0.137765510997 0.0
0.0 1.46930004883 0.137610754711 0.0
0.0 1.47030004883 0.137456628608 0.0
0.0 1.47130004883 0.137302730829 0.0
0.0 1.47230004883 0.137148907433 0.0
0.0 1.47330004883 0.136995576125 0.0
0.0 1.47430004883 0.136842428642 0.0
0.0 1.47530004883 0.136689264105 0.0
0.0 1.47630004883 0.136536577337 0.0
0.0 1.47730004883 0.136383966315 0.0
0.0 1.47830004883 0.136231840783 0.0
0.0 1.47930004883 0.136079694718 0.0
0.0 1.48030004883 0.135927646932 0.0
0.0 1.48130004883 0.135776172529 0.0
0.0 1.48230004883 0.135624945917 0.0
0.0 1.48330004883 0.135473551922 0.0
0.0 1.48430004883 0.135323020327 0.0
0.0 1.48530004883 0.13517242954 0.0
0.0 1.48630004883 0.135021791751 0.0
0.0 1.48730004883 0.13487188086 0.0
0.0 1.48830004883 0.134721611974 0.0
0.0 1.48930004883 0.134572156407 0.0
0.0 1.49030004883 0.13442214254 0.0
0.0 1.49130004883 0.134272933041 0.0
0.0 1.49230004883 0.134124047168 0.0
0.0 1.49330004883 0.133975165463 0.0
0.0 1.49430004883 0.133826410635 0.0
0.0 1.49530004883 0.133678088102 0.0
0.0 1.49630004883 0.133530210287 0.0
0.0 1.49730004883 0.133382138234 0.0
0.0 1.49830004883 0.133234458056 0.0
0.0 1.49930004883 0.133087229433 0.0
0.0 1.50030004883 0.132940284227 0.0
0.0 1.50130004883 0.132792987873 0.0
0.0 1.50230004883 0.13264656135 0.0
0.0 1.50330004883 0.132500243797 0.0
0.0 1.50430004883 0.132353696396 0.0
0.0 1.50530004883 0.132208384773 0.0
0.0 1.50630004883 0.132062288863 0.0
0.0 1.50730004883 0.13191657106 0.0
0.0 1.50830004883 0.131772229867 0.0
0.0 1.50930004883 0.131626916779 0.0
0.0 1.51030004883 0.131482308629 0.0
0.0 1.51130004883 0.13133749162 0.0
0.0 1.51230004883 0.131193023969 0.0
0.0 1.51330004883 0.131049332343 0.0
0.0 1.51430004883 0.130905590632 0.0
0.0 1.51530004883 0.13076212682 0.0
0.0 1.51630004883 0.130619035088 0.0
0.0 1.51730004883 0.130475940213 0.0
0.0 1.51830004883 0.130333090929 0.0
0.0 1.51930004883 0.130190295251 0.0
0.0 1.52030004883 0.130048457455 0.0
0.0 1.52130004883 0.129906528908 0.0
0.0 1.52230004883 0.129764528448 0.0
0.0 1.52330004883 0.129623477866 0.0
0.0 1.52430004883 0.129481608513 0.0
0.0 1.52530004883 0.129341022672 0.0
0.0 1.52630004883 0.129199814229 0.0
0.0 1.52730004883 0.129059472688 0.0
0.0 1.52830004883 0.128919555707 0.0
0.0 1.52930004883 0.128779485028 0.0
0.0 1.53030004883 0.128639762371 0.0
0.0 1.53130004883 0.128500329265 0.0
0.0 1.53230004883 0.12836111048 0.0
0.0 1.53330004883 0.128222068913 0.0
0.0 1.53430004883 0.12808340898 0.0
0.0 1.53530004883 0.127945501984 0.0
0.0 1.53630004883 0.12780670889 0.0
0.0 1.53730004883 0.127669221161 0.0
0.0 1.53830004883 0.127531105274 0.0
0.0 1.53930004883 0.127394008896 0.0
0.0 1.54030004883 0.127256971673 0.0
0.0 1.54130004883 0.127120074536 0.0
0.0 1.54230004883 0.126983496729 0.0
0.0 1.54330004883 0.126846472936 0.0
0.0 1.54430004883 0.126710466434 0.0
0.0 1.54530004883 0.126574558077 0.0
0.0 1.54630004883 0.126439369462 0.0
0.0 1.54730004883 0.126304119538 0.0
0.0 1.54830004883 0.126169020305 0.0
0.0 1.54930004883 0.126033820365 0.0
0.0 1.55030004883 0.125899935185 0.0
0.0 1.55130004883 0.125765705236 0.0
0.0 1.55230004883 0.125631352635 0.0
0.0 1.55330004883 0.125497496867 0.0
0.0 1.55430004883 0.125364025333 0.0
0.0 1.55530004883 0.125230951352 0.0
0.0 1.55630004883 0.125098508649 0.0
0.0 1.55730004883 0.124965773513 0.0
0.0 1.55830004883 0.124833002667 0.0
0.0 1.55930004883 0.124701136733 0.0
0.0 1.56030004883 0.12456929369 0.0
0.0 1.56130004883 0.12443736798 0.0
0.0 1.56230004883 0.124306558486 0.0
0.0 1.56330004883 0.124175232306 0.0
0.0 1.56430004883 0.124044690655 0.0
0.0 1.56530004883 0.123913871366 0.0
0.0 1.56630004883 0.123784015191 0.0
0.0 1.56730004883 0.123653821456 0.0
0.0 1.56830004883 0.123523548065 0.0
0.0 1.56930004883 0.123394604979 0.0
0.0 1.57030004883 0.123265554266 0.0
0.0 1.57130004883 0.123136468769 0.0
0.0 1.57230004883 0.12300789803 0.0
0.0 1.57330004883 0.12287979565 0.0
0.0 1.57430004883 0.122751792163 0.0
0.0 1.57530004883 0.12262386399 0.0
0.0 1.57630004883 0.122496816798 0.0
0.0 1.57730004883 0.122369503203 0.0
0.0 1.57830004883 0.122242693176 0.0
0.0 1.57930004883 0.122115752106 0.0
0.0 1.58030004883 0.121989111816 0.0
0.0 1.58130004883 0.121863537032 0.0
0.0 1.58230004883 0.121737842512 0.0
0.0 1.58330004883 0.121612098527 0.0
0.0 1.58430004883 0.121486765625 0.0
0.0 1.58530004883 0.121361788579 0.0
0.0 1.58630004883 0.121237023728 0.0
0.0 1.58730004883 0.121113122848 0.0
0.0 1.58830004883 0.120989045099 0.0
0.0 1.58930004883 0.120865058815 0.0
0.0 1.59030004883 0.120741395002 0.0
0.0 1.59130004883 0.120618030857 0.0
0.0 1.59230004883 0.120495138013 0.0
0.0 1.59330004883 0.120372252928 0.0
0.0 1.59430004883 0.120250149236 0.0
0.0 1.59530004883 0.120128357471 0.0
0.0 1.59630004883 0.120006204787 0.0
0.0 1.59730004883 0.119884628488 0.0
0.0 1.59830004883 0.119763480872 0.0
0.0 1.59930004883 0.119642919502 0.0
0.0 1.60030004883 0.11952206968 0.0
0.0 1.60130004883 0.119401372011 0.0
0.0 1.60230004883 0.119281398887 0.0
0.0 1.60330004883 0.119161531915 0.0
0.0 1.60430004883 0.119042003392 0.0
0.0 1.60530004883 0.118923474095 0.0
0.0 1.60630004883 0.118804162668 0.0
0.0 1.60730004883 0.118685508382 0.0
0.0 1.60830004883 0.118567267489 0.0
0.0 1.60930004883 0.118449233653 0.0
0.0 1.61030004883 0.118331206196 0.0
0.0 1.61130004883 0.118214932951 0.0
0.0 1.61230004883 0.118097102329 0.0
0.0 1.61330004883 0.117979693158 0.0
0.0 1.61430004883 0.117863722764 0.0
0.0 1.61530004883 0.11774698686 0.0
0.0 1.61630004883 0.117631356294 0.0
0.0 1.61730004883 0.117515665522 0.0
0.0 1.61830004883 0.117400559195 0.0
0.0 1.61930004883 0.117285307292 0.0
0.0 1.62030004883 0.117170089946 0.0
0.0 1.62130004883 0.117055525633 0.0
0.0 1.62230004883 0.116941583391 0.0
0.0 1.62330004883 0.116828232196 0.0
0.0 1.62430004883 0.116714128441 0.0
0.0 1.62530004883 0.116601492835 0.0
0.0 1.62630004883 0.116488171203 0.0
0.0 1.62730004883 0.11637530668 0.0
0.0 1.62830004883 0.116263015571 0.0
0.0 1.62930004883 0.116150768738 0.0
0.0 1.63030004883 0.116039341729 0.0
0.0 1.63130004883 0.115927578166 0.0
0.0 1.63230004883 0.115816498699 0.0
0.0 1.63330004883 0.115705731767 0.0
0.0 1.63430004883 0.115594867201 0.0
0.0 1.63530004883 0.115485113752 0.0
0.0 1.63630004883 0.115375557574 0.0
0.0 1.63730004883 0.11526625854 0.0
0.0 1.63830004883 0.115156526834 0.0
0.0 1.63930004883 0.115047260099 0.0
0.0 1.64030004883 0.114938843315 0.0
0.0 1.64130004883 0.114830552573 0.0
0.0 1.64230004883 0.114722938115 0.0
0.0 1.64330004883 0.114614694468 0.0
0.0 1.64430004883 0.114507494625 0.0
0.0 1.64530004883 0.114400550683 0.0
0.0 1.64630004883 0.114292698621 0.0
0.0 1.64730004883 0.114187544807 0.0
0.0 1.64830004883 0.114080770556 0.0
0.0 1.64930004883 0.113974223344 0.0
0.0 1.65030004883 0.113869114052 0.0
0.0 1.65130004883 0.113764857712 0.0
0.0 1.65230004883 0.113659156063 0.0
0.0 1.65330004883 0.113554608759 0.0
0.0 1.65430004883 0.113450838223 0.0
0.0 1.65530004883 0.113346833374 0.0
0.0 1.65630004883 0.113243000185 0.0
0.0 1.65730004883 0.113139083887 0.0
0.0 1.65830004883 0.113036927478 0.0
0.0 1.65930004883 0.1129338496 0.0
0.0 1.66030004883 0.112831606372 0.0
0.0 1.66130004883 0.112729397223 0.0
0.0 1.66230004883 0.112627844906 0.0
0.0 1.66330004883 0.112526557265 0.0
0.0 1.66430004883 0.112425386958 0.0
0.0 1.66530004883 0.112324330419 0.0
0.0 1.66630004883 0.112224104971 0.0
0.0 1.66730004883 0.112124291054 0.0
0.0 1.66830004883 0.112024664937 0.0
0.0 1.66930004883 0.11192525321 0.0
0.0 1.67030004883 0.111825482711 0.0
0.0 1.67130004883 0.111727264912 0.0
0.0 1.67230004883 0.111627813533 0.0
0.0 1.67330004883 0.111530369333 0.0
0.0 1.67430004883 0.111432825972 0.0
0.0 1.67530004883 0.111334739289 0.0
0.0 1.67630004883 0.111237820233 0.0
0.0 1.67730004883 0.11114079473 0.0
0.0 1.67830004883 0.111044613171 0.0
0.0 1.67930004883 0.110949270192 0.0
0.0 1.68030004883 0.110852108931 0.0
0.0 1.68130004883 0.110756435944 0.0
0.0 1.68230004883 0.110661996993 0.0
0.0 1.68330004883 0.110567271338 0.0
0.0 1.68430004883 0.110472359519 0.0
0.0 1.68530004883 0.110378347783 0.0
0.0 1.68630004883 0.110284571068 0.0
0.0 1.68730004883 0.110190975318 0.0
0.0 1.68830004883 0.110097933015 0.0
0.0 1.68930004883 0.110005209561 0.0
0.0 1.69030004883 0.109912881646 0.0
0.0 1.69130004883 0.109820917781 0.0
0.0 1.69230004883 0.109729208375 0.0
0.0 1.69330004883 0.109637239521 0.0
0.0 1.69430004883 0.109545569307 0.0
0.0 1.69530004883 0.10945556093 0.0
0.0 1.69630004883 0.109363817298 0.0
0.0 1.69730004883 0.109275110621 0.0
0.0 1.69830004883 0.109184341167 0.0
0.0 1.69930004883 0.109095334428 0.0
0.0 1.70030004883 0.10900652159 0.0
0.0 1.70130004883 0.108917757039 0.0
0.0 1.70230004883 0.108829738158 0.0
0.0 1.70330004883 0.108740231221 0.0
0.0 1.70430004883 0.108652839031 0.0
0.0 1.70530004883 0.108565980273 0.0
0.0 1.70630004883 0.108478715573 0.0
0.0 1.70730004883 0.108391334629 0.0
0.0 1.70830004883 0.108305487923 0.0
0.0 1.70930004883 0.108218752527 0.0
0.0 1.71030004883 0.108133241708 0.0
0.0 1.71130004883 0.108048282541 0.0
0.0 1.71230004883 0.107963591363 0.0
0.0 1.71330004883 0.107878119069 0.0
0.0 1.71430004883 0.107794258113 0.0
0.0 1.71530004883 0.107709915485 0.0
0.0 1.71630004883 0.107626755542 0.0
0.0 1.71730004883 0.107542817115 0.0
0.0 1.71830004883 0.107459828884 0.0
0.0 1.71930004883 0.107377600728 0.0
0.0 1.72030004883 0.10729465524 0.0
0.0 1.72130004883 0.107213003861 0.0
0.0 1.72230004883 0.107132242179 0.0
0.0 1.72330004883 0.10705061003 0.0
0.0 1.72430004883 0.106970376513 0.0
0.0 1.72530004883 0.106889393739 0.0
0.0 1.72630004883 0.106809607283 0.0
0.0 1.72730004883 0.106729662696 0.0
0.0 1.72830004883 0.106650149476 0.0
0.0 1.72930004883 0.106571099765 0.0
0.0 1.73030004883 0.106492169571 0.0
0.0 1.73130004883 0.106413988653 0.0
0.0 1.73230004883 0.106336241177 0.0
0.0 1.73330004883 0.106257363646 0.0
0.0 1.73430004883 0.106180751968 0.0
0.0 1.73530004883 0.10610334184 0.0
0.0 1.73630004883 0.106027270527 0.0
0.0 1.73730004883 0.1059507132 0.0
0.0 1.73830004883 0.105874848754 0.0
0.0 1.73930004883 0.105799157536 0.0
0.0 1.74030004883 0.105723952582 0.0
0.0 1.74130004883 0.105648742207 0.0
0.0 1.74230004883 0.105574590796 0.0
0.0 1.74330004883 0.10550145393 0.0
0.0 1.74430004883 0.105427785103 0.0
0.0 1.74530004883 0.105352564973 0.0
0.0 1.74630004883 0.105280119625 0.0
0.0 1.74730004883 0.105208294883 0.0
0.0 1.74830004883 0.10513545419 0.0
0.0 1.74930004883 0.105063128074 0.0
0.0 1.75030004883 0.104991855194 0.0
0.0 1.75130004883 0.10492042056 0.0
0.0 1.75230004883 0.104850254037 0.0
0.0 1.75330004883 0.104779359233 0.0
0.0 1.75430004883 0.104709392098 0.0
0.0 1.75530004883 0.104640070487 0.0
0.0 1.75630004883 0.104570855676 0.0
0.0 1.75730004883 0.104501997432 0.0
0.0 1.75830004883 0.10443287883 0.0
0.0 1.75930004883 0.104364969437 0.0
0.0 1.76030004883 0.104297567462 0.0
0.0 1.76130004883 0.104230027328 0.0
0.0 1.76230004883 0.104162590985 0.0
0.0 1.76330004883 0.104095967267 0.0
0.0 1.76430004883 0.104029285081 0.0
0.0 1.76530004883 0.10396312368 0.0
0.0 1.76630004883 0.103897652471 0.0
0.0 1.76730004883 0.103832961977 0.0
0.0 1.76830004883 0.10376861955 0.0
0.0 1.76930004883 0.10370312466 0.0
0.0 1.77030004883 0.10364007728 0.0
0.0 1.77130004883 0.103575473647 0.0
0.0 1.77230004883 0.103511704082 0.0
0.0 1.77330004883 0.103449579445 0.0
0.0 1.77430004883 0.103386463267 0.0
0.0 1.77530004883 0.10332431416 0.0
0.0 1.77630004883 0.103262902603 0.0
0.0 1.77730004883 0.103202259731 0.0
0.0 1.77830004883 0.103140189913 0.0
0.0 1.77930004883 0.103079528957 0.0
0.0 1.78030004883 0.103018553796 0.0
0.0 1.78130004883 0.102959710704 0.0
0.0 1.78230004883 0.102899250857 0.0
0.0 1.78330004883 0.10284079299 0.0
0.0 1.78430004883 0.102779934802 0.0
0.0 1.78530004883 0.102723238706 0.0
0.0 1.78630004883 0.102665790966 0.0
0.0 1.78730004883 0.102607331044 0.0
0.0 1.78830004883 0.102550407193 0.0
0.0 1.78930004883 0.102492990824 0.0
0.0 1.79030004883 0.102436327598 0.0
0.0 1.79130004883 0.102381584742 0.0
0.0 1.79230004883 0.102324974686 0.0
0.0 1.79330004883 0.102269231894 0.0
0.0 1.79430004883 0.102213629376 0.0
0.0 1.79530004883 0.102159771127 0.0
0.0 1.79630004883 0.102106025128 0.0
0.0 1.79730004883 0.102051675593 0.0
0.0 1.79830004883 0.101998074949 0.0
0.0 1.79930004883 0.101944355548 0.0
0.0 1.80030004883 0.101892704883 0.0
0.0 1.80130004883 0.101840118333 0.0
0.0 1.80230004883 0.101787912694 0.0
0.0 1.80330004883 0.101736175895 0.0
0.0 1.80430004883 0.101684620822 0.0
0.0 1.80530004883 0.101634370712 0.0
0.0 1.80630004883 0.101583993729 0.0
0.0 1.80730004883 0.101535001976 0.0
0.0 1.80830004883 0.101484794431 0.0
0.0 1.80930004883 0.10143540796 0.0
0.0 1.81030004883 0.101386763345 0.0
0.0 1.81130004883 0.101338950632 0.0
0.0 1.81230004883 0.101290583918 0.0
0.0 1.81330004883 0.10124352061 0.0
0.0 1.81430004883 0.101196814776 0.0
0.0 1.81530004883 0.101150019636 0.0
0.0 1.81630004883 0.101103144848 0.0
0.0 1.81730004883 0.101057181086 0.0
0.0 1.81830004883 0.101010952936 0.0
0.0 1.81930004883 0.100966234618 0.0
0.0 1.82030004883 0.100921145113 0.0
0.0 1.82130004883 0.10087683433 0.0
0.0 1.82230004883 0.10083259513 0.0
0.0 1.82330004883 0.100789580968 0.0
0.0 1.82430004883 0.100745623873 0.0
0.0 1.82530004883 0.10070394622 0.0
0.0 1.82630004883 0.100661469781 0.0
0.0 1.82730004883 0.100619288515 0.0
0.0 1.82830004883 0.100577833188 0.0
0.0 1.82930004883 0.100537710654 0.0
0.0 1.83030004883 0.100495891956 0.0
0.0 1.83130004883 0.10045587401 0.0
0.0 1.83230004883 0.100416890527 0.0
0.0 1.83330004883 0.100376925322 0.0
0.0 1.83430004883 0.100339209969 0.0
0.0 1.83530004883 0.100299569882 0.0
0.0 1.83630004883 0.100260902991 0.0
0.0 1.83730004883 0.100224105453 0.0
0.0 1.83830004883 0.100185378209 0.0
0.0 1.83930004883 0.100149563224 0.0
0.0 1.84030004883 0.100111822602 0.0
0.0 1.84130004883 0.100075689649 0.0
0.0 1.84230004883 0.100039397545 0.0
0.0 1.84330004883 0.100004332022 0.0
0.0 1.84430004883 0.0999691051242 0.0
0.0 1.84530004883 0.0999346747058 0.0
0.0 1.84630004883 0.0999004020966 0.0
0.0 1.84730004883 0.0998662624038 0.0
0.0 1.84830004883 0.0998335121754 0.0
0.0 1.84930004883 0.0997996075762 0.0
0.0 1.85030004883 0.0997680134834 0.0
0.0 1.85130004883 0.0997358599149 0.0
0.0 1.85230004883 0.0997037815817 0.0
0.0 1.85330004883 0.0996732022338 0.0
0.0 1.85430004883 0.0996419799883 0.0
0.0 1.85530004883 0.0996106390711 0.0
0.0 1.85630004883 0.0995820347962 0.0
0.0 1.85730004883 0.0995505709366 0.0
0.0 1.85830004883 0.0995219598804 0.0
0.0 1.85930004883 0.0994935783285 0.0
0.0 1.86030004883 0.0994636001649 0.0
0.0 1.86130004883 0.0994384131646 0.0
0.0 1.86230004883 0.0994092527167 0.0
0.0 1.86330004883 0.0993833974591 0.0
0.0 1.86430004883 0.0993564734778 0.0
0.0 1.86530004883 0.0993300952138 0.0
0.0 1.86630004883 0.0993045189012 0.0
0.0 1.86730004883 0.0992781218758 0.0
0.0 1.86830004883 0.0992537602708 0.0
0.0 1.86930004883 0.0992302194302 0.0
0.0 1.87030004883 0.0992044099258 0.0
0.0 1.87130004883 0.0991806013148 0.0
0.0 1.87230004883 0.0991578846231 0.0
0.0 1.87330004883 0.0991346323897 0.0
0.0 1.87430004883 0.0991123288677 0.0
0.0 1.87530004883 0.099090312514 0.0
0.0 1.87630004883 0.0990682848096 0.0
0.0 1.87730004883 0.0990473774805 0.0
0.0 1.87830004883 0.0990284656358 0.0
0.0 1.87930004883 0.0990083068583 0.0
0.0 1.88030004883 0.0989878413742 0.0
0.0 1.88130004883 0.0989680922785 0.0
0.0 1.88230004883 0.09895001781 0.0
0.0 1.88330004883 0.0989309220099 0.0
0.0 1.88430004883 0.0989138609411 0.0
0.0 1.88530004883 0.0988962198696 0.0
0.0 1.88630004883 0.0988793494455 0.0
0.0 1.88730004883 0.0988616008236 0.0
0.0 1.88830004883 0.0988462094471 0.0
0.0 1.88930004883 0.0988290028909 0.0
0.0 1.89030004883 0.0988149528451 0.0
0.0 1.89130004883 0.0987988498266 0.0
0.0 1.89230004883 0.0987840727124 0.0
0.0 1.89330004883 0.0987705861415 0.0
0.0 1.89430004883 0.0987571195229 0.0
0.0 1.89530004883 0.0987432827557 0.0
0.0 1.89630004883 0.0987298696968 0.0
0.0 1.89730004883 0.0987169855572 0.0
0.0 1.89830004883 0.0987049146119 0.0
0.0 1.89930004883 0.098693829023 0.0
0.0 1.90030004883 0.0986820621934 0.0
0.0 1.90130004883 0.0986715966321 0.0
0.0 1.90230004883 0.0986605539541 0.0
0.0 1.90330004883 0.0986510428895 0.0
0.0 1.90430004883 0.0986420133302 0.0
0.0 1.90530004883 0.0986335379282 0.0
0.0 1.90630004883 0.0986236185945 0.0
0.0 1.90730004883 0.0986159312972 0.0
0.0 1.90830004883 0.0986076732462 0.0
0.0 1.90930004883 0.0986010910915 0.0
0.0 1.91030004883 0.0985943480101 0.0
0.0 1.91130004883 0.0985871009851 0.0
0.0 1.91230004883 0.0985824009134 0.0
0.0 1.91330004883 0.098575700321 0.0
0.0 1.91430004883 0.0985711693779 0.0
0.0 1.91530004883 0.0985662071012 0.0
0.0 1.91630004883 0.0985625558678 0.0
0.0 1.91730004883 0.0985577498757 0.0
0.0 1.91830004883 0.0985565221889 0.0
0.0 1.91930004883 0.0985534809984 0.0
0.0 1.92030004883 0.0985512261893 0.0
0.0 1.92130004883 0.0985468330135 0.0
0.0 1.92230004883 0.0985478085951 0.0
0.0 1.92330004883 0.0985481382539 0.0
0.0 1.92430004883 0.0985478403261 0.0
0.0 1.92530004883 0.0985454784656 0.0
0.0 1.92630004883 0.0985467144164 0.0
0.0 1.92730004883 0.0985471694056 0.0
0.0 1.92830004883 0.098548598912 0.0
0.0 1.92930004883 0.0985517294478 0.0
0.0 1.93030004883 0.098552327944 0.0
0.0 1.93130004883 0.0985561034544 0.0
0.0 1.93230004883 0.0985585487852 0.0
0.0 1.93330004883 0.0985632005583 0.0
0.0 1.93430004883 0.0985668821277 0.0
0.0 1.93530004883 0.0985726233865 0.0
0.0 1.93630004883 0.0985752948305 0.0
0.0 1.93730004883 0.0985833170069 0.0
0.0 1.93830004883 0.0985896656026 0.0
0.0 1.93930004883 0.0985943499517 0.0
0.0 1.94030004883 0.098600504825 0.0
0.0 1.94130004883 0.0986080284897 0.0
0.0 1.94230004883 0.0986163463648 0.0
0.0 1.94330004883 0.0986248974681 0.0
0.0 1.94430004883 0.0986333570548 0.0
0.0 1.94530004883 0.0986432078038 0.0
0.0 1.94630004883 0.0986526282401 0.0
0.0 1.94730004883 0.0986644354937 0.0
0.0 1.94830004883 0.0986726467747 0.0
0.0 1.94930004883 0.09868497943 0.0
0.0 1.95030004883 0.0986947467936 0.0
0.0 1.95130004883 0.0987084622985 0.0
0.0 1.95230004883 0.0987188847168 0.0
0.0 1.95330004883 0.0987332222634 0.0
0.0 1.95430004883 0.0987450491223 0.0
0.0 1.95530004883 0.0987591051815 0.0
0.0 1.95630004883 0.0987752475041 0.0
0.0 1.95730004883 0.098789598178 0.0
0.0 1.95830004883 0.0988044660732 0.0
0.0 1.95930004883 0.0988213807647 0.0
0.0 1.96030004883 0.0988378106496 0.0
0.0 1.96130004883 0.0988533793147 0.0
0.0 1.96230004883 0.0988691503942 0.0
0.0 1.96330004883 0.0988868095511 0.0
0.0 1.96430004883 0.0989059277412 0.0
0.0 1.96530004883 0.0989250933167 0.0
0.0 1.96630004883 0.0989436858175 0.0
0.0 1.96730004883 0.0989621762426 0.0
0.0 1.96830004883 0.0989828458781 0.0
0.0 1.96930004883 0.0990031683439 0.0
0.0 1.97030004883 0.099023638799 0.0
0.0 1.97130004883 0.0990449894754 0.0
0.0 1.97230004883 0.0990664809362 0.0
0.0 1.97330004883 0.0990900383052 0.0
0.0 1.97430004883 0.0991142834226 0.0
0.0 1.97530004883 0.0991356463334 0.0
0.0 1.97630004883 0.0991597005434 0.0
0.0 1.97730004883 0.0991830696468 0.0
0.0 1.97830004883 0.0992090224675 0.0
0.0 1.97930004883 0.0992335011605 0.0
0.0 1.98030004883 0.0992597985738 0.0
0.0 1.98130004883 0.0992851223885 0.0
0.0 1.98230004883 0.0993128781865 0.0
0.0 1.98330004883 0.0993410793868 0.0
0.0 1.98430004883 0.0993683487665 0.0
0.0 1.98530004883 0.0993940638525 0.0
0.0 1.98630004883 0.0994239788227 0.0
0.0 1.98730004883 0.0994535090464 0.0
0.0 1.98830004883 0.0994824057473 0.0
0.0 1.98930004883 0.0995126840306 0.0
0.0 1.99030004883 0.0995430053012 0.0
0.0 1.99130004883 0.0995716848051 0.0
0.0 1.99230004883 0.0996053454013 0.0
0.0 1.99330004883 0.0996373062969 0.0
0.0 1.99430004883 0.0996690990018 0.0
0.0 1.99530004883 0.0997031834 0.0
0.0 1.99630004883 0.0997359500735 0.0
0.0 1.99730004883 0.0997702923984 0.0
0.0 1.99830004883 0.0998052690056 0.0
0.0 1.99930004883 0.0998401631161 0.0
0.0 2.00030004883 0.0998749195609 0.0
0.0 2.00130004883 0.0999109482161 0.0
0.0 2.00230004883 0.0999488441226 0.0
0.0 2.00330004883 0.0999846805794 0.0
0.0 2.00430004883 0.100020902368 0.0
0.0 2.00530004883 0.100059063499 0.0
0.0 2.00630004883 0.100098508791 0.0
0.0 2.00730004883 0.100137584019 0.0
0.0 2.00830004883 0.100174599721 0.0
0.0 2.00930004883 0.100215145907 0.0
0.0 2.01030004883 0.100255985952 0.0
0.0 2.01130004883 0.100296858284 0.0
0.0 2.01230004883 0.100338016396 0.0
0.0 2.01330004883 0.100377494538 0.0
0.0 2.01430004883 0.10042110775 0.0
0.0 2.01530004883 0.100464982139 0.0
0.0 2.01630004883 0.100508950565 0.0
0.0 2.01730004883 0.100552232257 0.0
0.0 2.01830004883 0.100597216351 0.0
0.0 2.01930004883 0.100641477412 0.0
0.0 2.02030004883 0.100686692133 0.0
0.0 2.02130004883 0.100731631525 0.0
0.0 2.02230004883 0.100777815655 0.0
0.0 2.02330004883 0.100824679353 0.0
0.0 2.02430004883 0.100872599235 0.0
0.0 2.02530004883 0.100920681474 0.0
0.0 2.02630004883 0.10096957764 0.0
0.0 2.02730004883 0.101016353916 0.0
0.0 2.02830004883 0.101068027136 0.0
0.0 2.02930004883 0.101116466921 0.0
0.0 2.03030004883 0.101168927529 0.0
0.0 2.03130004883 0.101217485136 0.0
0.0 2.03230004883 0.101270400398 0.0
0.0 2.03330004883 0.101324448178 0.0
0.0 2.03430004883 0.101374615258 0.0
0.0 2.03530004883 0.101426611213 0.0
0.0 2.03630004883 0.10147931747 0.0
0.0 2.03730004883 0.101533939561 0.0
0.0 2.03830004883 0.101588910916 0.0
0.0 2.03930004883 0.101641961441 0.0
0.0 2.04030004883 0.101697961276 0.0
0.0 2.04130004883 0.101754246032 0.0
0.0 2.04230004883 0.101808589207 0.0
0.0 2.04330004883 0.101868681798 0.0
0.0 2.04430004883 0.101925168733 0.0
0.0 2.04530004883 0.101982513908 0.0
0.0 2.04630004883 0.102040100867 0.0
0.0 2.04730004883 0.102100253584 0.0
0.0 2.04830004883 0.102161384237 0.0
0.0 2.04930004883 0.102219927089 0.0
0.0 2.05030004883 0.102281368163 0.0
0.0 2.05130004883 0.102341216467 0.0
0.0 2.05230004883 0.102404654553 0.0
0.0 2.05330004883 0.102467132417 0.0
0.0 2.05430004883 0.102527739261 0.0
0.0 2.05530004883 0.102591293969 0.0
0.0 2.05630004883 0.102655854924 0.0
0.0 2.05730004883 0.102720158529 0.0
0.0 2.05830004883 0.102785280759 0.0
0.0 2.05930004883 0.10285102424 0.0
0.0 2.06030004883 0.102917332395 0.0
0.0 2.06130004883 0.102982874874 0.0
0.0 2.06230004883 0.103051240298 0.0
0.0 2.06330004883 0.103120159885 0.0
0.0 2.06430004883 0.103188569247 0.0
0.0 2.06530004883 0.103256758574 0.0
0.0 2.06630004883 0.103326803509 0.0
0.0 2.06730004883 0.103396921661 0.0
0.0 2.06830004883 0.103468654162 0.0
0.0 2.06930004883 0.103541588694 0.0
0.0 2.07030004883 0.103611560814 0.0
0.0 2.07130004883 0.103686915915 0.0
0.0 2.07230004883 0.103762812466 0.0
0.0 2.07330004883 0.103842796967 0.0
0.0 2.07430004883 0.103920577736 0.0
0.0 2.07530004883 0.103999004098 0.0
0.0 2.07630004883 0.104085877348 0.0
0.0 2.07730004883 0.104171272933 0.0
0.0 2.07830004883 0.104262991996 0.0
0.0 2.07930004883 0.104364613541 0.0
0.0 2.08030004883 0.10447335826 0.0
0.0 2.08130004883 0.104594189082 0.0
0.0 2.08230004883 0.104736215195 0.0
0.0 2.08330004883 0.10490760871 0.0
0.0 2.08430004883 0.105117572788 0.0
0.0 2.08530004883 0.105400097908 0.0
0.0 2.08630004883 0.105785025347 0.0
0.0 2.08730004883 0.106360544797 0.0
0.0 2.08830004883 0.107190245918 0.0
0.0 2.08930004883 0.108464999499 0.0
0.0 2.09030004883 0.110419709533 0.0
0.0 2.09130004883 0.113182944042 0.0
0.0 2.09230004883 0.117207304234 0.0
0.0 2.09330004883 0.122464578567 0.0
0.0 2.09430004883 0.129161456064 0.0
0.0 2.09530004883 0.137317919876 0.0
0.0 2.09630004883 0.146967396182 0.0
0.0 2.09730004883 0.157892172534 0.0
0.0 2.09830004883 0.169214105267 0.0
0.0 2.09930004883 0.180059733741 0.0
0.0 2.10030004883 0.189260543609 0.0
0.0 2.10130004883 0.198000884489 0.0
0.0 2.10230004883 0.208252937424 0.0
0.0 2.10330004883 0.219926020235 0.0
0.0 2.10430004883 0.233004209432 0.0
0.0 2.10530004883 0.249913995153 0.0
0.0 2.10630004883 0.268500118176 0.0
0.0 2.10730004883 0.291530630324 0.0
0.0 2.10830004883 0.316002954532 0.0
0.0 2.10930004883 0.346877869464 0.0
0.0 2.11030004883 0.379213536032 0.0
0.0 2.11130004883 0.414900435258 0.0
0.0 2.11230004883 0.451490729857 0.0
0.0 2.11330004883 0.484428766197 0.0
0.0 2.11430004883 0.51681881617 0.0
0.0 2.11530004883 0.540625817978 0.0
0.0 2.11630004883 0.559369533414 0.0
0.0 2.11730004883 0.573821665366 0.0
0.0 2.11830004883 0.582967602691 0.0
0.0 2.11930004883 0.585401834439 0.0
0.0 2.12030004883 0.589621887098 0.0
0.0 2.12130004883 0.589326736607 0.0
0.0 2.12230004883 0.591162412208 0.0
0.0 2.12330004883 0.591239195179 0.0
0.0 2.12430004883 0.587580469508 0.0
0.0 2.12530004883 0.584276142875 0.0
0.0 2.12630004883 0.577130966321 0.0
0.0 2.12730004883 0.563882417468 0.0
0.0 2.12830004883 0.543915702514 0.0
0.0 2.12930004883 0.517196314792 0.0
0.0 2.13030004883 0.482837309035 0.0
0.0 2.13130004883 0.448440070656 0.0
0.0 2.13230004883 0.40944935586 0.0
0.0 2.13330004883 0.373540753733 0.0
0.0 2.13430004883 0.339151858171 0.0
0.0 2.13530004883 0.307664157127 0.0
0.0 2.13630004883 0.280163206658 0.0
0.0 2.13730004883 0.256807017612 0.0
0.0 2.13830004883 0.23850229353 0.0
0.0 2.13930004883 0.221781830303 0.0
0.0 2.14030004883 0.207802392413 0.0
0.0 2.14130004883 0.194741028955 0.0
0.0 2.14230004883 0.182084719083 0.0
0.0 2.14330004883 0.170678708492 0.0
0.0 2.14430004883 0.16025295484 0.0
0.0 2.14530004883 0.151405874576 0.0
0.0 2.14630004883 0.143237595707 0.0
0.0 2.14730004883 0.136353829149 0.0
0.0 2.14830004883 0.130559621599 0.0
0.0 2.14930004883 0.12567581461 0.0
0.0 2.15030004883 0.121747435788 0.0
0.0 2.15130004883 0.118643880689 0.0
0.0 2.15230004883 0.116359099173 0.0
0.0 2.15330004883 0.114734497358 0.0
0.0 2.15430004883 0.113697089125 0.0
0.0 2.15530004883 0.113050307485 0.0
0.0 2.15630004883 0.112679618558 0.0
0.0 2.15730004883 0.112491324684 0.0
0.0 2.15830004883 0.112412659788 0.0
0.0 2.15930004883 0.112397293815 0.0
0.0 2.16030004883 0.112431360976 0.0
0.0 2.16130004883 0.11248984653 0.0
0.0 2.16230004883 0.112566686136 0.0
0.0 2.16330004883 0.112659715052 0.0
0.0 2.16430004883 0.11275736051 0.0
0.0 2.16530004883 0.112864799312 0.0
0.0 2.16630004883 0.112975691455 0.0
0.0 2.16730004883 0.11309105376 0.0
0.0 2.16830004883 0.113207233038 0.0
0.0 2.16930004883 0.113327468053 0.0
0.0 2.17030004883 0.113450613712 0.0
0.0 2.17130004883 0.113574378189 0.0
0.0 2.17230004883 0.113696861843 0.0
0.0 2.17330004883 0.113823827422 0.0
0.0 2.17430004883 0.11394962601 0.0
0.0 2.17530004883 0.114077480258 0.0
0.0 2.17630004883 0.114204580062 0.0
0.0 2.17730004883 0.114334657868 0.0
0.0 2.17830004883 0.114464365585 0.0
0.0 2.17930004883 0.114594320775 0.0
0.0 2.18030004883 0.114727821845 0.0
0.0 2.18130004883 0.114859337041 0.0
0.0 2.18230004883 0.11499157224 0.0
0.0 2.18330004883 0.115123232915 0.0
0.0 2.18430004883 0.115258742849 0.0
0.0 2.18530004883 0.115391815895 0.0
0.0 2.18630004883 0.115529737828 0.0
0.0 2.18730004883 0.115662405056 0.0
0.0 2.18830004883 0.115798465608 0.0
0.0 2.18930004883 0.11593622145 0.0
0.0 2.19030004883 0.116075223718 0.0
0.0 2.19130004883 0.116214299979 0.0
0.0 2.19230004883 0.116351388373 0.0
0.0 2.19330004883 0.116489707524 0.0
0.0 2.19430004883 0.116631626653 0.0
0.0 2.19530004883 0.116768226192 0.0
0.0 2.19630004883 0.116910177977 0.0
0.0 2.19730004883 0.117054966562 0.0
0.0 2.19830004883 0.117198041017 0.0
0.0 2.19930004883 0.117338576482 0.0
0.0 2.20030004883 0.117480562869 0.0
0.0 2.20130004883 0.117627747705 0.0
0.0 2.20230004883 0.117773007154 0.0
0.0 2.20330004883 0.117917764516 0.0
0.0 2.20430004883 0.118063746872 0.0
0.0 2.20530004883 0.118208294321 0.0
0.0 2.20630004883 0.118355465776 0.0
0.0 2.20730004883 0.118502343901 0.0
0.0 2.20830004883 0.118652579274 0.0
0.0 2.20930004883 0.118798832205 0.0
0.0 2.21030004883 0.118946166906 0.0
0.0 2.21130004883 0.119099159673 0.0
0.0 2.21230004883 0.119252702298 0.0
0.0 2.21330004883 0.119399915702 0.0
0.0 2.21430004883 0.119554548966 0.0
0.0 2.21530004883 0.119704777926 0.0
0.0 2.21630004883 0.119860780613 0.0
0.0 2.21730004883 0.120011762082 0.0
0.0 2.21830004883 0.120169971084 0.0
0.0 2.21930004883 0.120323797002 0.0
0.0 2.22030004883 0.120476524313 0.0
0.0 2.22130004883 0.120633657925 0.0
0.0 2.22230004883 0.12078868873 0.0
0.0 2.22330004883 0.120947275307 0.0
0.0 2.22430004883 0.121102170184 0.0
0.0 2.22530004883 0.121262248227 0.0
0.0 2.22630004883 0.121420832681 0.0
0.0 2.22730004883 0.121580436179 0.0
0.0 2.22830004883 0.121738436862 0.0
0.0 2.22930004883 0.12190741693 0.0
0.0 2.23030004883 0.122064198298 0.0
0.0 2.23130004883 0.122228979468 0.0
0.0 2.23230004883 0.122390005656 0.0
0.0 2.23330004883 0.122551658742 0.0
0.0 2.23430004883 0.122712339386 0.0
0.0 2.23530004883 0.122881221999 0.0
0.0 2.23630004883 0.123044038815 0.0
0.0 2.23730004883 0.12321246628 0.0
0.0 2.23830004883 0.123375918307 0.0
0.0 2.23930004883 0.123545737334 0.0
0.0 2.24030004883 0.123710083389 0.0
0.0 2.24130004883 0.123880438369 0.0
0.0 2.24230004883 0.124051276422 0.0
0.0 2.24330004883 0.124217506415 0.0
0.0 2.24430004883 0.12438836643 0.0
0.0 2.24530004883 0.124563839194 0.0
0.0 2.24630004883 0.124731873356 0.0
0.0 2.24730004883 0.124903015168 0.0
0.0 2.24830004883 0.125070344331 0.0
0.0 2.24930004883 0.125249750515 0.0
0.0 2.25030004883 0.125421637515 0.0
0.0 2.25130004883 0.125600480107 0.0
0.0 2.25230004883 0.125767926295 0.0
0.0 2.25330004883 0.125944791124 0.0
0.0 2.25430004883 0.126121650319 0.0
0.0 2.25530004883 0.126299376649 0.0
0.0 2.25630004883 0.126475022394 0.0
0.0 2.25730004883 0.12665003687 0.0
0.0 2.25830004883 0.126833461034 0.0
0.0 2.25930004883 0.127012841645 0.0
0.0 2.26030004883 0.12719223587 0.0
0.0 2.26130004883 0.127371114318 0.0
0.0 2.26230004883 0.127549594893 0.0
0.0 2.26330004883 0.127733986903 0.0
0.0 2.26430004883 0.127924237573 0.0
0.0 2.26530004883 0.12809863666 0.0
0.0 2.26630004883 0.128283373664 0.0
0.0 2.26730004883 0.128466363936 0.0
0.0 2.26830004883 0.128648760936 0.0
0.0 2.26930004883 0.128837521593 0.0
0.0 2.27030004883 0.129025106948 0.0
0.0 2.27130004883 0.12921055865 0.0
0.0 2.27230004883 0.129400279334 0.0
0.0 2.27330004883 0.129585959166 0.0
0.0 2.27430004883 0.129775120765 0.0
0.0 2.27530004883 0.129965682562 0.0
0.0 2.27630004883 0.130149242895 0.0
0.0 2.27730004883 0.130339742707 0.0
0.0 2.27830004883 0.130532652105 0.0
0.0 2.27930004883 0.130725403509 0.0
0.0 2.28030004883 0.13091616838 0.0
0.0 2.28130004883 0.131110098218 0.0
0.0 2.28230004883 0.13130328238 0.0
0.0 2.28330004883 0.131497739773 0.0
0.0 2.28430004883 0.131692521968 0.0
0.0 2.28530004883 0.131887015185 0.0
0.0 2.28630004883 0.132083582161 0.0
0.0 2.28730004883 0.132276081609 0.0
0.0 2.28830004883 0.13247694814 0.0
0.0 2.28930004883 0.132674651203 0.0
0.0 2.29030004883 0.132873197237 0.0
0.0 2.29130004883 0.13307244549 0.0
0.0 2.29230004883 0.133268832827 0.0
0.0 2.29330004883 0.133470707533 0.0
0.0 2.29430004883 0.133674922363 0.0
0.0 2.29530004883 0.13387529547 0.0
0.0 2.29630004883 0.134076479916 0.0
0.0 2.29730004883 0.134280150025 0.0
0.0 2.29830004883 0.134482532828 0.0
0.0 2.29930004883 0.134688846141 0.0
0.0 2.30030004883 0.134893662016 0.0
0.0 2.30130004883 0.135096597937 0.0
0.0 2.30230004883 0.135302691664 0.0
0.0 2.30330004883 0.135511646603 0.0
0.0 2.30430004883 0.135718523056 0.0
0.0 2.30530004883 0.135927551865 0.0
0.0 2.30630004883 0.136136758139 0.0
0.0 2.30730004883 0.136345061612 0.0
0.0 2.30830004883 0.136556017444 0.0
0.0 2.30930004883 0.136764951012 0.0
0.0 2.31030004883 0.136976254502 0.0
0.0 2.31130004883 0.137189923963 0.0
0.0 2.31230004883 0.137401585204 0.0
0.0 2.31330004883 0.137616418032 0.0
0.0 2.31430004883 0.137829059299 0.0
0.0 2.31530004883 0.138044339633 0.0
0.0 2.31630004883 0.138258589726 0.0
0.0 2.31730004883 0.138473379214 0.0
0.0 2.31830004883 0.138691656066 0.0
0.0 2.31930004883 0.138908350413 0.0
0.0 2.32030004883 0.139126856079 0.0
0.0 2.32130004883 0.139343586522 0.0
0.0 2.32230004883 0.139563273746 0.0
0.0 2.32330004883 0.139783814424 0.0
0.0 2.32430004883 0.140003258086 0.0
0.0 2.32530004883 0.140225000628 0.0
0.0 2.32630004883 0.140447001605 0.0
0.0 2.32730004883 0.140669258326 0.0
0.0 2.32830004883 0.140892555687 0.0
0.0 2.32930004883 0.141116030301 0.0
0.0 2.33030004883 0.141340079834 0.0
0.0 2.33130004883 0.141566638131 0.0
0.0 2.33230004883 0.141792268215 0.0
0.0 2.33330004883 0.142017986589 0.0
0.0 2.33430004883 0.142244821969 0.0
0.0 2.33530004883 0.142472629442 0.0
0.0 2.33630004883 0.142701010071 0.0
0.0 2.33730004883 0.142930002094 0.0
0.0 2.33830004883 0.143159072697 0.0
0.0 2.33930004883 0.143389746091 0.0
0.0 2.34030004883 0.143620391575 0.0
0.0 2.34130004883 0.143852065263 0.0
0.0 2.34230004883 0.144084905301 0.0
0.0 2.34330004883 0.144317781191 0.0
0.0 2.34430004883 0.144551607561 0.0
0.0 2.34530004883 0.144785896221 0.0
0.0 2.34630004883 0.145020584643 0.0
0.0 2.34730004883 0.145256492809 0.0
0.0 2.34830004883 0.145492827416 0.0
0.0 2.34930004883 0.145729688103 0.0
0.0 2.35030004883 0.145967685615 0.0
0.0 2.35130004883 0.146205608843 0.0
0.0 2.35230004883 0.146444763282 0.0
0.0 2.35330004883 0.146684534421 0.0
0.0 2.35430004883 0.146924872387 0.0
0.0 2.35530004883 0.147165637407 0.0
0.0 2.35630004883 0.147407253738 0.0
0.0 2.35730004883 0.147649626345 0.0
0.0 2.35830004883 0.147892508876 0.0
0.0 2.35930004883 0.148136509175 0.0
0.0 2.36030004883 0.148380713206 0.0
0.0 2.36130004883 0.14862551573 0.0
0.0 2.36230004883 0.148871395923 0.0
0.0 2.36330004883 0.149117547585 0.0
0.0 2.36430004883 0.149364589658 0.0
0.0 2.36530004883 0.149612235219 0.0
0.0 2.36630004883 0.149860628763 0.0
0.0 2.36730004883 0.150109618731 0.0
0.0 2.36830004883 0.150359349899 0.0
0.0 2.36930004883 0.150609719047 0.0
0.0 2.37030004883 0.150860713073 0.0
0.0 2.37130004883 0.151112430399 0.0
0.0 2.37230004883 0.151364821839 0.0
0.0 2.37330004883 0.151617902956 0.0
0.0 2.37430004883 0.151871701344 0.0
0.0 2.37530004883 0.152126096705 0.0
0.0 2.37630004883 0.15238124143 0.0
0.0 2.37730004883 0.152637074218 0.0
0.0 2.37830004883 0.152893624668 0.0
0.0 2.37930004883 0.153150814503 0.0
0.0 2.38030004883 0.178433233687 0.0
0.0 2.38130004883 0.256842696218 0.0
0.0 2.38230004883 0.327769421881 0.0
0.0 2.38330004883 0.391927452144 0.0
0.0 2.38430004883 0.449962745154 0.0
0.0 2.38530004883 0.502459469177 0.0
0.0 2.38630004883 0.549946271365 0.0
0.0 2.38730004883 0.592901100486 0.0
0.0 2.38830004883 0.631756522398 0.0
0.0 2.38930004883 0.666903697944 0.0
0.0 2.39030004883 0.698696500315 0.0
0.0 2.39130004883 0.72745505305 0.0
0.0 2.39230004883 0.753468871643 0.0
0.0 2.39330004883 0.776999992643 0.0
0.0 2.39430004883 0.798285246457 0.0
0.0 2.39530004883 0.817539007814 0.0
0.0 2.39630004883 0.83495513635 0.0
0.0 2.39730004883 0.850709020836 0.0
0.0 2.39830004883 0.864959271532 0.0
0.0 2.39930004883 0.877849424081 0.0
0.0 2.40030004883 0.889509247425 0.0
0.0 2.40130004883 0.900056196103 0.0
0.0 2.40230004883 0.909596457684 0.0
0.0 2.40330004883 0.918226113925 0.0
0.0 2.40430004883 0.926032086133 0.0
0.0 2.40530004883 0.933092970191 0.0
0.0 2.40630004883 0.939479888318 0.0
0.0 2.40730004883 0.945257164549 0.0
0.0 2.40830004883 0.95048298874 0.0
0.0 2.40930004883 0.955209992372 0.0
0.0 2.41030004883 0.959485778539 0.0
0.0 2.41130004883 0.963353422389 0.0
0.0 2.41230004883 0.966851877067 0.0
0.0 2.41330004883 0.970016382506 0.0
0.0 2.41430004883 0.972878810307 0.0
0.0 2.41530004883 0.975467998341 0.0
0.0 2.41630004883 0.977810022198 0.0
0.0 2.41730004883 0.979928476249 0.0
0.0 2.41830004883 0.981844701636 0.0
0.0 2.41930004883 0.983578001451 0.0
0.0 2.42030004883 0.985145835028 0.0
0.0 2.42130004883 0.986563998978 0.0
0.0 2.42230004883 0.987846778625 0.0
0.0 2.42330004883 0.989007097319 0.0
0.0 2.42430004883 0.990056645307 0.0
0.0 2.42530004883 0.99100599619 0.0
0.0 2.42630004883 0.991864715106 0.0
0.0 2.42730004883 0.992641452782 0.0
0.0 2.42830004883 0.993344036444 0.0
0.0 2.42930004883 0.993979543791 0.0
0.0 2.43030004883 0.994554378776 0.0
0.0 2.43130004883 0.995074333257 0.0
0.0 2.43230004883 0.995544645701 0.0
0.0 2.43330004883 0.995970056103 0.0
0.0 2.43430004883 0.996354850701 0.0
0.0 2.43530004883 0.996702906708 0.0
0.0 2.43630004883 0.997017731409 0.0
0.0 2.43730004883 0.997302497758 0.0
0.0 2.43830004883 0.997560075227 0.0
0.0 2.43930004883 0.997793059382 0.0
0.0 2.44030004883 0.998003798172 0.0
0.0 2.44130004883 0.998194415678 0.0
0.0 2.44230004883 0.998366832594 0.0
0.0 2.44330004883 0.998522786675 0.0
0.0 2.44430004883 0.998663849856 0.0
0.0 2.44530004883 0.99879144369 0.0
0.0 2.44630004883 0.9989068542 0.0
0.0 2.44730004883 0.999011244574 0.0
0.0 2.44830004883 0.99910566711 0.0
0.0 2.44930004883 0.999191073435 0.0
0.0 2.45030004883 0.999268324458 0.0
0.0 2.45130004883 0.999338198729 0.0
0.0 2.45230004883 0.999401400745 0.0
0.0 2.45330004883 0.999458567487 0.0
0.0 2.45430004883 0.999510275254 0.0
0.0 2.45530004883 0.999557045311 0.0
0.0 2.45630004883 0.999599349072 0.0
0.0 2.45730004883 0.999637613055 0.0
0.0 2.45830004883 0.999672222997 0.0
0.0 2.45930004883 0.999703527781 0.0
0.0 2.46030004883 0.999731843038 0.0
0.0 2.46130004883 0.999757454231 0.0
0.0 2.46230004883 0.99978061957 0.0
0.0 2.46330004883 0.999801572609 0.0
0.0 2.46430004883 0.999820524602 0.0
0.0 2.46530004883 0.999837666636 0.0
0.0 2.46630004883 0.999853171563 0.0
0.0 2.46730004883 0.999867195707 0.0
0.0 2.46830004883 0.999879880473 0.0
0.0 2.46930004883 0.999891353766 0.0
0.0 2.47030004883 0.999901731286 0.0
0.0 2.47130004883 0.999911117675 0.0
0.0 2.47230004883 0.999919607576 0.0
0.0 2.47330004883 0.999927286617 0.0
0.0 2.47430004883 0.999934232221 0.0
0.0 2.47530004883 0.999940514448 0.0
0.0 2.47630004883 0.999946196642 0.0
0.0 2.47730004883 0.999951336114 0.0
0.0 2.47830004883 0.999955984691 0.0
0.0 2.47930004883 0.999960189255 0.0
0.0 2.48030004883 0.999963992218 0.0
0.0 2.48130004883 0.999967431936 0.0
0.0 2.48230004883 0.999970543096 0.0
0.0 2.48330004883 0.999973357081 0.0
0.0 2.48430004883 0.999975902277 0.0
0.0 2.48530004883 0.999978204354 0.0
0.0 2.48630004883 0.999980286533 0.0
0.0 2.48730004883 0.999982169815 0.0
0.0 2.48830004883 0.999983873199 0.0
0.0 2.48930004883 0.999985413869 0.0
0.0 2.49030004883 0.999986807364 0.0
0.0 2.49130004883 0.999988067746 0.0
0.0 2.49230004883 0.999989207724 0.0
0.0 2.49330004883 0.999990238803 0.0
0.0 2.49430004883 0.999991171384 0.0
0.0 2.49530004883 0.999992014875 0.0
0.0 2.49630004883 0.999992777786 0.0
0.0 2.49730004883 0.999993467815 0.0
0.0 2.49830004883 0.999994091923 0.0
0.0 2.49930004883 0.999994656408 0.0
0.0 2.50030004883 0.999995166964 0.0
0.0 2.50130004883 0.999995628743 0.0
0.0 2.50230004883 0.999996046406 0.0
0.0 2.50330004883 0.999996424166 0.0
0.0 2.50430004883 0.999996765834 0.0
0.0 2.50530004883 0.999997074861 0.0
0.0 2.50630004883 0.999997354361 0.0
0.0 2.50730004883 0.999997607159 0.0
0.0 2.50830004883 0.999997835803 0.0
0.0 2.50930004883 0.999998042602 0.0
0.0 2.51030004883 0.999998229642 0.0
0.0 2.51130004883 0.999998398811 0.0
0.0 2.51230004883 0.999998551817 0.0
0.0 2.51330004883 0.999998690203 0.0
0.0 2.51430004883 0.999998815366 0.0
0.0 2.51530004883 0.999998928571 0.0
0.0 2.51630004883 0.999999030958 0.0
0.0 2.51730004883 0.999999123562 0.0
0.0 2.51830004883 0.999999207318 0.0
0.0 2.51930004883 0.99999928307 0.0
0.0 2.52030004883 0.999999351584 0.0
0.0 2.52130004883 0.999999413551 0.0
0.0 2.52230004883 0.999999469596 0.0
0.0 2.52330004883 0.999999520286 0.0
0.0 2.52430004883 0.999999566132 0.0
0.0 2.52530004883 0.999999607598 0.0
0.0 2.52630004883 0.9999996451 0.0
0.0 2.52730004883 0.999999679019 0.0
0.0 2.52830004883 0.999999709696 0.0
0.0 2.52930004883 0.999999737442 0.0
0.0 2.53030004883 0.999999762536 0.0
0.0 2.53130004883 0.999999785232 0.0
0.0 2.53230004883 0.999999805759 0.0
0.0 2.53330004883 0.999999824325 0.0
0.0 2.53430004883 0.999999841116 0.0
0.0 2.53530004883 0.999999856302 0.0
0.0 2.53630004883 0.999999870037 0.0
0.0 2.53730004883 0.999999882459 0.0
0.0 2.53830004883 0.999999893694 0.0
0.0 2.53930004883 0.999999903856 0.0
0.0 2.54030004883 0.999999913046 0.0
0.0 2.54130004883 0.999999921358 0.0
0.0 2.54230004883 0.999999928875 0.0
0.0 2.54330004883 0.999999935674 0.0
0.0 2.54430004883 0.999999941823 0.0
0.0 2.54530004883 0.999999947384 0.0
0.0 2.54630004883 0.999999952414 0.0
0.0 2.54730004883 0.999999956963 0.0
0.0 2.54830004883 0.999999961077 0.0
0.0 2.54930004883 0.999999964798 0.0
0.0 2.55030004883 0.999999968163 0.0
0.0 2.55130004883 0.999999971207 0.0
0.0 2.55230004883 0.999999973959 0.0
0.0 2.55330004883 0.999999976449 0.0
0.0 2.55430004883 0.9999999787 0.0
0.0 2.55530004883 0.999999980737 0.0
0.0 2.55630004883 0.999999982578 0.0
0.0 2.55730004883 0.999999984244 0.0
0.0 2.55830004883 0.99999998575 0.0
0.0 2.55930004883 0.999999987113 0.0
0.0 2.56030004883 0.999999988345 0.0
0.0 2.56130004883 0.999999989459 0.0
0.0 2.56230004883 0.999999990467 0.0
0.0 2.56330004883 0.999999991378 0.0
0.0 2.56430004883 0.999999992203 0.0
0.0 2.56530004883 0.999999992948 0.0
0.0 2.56630004883 0.999999993622 0.0
0.0 2.56730004883 0.999999994232 0.0
0.0 2.56830004883 0.999999994784 0.0
0.0 2.56930004883 0.999999995283 0.0
0.0 2.57030004883 0.999999995734 0.0
0.0 2.57130004883 0.999999996142 0.0
0.0 2.57230004883 0.999999996511 0.0
0.0 2.57330004883 0.999999996844 0.0
0.0 2.57430004883 0.999999997146 0.0
0.0 2.57530004883 0.999999997419 0.0
0.0 2.57630004883 0.999999997666 0.0
0.0 2.57730004883 0.999999997889 0.0
0.0 2.57830004883 0.999999998091 0.0
0.0 2.57930004883 0.999999998273 0.0
0.0 2.58030004883 0.999999998438 0.0
0.0 2.58130004883 0.999999998588 0.0
0.0 2.58230004883 0.999999998723 0.0
0.0 2.58330004883 0.999999998845 0.0
0.0 2.58430004883 0.999999998955 0.0
0.0 2.58530004883 0.999999999055 0.0
0.0 2.58630004883 0.999999999146 0.0
0.0 2.58730004883 0.999999999227 0.0
0.0 2.58830004883 0.999999999301 0.0
0.0 2.58930004883 0.999999999368 0.0
0.0 2.59030004883 0.999999999429 0.0
0.0 2.59130004883 0.999999999483 0.0
0.0 2.59230004883 0.999999999533 0.0
0.0 2.59330004883 0.999999999577 0.0
0.0 2.59430004883 0.999999999618 0.0
0.0 2.59530004883 0.999999999654 0.0
0.0 2.59630004883 0.999999999687 0.0
0.0 2.59730004883 0.999999999717 0.0
0.0 2.59830004883 0.999999999744 0.0
