#####################
## Instrument plot:
#####################

instrumentPath /Users/cheng109/work/phosim/phosim/data/lsst
opticsFile		optics_0.txt
focalplaneFile		focalplanelayout.txt
segmentationFile	segmentation.txt
controlFile		control.txt


#####################
## Event photons plot: 
#####################

eventFile   examples/lsst_r_99999999_f0_R22_S11_E000.fits
percentage  0.4

